uniprot_isoform	location_id	ENSEMBL ID	uniprot_start	uniprot_end	1orvC_start	1orvC_end	1orvB_start	1orvB_end	1orvA_start	1orvA_end	1orvD_start	1orvD_end	1orwA_start	1orwA_end	1orwC_start	1orwC_end	1orwB_start	1orwB_end	1orwD_start	1orwD_end	5llsC_start	5llsC_end	5llsA_start	5llsA_end	5llsB_start	5llsB_end	5llsD_start	5llsD_end	2ajcA_start	2ajcA_end	2ajcC_start	2ajcC_end	2ajcB_start	2ajcB_end	2ajcD_start	2ajcD_end	2ajbC_start	2ajbC_end	2ajbB_start	2ajbB_end	2ajbA_start	2ajbA_end	2ajbD_start	2ajbD_end	2ajdA_start	2ajdA_end	2ajdC_start	2ajdC_end	2ajdB_start	2ajdB_end	2ajdD_start	2ajdD_end	2aj8A_start	2aj8A_end	2aj8C_start	2aj8C_end	2aj8B_start	2aj8B_end	2aj8D_start	2aj8D_end	2bucA_start	2bucA_end	2bucC_start	2bucC_end	2bucB_start	2bucB_end	2bucD_start	2bucD_end	2buaA_start	2buaA_end	2buaC_start	2buaC_end	2buaB_start	2buaB_end	2buaD_start	2buaD_end
1	15_68743500_68661866_-1	ENSSSCE00000260236	1	2	-	-	-	-	-	-	-	-	-	-	-	-	-	-	-	-	1	2	1	2	1	2	1	2	-	-	-	-	-	-	-	-	-	-	-	-	-	-	-	-	-	-	-	-	-	-	-	-	-	-	-	-	-	-	-	-	-	-	-	-	-	-	-	-	-	-	-	-	-	-	-	-
1	15_68743500_68661866_-1	ENSSSCE00000136964	3	32	-	-	-	-	-	-	-	-	-	-	-	-	-	-	-	-	3	32	3	32	3	32	3	32	-	-	-	-	-	-	-	-	-	-	-	-	-	-	-	-	-	-	-	-	-	-	-	-	-	-	-	-	-	-	-	-	-	-	-	-	-	-	-	-	-	-	-	-	-	-	-	-
1	15_68743500_68661866_-1	ENSSSCE00000339943	32	65	-	65	-	65	-	65	-	65	-	65	-	65	-	65	-	65	32	65	32	65	32	65	32	65	-	65	-	65	-	65	-	65	-	65	-	65	-	65	-	65	-	65	-	65	-	65	-	65	-	65	-	65	-	65	-	65	-	65	-	65	-	65	-	65	-	65	-	65	-	65	-	65
1	15_68743500_68661866_-1	ENSSSCE00000385208	65	95	65	95	65	95	65	95	65	95	65	95	65	95	65	95	65	95	65	95	65	95	65	95	65	95	65	94	65	95	65	95	65	95	65	95	65	95	65	95	65	95	65	95	65	95	65	95	65	95	65	95	65	94	65	95	65	95	65	95	65	95	65	95	65	95	65	95	65	95	65	95	65	95
1	15_68743500_68661866_-1	ENSSSCE00000345926	96	122	96	122	96	122	96	122	96	122	96	122	96	122	96	122	96	122	96	122	96	122	96	122	96	122	96	121	96	122	96	122	96	122	96	122	96	122	96	122	96	122	96	122	96	122	96	122	96	122	96	122	95	122	96	122	96	122	96	122	96	122	96	122	96	122	96	122	96	122	96	122	96	122
1	15_68743500_68661866_-1	ENSSSCE00000256845	123	140	123	140	123	140	123	140	123	140	123	140	123	140	123	140	123	140	123	140	123	140	123	140	123	140	122	140	123	140	123	140	123	140	123	140	123	140	123	140	123	140	123	140	123	140	123	140	123	140	123	140	123	140	123	140	123	140	123	140	123	140	123	140	123	140	123	140	126	140	123	140	123	140
1	15_68743500_68661866_-1	ENSSSCE00000254742	140	164	140	164	140	164	140	164	140	164	140	164	140	164	140	164	140	164	140	164	140	164	140	164	140	164	140	164	140	164	140	164	140	164	140	164	140	164	140	164	140	164	140	164	140	164	140	164	140	164	140	164	140	164	140	164	140	164	140	164	140	164	140	164	140	164	140	164	140	164	140	164	140	164
1	15_68743500_68661866_-1	ENSSSCE00000357146	165	205	165	205	165	205	165	205	165	205	165	205	165	205	165	205	165	205	165	205	165	205	165	205	165	205	165	205	165	205	165	205	165	205	165	205	165	205	165	205	165	205	165	205	165	205	165	205	165	205	165	205	165	205	165	205	165	205	165	205	165	205	165	205	165	205	165	205	165	205	165	205	165	205
1	15_68743500_68661866_-1	ENSSSCE00000136971	205	258	205	258	205	258	205	258	205	258	205	258	205	258	205	258	205	258	205	258	205	258	205	258	205	258	205	258	205	258	205	258	205	258	205	258	205	258	205	258	205	258	205	258	205	258	205	258	205	258	205	258	205	258	205	258	205	258	205	258	205	258	205	258	205	258	205	258	205	258	205	258	205	258
1	15_68743500_68661866_-1	ENSSSCE00000136972	259	296	259	296	259	296	259	296	259	296	259	296	259	296	259	296	259	296	259	296	259	296	259	296	259	296	259	296	259	296	259	296	259	296	259	296	259	296	259	296	259	296	259	296	259	296	259	296	259	296	259	296	259	296	259	296	259	296	259	296	259	296	259	296	259	296	259	296	259	296	259	296	259	296
1	15_68743500_68661866_-1	ENSSSCE00000136973	296	341	296	341	296	341	296	341	296	341	296	341	296	341	296	341	296	341	296	341	296	341	296	341	296	341	296	341	296	341	296	341	296	341	296	341	296	341	296	341	296	341	296	341	296	341	296	341	296	341	296	341	296	341	296	341	296	341	296	341	296	341	296	341	296	341	296	341	296	341	296	341	296	341
1	15_68743500_68661866_-1	ENSSSCE00000136974	342	356	342	356	342	356	342	356	342	356	342	356	342	355	342	356	342	356	342	356	342	356	342	356	342	356	342	356	342	356	342	356	342	356	342	356	342	356	342	356	342	356	342	356	342	356	342	356	342	356	342	356	342	356	342	356	342	356	342	356	342	356	342	356	342	356	342	356	342	356	342	356	342	356
1	15_68743500_68661866_-1	ENSSSCE00000136975	357	392	357	392	357	392	357	392	357	392	357	392	357	392	357	392	357	392	357	392	357	392	357	392	357	392	357	392	357	392	357	392	357	392	357	392	357	392	357	392	357	392	357	392	357	392	357	392	357	392	357	392	357	392	357	392	357	392	357	392	357	392	357	392	357	392	357	392	357	392	357	392	357	392
1	15_68743500_68661866_-1	ENSSSCE00000136976	393	415	393	415	393	415	393	415	393	415	393	415	393	415	393	415	393	415	393	415	393	415	393	415	393	415	393	415	393	415	393	415	393	415	393	415	393	415	393	414	393	415	393	415	393	415	393	415	393	415	393	415	393	415	393	415	393	415	393	415	393	415	393	415	393	415	393	415	393	415	393	415	393	415
1	15_68743500_68661866_-1	ENSSSCE00000136977	415	433	415	433	415	432	415	433	415	433	415	433	415	433	415	433	415	433	415	433	415	433	415	433	415	433	415	433	415	433	415	433	415	433	415	433	415	433	414	433	415	433	415	433	415	433	415	433	415	433	415	433	415	433	415	433	415	433	415	433	415	433	415	433	415	433	415	433	415	433	415	433	415	433
1	15_68743500_68661866_-1	ENSSSCE00000136978	433	474	433	477	432	474	433	474	433	474	433	474	433	474	433	474	433	474	433	474	433	474	433	474	433	474	433	474	433	474	433	474	433	474	433	474	433	474	433	474	433	474	433	474	433	474	433	474	433	474	433	474	433	474	433	474	433	474	433	474	433	474	433	474	433	474	433	474	433	474	433	474	433	474
1	15_68743500_68661866_-1	ENSSSCE00000136979	474	490	477	490	474	490	474	490	474	490	474	490	474	490	474	490	474	490	474	490	474	490	474	490	474	490	474	490	474	490	474	490	474	490	474	490	474	490	474	490	474	490	474	490	474	490	474	490	474	490	474	490	474	490	474	490	474	490	474	490	474	490	474	490	474	490	474	490	474	490	474	490	474	490
1	15_68743500_68661866_-1	ENSSSCE00000136980	490	523	490	523	490	523	490	523	490	523	490	523	490	523	490	523	490	523	490	523	490	523	490	523	490	523	490	523	490	523	490	523	490	523	490	523	490	523	490	523	490	523	490	523	490	523	490	523	490	523	490	523	490	523	490	523	490	523	490	523	490	523	490	523	490	523	490	523	490	523	490	523	490	523
1	15_68743500_68661866_-1	ENSSSCE00000136981	523	546	523	546	523	546	523	546	523	546	523	546	523	546	523	546	523	546	523	546	523	546	523	546	523	546	523	546	523	546	523	546	523	546	523	546	523	546	523	546	523	546	523	546	523	546	523	546	523	546	523	546	523	546	523	546	523	546	523	546	523	546	523	546	523	546	523	546	523	546	523	546	523	546
1	15_68743500_68661866_-1	ENSSSCE00000136982	546	611	546	611	546	611	546	611	546	611	546	611	546	611	546	611	546	611	546	611	546	611	546	611	546	611	546	611	546	611	546	611	546	611	546	611	546	611	546	611	546	611	546	611	546	611	546	611	546	611	546	611	546	611	546	611	546	611	546	611	546	611	546	611	546	611	546	611	546	611	546	611	546	611
1	15_68743500_68661866_-1	ENSSSCE00000136983	611	629	611	629	611	629	611	629	611	629	611	629	611	629	611	629	611	629	611	629	611	629	611	629	611	629	611	629	611	629	611	629	611	629	611	629	611	629	611	629	611	629	611	629	611	629	611	629	611	629	611	629	611	629	611	629	611	629	611	629	611	629	611	629	611	629	611	629	611	629	611	629	611	629
1	15_68743500_68661866_-1	ENSSSCE00000136984	630	663	630	663	630	663	630	663	630	663	630	663	630	663	630	663	630	663	630	663	630	663	630	663	630	663	630	663	630	663	630	663	630	663	630	663	630	663	630	663	630	663	630	663	630	663	630	663	630	663	630	663	630	663	630	663	630	663	630	663	630	663	630	663	630	663	630	663	630	663	630	663	630	663
1	15_68743500_68661866_-1	ENSSSCE00000136985	663	684	663	684	663	684	663	684	663	684	663	684	663	684	663	684	663	684	663	684	663	684	663	684	663	684	663	684	663	684	663	684	663	684	663	684	663	684	663	684	663	684	663	683	663	684	663	684	663	684	663	684	663	684	663	684	663	684	663	684	663	684	663	684	663	684	663	684	663	684	663	684	663	684
1	15_68743500_68661866_-1	ENSSSCE00000208026	685	709	685	709	685	709	685	709	685	709	685	709	685	709	685	709	685	709	685	709	685	709	685	709	685	709	685	709	685	709	685	709	685	709	685	709	685	709	685	709	685	709	685	709	685	709	685	709	685	709	685	709	685	709	685	709	685	709	685	709	685	709	685	709	685	709	685	709	685	709	685	709	685	709
1	15_68743500_68661866_-1	ENSSSCE00000162687	709	733	709	733	709	733	709	733	709	733	709	733	709	733	709	733	709	733	709	733	709	733	709	733	709	733	709	733	709	733	709	733	709	733	709	733	709	733	709	733	709	733	709	733	709	733	709	733	709	733	709	733	709	733	709	733	709	733	709	733	709	733	709	733	709	733	709	733	709	733	709	733	709	733
1	15_68743500_68661866_-1	ENSSSCE00000229093	734	766	734	766	734	766	734	766	734	766	734	766	734	766	734	766	734	766	734	766	734	766	734	766	734	766	737	766	734	766	734	766	734	766	734	766	734	766	734	766	734	766	734	766	734	766	734	766	734	766	734	766	734	766	734	766	734	766	734	766	734	766	734	766	734	766	734	766	734	766	734	766	734	766
