uniprot_isoform	location_id	ENSEMBL ID	uniprot_start	uniprot_end	2ilrA_start	2ilrA_end
1	6_35452546_35466342_1	ENSE00000849631	1	83	-	-
1	6_35452546_35466342_1	ENSE00000849632	83	285	-	285
1	6_35452546_35466342_1	ENSE00000849633	286	300	286	300
1	6_35452546_35466342_1	ENSE00000747051	301	323	301	323
1	6_35452546_35466342_1	ENSE00000849634	324	371	324	371
1	6_35452546_35466342_1	ENSE00000849635	372	413	372	413
1	6_35452546_35466342_1	ENSE00000849636	413	439	413	439
1	6_35452546_35466342_1	ENSE00000849637	439	461	439	461
1	6_35452546_35466342_1	ENSE00000849638	462	503	462	503
1	6_35452546_35466342_1	ENSE00001032057	504	536	504	536
