Q12308	2j04A	2j04C
1,MET	1,MET	1,MET
2,LYS	2,LYS	2,LYS
3,LEU	3,LEU	3,LEU
4,LEU	4,LEU	4,LEU
5,LYS	5,LYS	5,LYS
6,ASP	6,ASP	6,ASP
7,LEU	7,LEU	7,LEU
8,LEU	8,LEU	8,LEU
9,VAL	9,VAL	9,VAL
10,ASP	10,ASP	10,ASP
11,ARG	11,ARG	11,ARG
12,LYS	12,LYS	12,LYS
13,GLU	13,GLU	13,GLU
14,PHE	14,PHE	14,PHE
15,GLU	15,GLU	15,GLU
16,ASP	16,ASP	16,ASP
17,TRP	17,TRP	17,TRP
18,LYS	18,LYS	18,LYS
19,ASN	19,ASN	19,ASN
20,ASN	20,ASN	20,ASN
21,LEU	21,LEU	21,LEU
22,THR	22,THR	22,THR
23,TRP	23,TRP	23,TRP
24,ALA	24,ALA	24,ALA
25,ARG	25,ARG	25,ARG
26,ASP	26,ASP	26,ASP
27,GLY	27,GLY	27,GLY
28,THR	28,THR	28,THR
29,LEU	29,LEU	29,LEU
30,TYR	30,TYR	30,TYR
31,LEU	31,LEU	31,LEU
32,THR	32,THR	32,THR
33,THR	33,THR	33,THR
34,PHE	34,PHE	34,PHE
35,PRO	35,PRO	35,PRO
36,ASP	36,ASP	36,ASP
37,ILE	37,ILE	37,ILE
38,SER	38,SER	38,SER
39,ILE	39,ILE	39,ILE
40,GLY	40,GLY	40,GLY
41,GLN	41,GLN	41,GLN
42,PRO	42,PRO	42,PRO
43,LYS	43,LYS	43,LYS
44,TYR	44,TYR	44,TYR
45,ALA	45,ALA	45,ALA
46,LYS	46,LYS	46,LYS
47,ASP	47,ASP	47,ASP
48,ILE	48,ILE	48,ILE
49,ASN	49,ASN	49,ASN
50,CYS	50,CYS	50,CYS
51,ASN	51,ASN	51,ASN
52,SER	52,SER	52,SER
53,LYS	53,LYS	53,LYS
54,ASN	54,ASN	54,ASN
55,LEU	55,LEU	55,LEU
56,PHE	56,PHE	56,PHE
57,HIS	57,HIS	57,HIS
58,VAL	58,VAL	58,VAL
59,LYS	59,LYS	59,LYS
60,GLU	60,GLU	60,GLU
61,PHE	61,PHE	61,PHE
62,PRO	62,PRO	62,PRO
63,LEU	63,LEU	63,LEU
64,GLU	64,GLU	64,GLU
65,PHE	65,PHE	65,PHE
66,GLU	66,GLU	66,GLU
67,ASN	67,ASN	67,ASN
68,LYS	68,LYS	68,LYS
69,LEU	69,LEU	69,LEU
70,ASP	70,ASP	70,ASP
71,PHE	71,PHE	71,PHE
72,GLU	72,GLU	72,GLU
73,LEU	73,LEU	73,LEU
74,ALA	74,ALA	74,ALA
75,GLN	75,GLN	75,GLN
76,GLN	76,GLN	76,GLN
77,ASN	77,ASN	77,ASN
78,GLY	78,GLY	78,GLY
79,LEU	79,LEU	79,LEU
80,LEU	80,LEU	80,LEU
81,ASN	81,ASN	81,ASN
82,SER	82,SER	82,SER
83,GLN	83,GLN	83,GLN
84,PRO	84,PRO	84,PRO
85,VAL	85,VAL	85,VAL
86,CYS	86,CYS	86,CYS
87,TYR	87,TYR	87,TYR
88,PRO	88,PRO	88,PRO
89,ARG	89,ARG	89,ARG
90,VAL	90,VAL	90,VAL
91,CYS	91,CYS	91,CYS
92,LYS	92,LYS	92,LYS
93,PRO	93,PRO	93,PRO
94,SER	94,SER	94,SER
95,PRO	95,PRO	95,PRO
96,ILE	96,ILE	96,ILE
97,ASP	97,ASP	97,ASP
98,ASP	98,ASP	98,ASP
99,TRP	99,TRP	99,TRP
100,MET	100,MET	100,MET
101,ALA	101,ALA	101,ALA
102,VAL	102,VAL	102,VAL
103,LEU	103,LEU	103,LEU
104,SER	104,SER	104,SER
105,ASN	105,ASN	105,ASN
106,ASN	106,ASN	106,ASN
107,GLY	107,GLY	107,GLY
108,ASN	108,ASN	108,ASN
109,VAL	109,VAL	109,VAL
110,SER	110,SER	110,SER
111,VAL	111,VAL	111,VAL
112,PHE	112,PHE	112,PHE
113,LYS	113,LYS	113,LYS
114,ASP	114,ASP	114,ASP
115,ASN	115,ASN	115,ASN
116,LYS	116,LYS	116,LYS
117,MET	117,MET	117,MET
118,LEU	118,LEU	118,LEU
119,THR	119,THR	119,THR
120,ASN	120,ASN	120,ASN
121,LEU	121,LEU	121,LEU
122,ASP	122,ASP	122,ASP
123,SER	123,SER	123,SER
124,LYS	124,LYS	124,LYS
125,GLY	125,GLY	125,GLY
126,ASN	126,ASN	126,ASN
127,LEU	127,LEU	127,LEU
128,SER	128,SER	128,SER
129,SER	129,SER	129,SER
130,ARG	130,ARG	130,ARG
131,THR	131,THR	131,THR
132,TYR	132,TYR	132,TYR
133,HIS	133,HIS	133,HIS
134,CYS	134,CYS	134,CYS
135,PHE	135,PHE	135,PHE
136,GLU	136,GLU	136,GLU
137,TRP	137,TRP	137,TRP
138,ASN	138,ASN	138,ASN
139,PRO	139,PRO	139,PRO
140,ILE	140,ILE	140,ILE
141,GLU	141,GLU	141,GLU
142,SER	142,SER	142,SER
143,SER	143,SER	143,SER
144,ILE	144,ILE	144,ILE
145,VAL	145,VAL	145,VAL
146,VAL	146,VAL	146,VAL
147,GLY	147,GLY	147,GLY
148,ASN	148,ASN	148,ASN
149,GLU	149,GLU	149,GLU
150,ASP	150,ASP	150,ASP
151,GLY	151,GLY	151,GLY
152,GLU	152,GLU	152,GLU
153,LEU	153,LEU	153,LEU
154,GLN	154,GLN	154,GLN
155,PHE	155,PHE	155,PHE
156,PHE	156,PHE	156,PHE
157,SER	157,SER	157,SER
158,ILE	158,ILE	158,ILE
159,ARG	159,ARG	159,ARG
160,LYS	160,LYS	160,LYS
161,ASN	161,ASN	161,ASN
162,SER	162,SER	162,SER
163,GLU	163,GLU	163,GLU
164,ASN	164,ASN	164,ASN
165,THR	165,THR	165,THR
166,PRO	166,PRO	166,PRO
167,GLU	167,GLU	167,GLU
168,PHE	168,PHE	168,PHE
169,TYR	169,TYR	169,TYR
170,PHE	170,PHE	170,PHE
171,GLU	171,GLU	171,GLU
172,SER	172,SER	172,SER
173,SER	173,SER	173,SER
174,ILE	174,ILE	174,ILE
175,ARG	175,ARG	175,ARG
176,LEU	176,LEU	176,LEU
177,SER	177,SER	177,SER
178,ASP	178,ASP	178,ASP
179,ALA	179,ALA	179,ALA
180,GLY	180,GLY	180,GLY
181,SER	181,SER	181,SER
182,LYS	182,LYS	182,LYS
183,ASP	183,ASP	183,ASP
184,TRP	184,TRP	184,TRP
185,VAL	185,VAL	185,VAL
186,THR	186,THR	186,THR
187,HIS	187,HIS	187,HIS
188,ILE	188,ILE	188,ILE
189,VAL	189,VAL	189,VAL
190,TRP	190,TRP	190,TRP
191,TYR	191,TYR	191,TYR
192,GLU	192,GLU	192,GLU
193,ASP	193,ASP	193,ASP
194,VAL	194,VAL	194,VAL
195,LEU	195,LEU	195,LEU
196,VAL	196,VAL	196,VAL
197,ALA	197,ALA	197,ALA
198,ALA	198,ALA	198,ALA
199,LEU	199,LEU	199,LEU
200,SER	200,SER	200,SER
201,ASN	201,ASN	201,ASN
202,ASN	202,ASN	202,ASN
203,SER	203,SER	203,SER
204,VAL	204,VAL	204,VAL
205,PHE	205,PHE	205,PHE
206,SER	206,SER	206,SER
207,MET	207,MET	207,MET
208,THR	208,THR	208,THR
209,VAL	209,VAL	209,VAL
210,SER	210,SER	210,SER
211,ALA	211,ALA	211,ALA
212,SER	212,SER	212,SER
213,SER	213,SER	213,SER
214,HIS	214,HIS	214,HIS
215,GLN	215,GLN	215,GLN
216,PRO	216,PRO	216,PRO
217,VAL	217,VAL	217,VAL
218,SER	218,SER	218,SER
219,ARG	219,ARG	219,ARG
220,MET	220,MET	220,MET
221,ILE	221,ILE	221,ILE
222,GLN	222,GLN	222,GLN
223,ASN	223,ASN	223,ASN
224,ALA	224,ALA	224,ALA
225,SER	225,SER	225,SER
226,ARG	226,ARG	226,ARG
227,ARG	227,ARG	227,ARG
228,LYS	228,LYS	228,LYS
229,ILE	229,ILE	229,ILE
230,THR	230,THR	230,THR
231,ASP	231,ASP	231,ASP
232,LEU	232,LEU	232,LEU
233,LYS	233,LYS	233,LYS
234,ILE	234,ILE	234,ILE
235,VAL	235,VAL	235,VAL
236,ASP	236,ASP	236,ASP
237,TYR	237,TYR	237,TYR
238,LYS	238,LYS	238,LYS
239,VAL	239,VAL	239,VAL
240,VAL	240,VAL	240,VAL
241,LEU	241,LEU	241,LEU
242,THR	242,THR	242,THR
243,CYS	243,CYS	243,CYS
244,PRO	244,PRO	244,PRO
245,GLY	245,GLY	245,GLY
246,TYR	246,TYR	246,TYR
247,VAL	247,VAL	247,VAL
248,HIS	248,HIS	248,HIS
249,LYS	249,LYS	249,LYS
250,ILE	250,ILE	250,ILE
251,ASP	251,ASP	251,ASP
252,LEU	252,LEU	252,LEU
253,LYS	253,LYS	253,LYS
254,ASN	254,ASN	254,ASN
255,TYR	255,TYR	255,TYR
256,SER	256,SER	256,SER
257,ILE	257,ILE	257,ILE
258,SER	258,SER	258,SER
259,SER	259,SER	259,SER
260,LEU	260,LEU	260,LEU
261,LYS	261,LYS	261,LYS
262,THR	262,THR	262,THR
263,GLY	263,GLY	263,GLY
264,SER	264,SER	264,SER
265,LEU	265,LEU	265,LEU
266,GLU	266,GLU	266,GLU
267,ASN	267,ASN	267,ASN
268,PHE	268,PHE	268,PHE
269,HIS	269,HIS	269,HIS
270,ILE	270,ILE	270,ILE
271,ILE	271,ILE	271,ILE
272,PRO	272,PRO	272,PRO
273,LEU	273,LEU	273,LEU
274,ASN	274,ASN	274,ASN
275,HIS	275,HIS	275,HIS
276,GLU	276,GLU	276,GLU
277,LYS	277,LYS	277,LYS
278,GLU	278,GLU	278,GLU
279,SER	279,SER	279,SER
280,THR	280,THR	280,THR
281,ILE	281,ILE	281,ILE
282,LEU	282,LEU	282,LEU
283,LEU	283,LEU	283,LEU
284,MET	284,MET	284,MET
285,SER	285,SER	285,SER
286,ASN	286,ASN	286,ASN
287,LYS	287,LYS	287,LYS
288,THR	288,THR	288,THR
289,SER	289,SER	289,SER
290,TYR	290,TYR	290,TYR
291,LYS	291,LYS	291,LYS
292,VAL	292,VAL	292,VAL
293,LEU	293,LEU	293,LEU
294,LEU	294,LEU	294,LEU
295,GLU	295,GLU	295,GLU
296,ASP	296,ASP	296,ASP
297,GLU	297,GLU	297,GLU
298,LEU	298,LEU	298,LEU
299,HIS	299,HIS	299,HIS
300,VAL	300,VAL	300,VAL
301,THR	301,THR	301,THR
302,ALA	302,ALA	302,ALA
303,ASP	303,ASP	303,ASP
304,ASN	304,ASN	304,ASN
305,ILE	305,ILE	305,ILE
306,ILE	306,ILE	306,ILE
307,ALA	307,ALA	307,ALA
308,PRO	308,PRO	308,PRO
309,TYR	309,TYR	309,TYR
310,LEU	310,LEU	310,LEU
311,GLU	311,GLU	311,GLU
312,LYS	312,LYS	312,LYS
313,LYS	313,LYS	313,LYS
314,PHE	314,PHE	314,PHE
315,LYS	315,LYS	315,LYS
316,LYS	316,LYS	316,LYS
317,TRP	317,TRP	317,TRP
318,SER	318,SER	318,SER
319,THR	319,THR	319,THR
320,ILE	320,ILE	320,ILE
321,TRP	321,TRP	321,TRP
322,ASN	322,ASN	322,ASN
323,GLU	323,GLU	323,GLU
324,PHE	324,PHE	324,PHE
325,ASN	325,ASN	325,ASN
326,ASN	326,ASN	326,ASN
327,TYR	327,TYR	327,TYR
328,GLU	328,GLU	328,GLU
329,THR	329,THR	329,THR
330,THR	330,THR	330,THR
331,LEU	331,LEU	331,LEU
332,VAL	332,VAL	332,VAL
333,ILE	333,ILE	333,ILE
334,HIS	334,HIS	334,HIS
335,GLY	335,GLY	335,GLY
336,ILE	336,ILE	336,ILE
337,SER	337,SER	337,SER
338,LEU	338,LEU	338,LEU
339,SER	339,SER	339,SER
340,PRO	340,PRO	340,PRO
341,ASP	341,ASP	341,ASP
342,GLY	342,GLY	342,GLY
343,TYR	343,TYR	343,TYR
344,SER	344,SER	344,SER
345,ILE	345,ILE	345,ILE
346,ALA	346,ALA	346,ALA
347,ILE	347,ILE	347,ILE
348,VAL	348,VAL	348,VAL
349,TYR	349,TYR	349,TYR
350,ASP	350,ASP	350,ASP
351,MET	351,MET	351,MET
352,GLU	352,GLU	352,GLU
353,ARG	353,ARG	353,ARG
354,VAL	354,VAL	354,VAL
355,ALA	355,ALA	355,ALA
356,PHE	356,PHE	356,PHE
357,LYS	357,LYS	357,LYS
358,TYR	358,TYR	358,TYR
359,LYS	359,LYS	359,LYS
360,ILE	360,ILE	360,ILE
361,ALA	361,ALA	361,ALA
362,SER	362,SER	362,SER
363,GLU	363,GLU	363,GLU
364,GLN	364,GLN	364,GLN
365,SER	365,SER	365,SER
366,PHE	366,PHE	366,PHE
367,ASN	367,ASN	367,ASN
368,ILE	368,ILE	368,ILE
369,MET	369,MET	369,MET
370,PHE	370,PHE	370,PHE
371,ALA	371,ALA	371,ALA
372,PRO	372,PRO	372,PRO
373,LEU	373,LEU	373,LEU
374,TYR	374,TYR	374,TYR
375,HIS	375,HIS	375,HIS
376,THR	376,THR	376,THR
377,TRP	377,TRP	377,TRP
378,THR	378,THR	378,THR
379,ILE	379,ILE	379,ILE
380,SER	380,SER	380,SER
381,GLU	381,GLU	381,GLU
382,ARG	382,ARG	382,ARG
383,ALA	383,ALA	383,ALA
384,VAL	384,VAL	384,VAL
385,GLY	385,GLY	385,GLY
386,LEU	386,LEU	386,LEU
387,ALA	387,ALA	387,ALA
388,TRP	388,TRP	388,TRP
389,TYR	389,TYR	389,TYR
390,GLN	390,GLN	390,GLN
391,THR	391,THR	391,THR
392,TYR	392,TYR	392,TYR
393,GLN	393,GLN	393,GLN
394,ILE	394,ILE	394,ILE
395,TYR	395,TYR	395,TYR
396,ASN	396,ASN	396,ASN
397,GLN	397,GLN	397,GLN
398,SER	398,SER	398,SER
399,LEU	399,LEU	399,LEU
400,PRO	400,PRO	400,PRO
401,LYS	401,LYS	401,LYS
402,LEU	402,LEU	402,LEU
403,PRO	403,PRO	403,PRO
404,GLU	404,GLU	404,GLU
405,ASN	405,ASN	408,MET
406,PHE	406,PHE	405,ASN
407,SER	407,SER	406,PHE
408,MET	408,MET	407,SER
409,ASN	409,ASN	409,ASN
410,LYS	410,LYS	410,LYS
411,LYS	411,LYS	411,LYS
412,LEU	412,LEU	412,LEU
413,LEU	413,LEU	413,LEU
414,ASN	414,ASN	414,ASN
415,GLY	415,GLY	415,GLY
416,ASN	416,ASN	416,ASN
417,TYR	417,TYR	417,TYR
418,PRO	418,PRO	418,PRO
419,ILE	419,ILE	419,ILE
420,SER	420,SER	420,SER
421,LEU	421,LEU	421,LEU
422,ASP	422,ASP	422,ASP
423,PHE	423,PHE	423,PHE
424,GLN	424,GLN	424,GLN
425,SER	425,SER	425,SER
426,TYR	426,TYR	426,TYR
427,LEU	427,LEU	427,LEU
428,ASN	428,ASN	428,ASN
429,ALA	429,ALA	429,ALA
430,LEU	430,LEU	430,LEU
431,MET	431,MET	431,MET
432,LYS	432,LYS	432,LYS
433,SER	433,SER	433,SER
434,GLU	434,GLU	434,GLU
435,GLU	435,GLU	435,GLU
436,MET	436,MET	436,MET
437,ARG	437,ARG	437,ARG
438,ILE	438,ILE	438,ILE
439,ILE	439,ILE	439,ILE
440,MET	440,MET	440,MET
441,PHE	441,PHE	441,PHE
442,LEU	442,LEU	442,LEU
443,ASN	443,ASN	443,ASN
444,MET	444,MET	444,MET
445,THR	445,THR	445,THR
446,ILE	446,ILE	446,ILE
447,ASP	447,ASP	447,ASP
448,LYS	448,LYS	448,LYS
449,PRO	449,PRO	449,PRO
450,SER	450,SER	450,SER
451,ILE	451,ILE	451,ILE
452,LEU	452,LEU	452,LEU
453,SER	453,SER	453,SER
454,PHE	454,PHE	454,PHE
455,LEU	455,LEU	455,LEU
456,GLU	456,GLU	456,GLU
457,ALA	457,ALA	457,ALA
458,LEU	458,LEU	458,LEU
459,TYR	459,TYR	459,TYR
460,GLU	460,GLU	460,GLU
461,TYR	461,TYR	461,TYR
462,ALA	462,ALA	462,ALA
463,ILE	463,ILE	463,ILE
464,ASN	464,ASN	464,ASN
465,LYS	465,LYS	465,LYS
466,LYS	466,LYS	466,LYS
467,SER	467,SER	467,SER
468,GLU	468,GLU	468,GLU
469,LEU	469,LEU	469,LEU
470,THR	470,THR	470,THR
471,ASN	471,ASN	471,ASN
472,SER	472,SER	472,SER
473,PHE	473,PHE	473,PHE
474,ASP	474,ASP	474,ASP
475,LEU	475,LEU	475,LEU
476,ALA	476,ALA	476,ALA
477,CYS	477,CYS	477,CYS
478,VAL	478,VAL	478,VAL
479,LEU	479,LEU	479,LEU
480,SER	480,SER	480,SER
481,ILE	481,ILE	481,ILE
482,ALA	482,ALA	482,ALA
483,ALA	483,ALA	483,ALA
484,ILE	484,ILE	484,ILE
485,LEU	485,LEU	485,LEU
486,LYS	486,LYS	486,LYS
487,ARG	487,ARG	487,ARG
488,GLU	488,GLU	488,GLU
489,ALA	489,ALA	489,ALA
490,PRO	490,PRO	490,PRO
491,ILE	491,ILE	491,ILE
492,TYR	492,TYR	492,TYR
493,ASN	493,ASN	493,ASN
494,GLY	494,GLY	494,GLY
495,THR	495,THR	495,THR
496,LEU	496,LEU	496,LEU
497,LEU	500,ASN	497,LEU
498,MET	497,LEU	498,MET
499,LYS	498,MET	499,LYS
500,ASN	499,LYS	500,ASN
501,SER	501,SER	501,SER
502,PHE	505,GLU	502,PHE
503,LEU	502,PHE	503,LEU
504,GLU	503,LEU	504,GLU
505,GLU	504,GLU	505,GLU
506,THR	506,THR	506,THR
507,PHE	510,GLU	507,PHE
508,ASN	507,PHE	508,ASN
509,LEU	508,ASN	509,LEU
510,GLU	509,LEU	510,GLU
511,SER	511,SER	511,SER
512,PHE	512,PHE	512,PHE
513,THR	513,THR	513,THR
514,ALA	514,ALA	514,ALA
515,ASP	515,ASP	515,ASP
516,PRO	516,PRO	516,PRO
517,GLU	517,GLU	517,GLU
518,THR	518,THR	518,THR
519,VAL	519,VAL	519,VAL
520,THR	520,THR	520,THR
521,SER	521,SER	521,SER
522,THR	522,THR	522,THR
523,THR	523,THR	523,THR
524,ASN	524,ASN	524,ASN
525,ASN	525,ASN	525,ASN
526,THR	526,THR	526,THR
527,TRP	527,TRP	527,TRP
528,LYS	528,LYS	528,LYS
529,ARG	529,ARG	529,ARG
530,CYS	530,CYS	530,CYS
531,GLY	531,GLY	531,GLY
532,VAL	532,VAL	532,VAL
533,THR	533,THR	533,THR
534,LEU	534,LEU	534,LEU
535,LEU	535,LEU	535,LEU
536,PRO	536,PRO	536,PRO
537,ILE	537,ILE	537,ILE
538,LEU	538,LEU	538,LEU
539,THR	539,THR	539,THR
540,THR	540,THR	540,THR
541,HIS	541,HIS	541,HIS
542,VAL	542,VAL	542,VAL
543,LYS	543,LYS	543,LYS
544,ILE	544,ILE	544,ILE
545,CYS	545,CYS	545,CYS
546,PRO	546,PRO	546,PRO
547,VAL	547,VAL	547,VAL
548,SER	548,SER	548,SER
549,LYS	549,LYS	549,LYS
550,GLN	550,GLN	550,GLN
551,ARG	551,ARG	551,ARG
552,VAL	552,VAL	552,VAL
553,ILE	553,ILE	553,ILE
554,ASP	554,ASP	554,ASP
555,ILE	555,ILE	555,ILE
556,LYS	556,LYS	556,LYS
557,ARG	557,ARG	557,ARG
558,ASP	558,ASP	558,ASP
559,ASP	559,ASP	559,ASP
560,LEU	560,LEU	560,LEU
561,ASN	561,ASN	561,ASN
562,ASP	562,ASP	562,ASP
563,TYR	563,TYR	563,TYR
564,GLY	564,GLY	564,GLY
565,TRP	565,TRP	565,TRP
566,PHE	566,PHE	566,PHE
567,THR	567,THR	567,THR
568,ARG	568,ARG	568,ARG
569,GLY	569,GLY	569,GLY
570,LEU	570,LEU	570,LEU
571,LEU	571,LEU	571,LEU
572,GLU	572,GLU	572,GLU
573,ARG	573,ARG	573,ARG
574,PHE	574,PHE	574,PHE
575,ASN	575,ASN	575,ASN
576,GLU	576,GLU	576,GLU
577,ILE	577,ILE	577,ILE
578,SER	578,SER	578,SER
579,VAL	579,VAL	579,VAL
580,TYR	580,TYR	580,TYR
581,CYS	581,CYS	581,CYS
582,GLY	582,GLY	582,GLY
583,THR	583,THR	583,THR
584,THR	584,THR	584,THR
585,LEU	585,LEU	585,LEU
586,GLU	586,GLU	586,GLU
587,VAL	587,VAL	587,VAL
588,MET	588,MET	588,MET
