uniprot_isoform	location_id	ENSEMBL ID	uniprot_start	uniprot_end	3bh7B_start	3bh7B_end	3bh6B_start	3bh6B_end	2bx6A_start	2bx6A_end
1	X_46837101_46879766_1	ENSE00000870084	1	34	1	34	1	34	1	34
1	X_46837101_46879766_1	ENSE00000669241	35	256	35	256	35	256	35	256
1	X_46837101_46879766_1	ENSE00000870085	257	295	257	295	257	295	257	295
1	X_46837101_46879766_1	ENSE00001093035	295	323	295	323	295	323	295	323
1	X_46837101_46879766_1	ENSE00001093037	324	350	324	350	324	350	324	350
