Q9Y4B6	6n45B	6n45A	4cc9A	4pxwB	4pxwA	5jk7C	5jk7E	4p7iC	4p7iD	5ajaA	4z8lD	4z8lA	3wa0G	3wa0H
1,MET	-	-	-	-	-	-	-	-	-	-	-	-	-	-
2,THR	-	-	-	-	-	-	-	-	-	-	-	-	-	-
3,THR	-	-	-	-	-	-	-	-	-	-	-	-	-	-
4,VAL	-	-	-	-	-	-	-	-	-	-	-	-	-	-
5,VAL	-	-	-	-	-	-	-	-	-	-	-	-	-	-
6,VAL	-	-	-	-	-	-	-	-	-	-	-	-	-	-
7,HIS	-	-	-	-	-	-	-	-	-	-	-	-	-	-
8,VAL	-	-	-	-	-	-	-	-	-	-	-	-	-	-
9,ASP	-	-	-	-	-	-	-	-	-	-	-	-	-	-
10,SER	-	-	-	-	-	-	-	-	-	-	-	-	-	-
11,LYS	-	-	-	-	-	-	-	-	-	-	-	-	-	-
12,ALA	-	-	-	-	-	-	-	-	-	-	-	-	-	-
13,GLU	-	-	-	-	-	-	-	-	-	-	-	-	-	-
14,LEU	-	-	-	-	-	-	-	-	-	-	-	-	-	-
15,THR	-	-	-	-	-	-	-	-	-	-	-	-	-	-
16,THR	-	-	-	-	-	-	-	-	-	-	-	-	-	-
17,LEU	-	-	-	-	-	-	-	-	-	-	-	-	-	-
18,LEU	-	-	-	-	-	-	-	-	-	-	-	-	-	-
19,GLU	-	-	-	-	-	-	-	-	-	-	-	-	-	-
20,GLN	-	-	-	-	-	-	-	-	-	-	-	-	-	-
21,TRP	-	-	-	-	-	-	-	-	-	-	-	-	-	-
22,GLU	-	-	-	-	-	-	-	-	-	-	-	-	-	-
23,LYS	-	-	-	-	-	-	-	-	-	-	-	-	-	-
24,GLU	-	-	-	-	-	-	-	-	-	-	-	-	-	-
25,HIS	-	-	-	-	-	-	-	-	-	-	-	-	-	-
26,GLY	-	-	-	-	-	-	-	-	-	-	-	-	-	-
27,SER	-	-	-	-	-	-	-	-	-	-	-	-	-	-
28,GLY	-	-	-	-	-	-	-	-	-	-	-	-	-	-
29,GLN	-	-	-	-	-	-	-	-	-	-	-	-	-	-
30,ASP	-	-	-	-	-	-	-	-	-	-	-	-	-	-
31,MET	-	-	-	-	-	-	-	-	-	-	-	-	-	-
32,VAL	-	-	-	-	-	-	-	-	-	-	-	-	-	-
33,PRO	-	-	-	-	-	-	-	-	-	-	-	-	-	-
34,ILE	-	-	-	-	-	-	-	-	-	-	-	-	-	-
35,LEU	-	-	-	-	-	-	-	-	-	-	-	-	-	-
36,THR	-	-	-	-	-	-	-	-	-	-	-	-	-	-
37,ARG	-	-	-	-	-	-	-	-	-	-	-	-	-	-
38,MET	-	-	-	-	-	-	-	-	-	-	-	-	-	-
39,SER	-	-	-	-	-	-	-	-	-	-	-	-	-	-
40,GLN	-	-	-	-	-	-	-	-	-	-	-	-	-	-
41,LEU	-	-	-	-	-	-	-	-	-	-	-	-	-	-
42,ILE	-	-	-	-	-	-	-	-	-	-	-	-	-	-
43,GLU	-	-	-	-	-	-	-	-	-	-	-	-	-	-
44,LYS	-	-	-	-	-	-	-	-	-	-	-	-	-	-
45,GLU	-	-	-	-	-	-	-	-	-	-	-	-	-	-
46,THR	-	-	-	-	-	-	-	-	-	-	-	-	-	-
47,GLU	-	-	-	-	-	-	-	-	-	-	-	-	-	-
48,GLU	-	-	-	-	-	-	-	-	-	-	-	-	-	-
49,TYR	-	-	-	-	-	-	-	-	-	-	-	-	-	-
50,ARG	-	-	-	-	-	-	-	-	-	-	-	-	-	-
51,LYS	-	-	-	-	-	-	-	-	-	-	-	-	-	-
52,GLY	-	-	-	-	-	-	-	-	-	-	-	-	-	-
53,ASP	-	-	-	-	-	-	-	-	-	-	-	-	-	-
54,PRO	-	-	-	-	-	-	-	-	-	-	-	-	-	-
55,ASP	-	-	-	-	-	-	-	-	-	-	-	-	-	-
56,PRO	-	-	-	-	-	-	-	-	-	-	-	-	-	-
57,PHE	-	-	-	-	-	-	-	-	-	-	-	-	-	-
58,ASP	-	-	-	-	-	-	-	-	-	-	-	-	-	-
59,ASP	-	-	-	-	-	-	-	-	-	-	-	-	-	-
60,ARG	-	-	-	-	-	-	-	-	-	-	-	-	-	-
61,HIS	-	-	-	-	-	-	-	-	-	-	-	-	-	-
62,PRO	-	-	-	-	-	-	-	-	-	-	-	-	-	-
63,GLY	-	-	-	-	-	-	-	-	-	-	-	-	-	-
64,ARG	-	-	-	-	-	-	-	-	-	-	-	-	-	-
65,ALA	-	-	-	-	-	-	-	-	-	-	-	-	-	-
66,ASP	-	-	-	-	-	-	-	-	-	-	-	-	-	-
67,PRO	-	-	-	-	-	-	-	-	-	-	-	-	-	-
68,GLU	-	-	-	-	-	-	-	-	-	-	-	-	-	-
69,CYS	-	-	-	-	-	-	-	-	-	-	-	-	-	-
70,MET	-	-	-	-	-	-	-	-	-	-	-	-	-	-
71,LEU	-	-	-	-	-	-	-	-	-	-	-	-	-	-
72,GLY	-	-	-	-	-	-	-	-	-	-	-	-	-	-
73,HIS	-	-	-	-	-	-	-	-	-	-	-	-	-	-
74,LEU	-	-	-	-	-	-	-	-	-	-	-	-	-	-
75,LEU	-	-	-	-	-	-	-	-	-	-	-	-	-	-
76,ARG	-	-	-	-	-	-	-	-	-	-	-	-	-	-
77,ILE	-	-	-	-	-	-	-	-	-	-	-	-	-	-
78,LEU	-	-	-	-	-	-	-	-	-	-	-	-	-	-
79,PHE	-	-	-	-	-	-	-	-	-	-	-	-	-	-
80,LYS	-	-	-	-	-	-	-	-	-	-	-	-	-	-
81,ASN	-	-	-	-	-	-	-	-	-	-	-	-	-	-
82,ASP	-	-	-	-	-	-	-	-	-	-	-	-	-	-
83,ASP	-	-	-	-	-	-	-	-	-	-	-	-	-	-
84,PHE	-	-	-	-	-	-	-	-	-	-	-	-	-	-
85,MET	-	-	-	-	-	-	-	-	-	-	-	-	-	-
86,ASN	-	-	-	-	-	-	-	-	-	-	-	-	-	-
87,ALA	-	-	-	-	-	-	-	-	-	-	-	-	-	-
88,LEU	-	-	-	-	-	-	-	-	-	-	-	-	-	-
89,VAL	-	-	-	-	-	-	-	-	-	-	-	-	-	-
90,ASN	-	-	-	-	-	-	-	-	-	-	-	-	-	-
91,ALA	-	-	-	-	-	-	-	-	-	-	-	-	-	-
92,TYR	-	-	-	-	-	-	-	-	-	-	-	-	-	-
93,VAL	-	-	-	-	-	-	-	-	-	-	-	-	-	-
94,MET	-	-	-	-	-	-	-	-	-	-	-	-	-	-
95,THR	-	-	-	-	-	-	-	-	-	-	-	-	-	-
96,SER	-	-	-	-	-	-	-	-	-	-	-	-	-	-
97,ARG	-	-	-	-	-	-	-	-	-	-	-	-	-	-
98,GLU	-	-	-	-	-	-	-	-	-	-	-	-	-	-
99,PRO	-	-	-	-	-	-	-	-	-	-	-	-	-	-
100,PRO	-	-	-	-	-	-	-	-	-	-	-	-	-	-
101,LEU	-	-	-	-	-	-	-	-	-	-	-	-	-	-
102,ASN	-	-	-	-	-	-	-	-	-	-	-	-	-	-
103,THR	-	-	-	-	-	-	-	-	-	-	-	-	-	-
104,ALA	-	-	-	-	-	-	-	-	-	-	-	-	-	-
105,ALA	-	-	-	-	-	-	-	-	-	-	-	-	-	-
106,CYS	-	-	-	-	-	-	-	-	-	-	-	-	-	-
107,ARG	-	-	-	-	-	-	-	-	-	-	-	-	-	-
108,LEU	-	-	-	-	-	-	-	-	-	-	-	-	-	-
109,LEU	-	-	-	-	-	-	-	-	-	-	-	-	-	-
110,LEU	-	-	-	-	-	-	-	-	-	-	-	-	-	-
111,ASP	-	-	-	-	-	-	-	-	-	-	-	-	-	-
112,ILE	-	-	-	-	-	-	-	-	-	-	-	-	-	-
113,MET	-	-	-	-	-	-	-	-	-	-	-	-	-	-
114,PRO	-	-	-	-	-	-	-	-	-	-	-	-	-	-
115,GLY	-	-	-	-	-	-	-	-	-	-	-	-	-	-
116,LEU	-	-	-	-	-	-	-	-	-	-	-	-	-	-
117,GLU	-	-	-	-	-	-	-	-	-	-	-	-	-	-
118,THR	-	-	-	-	-	-	-	-	-	-	-	-	-	-
119,ALA	-	-	-	-	-	-	-	-	-	-	-	-	-	-
120,VAL	-	-	-	-	-	-	-	-	-	-	-	-	-	-
121,VAL	-	-	-	-	-	-	-	-	-	-	-	-	-	-
122,PHE	-	-	-	-	-	-	-	-	-	-	-	-	-	-
123,GLN	-	-	-	-	-	-	-	-	-	-	-	-	-	-
124,GLU	-	-	-	-	-	-	-	-	-	-	-	-	-	-
125,LYS	-	-	-	-	-	-	-	-	-	-	-	-	-	-
126,GLU	-	-	-	-	-	-	-	-	-	-	-	-	-	-
127,GLY	-	-	-	-	-	-	-	-	-	-	-	-	-	-
128,ILE	-	-	-	-	-	-	-	-	-	-	-	-	-	-
129,VAL	-	-	-	-	-	-	-	-	-	-	-	-	-	-
130,GLU	-	-	-	-	-	-	-	-	-	-	-	-	-	-
131,ASN	-	-	-	-	-	-	-	-	-	-	-	-	-	-
132,LEU	-	-	-	-	-	-	-	-	-	-	-	-	-	-
133,PHE	-	-	-	-	-	-	-	-	-	-	-	-	-	-
134,LYS	-	-	-	-	-	-	-	-	-	-	-	-	-	-
135,TRP	-	-	-	-	-	-	-	-	-	-	-	-	-	-
136,ALA	-	-	-	-	-	-	-	-	-	-	-	-	-	-
137,ARG	-	-	-	-	-	-	-	-	-	-	-	-	-	-
138,GLU	-	-	-	-	-	-	-	-	-	-	-	-	-	-
139,ALA	-	-	-	-	-	-	-	-	-	-	-	-	-	-
140,ASP	-	-	-	-	-	-	-	-	-	-	-	-	-	-
141,GLN	-	-	-	-	-	-	-	-	-	-	-	-	-	-
142,PRO	-	-	-	-	-	-	-	-	-	-	-	-	-	-
143,LEU	-	-	-	-	-	-	-	-	-	-	-	-	-	-
144,ARG	-	-	-	-	-	-	-	-	-	-	-	-	-	-
145,THR	-	-	-	-	-	-	-	-	-	-	-	-	-	-
146,TYR	-	-	-	-	-	-	-	-	-	-	-	-	-	-
147,SER	-	-	-	-	-	-	-	-	-	-	-	-	-	-
148,THR	-	-	-	-	-	-	-	-	-	-	-	-	-	-
149,GLY	-	-	-	-	-	-	-	-	-	-	-	-	-	-
150,LEU	-	-	-	-	-	-	-	-	-	-	-	-	-	-
151,LEU	-	-	-	-	-	-	-	-	-	-	-	-	-	-
152,GLY	-	-	-	-	-	-	-	-	-	-	-	-	-	-
153,GLY	-	-	-	-	-	-	-	-	-	-	-	-	-	-
154,ALA	-	-	-	-	-	-	-	-	-	-	-	-	-	-
155,MET	-	-	-	-	-	-	-	-	-	-	-	-	-	-
156,GLU	-	-	-	-	-	-	-	-	-	-	-	-	-	-
157,ASN	-	-	-	-	-	-	-	-	-	-	-	-	-	-
158,GLN	-	-	-	-	-	-	-	-	-	-	-	-	-	-
159,ASP	-	-	-	-	-	-	-	-	-	-	-	-	-	-
160,ILE	-	-	-	-	-	-	-	-	-	-	-	-	-	-
161,ALA	-	-	-	-	-	-	-	-	-	-	-	-	-	-
162,ALA	-	-	-	-	-	-	-	-	-	-	-	-	-	-
163,ASN	-	-	-	-	-	-	-	-	-	-	-	-	-	-
164,TYR	-	-	-	-	-	-	-	-	-	-	-	-	-	-
165,ARG	-	-	-	-	-	-	-	-	-	-	-	-	-	-
166,ASP	-	-	-	-	-	-	-	-	-	-	-	-	-	-
167,GLU	-	-	-	-	-	-	-	-	-	-	-	-	-	-
168,ASN	-	-	-	-	-	-	-	-	-	-	-	-	-	-
169,SER	-	-	-	-	-	-	-	-	-	-	-	-	-	-
170,GLN	-	-	-	-	-	-	-	-	-	-	-	-	-	-
171,LEU	-	-	-	-	-	-	-	-	-	-	-	-	-	-
172,VAL	-	-	-	-	-	-	-	-	-	-	-	-	-	-
173,ALA	-	-	-	-	-	-	-	-	-	-	-	-	-	-
174,ILE	-	-	-	-	-	-	-	-	-	-	-	-	-	-
175,VAL	-	-	-	-	-	-	-	-	-	-	-	-	-	-
176,LEU	-	-	-	-	-	-	-	-	-	-	-	-	-	-
177,ARG	-	-	-	-	-	-	-	-	-	-	-	-	-	-
178,ARG	-	-	-	-	-	-	-	-	-	-	-	-	-	-
179,LEU	-	-	-	-	-	-	-	-	-	-	-	-	-	-
180,ARG	-	-	-	-	-	-	-	-	-	-	-	-	-	-
181,GLU	-	-	-	-	-	-	-	-	-	-	-	-	-	-
182,LEU	-	-	-	-	-	-	-	-	-	-	-	-	-	-
183,GLN	-	-	-	-	-	-	-	-	-	-	-	-	-	-
184,LEU	-	-	-	-	-	-	-	-	-	-	-	-	-	-
185,GLN	-	-	-	-	-	-	-	-	-	-	-	-	-	-
186,GLU	-	-	-	-	-	-	-	-	-	-	-	-	-	-
187,VAL	-	-	-	-	-	-	-	-	-	-	-	-	-	-
188,ALA	-	-	-	-	-	-	-	-	-	-	-	-	-	-
189,LEU	-	-	-	-	-	-	-	-	-	-	-	-	-	-
190,ARG	-	-	-	-	-	-	-	-	-	-	-	-	-	-
191,GLN	-	-	-	-	-	-	-	-	-	-	-	-	-	-
192,GLU	-	-	-	-	-	-	-	-	-	-	-	-	-	-
193,ASN	-	-	-	-	-	-	-	-	-	-	-	-	-	-
194,LYS	-	-	-	-	-	-	-	-	-	-	-	-	-	-
195,ARG	-	-	-	-	-	-	-	-	-	-	-	-	-	-
196,PRO	-	-	-	-	-	-	-	-	-	-	-	-	-	-
197,SER	-	-	-	-	-	-	-	-	-	-	-	-	-	-
198,PRO	-	-	-	-	-	-	-	-	-	-	-	-	-	-
199,ARG	-	-	-	-	-	-	-	-	-	-	-	-	-	-
200,LYS	-	-	-	-	-	-	-	-	-	-	-	-	-	-
201,LEU	-	-	-	-	-	-	-	-	-	-	-	-	-	-
202,SER	-	-	-	-	-	-	-	-	-	-	-	-	-	-
203,SER	-	-	-	-	-	-	-	-	-	-	-	-	-	-
204,GLU	-	-	-	-	-	-	-	-	-	-	-	-	-	-
205,PRO	-	-	-	-	-	-	-	-	-	-	-	-	-	-
206,LEU	-	-	-	-	-	-	-	-	-	-	-	-	-	-
207,LEU	-	-	-	-	-	-	-	-	-	-	-	-	-	-
208,PRO	-	-	-	-	-	-	-	-	-	-	-	-	-	-
209,LEU	-	-	-	-	-	-	-	-	-	-	-	-	-	-
210,ASP	-	-	-	-	-	-	-	-	-	-	-	-	-	-
211,GLU	-	-	-	-	-	-	-	-	-	-	-	-	-	-
212,GLU	-	-	-	-	-	-	-	-	-	-	-	-	-	-
213,ALA	-	-	-	-	-	-	-	-	-	-	-	-	-	-
214,VAL	-	-	-	-	-	-	-	-	-	-	-	-	-	-
215,ASP	-	-	-	-	-	-	-	-	-	-	-	-	-	-
216,MET	-	-	-	-	-	-	-	-	-	-	-	-	-	-
217,ASP	-	-	-	-	-	-	-	-	-	-	-	-	-	-
218,TYR	-	-	-	-	-	-	-	-	-	-	-	-	-	-
219,GLY	-	-	-	-	-	-	-	-	-	-	-	-	-	-
220,ASP	-	-	-	-	-	-	-	-	-	-	-	-	-	-
221,MET	-	-	-	-	-	-	-	-	-	-	-	-	-	-
222,ALA	-	-	-	-	-	-	-	-	-	-	-	-	-	-
223,VAL	-	-	-	-	-	-	-	-	-	-	-	-	-	-
224,ASP	-	-	-	-	-	-	-	-	-	-	-	-	-	-
225,VAL	-	-	-	-	-	-	-	-	-	-	-	-	-	-
226,VAL	-	-	-	-	-	-	-	-	-	-	-	-	-	-
227,ASP	-	-	-	-	-	-	-	-	-	-	-	-	-	-
228,GLY	-	-	-	-	-	-	-	-	-	-	-	-	-	-
229,ASP	-	-	-	-	-	-	-	-	-	-	-	-	-	-
230,GLN	-	-	-	-	-	-	-	-	-	-	-	-	-	-
231,GLU	-	-	-	-	-	-	-	-	-	-	-	-	-	-
232,GLU	-	-	-	-	-	-	-	-	-	-	-	-	-	-
233,ALA	-	-	-	-	-	-	-	-	-	-	-	-	-	-
234,SER	-	-	-	-	-	-	-	-	-	-	-	-	-	-
235,GLY	-	-	-	-	-	-	-	-	-	-	-	-	-	-
236,ASP	-	-	-	-	-	-	-	-	-	-	-	-	-	-
237,MET	-	-	-	-	-	-	-	-	-	-	-	-	-	-
238,GLU	-	-	-	-	-	-	-	-	-	-	-	-	-	-
239,ILE	-	-	-	-	-	-	-	-	-	-	-	-	-	-
240,SER	-	-	-	-	-	-	-	-	-	-	-	-	-	-
241,PHE	-	-	-	-	-	-	-	-	-	-	-	-	-	-
242,HIS	-	-	-	-	-	-	-	-	-	-	-	-	-	-
243,LEU	-	-	-	-	-	-	-	-	-	-	-	-	-	-
244,ASP	-	-	-	-	-	-	-	-	-	-	-	-	-	-
245,SER	-	-	-	-	-	-	-	-	-	-	-	-	-	-
246,GLY	-	-	-	-	-	-	-	-	-	-	-	-	-	-
247,HIS	-	-	-	-	-	-	-	-	-	-	-	-	-	-
248,LYS	-	-	-	-	-	-	-	-	-	-	-	-	-	-
249,THR	-	-	-	-	-	-	-	-	-	-	-	-	-	-
250,SER	-	-	-	-	-	-	-	-	-	-	-	-	-	-
251,SER	-	-	-	-	-	-	-	-	-	-	-	-	-	-
252,ARG	-	-	-	-	-	-	-	-	-	-	-	-	-	-
253,VAL	-	-	-	-	-	-	-	-	-	-	-	-	-	-
254,ASN	-	-	-	-	-	-	-	-	-	-	-	-	-	-
255,SER	-	-	-	-	-	-	-	-	-	-	-	-	-	-
256,THR	-	-	-	-	-	-	-	-	-	-	-	-	-	-
257,THR	-	-	-	-	-	-	-	-	-	-	-	-	-	-
258,LYS	-	-	-	-	-	-	-	-	-	-	-	-	-	-
259,PRO	-	-	-	-	-	-	-	-	-	-	-	-	-	-
260,GLU	-	-	-	-	-	-	-	-	-	-	-	-	-	-
261,ASP	-	-	-	-	-	-	-	-	-	-	-	-	-	-
262,GLY	-	-	-	-	-	-	-	-	-	-	-	-	-	-
263,GLY	-	-	-	-	-	-	-	-	-	-	-	-	-	-
264,LEU	-	-	-	-	-	-	-	-	-	-	-	-	-	-
265,LYS	-	-	-	-	-	-	-	-	-	-	-	-	-	-
266,LYS	-	-	-	-	-	-	-	-	-	-	-	-	-	-
267,ASN	-	-	-	-	-	-	-	-	-	-	-	-	-	-
268,LYS	-	-	-	-	-	-	-	-	-	-	-	-	-	-
269,SER	-	-	-	-	-	-	-	-	-	-	-	-	-	-
270,ALA	-	-	-	-	-	-	-	-	-	-	-	-	-	-
271,LYS	-	-	-	-	-	-	-	-	-	-	-	-	-	-
272,GLN	-	-	-	-	-	-	-	-	-	-	-	-	-	-
273,GLY	-	-	-	-	-	-	-	-	-	-	-	-	-	-
274,ASP	-	-	-	-	-	-	-	-	-	-	-	-	-	-
275,ARG	-	-	-	-	-	-	-	-	-	-	-	-	-	-
276,GLU	-	-	-	-	-	-	-	-	-	-	-	-	-	-
277,ASN	-	-	-	-	-	-	-	-	-	-	-	-	-	-
278,PHE	-	-	-	-	-	-	-	-	-	-	-	-	-	-
279,ARG	-	-	-	-	-	-	-	-	-	-	-	-	-	-
280,LYS	-	-	-	-	-	-	-	-	-	-	-	-	-	-
281,ALA	-	-	-	-	-	-	-	-	-	-	-	-	-	-
282,LYS	-	-	-	-	-	-	-	-	-	-	-	-	-	-
283,GLN	-	-	-	-	-	-	-	-	-	-	-	-	-	-
284,LYS	-	-	-	-	-	-	-	-	-	-	-	-	-	-
285,LEU	-	-	-	-	-	-	-	-	-	-	-	-	-	-
286,GLY	-	-	-	-	-	-	-	-	-	-	-	-	-	-
287,PHE	-	-	-	-	-	-	-	-	-	-	-	-	-	-
288,SER	-	-	-	-	-	-	-	-	-	-	-	-	-	-
289,SER	-	-	-	-	-	-	-	-	-	-	-	-	-	-
290,SER	-	-	-	-	-	-	-	-	-	-	-	-	-	-
291,ASP	-	-	-	-	-	-	-	-	-	-	-	-	-	-
292,PRO	-	-	-	-	-	-	-	-	-	-	-	-	-	-
293,ASP	-	-	-	-	-	-	-	-	-	-	-	-	-	-
294,ARG	-	-	-	-	-	-	-	-	-	-	-	-	-	-
295,MET	-	-	-	-	-	-	-	-	-	-	-	-	-	-
296,PHE	-	-	-	-	-	-	-	-	-	-	-	-	-	-
297,VAL	-	-	-	-	-	-	-	-	-	-	-	-	-	-
298,GLU	-	-	-	-	-	-	-	-	-	-	-	-	-	-
299,LEU	-	-	-	-	-	-	-	-	-	-	-	-	-	-
300,SER	-	-	-	-	-	-	-	-	-	-	-	-	-	-
301,ASN	-	-	-	-	-	-	-	-	-	-	-	-	-	-
302,SER	-	-	-	-	-	-	-	-	-	-	-	-	-	-
303,SER	-	-	-	-	-	-	-	-	-	-	-	-	-	-
304,TRP	-	-	-	-	-	-	-	-	-	-	-	-	-	-
305,SER	-	-	-	-	-	-	-	-	-	-	-	-	-	-
306,GLU	-	-	-	-	-	-	-	-	-	-	-	-	-	-
307,MET	-	-	-	-	-	-	-	-	-	-	-	-	-	-
308,SER	-	-	-	-	-	-	-	-	-	-	-	-	-	-
309,PRO	-	-	-	-	-	-	-	-	-	-	-	-	-	-
310,TRP	-	-	-	-	-	-	-	-	-	-	-	-	-	-
311,VAL	-	-	-	-	-	-	-	-	-	-	-	-	-	-
312,ILE	-	-	-	-	-	-	-	-	-	-	-	-	-	-
313,GLY	-	-	-	-	-	-	-	-	-	-	-	-	-	-
314,THR	-	-	-	-	-	-	-	-	-	-	-	-	-	-
315,ASN	-	-	-	-	-	-	-	-	-	-	-	-	-	-
316,TYR	-	-	-	-	-	-	-	-	-	-	-	-	-	-
317,THR	-	-	-	-	-	-	-	-	-	-	-	-	-	-
318,LEU	-	-	-	-	-	-	-	-	-	-	-	-	-	-
319,TYR	-	-	-	-	-	-	-	-	-	-	-	-	-	-
320,PRO	-	-	-	-	-	-	-	-	-	-	-	-	-	-
321,MET	-	-	-	-	-	-	-	-	-	-	-	-	-	-
322,THR	-	-	-	-	-	-	-	-	-	-	-	-	-	-
323,PRO	-	-	-	-	-	-	-	-	-	-	-	-	-	-
324,ALA	-	-	-	-	-	-	-	-	-	-	-	-	-	-
325,ILE	-	-	-	-	-	-	-	-	-	-	-	-	-	-
326,GLU	-	-	-	-	-	-	-	-	-	-	-	-	-	-
327,GLN	-	-	-	-	-	-	-	-	-	-	-	-	-	-
328,ARG	-	-	-	-	-	-	-	-	-	-	-	-	-	-
329,LEU	-	-	-	-	-	-	-	-	-	-	-	-	-	-
330,ILE	-	-	-	-	-	-	-	-	-	-	-	-	-	-
331,LEU	-	-	-	-	-	-	-	-	-	-	-	-	-	-
332,GLN	-	-	-	-	-	-	-	-	-	-	-	-	-	-
333,TYR	-	-	-	-	-	-	-	-	-	-	-	-	-	-
334,LEU	-	-	-	-	-	-	-	-	-	-	-	-	-	-
335,THR	-	-	-	-	-	-	-	-	-	-	-	-	-	-
336,PRO	-	-	-	-	-	-	-	-	-	-	-	-	-	-
337,LEU	-	-	-	-	-	-	-	-	-	-	-	-	-	-
338,GLY	-	-	-	-	-	-	-	-	-	-	-	-	-	-
339,GLU	-	-	-	-	-	-	-	-	-	-	-	-	-	-
340,TYR	-	-	-	-	-	-	-	-	-	-	-	-	-	-
341,GLN	-	-	-	-	-	-	-	-	-	-	-	-	-	-
342,GLU	-	-	-	-	-	-	-	-	-	-	-	-	-	-
343,LEU	-	-	-	-	-	-	-	-	-	-	-	-	-	-
344,LEU	-	-	-	-	-	-	-	-	-	-	-	-	-	-
345,PRO	-	-	-	-	-	-	-	-	-	-	-	-	-	-
346,ILE	-	-	-	-	-	-	-	-	-	-	-	-	-	-
347,PHE	-	-	-	-	-	-	-	-	-	-	-	-	-	-
348,MET	-	-	-	-	-	-	-	-	-	-	-	-	-	-
349,GLN	-	-	-	-	-	-	-	-	-	-	-	-	-	-
350,LEU	-	-	-	-	-	-	-	-	-	-	-	-	-	-
351,GLY	-	-	-	-	-	-	-	-	-	-	-	-	-	-
352,SER	-	-	-	-	-	-	-	-	-	-	-	-	-	-
353,ARG	-	-	-	-	-	-	-	-	-	-	-	-	-	-
354,GLU	-	-	-	-	-	-	-	-	-	-	-	-	-	-
355,LEU	-	-	-	-	-	-	-	-	-	-	-	-	-	-
356,MET	-	-	-	-	-	-	-	-	-	-	-	-	-	-
357,MET	-	-	-	-	-	-	-	-	-	-	-	-	-	-
358,PHE	-	-	-	-	-	-	-	-	-	-	-	-	-	-
359,TYR	-	-	-	-	-	-	-	-	-	-	-	-	-	-
360,ILE	-	-	-	-	-	-	-	-	-	-	-	-	-	-
361,ASP	-	-	-	-	-	-	-	-	-	-	-	-	-	-
362,LEU	-	-	-	-	-	-	-	-	-	-	-	-	-	-
363,LYS	-	-	-	-	-	-	-	-	-	-	-	-	-	-
364,GLN	-	-	-	-	-	-	-	-	-	-	-	-	-	-
365,THR	-	-	-	-	-	-	-	-	-	-	-	-	-	-
366,ASN	-	-	-	-	-	-	-	-	-	-	-	-	-	-
367,ASP	-	-	-	-	-	-	-	-	-	-	-	-	-	-
368,VAL	-	-	-	-	-	-	-	-	-	-	-	-	-	-
369,LEU	-	-	-	-	-	-	-	-	-	-	-	-	-	-
370,LEU	-	-	-	-	-	-	-	-	-	-	-	-	-	-
371,THR	-	-	-	-	-	-	-	-	-	-	-	-	-	-
372,PHE	-	-	-	-	-	-	-	-	-	-	-	-	-	-
373,GLU	-	-	-	-	-	-	-	-	-	-	-	-	-	-
374,ALA	-	-	-	-	-	-	-	-	-	-	-	-	-	-
375,LEU	-	-	-	-	-	-	-	-	-	-	-	-	-	-
376,LYS	-	-	-	-	-	-	-	-	-	-	-	-	-	-
377,HIS	-	-	-	-	-	-	-	-	-	-	-	-	-	-
378,LEU	-	-	-	-	-	-	-	-	-	-	-	-	-	-
379,ALA	-	-	-	-	-	-	-	-	-	-	-	-	-	-
380,SER	-	-	-	-	-	-	-	-	-	-	-	-	-	-
381,LEU	-	-	-	-	-	-	-	-	-	-	-	-	-	-
382,LEU	-	-	-	-	-	-	-	-	-	-	-	-	-	-
383,LEU	-	-	-	-	-	-	-	-	-	-	-	-	-	-
384,HIS	-	-	-	-	-	-	-	-	-	-	-	-	-	-
385,ASN	-	-	-	-	-	-	-	-	-	-	-	-	-	-
386,LYS	-	-	-	-	-	-	-	-	-	-	-	-	-	-
387,PHE	-	-	-	-	-	-	-	-	-	-	-	-	-	-
388,ALA	-	-	-	-	-	-	-	-	-	-	-	-	-	-
389,THR	-	-	-	-	-	-	-	-	-	-	-	-	-	-
390,GLU	-	-	-	-	-	-	-	-	-	-	-	-	-	-
391,PHE	-	-	-	-	-	-	-	-	-	-	-	-	-	-
392,VAL	-	-	-	-	-	-	-	-	-	-	-	-	-	-
393,ALA	-	-	-	-	-	-	-	-	-	-	-	-	-	-
394,HIS	-	-	-	-	-	-	-	-	-	-	-	-	-	-
395,GLY	-	-	-	-	-	-	-	-	-	-	-	-	-	-
396,GLY	-	-	-	-	-	-	-	-	-	-	-	-	-	-
397,VAL	-	-	-	-	-	-	-	-	-	-	-	-	-	-
398,GLN	-	-	-	-	-	-	-	-	-	-	-	-	-	-
399,LYS	-	-	-	-	-	-	-	-	-	-	-	-	-	-
400,LEU	-	-	-	-	-	-	-	-	-	-	-	-	-	-
401,LEU	-	-	-	-	-	-	-	-	-	-	-	-	-	-
402,GLU	-	-	-	-	-	-	-	-	-	-	-	-	-	-
403,ILE	-	-	-	-	-	-	-	-	-	-	-	-	-	-
404,PRO	-	-	-	-	-	-	-	-	-	-	-	-	-	-
405,ARG	-	-	-	-	-	-	-	-	-	-	-	-	-	-
406,PRO	-	-	-	-	-	-	-	-	-	-	-	-	-	-
407,SER	-	-	-	-	-	-	-	-	-	-	-	-	-	-
408,MET	-	-	-	-	-	-	-	-	-	-	-	-	-	-
409,ALA	-	-	-	-	-	-	-	-	-	-	-	-	-	-
410,ALA	-	-	-	-	-	-	-	-	-	-	-	-	-	-
411,THR	-	-	-	-	-	-	-	-	-	-	-	-	-	-
412,GLY	-	-	-	-	-	-	-	-	-	-	-	-	-	-
413,VAL	-	-	-	-	-	-	-	-	-	-	-	-	-	-
414,SER	-	-	-	-	-	-	-	-	-	-	-	-	-	-
415,MET	-	-	-	-	-	-	-	-	-	-	-	-	-	-
416,CYS	-	-	-	-	-	-	-	-	-	-	-	-	-	-
417,LEU	-	-	-	-	-	-	-	-	-	-	-	-	-	-
418,TYR	-	-	-	-	-	-	-	-	-	-	-	-	-	-
419,TYR	-	-	-	-	-	-	-	-	-	-	-	-	-	-
420,LEU	-	-	-	-	-	-	-	-	-	-	-	-	-	-
421,SER	-	-	-	-	-	-	-	-	-	-	-	-	-	-
422,TYR	-	-	-	-	-	-	-	-	-	-	-	-	-	-
423,ASN	-	-	-	-	-	-	-	-	-	-	-	-	-	-
424,GLN	-	-	-	-	-	-	-	-	-	-	-	-	-	-
425,ASP	-	-	-	-	-	-	-	-	-	-	-	-	-	-
426,ALA	-	-	-	-	-	-	-	-	-	-	-	-	-	-
427,MET	-	-	-	-	-	-	-	-	-	-	-	-	-	-
428,GLU	-	-	-	-	-	-	-	-	-	-	-	-	-	-
429,ARG	-	-	-	-	-	-	-	-	-	-	-	-	-	-
430,VAL	-	-	-	-	-	-	-	-	-	-	-	-	-	-
431,CYS	-	-	-	-	-	-	-	-	-	-	-	-	-	-
432,MET	-	-	-	-	-	-	-	-	-	-	-	-	-	-
433,HIS	-	-	-	-	-	-	-	-	-	-	-	-	-	-
434,PRO	-	-	-	-	-	-	-	-	-	-	-	-	-	-
435,HIS	-	-	-	-	-	-	-	-	-	-	-	-	-	-
436,ASN	-	-	-	-	-	-	-	-	-	-	-	-	-	-
437,VAL	-	-	-	-	-	-	-	-	-	-	-	-	-	-
438,LEU	-	-	-	-	-	-	-	-	-	-	-	-	-	-
439,SER	-	-	-	-	-	-	-	-	-	-	-	-	-	-
440,ASP	-	-	-	-	-	-	-	-	-	-	-	-	-	-
441,VAL	-	-	-	-	-	-	-	-	-	-	-	-	-	-
442,VAL	-	-	-	-	-	-	-	-	-	-	-	-	-	-
443,ASN	-	-	-	-	-	-	-	-	-	-	-	-	-	-
444,TYR	-	-	-	-	-	-	-	-	-	-	-	-	-	-
445,THR	-	-	-	-	-	-	-	-	-	-	-	-	-	-
446,LEU	-	-	-	-	-	-	-	-	-	-	-	-	-	-
447,TRP	-	-	-	-	-	-	-	-	-	-	-	-	-	-
448,LEU	-	-	-	-	-	-	-	-	-	-	-	-	-	-
449,MET	-	-	-	-	-	-	-	-	-	-	-	-	-	-
450,GLU	-	-	-	-	-	-	-	-	-	-	-	-	-	-
451,CYS	-	-	-	-	-	-	-	-	-	-	-	-	-	-
452,SER	-	-	-	-	-	-	-	-	-	-	-	-	-	-
453,HIS	-	-	-	-	-	-	-	-	-	-	-	-	-	-
454,ALA	-	-	-	-	-	-	-	-	-	-	-	-	-	-
455,SER	-	-	-	-	-	-	-	-	-	-	-	-	-	-
456,GLY	-	-	-	-	-	-	-	-	-	-	-	-	-	-
457,CYS	-	-	-	-	-	-	-	-	-	-	-	-	-	-
458,CYS	-	-	-	-	-	-	-	-	-	-	-	-	-	-
459,HIS	-	-	-	-	-	-	-	-	-	-	-	-	-	-
460,ALA	-	-	-	-	-	-	-	-	-	-	-	-	-	-
461,THR	-	-	-	-	-	-	-	-	-	-	-	-	-	-
462,MET	-	-	-	-	-	-	-	-	-	-	-	-	-	-
463,PHE	-	-	-	-	-	-	-	-	-	-	-	-	-	-
464,PHE	-	-	-	-	-	-	-	-	-	-	-	-	-	-
465,SER	-	-	-	-	-	-	-	-	-	-	-	-	-	-
466,ILE	-	-	-	-	-	-	-	-	-	-	-	-	-	-
467,CYS	-	-	-	-	-	-	-	-	-	-	-	-	-	-
468,PHE	-	-	-	-	-	-	-	-	-	-	-	-	-	-
469,SER	-	-	-	-	-	-	-	-	-	-	-	-	-	-
470,PHE	-	-	-	-	-	-	-	-	-	-	-	-	-	-
471,ARG	-	-	-	-	-	-	-	-	-	-	-	-	-	-
472,ALA	-	-	-	-	-	-	-	-	-	-	-	-	-	-
473,VAL	-	-	-	-	-	-	-	-	-	-	-	-	-	-
474,LEU	-	-	-	-	-	-	-	-	-	-	-	-	-	-
475,GLU	-	-	-	-	-	-	-	-	-	-	-	-	-	-
476,LEU	-	-	-	-	-	-	-	-	-	-	-	-	-	-
477,PHE	-	-	-	-	-	-	-	-	-	-	-	-	-	-
478,ASP	-	-	-	-	-	-	-	-	-	-	-	-	-	-
479,ARG	-	-	-	-	-	-	-	-	-	-	-	-	-	-
480,TYR	-	-	-	-	-	-	-	-	-	-	-	-	-	-
481,ASP	-	-	-	-	-	-	-	-	-	-	-	-	-	-
482,GLY	-	-	-	-	-	-	-	-	-	-	-	-	-	-
483,LEU	-	-	-	-	-	-	-	-	-	-	-	-	-	-
484,ARG	-	-	-	-	-	-	-	-	-	-	-	-	-	-
485,ARG	-	-	-	-	-	-	-	-	-	-	-	-	-	-
486,LEU	-	-	-	-	-	-	-	-	-	-	-	-	-	-
487,VAL	-	-	-	-	-	-	-	-	-	-	-	-	-	-
488,ASN	-	-	-	-	-	-	-	-	-	-	-	-	-	-
489,LEU	-	-	-	-	-	-	-	-	-	-	-	-	-	-
490,ILE	-	-	-	-	-	-	-	-	-	-	-	-	-	-
491,SER	-	-	-	-	-	-	-	-	-	-	-	-	-	-
492,THR	-	-	-	-	-	-	-	-	-	-	-	-	-	-
493,LEU	-	-	-	-	-	-	-	-	-	-	-	-	-	-
494,GLU	-	-	-	-	-	-	-	-	-	-	-	-	-	-
495,ILE	-	-	-	-	-	-	-	-	-	-	-	-	-	-
496,LEU	-	-	-	-	-	-	-	-	-	-	-	-	-	-
497,ASN	-	-	-	-	-	-	-	-	-	-	-	-	-	-
498,LEU	-	-	-	-	-	-	-	-	-	-	-	-	-	-
499,GLU	-	-	-	-	-	-	-	-	-	-	-	-	-	-
500,ASP	-	-	-	-	-	-	-	-	-	-	-	-	-	-
501,GLN	-	-	-	-	-	-	-	-	-	-	-	-	-	-
502,GLY	-	-	-	-	-	-	-	-	-	-	-	-	-	-
503,ALA	-	-	-	-	-	-	-	-	-	-	-	-	-	-
504,LEU	-	-	-	-	-	-	-	-	-	-	-	-	-	-
505,LEU	-	-	-	-	-	-	-	-	-	-	-	-	-	-
506,SER	-	-	-	-	-	-	-	-	-	-	-	-	-	-
507,ASP	-	-	-	-	-	-	-	-	-	-	-	-	-	-
508,ASP	-	-	-	-	-	-	-	-	-	-	-	-	-	-
509,GLU	-	-	-	-	-	-	-	-	-	-	-	-	-	-
510,ILE	-	-	-	-	-	-	-	-	-	-	-	-	-	-
511,PHE	-	-	-	-	-	-	-	-	-	-	-	-	-	-
512,ALA	-	-	-	-	-	-	-	-	-	-	-	-	-	-
513,SER	-	-	-	-	-	-	-	-	-	-	-	-	-	-
514,ARG	-	-	-	-	-	-	-	-	-	-	-	-	-	-
515,GLN	-	-	-	-	-	-	-	-	-	-	-	-	-	-
516,THR	-	-	-	-	-	-	-	-	-	-	-	-	-	-
517,GLY	-	-	-	-	-	-	-	-	-	-	-	-	-	-
518,LYS	-	-	-	-	-	-	-	-	-	-	-	-	-	-
519,HIS	-	-	-	-	-	-	-	-	-	-	-	-	-	-
520,THR	-	-	-	-	-	-	-	-	-	-	-	-	-	-
521,CYS	-	-	-	-	-	-	-	-	-	-	-	-	-	-
522,MET	-	-	-	-	-	-	-	-	-	-	-	-	-	-
523,ALA	-	-	-	-	-	-	-	-	-	-	-	-	-	-
524,LEU	-	-	-	-	-	-	-	-	-	-	-	-	-	-
525,ARG	-	-	-	-	-	-	-	-	-	-	-	-	-	-
526,LYS	-	-	-	-	-	-	-	-	-	-	-	-	-	-
527,TYR	-	-	-	-	-	-	-	-	-	-	-	-	-	-
528,PHE	-	-	-	-	-	-	-	-	-	-	-	-	-	-
529,GLU	-	-	-	-	-	-	-	-	-	-	-	-	-	-
530,ALA	-	-	-	-	-	-	-	-	-	-	-	-	-	-
531,HIS	-	-	-	-	-	-	-	-	-	-	-	-	-	-
532,LEU	-	-	-	-	-	-	-	-	-	-	-	-	-	-
533,ALA	-	-	-	-	-	-	-	-	-	-	-	-	-	-
534,ILE	-	-	-	-	-	-	-	-	-	-	-	-	-	-
535,LYS	-	-	-	-	-	-	-	-	-	-	-	-	-	-
536,LEU	-	-	-	-	-	-	-	-	-	-	-	-	-	-
537,GLU	-	-	-	-	-	-	-	-	-	-	-	-	-	-
538,GLN	-	-	-	-	-	-	-	-	-	-	-	-	-	-
539,VAL	-	-	-	-	-	-	-	-	-	-	-	-	-	-
540,LYS	-	-	-	-	-	-	-	-	-	-	-	-	-	-
541,GLN	-	-	-	-	-	-	-	-	-	-	-	-	-	-
542,SER	-	-	-	-	-	-	-	-	-	-	-	-	-	-
543,LEU	-	-	-	-	-	-	-	-	-	-	-	-	-	-
544,GLN	-	-	-	-	-	-	-	-	-	-	-	-	-	-
545,ARG	-	-	-	-	-	-	-	-	-	-	-	-	-	-
546,THR	-	-	-	-	-	-	-	-	-	-	-	-	-	-
547,GLU	-	-	-	-	-	-	-	-	-	-	-	-	-	-
548,GLY	-	-	-	-	-	-	-	-	-	-	-	-	-	-
549,GLY	-	-	-	-	-	-	-	-	-	-	-	-	-	-
550,ILE	-	-	-	-	-	-	-	-	-	-	-	-	-	-
551,LEU	-	-	-	-	-	-	-	-	-	-	-	-	-	-
552,VAL	-	-	-	-	-	-	-	-	-	-	-	-	-	-
553,HIS	-	-	-	-	-	-	-	-	-	-	-	-	-	-
554,PRO	-	-	-	-	-	-	-	-	-	-	-	-	-	-
555,GLN	-	-	-	-	-	-	-	-	-	-	-	-	-	-
556,PRO	-	-	-	-	-	-	-	-	-	-	-	-	-	-
557,PRO	-	-	-	-	-	-	-	-	-	-	-	-	-	-
558,TYR	-	-	-	-	-	-	-	-	-	-	-	-	-	-
559,LYS	-	-	-	-	-	-	-	-	-	-	-	-	-	-
560,ALA	-	-	-	-	-	-	-	-	-	-	-	-	-	-
561,CYS	-	-	-	-	-	-	-	-	-	-	-	-	-	-
562,SER	-	-	-	-	-	-	-	-	-	-	-	-	-	-
563,TYR	-	-	-	-	-	-	-	-	-	-	-	-	-	-
564,THR	-	-	-	-	-	-	-	-	-	-	-	-	-	-
565,HIS	-	-	-	-	-	-	-	-	-	-	-	-	-	-
566,GLU	-	-	-	-	-	-	-	-	-	-	-	-	-	-
567,GLN	-	-	-	-	-	-	-	-	-	-	-	-	-	-
568,ILE	-	-	-	-	-	-	-	-	-	-	-	-	-	-
569,VAL	-	-	-	-	-	-	-	-	-	-	-	-	-	-
570,GLU	-	-	-	-	-	-	-	-	-	-	-	-	-	-
571,MET	-	-	-	-	-	-	-	-	-	-	-	-	-	-
572,MET	-	-	-	-	-	-	-	-	-	-	-	-	-	-
573,GLU	-	-	-	-	-	-	-	-	-	-	-	-	-	-
574,PHE	-	-	-	-	-	-	-	-	-	-	-	-	-	-
575,LEU	-	-	-	-	-	-	-	-	-	-	-	-	-	-
576,ILE	-	-	-	-	-	-	-	-	-	-	-	-	-	-
577,GLU	-	-	-	-	-	-	-	-	-	-	-	-	-	-
578,TYR	-	-	-	-	-	-	-	-	-	-	-	-	-	-
579,GLY	-	-	-	-	-	-	-	-	-	-	-	-	-	-
580,PRO	-	-	-	-	-	-	-	-	-	-	-	-	-	-
581,ALA	-	-	-	-	-	-	-	-	-	-	-	-	-	-
582,GLN	-	-	-	-	-	-	-	-	-	-	-	-	-	-
583,LEU	-	-	-	-	-	-	-	-	-	-	-	-	-	-
584,TYR	-	-	-	-	-	-	-	-	-	-	-	-	-	-
585,TRP	-	-	-	-	-	-	-	-	-	-	-	-	-	-
586,GLU	-	-	-	-	-	-	-	-	-	-	-	-	-	-
587,PRO	-	-	-	-	-	-	-	-	-	-	-	-	-	-
588,ALA	-	-	-	-	-	-	-	-	-	-	-	-	-	-
589,GLU	-	-	-	-	-	-	-	-	-	-	-	-	-	-
590,VAL	-	-	-	-	-	-	-	-	-	-	-	-	-	-
591,PHE	-	-	-	-	-	-	-	-	-	-	-	-	-	-
592,LEU	-	-	-	-	-	-	-	-	-	-	-	-	-	-
593,LYS	-	-	-	-	-	-	-	-	-	-	-	-	-	-
594,LEU	-	-	-	-	-	-	-	-	-	-	-	-	-	-
595,SER	-	-	-	-	-	-	-	-	-	-	-	-	-	-
596,CYS	-	-	-	-	-	-	-	-	-	-	-	-	-	-
597,VAL	-	-	-	-	-	-	-	-	-	-	-	-	-	-
598,GLN	-	-	-	-	-	-	-	-	-	-	-	-	-	-
599,LEU	-	-	-	-	-	-	-	-	-	-	-	-	-	-
600,LEU	-	-	-	-	-	-	-	-	-	-	-	-	-	-
601,LEU	-	-	-	-	-	-	-	-	-	-	-	-	-	-
602,GLN	-	-	-	-	-	-	-	-	-	-	-	-	-	-
603,LEU	-	-	-	-	-	-	-	-	-	-	-	-	-	-
604,ILE	-	-	-	-	-	-	-	-	-	-	-	-	-	-
605,SER	-	-	-	-	-	-	-	-	-	-	-	-	-	-
606,ILE	-	-	-	-	-	-	-	-	-	-	-	-	-	-
607,ALA	-	-	-	-	-	-	-	-	-	-	-	-	-	-
608,CYS	-	-	-	-	-	-	-	-	-	-	-	-	-	-
609,ASN	-	-	-	-	-	-	-	-	-	-	-	-	-	-
610,TRP	-	-	-	-	-	-	-	-	-	-	-	-	-	-
611,LYS	-	-	-	-	-	-	-	-	-	-	-	-	-	-
612,THR	-	-	-	-	-	-	-	-	-	-	-	-	-	-
613,TYR	-	-	-	-	-	-	-	-	-	-	-	-	-	-
614,TYR	-	-	-	-	-	-	-	-	-	-	-	-	-	-
615,ALA	-	-	-	-	-	-	-	-	-	-	-	-	-	-
616,ARG	-	-	-	-	-	-	-	-	-	-	-	-	-	-
617,ASN	-	-	-	-	-	-	-	-	-	-	-	-	-	-
618,ASP	-	-	-	-	-	-	-	-	-	-	-	-	-	-
619,THR	-	-	-	-	-	-	-	-	-	-	-	-	-	-
620,VAL	-	-	-	-	-	-	-	-	-	-	-	-	-	-
621,ARG	-	-	-	-	-	-	-	-	-	-	-	-	-	-
622,PHE	-	-	-	-	-	-	-	-	-	-	-	-	-	-
623,ALA	-	-	-	-	-	-	-	-	-	-	-	-	-	-
624,LEU	-	-	-	-	-	-	-	-	-	-	-	-	-	-
625,ASP	-	-	-	-	-	-	-	-	-	-	-	-	-	-
626,VAL	-	-	-	-	-	-	-	-	-	-	-	-	-	-
627,LEU	-	-	-	-	-	-	-	-	-	-	-	-	-	-
628,ALA	-	-	-	-	-	-	-	-	-	-	-	-	-	-
629,ILE	-	-	-	-	-	-	-	-	-	-	-	-	-	-
630,LEU	-	-	-	-	-	-	-	-	-	-	-	-	-	-
631,THR	-	-	-	-	-	-	-	-	-	-	-	-	-	-
632,VAL	-	-	-	-	-	-	-	-	-	-	-	-	-	-
633,VAL	-	-	-	-	-	-	-	-	-	-	-	-	-	-
634,PRO	-	-	-	-	-	-	-	-	-	-	-	-	-	-
635,LYS	-	-	-	-	-	-	-	-	-	-	-	-	-	-
636,ILE	-	-	-	-	-	-	-	-	-	-	-	-	-	-
637,GLN	-	-	-	-	-	-	-	-	-	-	-	-	-	-
638,LEU	-	-	-	-	-	-	-	-	-	-	-	-	-	-
639,GLN	-	-	-	-	-	-	-	-	-	-	-	-	-	-
640,LEU	-	-	-	-	-	-	-	-	-	-	-	-	-	-
641,ALA	-	-	-	-	-	-	-	-	-	-	-	-	-	-
642,GLU	-	-	-	-	-	-	-	-	-	-	-	-	-	-
643,SER	-	-	-	-	-	-	-	-	-	-	-	-	-	-
644,VAL	-	-	-	-	-	-	-	-	-	-	-	-	-	-
645,ASP	-	-	-	-	-	-	-	-	-	-	-	-	-	-
646,VAL	-	-	-	-	-	-	-	-	-	-	-	-	-	-
647,LEU	-	-	-	-	-	-	-	-	-	-	-	-	-	-
648,ASP	-	-	-	-	-	-	-	-	-	-	-	-	-	-
649,GLU	-	-	-	-	-	-	-	-	-	-	-	-	-	-
650,ALA	-	-	-	-	-	-	-	-	-	-	-	-	-	-
651,GLY	-	-	-	-	-	-	-	-	-	-	-	-	-	-
652,SER	-	-	-	-	-	-	-	-	-	-	-	-	-	-
653,THR	-	-	-	-	-	-	-	-	-	-	-	-	-	-
654,VAL	-	-	-	-	-	-	-	-	-	-	-	-	-	-
655,SER	-	-	-	-	-	-	-	-	-	-	-	-	-	-
656,THR	-	-	-	-	-	-	-	-	-	-	-	-	-	-
657,VAL	-	-	-	-	-	-	-	-	-	-	-	-	-	-
658,GLY	-	-	-	-	-	-	-	-	-	-	-	-	-	-
659,ILE	-	-	-	-	-	-	-	-	-	-	-	-	-	-
660,SER	-	-	-	-	-	-	-	-	-	-	-	-	-	-
661,ILE	-	-	-	-	-	-	-	-	-	-	-	-	-	-
662,ILE	-	-	-	-	-	-	-	-	-	-	-	-	-	-
663,LEU	-	-	-	-	-	-	-	-	-	-	-	-	-	-
664,GLY	-	-	-	-	-	-	-	-	-	-	-	-	-	-
665,VAL	-	-	-	-	-	-	-	-	-	-	-	-	-	-
666,ALA	-	-	-	-	-	-	-	-	-	-	-	-	-	-
667,GLU	-	-	-	-	-	-	-	-	-	-	-	-	-	-
668,GLY	-	-	-	-	-	-	-	-	-	-	-	-	-	-
669,GLU	-	-	-	-	-	-	-	-	-	-	-	-	-	-
670,PHE	-	-	-	-	-	-	-	-	-	-	-	-	-	-
671,PHE	-	-	-	-	-	-	-	-	-	-	-	-	-	-
672,ILE	-	-	-	-	-	-	-	-	-	-	-	-	-	-
673,HIS	-	-	-	-	-	-	-	-	-	-	-	-	-	-
674,ASP	-	-	-	-	-	-	-	-	-	-	-	-	-	-
675,ALA	-	-	-	-	-	-	-	-	-	-	-	-	-	-
676,GLU	-	-	-	-	-	-	-	-	-	-	-	-	-	-
677,ILE	-	-	-	-	-	-	-	-	-	-	-	-	-	-
678,GLN	-	-	-	-	-	-	-	-	-	-	-	-	-	-
679,LYS	-	-	-	-	-	-	-	-	-	-	-	-	-	-
680,SER	-	-	-	-	-	-	-	-	-	-	-	-	-	-
681,ALA	-	-	-	-	-	-	-	-	-	-	-	-	-	-
682,LEU	-	-	-	-	-	-	-	-	-	-	-	-	-	-
683,GLN	-	-	-	-	-	-	-	-	-	-	-	-	-	-
684,ILE	-	-	-	-	-	-	-	-	-	-	-	-	-	-
685,ILE	-	-	-	-	-	-	-	-	-	-	-	-	-	-
686,ILE	-	-	-	-	-	-	-	-	-	-	-	-	-	-
687,ASN	-	-	-	-	-	-	-	-	-	-	-	-	-	-
688,CYS	-	-	-	-	-	-	-	-	-	-	-	-	-	-
689,VAL	-	-	-	-	-	-	-	-	-	-	-	-	-	-
690,CYS	-	-	-	-	-	-	-	-	-	-	-	-	-	-
691,GLY	-	-	-	-	-	-	-	-	-	-	-	-	-	-
692,PRO	-	-	-	-	-	-	-	-	-	-	-	-	-	-
693,ASP	-	-	-	-	-	-	-	-	-	-	-	-	-	-
694,ASN	-	-	-	-	-	-	-	-	-	-	-	-	-	-
695,ARG	-	-	-	-	-	-	-	-	-	-	-	-	-	-
696,ILE	-	-	-	-	-	-	-	-	-	-	-	-	-	-
697,SER	-	-	-	-	-	-	-	-	-	-	-	-	-	-
698,SER	-	-	-	-	-	-	-	-	-	-	-	-	-	-
699,ILE	-	-	-	-	-	-	-	-	-	-	-	-	-	-
700,GLY	-	-	-	-	-	-	-	-	-	-	-	-	-	-
701,LYS	-	-	-	-	-	-	-	-	-	-	-	-	-	-
702,PHE	-	-	-	-	-	-	-	-	-	-	-	-	-	-
703,ILE	-	-	-	-	-	-	-	-	-	-	-	-	-	-
704,SER	-	-	-	-	-	-	-	-	-	-	-	-	-	-
705,GLY	-	-	-	-	-	-	-	-	-	-	-	-	-	-
706,THR	-	-	-	-	-	-	-	-	-	-	-	-	-	-
707,PRO	-	-	-	-	-	-	-	-	-	-	-	-	-	-
708,ARG	-	-	-	-	-	-	-	-	-	-	-	-	-	-
709,ARG	-	-	-	-	-	-	-	-	-	-	-	-	-	-
710,LYS	-	-	-	-	-	-	-	-	-	-	-	-	-	-
711,LEU	-	-	-	-	-	-	-	-	-	-	-	-	-	-
712,PRO	-	-	-	-	-	-	-	-	-	-	-	-	-	-
713,GLN	-	-	-	-	-	-	-	-	-	-	-	-	-	-
714,ASN	-	-	-	-	-	-	-	-	-	-	-	-	-	-
715,PRO	-	-	-	-	-	-	-	-	-	-	-	-	-	-
716,LYS	-	-	-	-	-	-	-	-	-	-	-	-	-	-
717,SER	-	-	-	-	-	-	-	-	-	-	-	-	-	-
718,SER	-	-	-	-	-	-	-	-	-	-	-	-	-	-
719,GLU	-	-	-	-	-	-	-	-	-	-	-	-	-	-
720,HIS	-	-	-	-	-	-	-	-	-	-	-	-	-	-
721,THR	-	-	-	-	-	-	-	-	-	-	-	-	-	-
722,LEU	-	-	-	-	-	-	-	-	-	-	-	-	-	-
723,ALA	-	-	-	-	-	-	-	-	-	-	-	-	-	-
724,LYS	-	-	-	-	-	-	-	-	-	-	-	-	-	-
725,MET	-	-	-	-	-	-	-	-	-	-	-	-	-	-
726,TRP	-	-	-	-	-	-	-	-	-	-	-	-	-	-
727,ASN	-	-	-	-	-	-	-	-	-	-	-	-	-	-
728,VAL	-	-	-	-	-	-	-	-	-	-	-	-	-	-
729,VAL	-	-	-	-	-	-	-	-	-	-	-	-	-	-
730,GLN	-	-	-	-	-	-	-	-	-	-	-	-	-	-
731,SER	-	-	-	-	-	-	-	-	-	-	-	-	-	-
732,ASN	-	-	-	-	-	-	-	-	-	-	-	-	-	-
733,ASN	-	-	-	-	-	-	-	-	-	-	-	-	-	-
734,GLY	-	-	-	-	-	-	-	-	-	-	-	-	-	-
735,ILE	-	-	-	-	-	-	-	-	-	-	-	-	-	-
736,LYS	-	-	-	-	-	-	-	-	-	-	-	-	-	-
737,VAL	-	-	-	-	-	-	-	-	-	-	-	-	-	-
738,LEU	-	-	-	-	-	-	-	-	-	-	-	-	-	-
739,LEU	-	-	-	-	-	-	-	-	-	-	-	-	-	-
740,SER	-	-	-	-	-	-	-	-	-	-	-	-	-	-
741,LEU	-	-	-	-	-	-	-	-	-	-	-	-	-	-
742,LEU	-	-	-	-	-	-	-	-	-	-	-	-	-	-
743,SER	-	-	-	-	-	-	-	-	-	-	-	-	-	-
744,ILE	-	-	-	-	-	-	-	-	-	-	-	-	-	-
745,LYS	-	-	-	-	-	-	-	-	-	-	-	-	-	-
746,MET	-	-	-	-	-	-	-	-	-	-	-	-	-	-
747,PRO	-	-	-	-	-	-	-	-	-	-	-	-	-	-
748,ILE	-	-	-	-	-	-	-	-	-	-	-	-	-	-
749,THR	-	-	-	-	-	-	-	-	-	-	-	-	-	-
750,ASP	-	-	-	-	-	-	-	-	-	-	-	-	-	-
751,ALA	-	-	-	-	-	-	-	-	-	-	-	-	-	-
752,ASP	-	-	-	-	-	-	-	-	-	-	-	-	-	-
753,GLN	-	-	-	-	-	-	-	-	-	-	-	-	-	-
754,ILE	-	-	-	-	-	-	-	-	-	-	-	-	-	-
755,ARG	-	-	-	-	-	-	-	-	-	-	-	-	-	-
756,ALA	-	-	-	-	-	-	-	-	-	-	-	-	-	-
757,LEU	-	-	-	-	-	-	-	-	-	-	-	-	-	-
758,ALA	-	-	-	-	-	-	-	-	-	-	-	-	-	-
759,CYS	-	-	-	-	-	-	-	-	-	-	-	-	-	-
760,LYS	-	-	-	-	-	-	-	-	-	-	-	-	-	-
761,ALA	-	-	-	-	-	-	-	-	-	-	-	-	-	-
762,LEU	-	-	-	-	-	-	-	-	-	-	-	-	-	-
763,VAL	-	-	-	-	-	-	-	-	-	-	-	-	-	-
764,GLY	-	-	-	-	-	-	-	-	-	-	-	-	-	-
765,LEU	-	-	-	-	-	-	-	-	-	-	-	-	-	-
766,SER	-	-	-	-	-	-	-	-	-	-	-	-	-	-
767,ARG	-	-	-	-	-	-	-	-	-	-	-	-	-	-
768,SER	-	-	-	-	-	-	-	-	-	-	-	-	-	-
769,SER	-	-	-	-	-	-	-	-	-	-	-	-	-	-
770,THR	-	-	-	-	-	-	-	-	-	-	-	-	-	-
771,VAL	-	-	-	-	-	-	-	-	-	-	-	-	-	-
772,ARG	-	-	-	-	-	-	-	-	-	-	-	-	-	-
773,GLN	-	-	-	-	-	-	-	-	-	-	-	-	-	-
774,ILE	-	-	-	-	-	-	-	-	-	-	-	-	-	-
775,ILE	-	-	-	-	-	-	-	-	-	-	-	-	-	-
776,SER	-	-	-	-	-	-	-	-	-	-	-	-	-	-
777,LYS	-	-	-	-	-	-	-	-	-	-	-	-	-	-
778,LEU	-	-	-	-	-	-	-	-	-	-	-	-	-	-
779,PRO	-	-	-	-	-	-	-	-	-	-	-	-	-	-
780,LEU	-	-	-	-	-	-	-	-	-	-	-	-	-	-
781,PHE	-	-	-	-	-	-	-	-	-	-	-	-	-	-
782,SER	-	-	-	-	-	-	-	-	-	-	-	-	-	-
783,SER	-	-	-	-	-	-	-	-	-	-	-	-	-	-
784,CYS	-	-	-	-	-	-	-	-	-	-	-	-	-	-
785,GLN	-	-	-	-	-	-	-	-	-	-	-	-	-	-
786,ILE	-	-	-	-	-	-	-	-	-	-	-	-	-	-
787,GLN	-	-	-	-	-	-	-	-	-	-	-	-	-	-
788,GLN	-	-	-	-	-	-	-	-	-	-	-	-	-	-
789,LEU	-	-	-	-	-	-	-	-	-	-	-	-	-	-
790,MET	-	-	-	-	-	-	-	-	-	-	-	-	-	-
791,LYS	-	-	-	-	-	-	-	-	-	-	-	-	-	-
792,GLU	-	-	-	-	-	-	-	-	-	-	-	-	-	-
793,PRO	-	-	-	-	-	-	-	-	-	-	-	-	-	-
794,VAL	-	-	-	-	-	-	-	-	-	-	-	-	-	-
795,LEU	-	-	-	-	-	-	-	-	-	-	-	-	-	-
796,GLN	-	-	-	-	-	-	-	-	-	-	-	-	-	-
797,ASP	-	-	-	-	-	-	-	-	-	-	-	-	-	-
798,LYS	-	-	-	-	-	-	-	-	-	-	-	-	-	-
799,ARG	-	-	-	-	-	-	-	-	-	-	-	-	-	-
800,SER	-	-	-	-	-	-	-	-	-	-	-	-	-	-
801,ASP	-	-	-	-	-	-	-	-	-	-	-	-	-	-
802,HIS	-	-	-	-	-	-	-	-	-	-	-	-	-	-
803,VAL	-	-	-	-	-	-	-	-	-	-	-	-	-	-
804,LYS	-	-	-	-	-	-	-	-	-	-	-	-	-	-
805,PHE	-	-	-	-	-	-	-	-	-	-	-	-	-	-
806,CYS	-	-	-	-	-	-	-	-	-	-	-	-	-	-
807,LYS	-	-	-	-	-	-	-	-	-	-	-	-	-	-
808,TYR	-	-	-	-	-	-	-	-	-	-	-	-	-	-
809,ALA	-	-	-	-	-	-	-	-	-	-	-	-	-	-
810,ALA	-	-	-	-	-	-	-	-	-	-	-	-	-	-
811,GLU	-	-	-	-	-	-	-	-	-	-	-	-	-	-
812,LEU	-	-	-	-	-	-	-	-	-	-	-	-	-	-
813,ILE	-	-	-	-	-	-	-	-	-	-	-	-	-	-
814,GLU	-	-	-	-	-	-	-	-	-	-	-	-	-	-
815,ARG	-	-	-	-	-	-	-	-	-	-	-	-	-	-
816,VAL	-	-	-	-	-	-	-	-	-	-	-	-	-	-
817,SER	-	-	-	-	-	-	-	-	-	-	-	-	-	-
818,GLY	-	-	-	-	-	-	-	-	-	-	-	-	-	-
819,LYS	-	-	-	-	-	-	-	-	-	-	-	-	-	-
820,PRO	-	-	-	-	-	-	-	-	-	-	-	-	-	-
821,LEU	-	-	-	-	-	-	-	-	-	-	-	-	-	-
822,LEU	-	-	-	-	-	-	-	-	-	-	-	-	-	-
823,ILE	-	-	-	-	-	-	-	-	-	-	-	-	-	-
824,GLY	-	-	-	-	-	-	-	-	-	-	-	-	-	-
825,THR	-	-	-	-	-	-	-	-	-	-	-	-	-	-
826,ASP	-	-	-	-	-	-	-	-	-	-	-	-	-	-
827,VAL	-	-	-	-	-	-	-	-	-	-	-	-	-	-
828,SER	-	-	-	-	-	-	-	-	-	-	-	-	-	-
829,LEU	-	-	-	-	-	-	-	-	-	-	-	-	-	-
830,ALA	-	-	-	-	-	-	-	-	-	-	-	-	-	-
831,ARG	-	-	-	-	-	-	-	-	-	-	-	-	-	-
832,LEU	-	-	-	-	-	-	-	-	-	-	-	-	-	-
833,GLN	-	-	-	-	-	-	-	-	-	-	-	-	-	-
834,LYS	-	-	-	-	-	-	-	-	-	-	-	-	-	-
835,ALA	-	-	-	-	-	-	-	-	-	-	-	-	-	-
836,ASP	-	-	-	-	-	-	-	-	-	-	-	-	-	-
837,VAL	-	-	-	-	-	-	-	-	-	-	-	-	-	-
838,VAL	-	-	-	-	-	-	-	-	-	-	-	-	-	-
839,ALA	-	-	-	-	-	-	-	-	-	-	-	-	-	-
840,GLN	-	-	-	-	-	-	-	-	-	-	-	-	-	-
841,SER	-	-	-	-	-	-	-	-	-	-	-	-	-	-
842,ARG	-	-	-	-	-	-	-	-	-	-	-	-	-	-
843,ILE	-	-	-	-	-	-	-	-	-	-	-	-	-	-
844,SER	-	-	-	-	-	-	-	-	-	-	-	-	-	-
845,PHE	-	-	-	-	-	-	-	-	-	-	-	-	-	-
846,PRO	-	-	-	-	-	-	-	-	-	-	-	-	-	-
847,GLU	-	-	-	-	-	-	-	-	-	-	-	-	-	-
848,LYS	-	-	-	-	-	-	-	-	-	-	-	-	-	-
849,GLU	-	-	-	-	-	-	-	-	-	-	-	-	-	-
850,LEU	-	-	-	-	-	-	-	-	-	-	-	-	-	-
851,LEU	-	-	-	-	-	-	-	-	-	-	-	-	-	-
852,LEU	-	-	-	-	-	-	-	-	-	-	-	-	-	-
853,LEU	-	-	-	-	-	-	-	-	-	-	-	-	-	-
854,ILE	-	-	-	-	-	-	-	-	-	-	-	-	-	-
855,ARG	-	-	-	-	-	-	-	-	-	-	-	-	-	-
856,ASN	-	-	-	-	-	-	-	-	-	-	-	-	-	-
857,HIS	-	-	-	-	-	-	-	-	-	-	-	-	-	-
858,LEU	-	-	-	-	-	-	-	-	-	-	-	-	-	-
859,ILE	-	-	-	-	-	-	-	-	-	-	-	-	-	-
860,SER	-	-	-	-	-	-	-	-	-	-	-	-	-	-
861,LYS	-	-	-	-	-	-	-	-	-	-	-	-	-	-
862,GLY	-	-	-	-	-	-	-	-	-	-	-	-	-	-
863,LEU	-	-	-	-	-	-	-	-	-	-	-	-	-	-
864,GLY	-	-	-	-	-	-	-	-	-	-	-	-	-	-
865,GLU	-	-	-	-	-	-	-	-	-	-	-	-	-	-
866,THR	-	-	-	-	-	-	-	-	-	-	-	-	-	-
867,ALA	-	-	-	-	-	-	-	-	-	-	-	-	-	-
868,THR	-	-	-	-	-	-	-	-	-	-	-	-	-	-
869,VAL	-	-	-	-	-	-	-	-	-	-	-	-	-	-
870,LEU	-	-	-	-	-	-	-	-	-	-	-	-	-	-
871,THR	-	-	-	-	-	-	-	-	-	-	-	-	-	-
872,LYS	-	-	-	-	-	-	-	-	-	-	-	-	-	-
873,GLU	-	-	-	-	-	-	-	-	-	-	-	-	-	-
874,ALA	-	-	-	-	-	-	-	-	-	-	-	-	-	-
875,ASP	-	-	-	-	-	-	-	-	-	-	-	-	-	-
876,LEU	-	-	-	-	-	-	-	-	-	-	-	-	-	-
877,PRO	-	-	-	-	-	-	-	-	-	-	-	-	-	-
878,MET	-	-	-	-	-	-	-	-	-	-	-	-	-	-
879,THR	-	-	-	-	-	-	-	-	-	-	-	-	-	-
880,ALA	-	-	-	-	-	-	-	-	-	-	-	-	-	-
881,ALA	-	-	-	-	-	-	-	-	-	-	-	-	-	-
882,SER	-	-	-	-	-	-	-	-	-	-	-	-	-	-
883,HIS	-	-	-	-	-	-	-	-	-	-	-	-	-	-
884,SER	-	-	-	-	-	-	-	-	-	-	-	-	-	-
885,SER	-	-	-	-	-	-	-	-	-	-	-	-	-	-
886,ALA	-	-	-	-	-	-	-	-	-	-	-	-	-	-
887,PHE	-	-	-	-	-	-	-	-	-	-	-	-	-	-
888,THR	-	-	-	-	-	-	-	-	-	-	-	-	-	-
889,PRO	-	-	-	-	-	-	-	-	-	-	-	-	-	-
890,VAL	-	-	-	-	-	-	-	-	-	-	-	-	-	-
891,THR	-	-	-	-	-	-	-	-	-	-	-	-	-	-
892,ALA	-	-	-	-	-	-	-	-	-	-	-	-	-	-
893,ALA	-	-	-	-	-	-	-	-	-	-	-	-	-	-
894,ALA	-	-	-	-	-	-	-	-	-	-	-	-	-	-
895,SER	-	-	-	-	-	-	-	-	-	-	-	-	-	-
896,PRO	-	-	-	-	-	-	-	-	-	-	-	-	-	-
897,VAL	-	-	-	-	-	-	-	-	-	-	-	-	-	-
898,SER	-	-	-	-	-	-	-	-	-	-	-	-	-	-
899,LEU	-	-	-	-	-	-	-	-	-	-	-	-	-	-
900,PRO	-	-	-	-	-	-	-	-	-	-	-	-	-	-
901,ARG	-	-	-	-	-	-	-	-	-	-	-	-	-	-
902,THR	-	-	-	-	-	-	-	-	-	-	-	-	-	-
903,PRO	-	-	-	-	-	-	-	-	-	-	-	-	-	-
904,ARG	-	-	-	-	-	-	-	-	-	-	-	-	-	-
905,ILE	-	-	-	-	-	-	-	-	-	-	-	-	-	-
906,ALA	-	-	-	-	-	-	-	-	-	-	-	-	-	-
907,ASN	-	-	-	-	-	-	-	-	-	-	-	-	-	-
908,GLY	-	-	-	-	-	-	-	-	-	-	-	-	-	-
909,ILE	-	-	-	-	-	-	-	-	-	-	-	-	-	-
910,ALA	-	-	-	-	-	-	-	-	-	-	-	-	-	-
911,THR	-	-	-	-	-	-	-	-	-	-	-	-	-	-
912,ARG	-	-	-	-	-	-	-	-	-	-	-	-	-	-
913,LEU	-	-	-	-	-	-	-	-	-	-	-	-	-	-
914,GLY	-	-	-	-	-	-	-	-	-	-	-	-	-	-
915,SER	-	-	-	-	-	-	-	-	-	-	-	-	-	-
916,HIS	-	-	-	-	-	-	-	-	-	-	-	-	-	-
917,ALA	-	-	-	-	-	-	-	-	-	-	-	-	-	-
918,ALA	-	-	-	-	-	-	-	-	-	-	-	-	-	-
919,VAL	-	-	-	-	-	-	-	-	-	-	-	-	-	-
920,GLY	-	-	-	-	-	-	-	-	-	-	-	-	-	-
921,ALA	-	-	-	-	-	-	-	-	-	-	-	-	-	-
922,SER	-	-	-	-	-	-	-	-	-	-	-	-	-	-
923,ALA	-	-	-	-	-	-	-	-	-	-	-	-	-	-
924,PRO	-	-	-	-	-	-	-	-	-	-	-	-	-	-
925,SER	-	-	-	-	-	-	-	-	-	-	-	-	-	-
926,ALA	-	-	-	-	-	-	-	-	-	-	-	-	-	-
927,PRO	-	-	-	-	-	-	-	-	-	-	-	-	-	-
928,THR	-	-	-	-	-	-	-	-	-	-	-	-	-	-
929,ALA	-	-	-	-	-	-	-	-	-	-	-	-	-	-
930,HIS	-	-	-	-	-	-	-	-	-	-	-	-	-	-
931,PRO	-	-	-	-	-	-	-	-	-	-	-	-	-	-
932,GLN	-	-	-	-	-	-	-	-	-	-	-	-	-	-
933,PRO	-	-	-	-	-	-	-	-	-	-	-	-	-	-
934,ARG	-	-	-	-	-	-	-	-	-	-	-	-	-	-
935,PRO	-	-	-	-	-	-	-	-	-	-	-	-	-	-
936,PRO	-	-	-	-	-	-	-	-	-	-	-	-	-	-
937,GLN	-	-	-	-	-	-	-	-	-	-	-	-	-	-
938,GLY	-	-	-	-	-	-	-	-	-	-	-	-	-	-
939,PRO	-	-	-	-	-	-	-	-	-	-	-	-	-	-
940,LEU	-	-	-	-	-	-	-	-	-	-	-	-	-	-
941,ALA	-	-	-	-	-	-	-	-	-	-	-	-	-	-
942,LEU	-	-	-	-	-	-	-	-	-	-	-	-	-	-
943,PRO	-	-	-	-	-	-	-	-	-	-	-	-	-	-
944,GLY	-	-	-	-	-	-	-	-	-	-	-	-	-	-
945,PRO	-	-	-	-	-	-	-	-	-	-	-	-	-	-
946,SER	-	-	-	-	-	-	-	-	-	-	-	-	-	-
947,TYR	-	-	-	-	-	-	-	-	-	-	-	-	-	-
948,ALA	-	-	-	-	-	-	-	-	-	-	-	-	-	-
949,GLY	-	-	-	-	-	-	-	-	-	-	-	-	-	-
950,ASN	-	-	-	-	-	-	-	-	-	-	-	-	-	-
951,SER	-	-	-	-	-	-	-	-	-	-	-	-	-	-
952,PRO	-	-	-	-	-	-	-	-	-	-	-	-	-	-
953,LEU	-	-	-	-	-	-	-	-	-	-	-	-	-	-
954,ILE	-	-	-	-	-	-	-	-	-	-	-	-	-	-
955,GLY	-	-	-	-	-	-	-	-	-	-	-	-	-	-
956,ARG	-	-	-	-	-	-	-	-	-	-	-	-	-	-
957,ILE	-	-	-	-	-	-	-	-	-	-	-	-	-	-
958,SER	-	-	-	-	-	-	-	-	-	-	-	-	-	-
959,PHE	-	-	-	-	-	-	-	-	-	-	-	-	-	-
960,ILE	-	-	-	-	-	-	-	-	-	-	-	-	-	-
961,ARG	-	-	-	-	-	-	-	-	-	-	-	-	-	-
962,GLU	-	-	-	-	-	-	-	-	-	-	-	-	-	-
963,ARG	-	-	-	-	-	-	-	-	-	-	-	-	-	-
964,PRO	-	-	-	-	-	-	-	-	-	-	-	-	-	-
965,SER	-	-	-	-	-	-	-	-	-	-	-	-	-	-
966,PRO	-	-	-	-	-	-	-	-	-	-	-	-	-	-
967,CYS	-	-	-	-	-	-	-	-	-	-	-	-	-	-
968,ASN	-	-	-	-	-	-	-	-	-	-	-	-	-	-
969,GLY	-	-	-	-	-	-	-	-	-	-	-	-	-	-
970,ARG	-	-	-	-	-	-	-	-	-	-	-	-	-	-
971,LYS	-	-	-	-	-	-	-	-	-	-	-	-	-	-
972,ILE	-	-	-	-	-	-	-	-	-	-	-	-	-	-
973,ARG	-	-	-	-	-	-	-	-	-	-	-	-	-	-
974,VAL	-	-	-	-	-	-	-	-	-	-	-	-	-	-
975,LEU	-	-	-	-	-	-	-	-	-	-	-	-	-	-
976,ARG	-	-	-	-	-	-	-	-	-	-	-	-	-	-
977,GLN	-	-	-	-	-	-	-	-	-	-	-	-	-	-
978,LYS	-	-	-	-	-	-	-	-	-	-	-	-	-	-
979,SER	-	-	-	-	-	-	-	-	-	-	-	-	-	-
980,ASP	-	-	-	-	-	-	-	-	-	-	-	-	-	-
981,HIS	-	-	-	-	-	-	-	-	-	-	-	-	-	-
982,GLY	-	-	-	-	-	-	-	-	-	-	-	-	-	-
983,ALA	-	-	-	-	-	-	-	-	-	-	-	-	-	-
984,TYR	-	-	-	-	-	-	-	-	-	-	-	-	-	-
985,SER	-	-	-	-	-	-	-	-	-	-	-	-	-	-
986,GLN	-	-	-	-	-	-	-	-	-	-	-	-	-	-
987,SER	-	-	-	-	-	-	-	-	-	-	-	-	-	-
988,PRO	-	-	-	-	-	-	-	-	-	-	-	-	-	-
989,ALA	-	-	-	-	-	-	-	-	-	-	-	-	-	-
990,ILE	-	-	-	-	-	-	-	-	-	-	-	-	-	-
991,LYS	-	-	-	-	-	-	-	-	-	-	-	-	-	-
992,LYS	-	-	-	-	-	-	-	-	-	-	-	-	-	-
993,GLN	-	-	-	-	-	-	-	-	-	-	-	-	-	-
994,LEU	-	-	-	-	-	-	-	-	-	-	-	-	-	-
995,ASP	-	-	-	-	-	-	-	-	-	-	-	-	-	-
996,ARG	-	-	-	-	-	-	-	-	-	-	-	-	-	-
997,HIS	-	-	-	-	-	-	-	-	-	-	-	-	-	-
998,LEU	-	-	-	-	-	-	-	-	-	-	-	-	-	-
999,PRO	-	-	-	-	-	-	-	-	-	-	-	-	-	-
1000,SER	-	-	-	-	-	-	-	-	-	-	-	-	-	-
1001,PRO	-	-	-	-	-	-	-	-	-	-	-	-	-	-
1002,PRO	-	-	-	-	-	-	-	-	-	-	-	-	-	-
1003,THR	-	-	-	-	-	-	-	-	-	-	-	-	-	-
1004,LEU	-	-	-	-	-	-	-	-	-	-	-	-	-	-
1005,ASP	-	-	-	-	-	-	-	-	-	-	-	-	-	-
1006,SER	-	-	-	-	-	-	-	-	-	-	-	-	-	-
1007,ILE	-	-	-	-	-	-	-	-	-	-	-	-	-	-
1008,ILE	-	-	-	-	-	-	-	-	-	-	-	-	-	-
1009,THR	-	-	-	-	-	-	-	-	-	-	-	-	-	-
1010,GLU	-	-	-	-	-	-	-	-	-	-	-	-	-	-
1011,TYR	-	-	-	-	-	-	-	-	-	-	-	-	-	-
1012,LEU	-	-	-	-	-	-	-	-	-	-	-	-	-	-
1013,ARG	-	-	-	-	-	-	-	-	-	-	-	-	-	-
1014,GLU	-	-	-	-	-	-	-	-	-	-	-	-	-	-
1015,GLN	-	-	-	-	-	-	-	-	-	-	-	-	-	-
1016,HIS	-	-	-	-	-	-	-	-	-	-	-	-	-	-
1017,ALA	-	-	-	-	-	-	-	-	-	-	-	-	-	-
1018,ARG	-	-	-	-	-	-	-	-	-	-	-	-	-	-
1019,CYS	-	-	-	-	-	-	-	-	-	-	-	-	-	-
1020,LYS	-	-	-	-	-	-	-	-	-	-	-	-	-	-
1021,ASN	-	-	-	-	-	-	-	-	-	-	-	-	-	-
1022,PRO	-	-	-	-	-	-	-	-	-	-	-	-	-	-
1023,VAL	-	-	-	-	-	-	-	-	-	-	-	-	-	-
1024,ALA	-	-	-	-	-	-	-	-	-	-	-	-	-	-
1025,THR	-	-	-	-	-	-	-	-	-	-	-	-	-	-
1026,CYS	-	-	-	-	-	-	-	-	-	-	-	-	-	-
1027,PRO	-	-	-	-	-	-	-	-	-	-	-	-	-	-
1028,PRO	-	-	-	-	-	-	-	-	-	-	-	-	-	-
1029,PHE	-	-	-	-	-	-	-	-	-	-	-	-	-	-
1030,SER	-	-	-	-	-	-	-	-	-	-	-	-	-	-
1031,LEU	-	-	-	-	-	-	-	-	-	-	-	-	-	-
1032,PHE	-	-	-	-	-	-	-	-	-	-	-	-	-	-
1033,THR	-	-	-	-	-	-	-	-	-	-	-	-	-	-
1034,PRO	-	-	-	-	-	-	-	-	-	-	-	-	-	-
1035,HIS	-	-	-	-	-	-	-	-	-	-	-	-	-	-
1036,GLN	-	-	-	-	-	-	-	-	-	-	-	-	-	-
1037,CYS	-	-	-	-	-	-	-	-	-	-	-	-	-	-
1038,PRO	-	-	-	-	-	-	-	-	-	-	-	-	-	-
1039,GLU	-	-	-	1039,GLU	1039,GLU	-	-	-	-	-	-	-	-	-
1040,PRO	-	-	-	1040,PRO	1040,PRO	-	-	-	-	-	-	-	-	-
1041,LYS	-	-	-	1041,LYS	1041,LYS	-	-	-	-	-	-	-	-	-
1042,GLN	-	-	-	1042,GLN	1042,GLN	-	-	-	-	-	-	-	-	-
1043,ARG	-	-	-	1043,ARG	1043,ARG	-	-	-	-	-	-	-	-	-
1044,ARG	-	-	-	1044,ARG	1044,ARG	-	-	-	-	-	-	-	-	-
1045,GLN	-	-	-	1045,GLN	1045,GLN	1045,GLN	1045,GLN	-	-	-	-	-	-	-
1046,ALA	-	-	-	1046,ALA	1046,ALA	1046,ALA	1046,ALA	-	-	-	-	-	-	-
1047,PRO	-	-	-	1047,PRO	1047,PRO	1047,PRO	1047,PRO	-	-	-	-	-	-	-
1048,ILE	-	-	-	1048,ILE	1048,ILE	1048,ILE	1048,ILE	-	-	-	-	-	-	-
1049,ASN	-	-	-	1049,ASN	1049,ASN	1049,ASN	1049,ASN	-	-	-	-	-	-	-
1050,PHE	-	-	-	1050,PHE	1050,PHE	1050,PHE	1050,PHE	-	-	-	-	-	-	-
1051,THR	-	-	-	1051,THR	1051,THR	1051,THR	1051,THR	-	-	-	-	-	-	-
1052,SER	-	-	-	1052,SER	1052,SER	1052,SER	1052,SER	-	-	-	-	-	-	-
1053,ARG	-	-	-	1053,ARG	1053,ARG	1053,ARG	1053,ARG	-	-	-	-	-	-	-
1054,LEU	-	-	-	1054,LEU	1054,LEU	1054,LEU	1054,LEU	-	-	-	-	-	-	-
1055,ASN	-	-	-	1055,ASN	1055,ASN	1055,ASN	1055,ASN	-	-	-	-	-	-	-
1056,ARG	-	-	-	1056,ARG	1056,ARG	1056,ARG	1056,ARG	-	-	-	-	-	-	-
1057,ARG	-	-	-	1057,ARG	1057,ARG	1057,ARG	1057,ARG	-	-	-	1057,ARG	1057,ARG	-	-
1058,ALA	-	-	1058,ALA	1058,ALA	1058,ALA	1058,ALA	1058,ALA	-	-	1058,ALA	1058,ALA	1058,ALA	-	-
1059,SER	-	-	1059,SER	1059,SER	1059,SER	1059,SER	1059,SER	-	-	1059,SER	1059,SER	1059,SER	-	-
1060,PHE	-	-	1060,PHE	1060,PHE	1060,PHE	1060,PHE	1060,PHE	-	-	1060,PHE	1060,PHE	1060,PHE	-	-
1061,PRO	-	-	1061,PRO	1061,PRO	1061,PRO	1061,PRO	1061,PRO	-	-	1061,PRO	1061,PRO	1061,PRO	-	-
1062,LYS	-	-	1062,LYS	1062,LYS	1062,LYS	1062,LYS	1062,LYS	-	-	1062,LYS	1062,LYS	1062,LYS	-	-
1063,TYR	-	-	1063,TYR	1063,TYR	1063,TYR	1063,TYR	1063,TYR	-	-	1063,TYR	1063,TYR	1063,TYR	-	-
1064,GLY	-	-	1064,GLY	1064,GLY	1064,GLY	1064,GLY	1064,GLY	-	-	1064,GLY	1064,GLY	1064,GLY	-	-
1065,GLY	-	-	1065,GLY	1065,GLY	1065,GLY	1065,GLY	1065,GLY	-	-	1065,GLY	1065,GLY	1065,GLY	-	-
1066,VAL	-	-	1066,VAL	1066,VAL	1066,VAL	1066,VAL	1066,VAL	-	-	1066,VAL	1066,VAL	1066,VAL	-	-
1067,ASP	-	-	1067,ASP	1067,ASP	1067,ASP	1067,ASP	1067,ASP	-	-	1067,ASP	1067,ASP	1067,ASP	-	-
1068,GLY	-	-	1068,GLY	1068,GLY	1068,GLY	1068,GLY	1068,GLY	-	-	1068,GLY	1068,GLY	1068,GLY	-	-
1069,GLY	-	-	1069,GLY	1069,GLY	1069,GLY	1069,GLY	1069,GLY	-	-	1069,GLY	1069,GLY	1069,GLY	-	-
1070,CYS	-	-	1070,CYS	1070,CYS	1070,CYS	1070,CYS	1070,CYS	-	-	1070,CYS	1070,CYS	1070,CYS	-	-
1071,PHE	-	-	1071,PHE	1071,PHE	1071,PHE	1071,PHE	1074,HIS	-	-	1071,PHE	1071,PHE	1071,PHE	-	-
1072,ASP	-	-	1072,ASP	1072,ASP	1072,ASP	1072,ASP	1071,PHE	-	-	1072,ASP	1072,ASP	1072,ASP	-	-
1073,ARG	-	-	1073,ARG	1073,ARG	1073,ARG	1073,ARG	1072,ASP	-	-	1073,ARG	1073,ARG	1073,ARG	-	-
1074,HIS	-	-	1074,HIS	1074,HIS	1074,HIS	1074,HIS	1073,ARG	-	-	1074,HIS	1074,HIS	1074,HIS	-	-
1075,LEU	-	-	1075,LEU	1075,LEU	1075,LEU	1075,LEU	1075,LEU	-	-	1075,LEU	1075,LEU	1075,LEU	-	-
1076,ILE	-	-	1076,ILE	1076,ILE	1076,ILE	1076,ILE	1076,ILE	-	-	1076,ILE	1076,ILE	1076,ILE	-	-
1077,PHE	-	-	1077,PHE	1077,PHE	1077,PHE	1077,PHE	1077,PHE	-	-	1077,PHE	1077,PHE	1077,PHE	-	-
1078,SER	-	-	1078,SER	1078,SER	1078,SER	1078,SER	1078,SER	-	-	1078,SER	1078,SER	1078,SER	-	-
1079,ARG	-	-	1079,ARG	1079,ARG	1079,ARG	1079,ARG	1079,ARG	-	-	1079,ARG	1079,ARG	1079,ARG	-	-
1080,PHE	-	-	1080,PHE	1080,PHE	1080,PHE	1080,PHE	1080,PHE	-	-	1080,PHE	1080,PHE	1080,PHE	-	-
1081,ARG	-	-	1081,ARG	1081,ARG	1081,ARG	1081,ARG	1081,ARG	-	-	1081,ARG	1081,ARG	1081,ARG	-	-
1082,PRO	-	-	1082,PRO	1082,PRO	1082,PRO	1082,PRO	1082,PRO	-	-	1082,PRO	1082,PRO	1082,PRO	-	-
1083,ILE	-	-	1083,ILE	1083,ILE	1083,ILE	1083,ILE	1083,ILE	-	-	1083,ILE	1083,ILE	1083,ILE	-	-
1084,SER	-	-	1084,SER	1084,SER	1084,SER	1084,SER	1084,SER	-	-	1084,SER	1084,SER	1084,SER	-	-
1085,VAL	-	-	1085,VAL	1085,VAL	1085,VAL	1085,VAL	1085,VAL	-	-	1085,VAL	1085,VAL	1085,VAL	-	-
1086,PHE	-	-	1086,PHE	1086,PHE	1086,PHE	1086,PHE	1086,PHE	-	-	1089,ALA	1086,PHE	1086,PHE	-	-
1087,ARG	-	-	1087,ARG	1087,ARG	1087,ARG	1087,ARG	1087,ARG	-	-	1086,PHE	1087,ARG	1087,ARG	-	-
1088,GLU	-	-	1088,GLU	1088,GLU	1088,GLU	1088,GLU	1088,GLU	-	-	1087,ARG	1088,GLU	1088,GLU	-	-
1089,ALA	-	-	1089,ALA	1089,ALA	1089,ALA	1089,ALA	1089,ALA	-	-	1088,GLU	1089,ALA	1089,ALA	-	-
1090,ASN	-	-	1090,ASN	1090,ASN	1090,ASN	1090,ASN	1090,ASN	-	-	1090,ASN	1090,ASN	1090,ASN	-	-
1091,GLU	-	-	1091,GLU	1091,GLU	1091,GLU	1094,SER	1091,GLU	-	-	1091,GLU	1091,GLU	1091,GLU	-	-
1092,ASP	-	-	1092,ASP	1092,ASP	1092,ASP	1091,GLU	1092,ASP	-	-	1092,ASP	1092,ASP	1092,ASP	-	-
1093,GLU	-	-	1093,GLU	1093,GLU	1093,GLU	1092,ASP	1093,GLU	-	-	1093,GLU	1093,GLU	1093,GLU	-	-
1094,SER	-	-	1094,SER	1094,SER	1094,SER	1093,GLU	1094,SER	-	-	1094,SER	1094,SER	1094,SER	-	-
1095,GLY	-	-	1095,GLY	1095,GLY	1095,GLY	1095,GLY	1095,GLY	-	-	1095,GLY	1095,GLY	1095,GLY	-	-
1096,PHE	-	-	1096,PHE	1096,PHE	1096,PHE	1096,PHE	1096,PHE	-	-	1096,PHE	1096,PHE	1096,PHE	-	-
1097,THR	-	-	1097,THR	1097,THR	1097,THR	1097,THR	1097,THR	-	-	1097,THR	1097,THR	1097,THR	-	-
1098,CYS	-	-	1098,CYS	1098,CYS	1098,CYS	1098,CYS	1098,CYS	-	-	1098,CYS	1098,CYS	1098,CYS	-	-
1099,CYS	-	-	1099,CYS	1099,CYS	1099,CYS	1099,CYS	1099,CYS	-	-	1099,CYS	1099,CYS	1099,CYS	-	-
1100,ALA	-	-	1100,ALA	1100,ALA	1100,ALA	1100,ALA	1100,ALA	-	-	1100,ALA	1100,ALA	1100,ALA	-	-
1101,PHE	-	-	1101,PHE	1101,PHE	1101,PHE	1101,PHE	1101,PHE	-	-	1101,PHE	1101,PHE	1101,PHE	-	-
1102,SER	-	-	1102,SER	1102,SER	1102,SER	1102,SER	1102,SER	-	-	1102,SER	1102,SER	1102,SER	-	-
1103,ALA	-	-	1103,ALA	1103,ALA	1103,ALA	1103,ALA	1103,ALA	-	-	1103,ALA	1103,ALA	1103,ALA	-	-
1104,ARG	-	-	1104,ARG	1104,ARG	1104,ARG	1104,ARG	1104,ARG	-	-	1104,ARG	1104,ARG	1104,ARG	-	-
1105,GLU	-	-	1105,GLU	1105,GLU	1105,GLU	1105,GLU	1105,GLU	-	-	1105,GLU	1105,GLU	1105,GLU	-	-
1106,ARG	-	-	1106,ARG	1106,ARG	1106,ARG	1106,ARG	1106,ARG	-	-	1106,ARG	1106,ARG	1106,ARG	-	-
1107,PHE	-	-	1107,PHE	1107,PHE	1107,PHE	1107,PHE	1107,PHE	-	-	1107,PHE	1107,PHE	1107,PHE	-	-
1108,LEU	-	-	1108,LEU	1108,LEU	1108,LEU	1108,LEU	1108,LEU	-	-	1108,LEU	1108,LEU	1108,LEU	-	-
1109,MET	-	-	1109,MET	1109,MET	1109,MET	1109,MET	1109,MET	-	-	1109,MET	1109,MET	1109,MET	-	-
1110,LEU	-	-	1110,LEU	1110,LEU	1110,LEU	1110,LEU	1110,LEU	-	-	1110,LEU	1110,LEU	1110,LEU	-	-
1111,GLY	-	-	1111,GLY	1111,GLY	1111,GLY	1111,GLY	1111,GLY	-	-	1111,GLY	1111,GLY	1111,GLY	-	-
1112,THR	-	-	1112,THR	1112,THR	1112,THR	1112,THR	1112,THR	-	-	1112,THR	1112,THR	1112,THR	-	-
1113,CYS	-	-	1113,CYS	1113,CYS	1113,CYS	1113,CYS	1113,CYS	-	-	1113,CYS	1113,CYS	1113,CYS	-	-
1114,THR	-	-	1114,THR	1114,THR	1114,THR	1114,THR	1114,THR	-	-	1114,THR	1114,THR	1114,THR	-	-
1115,GLY	-	-	1115,GLY	1115,GLY	1115,GLY	1115,GLY	1115,GLY	-	-	1115,GLY	1115,GLY	1115,GLY	-	-
1116,GLN	-	-	1116,GLN	1116,GLN	1116,GLN	1116,GLN	1116,GLN	-	-	1116,GLN	1116,GLN	1116,GLN	-	-
1117,LEU	-	-	1117,LEU	1117,LEU	1117,LEU	1117,LEU	1117,LEU	-	-	1117,LEU	1117,LEU	1117,LEU	-	-
1118,LYS	-	-	1118,LYS	1118,LYS	1118,LYS	1118,LYS	1118,LYS	-	-	1118,LYS	1118,LYS	1118,LYS	-	-
1119,LEU	-	-	1119,LEU	1119,LEU	1119,LEU	1119,LEU	1119,LEU	-	-	1119,LEU	1119,LEU	1119,LEU	-	-
1120,TYR	-	-	1120,TYR	1120,TYR	1120,TYR	1120,TYR	1120,TYR	-	-	1120,TYR	1120,TYR	1120,TYR	-	-
1121,ASN	-	-	1121,ASN	1121,ASN	1121,ASN	1121,ASN	1121,ASN	-	-	1121,ASN	1121,ASN	1121,ASN	-	-
1122,VAL	-	-	1122,VAL	1122,VAL	1122,VAL	1122,VAL	1122,VAL	-	-	1122,VAL	1122,VAL	1122,VAL	-	-
1123,PHE	-	-	1123,PHE	1123,PHE	1123,PHE	1123,PHE	1123,PHE	-	-	1123,PHE	1123,PHE	1123,PHE	-	-
1124,SER	-	-	1124,SER	1124,SER	1124,SER	1124,SER	1124,SER	-	-	1124,SER	1124,SER	1124,SER	-	-
1125,GLY	-	-	1125,GLY	1125,GLY	1125,GLY	1125,GLY	1125,GLY	-	-	1125,GLY	1125,GLY	1125,GLY	-	-
1126,GLN	-	-	1126,GLN	1126,GLN	1126,GLN	1126,GLN	1126,GLN	-	-	1126,GLN	1126,GLN	1126,GLN	-	-
1127,GLU	-	-	1127,GLU	1127,GLU	1127,GLU	1127,GLU	1127,GLU	-	-	1127,GLU	1127,GLU	1127,GLU	-	-
1128,GLU	-	-	1128,GLU	1128,GLU	1128,GLU	1128,GLU	1128,GLU	-	-	1128,GLU	1128,GLU	1128,GLU	-	-
1129,ALA	-	-	1129,ALA	1129,ALA	1129,ALA	1129,ALA	1129,ALA	-	-	1129,ALA	1129,ALA	1129,ALA	-	-
1130,SER	-	-	1130,SER	1130,SER	1130,SER	1130,SER	1130,SER	-	-	1130,SER	1130,SER	1130,SER	-	-
1131,TYR	-	-	1131,TYR	1131,TYR	1131,TYR	1131,TYR	1131,TYR	-	-	1131,TYR	1131,TYR	1131,TYR	-	-
1132,ASN	-	-	1132,ASN	1132,ASN	1132,ASN	1132,ASN	1132,ASN	-	-	1132,ASN	1132,ASN	1132,ASN	-	-
1133,CYS	-	-	1133,CYS	1133,CYS	1133,CYS	1133,CYS	1133,CYS	-	-	1133,CYS	1133,CYS	1133,CYS	-	-
1134,HIS	-	-	1134,HIS	1134,HIS	1134,HIS	1134,HIS	1134,HIS	-	-	1134,HIS	1134,HIS	1134,HIS	-	-
1135,ASN	-	-	1135,ASN	1135,ASN	1135,ASN	1135,ASN	1135,ASN	-	-	1135,ASN	1135,ASN	1135,ASN	-	-
1136,SER	-	-	1136,SER	1136,SER	1136,SER	1136,SER	1136,SER	-	-	1136,SER	1139,THR	1136,SER	-	-
1137,ALA	-	-	1137,ALA	1137,ALA	1137,ALA	1137,ALA	1137,ALA	-	-	1137,ALA	1136,SER	1137,ALA	-	-
1138,ILE	-	-	1138,ILE	1138,ILE	1138,ILE	1138,ILE	1138,ILE	-	-	1138,ILE	1137,ALA	1138,ILE	-	-
1139,THR	-	-	1139,THR	1139,THR	1139,THR	1139,THR	1139,THR	-	-	1139,THR	1138,ILE	1139,THR	-	-
1140,HIS	-	-	1140,HIS	1140,HIS	1140,HIS	1140,HIS	1143,PRO	-	-	1140,HIS	1140,HIS	1140,HIS	-	-
1141,LEU	-	-	1141,LEU	1141,LEU	1141,LEU	1141,LEU	1140,HIS	-	-	1141,LEU	1141,LEU	1141,LEU	-	-
1142,GLU	-	-	1142,GLU	1142,GLU	1142,GLU	1142,GLU	1141,LEU	-	-	1142,GLU	1142,GLU	1142,GLU	-	-
1143,PRO	-	-	1143,PRO	1143,PRO	1143,PRO	1143,PRO	1142,GLU	-	-	1143,PRO	1143,PRO	1143,PRO	-	-
1144,SER	-	-	1144,SER	1144,SER	1144,SER	1144,SER	1144,SER	-	-	1144,SER	1144,SER	1144,SER	-	-
1145,ARG	-	-	1145,ARG	1145,ARG	1145,ARG	1145,ARG	1145,ARG	-	-	1145,ARG	1145,ARG	1145,ARG	-	-
1146,ASP	-	-	1146,ASP	1146,ASP	1146,ASP	1146,ASP	1146,ASP	-	-	1146,ASP	1146,ASP	1146,ASP	-	-
1147,GLY	-	-	1147,GLY	1147,GLY	1147,GLY	1147,GLY	1147,GLY	-	-	1147,GLY	1147,GLY	1147,GLY	-	-
1148,SER	-	-	1148,SER	1148,SER	1148,SER	1148,SER	1148,SER	-	-	1148,SER	1148,SER	1148,SER	-	-
1149,LEU	-	-	1149,LEU	1149,LEU	1149,LEU	1149,LEU	1149,LEU	-	-	1149,LEU	1149,LEU	1149,LEU	-	-
1150,LEU	-	-	1150,LEU	1150,LEU	1150,LEU	1150,LEU	1150,LEU	-	-	1150,LEU	1150,LEU	1150,LEU	-	-
1151,LEU	-	-	1151,LEU	1151,LEU	1151,LEU	1151,LEU	1151,LEU	-	-	1151,LEU	1151,LEU	1151,LEU	-	-
1152,THR	-	-	1152,THR	1152,THR	1152,THR	1152,THR	1152,THR	-	-	1152,THR	1152,THR	1152,THR	-	-
1153,SER	-	-	1153,SER	1153,SER	1153,SER	1153,SER	1153,SER	-	-	1153,SER	1153,SER	1153,SER	-	-
1154,ALA	-	-	1154,ALA	1154,ALA	1154,ALA	1154,ALA	1154,ALA	-	-	1154,ALA	1154,ALA	1154,ALA	-	-
1155,THR	-	-	1155,THR	1155,THR	1155,THR	1155,THR	1155,THR	-	-	1155,THR	1155,THR	1155,THR	-	-
1156,TRP	-	-	1156,TRP	1156,TRP	1156,TRP	1156,TRP	1156,TRP	-	-	1156,TRP	1156,TRP	1156,TRP	-	-
1157,SER	-	-	1157,SER	1157,SER	1157,SER	1157,SER	1157,SER	-	-	1157,SER	1157,SER	1157,SER	-	-
1158,GLN	-	-	1158,GLN	1158,GLN	1158,GLN	1158,GLN	1158,GLN	-	-	1158,GLN	1158,GLN	1158,GLN	-	-
1159,PRO	-	-	1159,PRO	1159,PRO	1159,PRO	1159,PRO	1159,PRO	-	-	1159,PRO	1159,PRO	1159,PRO	-	-
1160,LEU	-	-	1160,LEU	1160,LEU	1160,LEU	1160,LEU	1160,LEU	-	-	1160,LEU	1160,LEU	1160,LEU	-	-
1161,SER	-	-	1161,SER	1161,SER	1161,SER	1161,SER	1161,SER	-	-	1161,SER	1161,SER	1161,SER	-	-
1162,ALA	-	-	1162,ALA	1162,ALA	1162,ALA	1162,ALA	1162,ALA	-	-	1162,ALA	1162,ALA	1162,ALA	-	-
1163,LEU	-	-	1163,LEU	1163,LEU	1163,LEU	1163,LEU	1163,LEU	-	-	1163,LEU	1163,LEU	1163,LEU	-	-
1164,TRP	-	-	1164,TRP	1164,TRP	1164,TRP	1164,TRP	1164,TRP	-	-	1164,TRP	1164,TRP	1164,TRP	-	-
1165,GLY	-	-	1165,GLY	1165,GLY	1165,GLY	1165,GLY	1165,GLY	-	-	1165,GLY	1165,GLY	1165,GLY	-	-
1166,MET	-	-	1166,MET	1166,MET	1166,MET	1166,MET	1166,MET	-	-	1166,MET	1166,MET	1166,MET	-	-
1167,LYS	-	-	1167,LYS	1167,LYS	1167,LYS	1167,LYS	1167,LYS	-	-	1167,LYS	1167,LYS	1167,LYS	-	-
1168,SER	-	-	1168,SER	1168,SER	1168,SER	1168,SER	1168,SER	-	-	1168,SER	1168,SER	1168,SER	-	-
1169,VAL	-	-	1169,VAL	1169,VAL	1169,VAL	1169,VAL	1169,VAL	-	-	1169,VAL	1169,VAL	1169,VAL	-	-
1170,PHE	-	-	1170,PHE	1170,PHE	1170,PHE	1170,PHE	1170,PHE	-	-	1170,PHE	1170,PHE	1170,PHE	-	-
1171,ASP	-	-	1171,ASP	1171,ASP	1171,ASP	1171,ASP	1171,ASP	-	-	1171,ASP	1171,ASP	1171,ASP	-	-
1172,MET	-	-	1172,MET	1172,MET	1172,MET	1172,MET	1172,MET	-	-	1172,MET	1172,MET	1172,MET	-	-
1173,LYS	-	-	1173,LYS	1173,LYS	1173,LYS	1173,LYS	1173,LYS	-	-	1173,LYS	1173,LYS	1173,LYS	-	-
1174,HIS	-	-	1174,HIS	1174,HIS	1174,HIS	1174,HIS	1174,HIS	-	-	1174,HIS	1174,HIS	1174,HIS	-	-
1175,SER	-	-	1175,SER	1175,SER	1175,SER	1175,SER	1175,SER	-	-	1175,SER	1175,SER	1175,SER	-	-
1176,PHE	-	-	1176,PHE	1176,PHE	1176,PHE	1176,PHE	1176,PHE	-	-	1176,PHE	1176,PHE	1176,PHE	-	-
1177,THR	-	-	1177,THR	1177,THR	1177,THR	1177,THR	1177,THR	-	-	1177,THR	1177,THR	1177,THR	-	-
1178,GLU	-	-	1178,GLU	1178,GLU	1178,GLU	1178,GLU	1178,GLU	-	-	1178,GLU	1178,GLU	1178,GLU	-	-
1179,ASP	-	-	1179,ASP	1179,ASP	1179,ASP	1179,ASP	1179,ASP	-	-	1179,ASP	1179,ASP	1179,ASP	-	-
1180,HIS	-	-	1180,HIS	1180,HIS	1180,HIS	1180,HIS	1180,HIS	-	-	1180,HIS	1180,HIS	1180,HIS	-	-
1181,TYR	-	-	1181,TYR	1181,TYR	1181,TYR	1181,TYR	1181,TYR	-	-	1181,TYR	1181,TYR	1181,TYR	-	-
1182,VAL	-	-	1182,VAL	1182,VAL	1182,VAL	1182,VAL	1182,VAL	-	-	1182,VAL	1182,VAL	1182,VAL	-	-
1183,GLU	-	-	1183,GLU	1183,GLU	1183,GLU	1183,GLU	1183,GLU	-	-	1183,GLU	1183,GLU	1183,GLU	-	-
1184,PHE	-	-	1184,PHE	1184,PHE	1184,PHE	1184,PHE	1184,PHE	-	-	1184,PHE	1184,PHE	1184,PHE	-	-
1185,SER	-	-	1185,SER	1185,SER	1185,SER	1185,SER	1185,SER	-	-	1185,SER	1185,SER	1185,SER	-	-
1186,LYS	-	-	1186,LYS	1186,LYS	1186,LYS	1186,LYS	1186,LYS	-	-	1186,LYS	1186,LYS	1186,LYS	-	-
1187,HIS	-	-	1187,HIS	1187,HIS	1187,HIS	1187,HIS	1187,HIS	-	-	1187,HIS	1187,HIS	1187,HIS	-	-
1188,SER	-	-	1188,SER	1188,SER	1188,SER	1188,SER	1188,SER	-	-	1188,SER	1188,SER	1188,SER	-	-
1189,GLN	-	-	1189,GLN	1189,GLN	1189,GLN	1189,GLN	1189,GLN	-	-	1189,GLN	1189,GLN	1189,GLN	-	-
1190,ASP	-	-	1190,ASP	1190,ASP	1190,ASP	1190,ASP	1190,ASP	-	-	1190,ASP	1190,ASP	1190,ASP	-	-
1191,ARG	-	-	1191,ARG	1191,ARG	1191,ARG	1191,ARG	1191,ARG	-	-	1191,ARG	1191,ARG	1191,ARG	-	-
1192,VAL	-	-	1192,VAL	1192,VAL	1192,VAL	1192,VAL	1192,VAL	-	-	1192,VAL	1192,VAL	1192,VAL	-	-
1193,ILE	-	-	1193,ILE	1193,ILE	1193,ILE	1193,ILE	1193,ILE	-	-	1193,ILE	1193,ILE	1193,ILE	-	-
1194,GLY	-	-	1194,GLY	1194,GLY	1194,GLY	1194,GLY	1194,GLY	-	-	1194,GLY	1194,GLY	1194,GLY	-	-
1195,THR	-	-	1195,THR	1195,THR	1195,THR	1195,THR	1195,THR	-	-	1195,THR	1195,THR	1195,THR	-	-
1196,LYS	-	-	1196,LYS	1196,LYS	1196,LYS	1196,LYS	1196,LYS	-	-	1196,LYS	1196,LYS	1196,LYS	-	-
1197,GLY	-	-	1197,GLY	1197,GLY	1197,GLY	1197,GLY	1197,GLY	-	-	1197,GLY	1197,GLY	1197,GLY	-	-
1198,ASP	-	-	1198,ASP	1198,ASP	1198,ASP	1198,ASP	1198,ASP	-	-	1198,ASP	1198,ASP	1198,ASP	-	-
1199,ILE	-	-	1199,ILE	1199,ILE	1199,ILE	1199,ILE	1199,ILE	-	-	1199,ILE	1199,ILE	1199,ILE	-	-
1200,ALA	-	-	1200,ALA	1200,ALA	1200,ALA	1200,ALA	1200,ALA	-	-	1200,ALA	1200,ALA	1200,ALA	-	-
1201,HIS	-	-	1201,HIS	1201,HIS	1201,HIS	1201,HIS	1201,HIS	-	-	1201,HIS	1201,HIS	1201,HIS	-	-
1202,ILE	-	-	1202,ILE	1202,ILE	1202,ILE	1202,ILE	1202,ILE	-	-	1202,ILE	1202,ILE	1202,ILE	-	-
1203,TYR	-	-	1203,TYR	1203,TYR	1203,TYR	1203,TYR	1203,TYR	-	-	1203,TYR	1203,TYR	1203,TYR	-	-
1204,ASP	-	-	1204,ASP	1204,ASP	1204,ASP	1204,ASP	1204,ASP	-	-	1204,ASP	1204,ASP	1204,ASP	-	-
1205,ILE	-	-	1205,ILE	1205,ILE	1205,ILE	1205,ILE	1205,ILE	-	-	1205,ILE	1205,ILE	1205,ILE	-	-
1206,GLN	-	-	1206,GLN	1206,GLN	1206,GLN	1206,GLN	1206,GLN	-	-	1206,GLN	1206,GLN	1206,GLN	-	-
1207,THR	-	-	1207,THR	1207,THR	1207,THR	1207,THR	1207,THR	-	-	1207,THR	1207,THR	1207,THR	-	-
1208,GLY	-	-	1208,GLY	1208,GLY	1208,GLY	1208,GLY	1208,GLY	-	-	1208,GLY	1208,GLY	1208,GLY	-	-
1209,ASN	-	-	1209,ASN	1209,ASN	1209,ASN	1209,ASN	1209,ASN	-	-	1209,ASN	1209,ASN	1209,ASN	-	-
1210,LYS	-	-	1210,LYS	1210,LYS	1210,LYS	1210,LYS	1210,LYS	-	-	1210,LYS	1210,LYS	1210,LYS	-	-
1211,LEU	-	-	1211,LEU	1211,LEU	1211,LEU	1211,LEU	1211,LEU	-	-	1211,LEU	1211,LEU	1211,LEU	-	-
1212,LEU	-	-	1212,LEU	1212,LEU	1212,LEU	1212,LEU	1212,LEU	-	-	1212,LEU	1212,LEU	1212,LEU	-	-
1213,THR	-	-	1213,THR	1213,THR	1213,THR	1213,THR	1213,THR	-	-	1213,THR	1213,THR	1213,THR	-	-
1214,LEU	-	-	1214,LEU	1214,LEU	1214,LEU	1214,LEU	1214,LEU	-	-	1214,LEU	1214,LEU	1214,LEU	-	-
1215,PHE	-	-	1215,PHE	1215,PHE	1215,PHE	1215,PHE	1215,PHE	-	-	1215,PHE	1215,PHE	1215,PHE	-	-
1216,ASN	-	-	1216,ASN	1216,ASN	1216,ASN	1216,ASN	1216,ASN	-	-	1216,ASN	1216,ASN	1216,ASN	-	-
1217,PRO	-	-	1217,PRO	1217,PRO	1217,PRO	1217,PRO	1217,PRO	-	-	1217,PRO	1217,PRO	1217,PRO	-	-
1218,ASP	-	-	1218,ASP	1218,ASP	1218,ASP	1218,ASP	1218,ASP	-	-	1218,ASP	1218,ASP	1218,ASP	-	-
1219,LEU	-	-	1219,LEU	1219,LEU	1219,LEU	1219,LEU	1219,LEU	-	-	1219,LEU	1219,LEU	1219,LEU	-	-
1220,ALA	-	-	1220,ALA	1220,ALA	1220,ALA	1220,ALA	1220,ALA	-	-	1220,ALA	1220,ALA	1220,ALA	-	-
1221,ASN	-	-	1221,ASN	1221,ASN	1221,ASN	1221,ASN	1221,ASN	-	-	1221,ASN	1221,ASN	1221,ASN	-	-
1222,ASN	-	-	1222,ASN	1222,ASN	1222,ASN	1222,ASN	1222,ASN	-	-	1222,ASN	1222,ASN	1222,ASN	-	-
1223,TYR	-	-	1223,TYR	1223,TYR	1223,TYR	1223,TYR	1223,TYR	-	-	1223,TYR	1223,TYR	1223,TYR	-	-
1224,LYS	-	-	1224,LYS	1224,LYS	1224,LYS	1224,LYS	1224,LYS	-	-	1224,LYS	1224,LYS	1224,LYS	-	-
1225,ARG	-	-	1225,ARG	1225,ARG	1225,ARG	1225,ARG	1225,ARG	-	-	1225,ARG	1225,ARG	1225,ARG	-	-
1226,ASN	-	-	1226,ASN	1226,ASN	1226,ASN	1226,ASN	1226,ASN	-	-	1226,ASN	1226,ASN	1226,ASN	-	-
1227,CYS	-	-	1227,CYS	1227,CYS	1227,CYS	1227,CYS	1227,CYS	-	-	1227,CYS	1227,CYS	1227,CYS	-	-
1228,ALA	-	-	1228,ALA	1228,ALA	1228,ALA	1228,ALA	1228,ALA	-	-	1228,ALA	1228,ALA	1228,ALA	-	-
1229,THR	-	-	1229,THR	1229,THR	1229,THR	1229,THR	1229,THR	-	-	1229,THR	1229,THR	1229,THR	-	-
1230,PHE	-	-	1230,PHE	1230,PHE	1230,PHE	1230,PHE	1230,PHE	-	-	1230,PHE	1230,PHE	1230,PHE	-	-
1231,ASN	-	-	1231,ASN	1231,ASN	1231,ASN	1231,ASN	1231,ASN	-	-	1231,ASN	1231,ASN	1231,ASN	-	-
1232,PRO	-	-	1232,PRO	1232,PRO	1232,PRO	1232,PRO	1232,PRO	-	-	1232,PRO	1232,PRO	1232,PRO	-	-
1233,THR	-	-	1233,THR	1233,THR	1233,THR	1233,THR	1233,THR	-	-	1233,THR	1233,THR	1233,THR	-	-
1234,ASP	-	-	1234,ASP	1234,ASP	1234,ASP	1234,ASP	1234,ASP	-	-	1234,ASP	1234,ASP	1234,ASP	-	-
1235,ASP	-	-	1235,ASP	1235,ASP	1235,ASP	1235,ASP	1235,ASP	-	-	1235,ASP	1235,ASP	1235,ASP	-	-
1236,LEU	-	-	1236,LEU	1236,LEU	1236,LEU	1236,LEU	1236,LEU	-	-	1236,LEU	1236,LEU	1236,LEU	-	-
1237,VAL	-	-	1237,VAL	1237,VAL	1237,VAL	1237,VAL	1237,VAL	-	-	1237,VAL	1237,VAL	1237,VAL	-	-
1238,LEU	-	-	1238,LEU	1238,LEU	1238,LEU	1238,LEU	1238,LEU	-	-	1238,LEU	1238,LEU	1238,LEU	-	-
1239,ASN	-	-	1239,ASN	1239,ASN	1239,ASN	1239,ASN	1239,ASN	-	-	1239,ASN	1239,ASN	1239,ASN	-	-
1240,ASP	-	-	1240,ASP	1240,ASP	1240,ASP	1240,ASP	1240,ASP	-	-	1240,ASP	1240,ASP	1240,ASP	-	-
1241,GLY	-	-	1241,GLY	1241,GLY	1241,GLY	1241,GLY	1241,GLY	-	-	1241,GLY	1241,GLY	1241,GLY	-	-
1242,VAL	-	-	1242,VAL	1242,VAL	1242,VAL	1242,VAL	1242,VAL	-	-	1242,VAL	1242,VAL	1242,VAL	-	-
1243,LEU	-	-	1243,LEU	1243,LEU	1243,LEU	1243,LEU	1243,LEU	-	-	1243,LEU	1243,LEU	1243,LEU	-	-
1244,TRP	-	-	1244,TRP	1244,TRP	1244,TRP	1244,TRP	1244,TRP	-	-	1244,TRP	1244,TRP	1244,TRP	-	-
1245,ASP	-	-	1245,ASP	1245,ASP	1245,ASP	1245,ASP	1245,ASP	-	-	1245,ASP	1245,ASP	1245,ASP	-	-
1246,VAL	-	-	1246,VAL	1246,VAL	1246,VAL	1246,VAL	1246,VAL	-	-	1246,VAL	1246,VAL	1246,VAL	-	-
1247,ARG	-	-	1247,ARG	1247,ARG	1247,ARG	1247,ARG	1247,ARG	-	-	1247,ARG	1247,ARG	1247,ARG	-	-
1248,SER	-	-	1248,SER	1248,SER	1248,SER	1248,SER	1248,SER	-	-	1248,SER	1248,SER	1248,SER	-	-
1249,ALA	-	-	1249,ALA	1249,ALA	1249,ALA	1249,ALA	1249,ALA	-	-	1249,ALA	1249,ALA	1249,ALA	-	-
1250,GLN	-	-	1250,GLN	1250,LEU	1250,LEU	1250,GLN	1250,GLN	-	-	1250,GLN	1250,GLN	1250,GLN	-	-
1251,ALA	-	-	1251,ALA	1251,ALA	1251,ALA	1251,ALA	1251,ALA	-	-	1251,ALA	1251,ALA	1251,ALA	-	-
1252,ILE	-	-	1252,ILE	1252,ILE	1252,ILE	1252,ILE	1252,ILE	-	-	1252,ILE	1252,ILE	1252,ILE	-	-
1253,HIS	-	-	1253,HIS	1253,HIS	1253,HIS	1253,HIS	1253,HIS	-	-	1253,HIS	1253,HIS	1253,HIS	-	-
1254,LYS	-	-	1254,LYS	1254,LYS	1254,LYS	1254,LYS	1254,LYS	-	-	1254,LYS	1254,LYS	1254,LYS	-	-
1255,PHE	-	-	1255,PHE	1255,PHE	1255,PHE	1255,PHE	1255,PHE	-	-	1255,PHE	1255,PHE	1255,PHE	-	-
1256,ASP	-	-	1256,ASP	1256,ASP	1256,ASP	1256,ASP	1256,ASP	-	-	1256,ASP	1256,ASP	1256,ASP	-	-
1257,LYS	-	-	1257,LYS	1257,LYS	1257,LYS	1257,LYS	1257,LYS	-	-	1257,LYS	1257,LYS	1257,LYS	-	-
1258,PHE	-	-	1258,PHE	1258,PHE	1258,PHE	1258,PHE	1258,PHE	-	-	1258,PHE	1258,PHE	1258,PHE	-	-
1259,ASN	-	-	1259,ASN	1259,ASN	1259,ASN	1259,ASN	1259,ASN	-	-	1259,ASN	1259,ASN	1259,ASN	-	-
1260,MET	-	-	1260,MET	1260,MET	1260,MET	1260,MET	1260,MET	-	-	1260,MET	1260,MET	1260,MET	-	-
1261,ASN	-	-	1261,ASN	1261,ASN	1261,ASN	1261,ASN	1261,ASN	-	-	1261,ASN	1261,ASN	1261,ASN	-	-
1262,ILE	-	-	1262,ILE	1262,ILE	1262,ILE	1262,ILE	1262,ILE	-	-	1262,ILE	1262,ILE	1262,ILE	-	-
1263,SER	-	-	1263,SER	1263,SER	1263,SER	1263,SER	1263,SER	-	-	1263,SER	1263,SER	1263,SER	-	-
1264,GLY	-	-	1264,GLY	1264,GLY	1264,GLY	1264,GLY	1264,GLY	-	-	1264,GLY	1264,GLY	1264,GLY	-	-
1265,VAL	-	-	1265,VAL	1265,VAL	1265,VAL	1265,VAL	1265,VAL	-	-	1265,VAL	1265,VAL	1265,VAL	-	-
1266,PHE	-	-	1266,PHE	1266,PHE	1266,PHE	1266,PHE	1266,PHE	-	-	1266,PHE	1266,PHE	1266,PHE	-	-
1267,HIS	-	-	1267,HIS	1267,HIS	1267,HIS	1267,HIS	1267,HIS	-	-	1267,HIS	1267,HIS	1267,HIS	-	-
1268,PRO	-	-	1268,PRO	1268,PRO	1268,PRO	1268,PRO	1268,PRO	-	-	1268,PRO	1268,PRO	1268,PRO	-	-
1269,ASN	-	-	1269,ASN	1269,ASN	1269,ASN	1269,ASN	1269,ASN	-	-	1269,ASN	1269,ASN	1269,ASN	-	-
1270,GLY	-	-	1270,GLY	1270,GLY	1270,GLY	1270,GLY	1270,GLY	-	-	1270,GLY	1270,GLY	1270,GLY	-	-
1271,LEU	-	-	1271,LEU	1271,LEU	1271,LEU	1271,LEU	1271,LEU	-	-	1271,LEU	1271,LEU	1271,LEU	-	-
1272,GLU	-	-	1272,GLU	1272,GLU	1272,GLU	1272,GLU	1272,GLU	-	-	1272,GLU	1272,GLU	1272,GLU	-	-
1273,VAL	-	-	1273,VAL	1273,VAL	1273,VAL	1273,VAL	1273,VAL	-	-	1273,VAL	1273,VAL	1273,VAL	-	-
1274,ILE	-	-	1274,ILE	1274,ILE	1274,ILE	1274,ILE	1274,ILE	-	-	1274,ILE	1274,ILE	1274,ILE	-	-
1275,ILE	-	-	1275,ILE	1275,ILE	1275,ILE	1275,ILE	1275,ILE	-	-	1275,ILE	1275,ILE	1275,ILE	-	-
1276,ASN	-	-	1276,ASN	1276,ASN	1276,ASN	1276,ASN	1276,ASN	-	-	1276,ASN	1276,ASN	1276,ASN	-	-
1277,THR	-	-	1277,THR	1277,THR	1277,THR	1277,THR	1277,THR	-	-	1277,THR	1277,THR	1277,THR	-	-
1278,GLU	-	-	1278,GLU	1278,GLU	1278,GLU	1278,GLU	1278,GLU	-	-	1278,GLU	1278,GLU	1278,GLU	-	-
1279,ILE	-	-	1279,ILE	1279,ILE	1279,ILE	1279,ILE	1279,ILE	-	-	1279,ILE	1279,ILE	1279,ILE	-	-
1280,TRP	-	-	1280,TRP	1280,TRP	1280,TRP	1280,TRP	1280,TRP	-	-	1280,TRP	1280,TRP	1280,TRP	-	-
1281,ASP	-	-	1281,ASP	1281,ASP	1281,ASP	1281,ASP	1281,ASP	-	-	1281,ASP	1281,ASP	1281,ASP	-	-
1282,LEU	-	-	1282,LEU	1282,LEU	1282,LEU	1282,LEU	1282,LEU	-	-	1282,LEU	1282,LEU	1282,LEU	-	-
1283,ARG	-	-	1283,ARG	1283,ARG	1283,ARG	1283,ARG	1283,ARG	-	-	1283,ARG	1283,ARG	1283,ARG	-	-
1284,THR	-	-	1284,THR	1284,THR	1284,THR	1284,THR	1284,THR	-	-	1284,THR	1284,THR	1284,THR	-	-
1285,PHE	-	-	1285,PHE	1285,PHE	1285,PHE	1285,PHE	1285,PHE	-	-	1285,PHE	1285,PHE	1285,PHE	-	-
1286,HIS	-	-	1286,HIS	1286,HIS	1286,HIS	1286,HIS	1286,HIS	-	-	1286,HIS	1286,HIS	1286,HIS	-	-
1287,LEU	-	-	1287,LEU	1287,LEU	1287,LEU	1287,LEU	1287,LEU	-	-	1287,LEU	1287,LEU	1287,LEU	-	-
1288,LEU	-	-	1288,LEU	1288,LEU	1288,LEU	1288,LEU	1288,LEU	-	-	1288,LEU	1288,LEU	1288,LEU	-	-
1289,HIS	-	-	1289,HIS	1289,HIS	1289,HIS	1289,HIS	1289,HIS	-	-	1289,HIS	1289,HIS	1289,HIS	-	-
1290,THR	-	-	1290,THR	1290,THR	1290,THR	1290,THR	1290,THR	-	-	1290,THR	1290,THR	1290,THR	-	-
1291,VAL	-	-	1291,VAL	1291,VAL	1291,VAL	1291,VAL	1291,VAL	-	-	1291,VAL	1291,VAL	1291,VAL	-	-
1292,PRO	-	-	1292,PRO	1292,PRO	1292,PRO	1292,PRO	1292,PRO	-	-	1292,PRO	1292,PRO	1292,PRO	-	-
1293,ALA	-	-	1293,ALA	1293,ALA	1293,ALA	1293,ALA	1293,ALA	-	-	1293,ALA	1293,ALA	1293,ALA	-	-
1294,LEU	-	-	1294,LEU	1294,LEU	1294,LEU	1294,LEU	1294,LEU	-	-	1294,LEU	1294,LEU	1294,LEU	-	-
1295,ASP	-	-	1295,ASP	1295,ASP	1295,ASP	1295,ASP	1295,ASP	-	-	1295,ASP	1295,ASP	1295,ASP	-	-
1296,GLN	-	-	1296,GLN	1296,GLN	1296,GLN	1296,GLN	1296,GLN	-	-	1296,GLN	1296,GLN	1296,GLN	-	-
1297,CYS	-	-	1297,CYS	1297,CYS	1297,CYS	1297,CYS	1297,CYS	-	-	1297,CYS	1297,CYS	1297,CYS	-	-
1298,ARG	-	-	1298,ARG	1298,ARG	1298,ARG	1298,ARG	1298,ARG	-	-	1298,ARG	1298,ARG	1298,ARG	-	-
1299,VAL	-	-	1299,VAL	1299,VAL	1299,VAL	1299,VAL	1299,VAL	-	-	1299,VAL	1299,VAL	1299,VAL	-	-
1300,VAL	-	-	1300,VAL	1300,VAL	1300,VAL	1300,VAL	1300,VAL	-	-	1300,VAL	1300,VAL	1300,VAL	-	-
1301,PHE	-	-	1301,PHE	1301,PHE	1301,PHE	1301,PHE	1301,PHE	-	-	1301,PHE	1301,PHE	1301,PHE	-	-
1302,ASN	-	-	1302,ASN	1302,ASN	1302,ASN	1302,ASN	1302,ASN	-	-	1302,ASN	1302,ASN	1302,ASN	-	-
1303,HIS	-	-	1303,HIS	1303,HIS	1303,HIS	1303,HIS	1303,HIS	-	-	1303,HIS	1303,HIS	1303,HIS	-	-
1304,THR	-	-	1304,THR	1304,THR	1304,THR	1304,THR	1304,THR	-	-	1304,THR	1304,THR	1304,THR	-	-
1305,GLY	-	-	1305,GLY	1305,GLY	1305,GLY	1305,GLY	1305,GLY	-	-	1305,GLY	1305,GLY	1305,GLY	-	-
1306,THR	-	-	1306,THR	1306,THR	1306,THR	1306,THR	1306,THR	-	-	1306,THR	1306,THR	1306,THR	-	-
1307,VAL	-	-	1307,VAL	1307,VAL	1307,VAL	1307,VAL	1307,VAL	-	-	1307,VAL	1307,VAL	1307,VAL	-	-
1308,MET	-	-	1308,MET	1308,MET	1308,MET	1308,MET	1308,MET	-	-	1308,MET	1308,MET	1308,MET	-	-
1309,TYR	-	-	1309,TYR	1309,TYR	1309,TYR	1309,TYR	1309,TYR	-	-	1309,TYR	1309,TYR	1309,TYR	-	-
1310,GLY	-	-	1310,GLY	1310,GLY	1310,GLY	1310,GLY	1310,GLY	-	-	1310,GLY	1310,GLY	1310,GLY	-	-
1311,ALA	-	-	1311,ALA	1311,ALA	1311,ALA	1311,ALA	1311,ALA	-	-	1311,ALA	1311,ALA	1311,ALA	-	-
1312,MET	-	-	1312,MET	1312,MET	1312,MET	1312,MET	1312,MET	-	-	1312,MET	1312,MET	1312,MET	-	-
1313,LEU	-	-	1313,LEU	1313,LEU	1313,LEU	1313,LEU	1313,LEU	-	-	1313,LEU	1313,LEU	1313,LEU	-	-
1314,GLN	-	-	1314,GLN	1314,GLN	1314,GLN	1314,GLN	1314,GLN	-	-	1314,GLN	1314,GLN	1314,GLN	-	-
1315,ALA	-	-	1315,ALA	1315,ALA	1315,ALA	1315,ALA	1315,ALA	-	-	1315,ALA	1315,ALA	1315,ALA	-	-
1316,ASP	-	-	1316,ASP	1316,ASP	1316,ASP	1316,ASP	1316,ASP	-	-	1316,ASP	1316,ASP	1316,ASP	-	-
1317,ASP	-	-	1317,ASP	1317,ASP	1317,ASP	1317,ASP	1317,ASP	-	-	1317,ASP	1317,ASP	1317,ASP	-	-
1318,GLU	-	-	1318,GLU	1318,GLU	1318,GLU	1318,GLU	1318,GLU	-	-	1318,GLU	1318,GLU	1318,GLU	-	-
1319,ASP	-	-	1319,ASP	1319,ASP	1319,ASP	1319,ASP	1319,ASP	-	-	1319,ASP	1319,ASP	1319,ASP	-	-
1320,ASP	-	-	1320,ASP	1320,ASP	1320,ASP	1320,ASP	1320,ASP	-	-	1320,ASP	1320,ASP	1320,ASP	-	-
1321,LEU	-	-	1321,LEU	1321,LEU	1321,LEU	1321,LEU	1321,LEU	-	-	1321,LEU	1321,LEU	1321,LEU	-	-
1322,MET	-	-	1322,MET	1322,MET	1322,MET	1322,MET	1322,MET	-	-	1322,MET	1322,MET	1322,MET	-	-
1323,GLU	-	-	1323,GLU	1323,GLU	1323,GLU	1323,GLU	1323,GLU	-	-	1323,GLU	1323,GLU	1323,GLU	-	-
1324,GLU	-	-	1324,GLU	1324,GLU	1324,GLU	1324,GLU	1324,GLU	-	-	1324,GLU	1324,GLU	1324,GLU	-	-
1325,ARG	-	-	1325,ARG	1325,ARG	1325,ARG	1325,ARG	1325,ARG	-	-	1325,ARG	1325,ARG	1325,ARG	-	-
1326,MET	-	-	1326,MET	1326,MET	1326,MET	1326,MET	1326,MET	-	-	1326,MET	1326,MET	1326,MET	-	-
1327,LYS	-	-	1327,LYS	1327,LYS	1327,LYS	1327,LYS	1327,LYS	-	-	1327,LYS	1327,LYS	1327,LYS	-	-
1328,SER	-	-	1328,SER	1328,SER	1328,SER	1328,SER	1328,SER	-	-	1328,SER	1328,SER	1328,SER	-	-
1329,PRO	-	-	1329,PRO	1329,PRO	1329,PRO	1329,PRO	1329,PRO	-	-	1329,PRO	1329,PRO	1329,PRO	-	-
1330,PHE	-	-	1330,PHE	1330,PHE	1330,PHE	1330,PHE	1330,PHE	-	-	1330,PHE	1330,PHE	1330,PHE	-	-
1331,GLY	-	-	1331,GLY	1331,GLY	1331,GLY	1331,GLY	1331,GLY	-	-	1331,GLY	1331,GLY	1331,GLY	-	-
1332,SER	-	-	1332,SER	1332,SER	1332,SER	1332,SER	1332,SER	-	-	1332,SER	1332,SER	1332,SER	-	-
1333,SER	-	-	1333,SER	1333,SER	1333,SER	1333,SER	1333,SER	-	-	1333,SER	1333,SER	1333,SER	-	-
1334,PHE	-	-	1334,PHE	1334,PHE	1334,PHE	1334,PHE	1334,PHE	-	-	1334,PHE	1334,PHE	1334,PHE	-	-
1335,ARG	-	-	1335,ARG	1335,ARG	1335,ARG	1335,ARG	1335,ARG	-	-	1335,ARG	1335,ARG	1335,ARG	-	-
1336,THR	-	-	1336,THR	1336,THR	1336,THR	1336,THR	1336,THR	-	-	1336,THR	1336,THR	1336,THR	-	-
1337,PHE	-	-	1337,PHE	1337,PHE	1337,PHE	1337,PHE	1337,PHE	-	-	1337,PHE	1337,PHE	1337,PHE	-	-
1338,ASN	-	-	1338,ASN	1338,ASN	1338,ASN	1338,ASN	1338,ASN	-	-	1338,ASN	1338,ASN	1338,ASN	-	-
1339,ALA	-	-	1339,ALA	1339,ALA	1339,ALA	1339,ALA	1339,ALA	-	-	1339,ALA	1339,ALA	1339,ALA	-	-
1340,THR	-	-	1340,THR	1340,THR	1340,THR	1340,THR	1340,THR	-	-	1340,THR	1340,THR	1340,THR	-	-
1341,ASP	-	-	1341,ASP	1341,ASP	1341,ASP	1341,ASP	1341,ASP	-	-	1341,ASP	1341,ASP	1341,ASP	-	-
1342,TYR	-	-	1342,TYR	1342,TYR	1342,TYR	1342,TYR	1342,TYR	-	-	1342,TYR	1342,TYR	1342,TYR	-	-
1343,LYS	-	-	1343,LYS	1343,LYS	1343,LYS	1343,LYS	1343,LYS	-	-	1343,LYS	1343,LYS	1343,LYS	-	-
1344,PRO	-	-	1344,PRO	1344,PRO	1344,PRO	1344,PRO	1344,PRO	-	-	1344,PRO	1344,PRO	1344,PRO	-	-
1345,ILE	-	-	1345,ILE	1345,ILE	1345,ILE	1345,ILE	1345,ILE	-	-	1345,ILE	1345,ILE	1345,ILE	-	-
1346,ALA	-	-	1346,ALA	1346,ALA	1346,ALA	1346,ALA	1346,ALA	-	-	1346,ALA	1346,ALA	1346,ALA	-	-
1347,THR	-	-	1347,THR	1347,THR	1347,THR	1347,THR	1347,THR	-	-	1347,THR	1347,THR	1347,THR	-	-
1348,ILE	-	-	1348,ILE	1348,ILE	1348,ILE	1348,ILE	1348,ILE	-	-	1348,ILE	1348,ILE	1348,ILE	-	-
1349,ASP	-	-	1349,ASP	1349,ASP	1349,ASP	1349,ASP	1349,ASP	-	-	1349,ASP	1349,ASP	1349,ASP	-	-
1350,VAL	-	-	1350,VAL	1350,VAL	1350,VAL	1350,VAL	1350,VAL	-	-	1350,VAL	1350,VAL	1350,VAL	-	-
1351,LYS	-	-	1351,LYS	1351,LYS	1351,LYS	1351,LYS	1351,LYS	-	-	1351,LYS	1351,LYS	1351,LYS	-	-
1352,ARG	-	-	1352,ARG	1352,ARG	1352,ARG	1352,ARG	1352,ARG	-	-	1352,ARG	1352,ARG	1352,ARG	-	-
1353,ASN	-	-	1353,ASN	1353,ASN	1353,ASN	1353,ASN	1353,ASN	-	-	1353,ASN	1353,ASN	1353,ASN	-	-
1354,ILE	-	-	1354,ILE	1354,ILE	1354,ILE	1354,ILE	1354,ILE	-	-	1354,ILE	1354,ILE	1354,ILE	-	-
1355,PHE	-	-	1355,PHE	1355,PHE	1355,PHE	1355,PHE	1355,PHE	-	-	1355,PHE	1355,PHE	1355,PHE	-	-
1356,ASP	-	-	1356,ASP	1356,ASP	1356,ASP	1356,ASP	1356,ASP	-	-	1356,ASP	1356,ASP	1356,ASP	-	-
1357,LEU	-	-	1357,LEU	1357,LEU	1357,LEU	1357,LEU	1357,LEU	-	-	1357,LEU	1357,LEU	1357,LEU	-	-
1358,CYS	-	-	1358,CYS	1358,CYS	1358,CYS	1358,CYS	1358,CYS	-	-	1358,CYS	1358,CYS	1358,CYS	-	-
1359,THR	-	-	1359,THR	1359,THR	1359,THR	1359,THR	1359,THR	-	-	1359,THR	1359,THR	1359,THR	-	-
1360,ASP	-	-	1360,ASP	1360,ASP	1360,ASP	1360,ASP	1360,ASP	-	-	1360,ASP	1360,ASP	1360,ASP	-	-
1361,THR	-	-	1361,THR	1361,THR	1361,THR	1361,THR	1361,THR	-	-	1361,THR	1361,THR	1361,THR	-	-
1362,LYS	-	-	1362,LYS	1362,LYS	1362,LYS	1362,LYS	1362,LYS	-	-	1362,LYS	1362,LYS	1362,LYS	-	-
1363,ASP	-	-	1363,ASP	1363,ASP	1363,ASP	1363,ASP	1363,ASP	-	-	1363,ASP	1363,ASP	1363,ASP	-	-
1364,CYS	-	-	1364,CYS	1364,CYS	1364,CYS	1364,CYS	1364,CYS	-	-	1364,CYS	1364,CYS	1364,CYS	-	-
1365,TYR	-	-	1365,TYR	1365,TYR	1365,TYR	1365,TYR	1365,TYR	-	-	1365,TYR	1365,TYR	1365,TYR	-	-
1366,LEU	-	-	1366,LEU	1366,LEU	1366,LEU	1366,LEU	1366,LEU	-	-	1366,LEU	1366,LEU	1366,LEU	-	-
1367,ALA	-	-	1367,ALA	1367,ALA	1367,ALA	1367,ALA	1367,ALA	-	-	1367,ALA	1367,ALA	1367,ALA	-	-
1368,VAL	-	-	1368,VAL	1368,VAL	1368,VAL	1368,VAL	1368,VAL	-	-	1368,VAL	1371,ASN	1368,VAL	-	-
1369,ILE	-	-	1369,ILE	1369,ILE	1369,ILE	1369,ILE	1369,ILE	-	-	1369,ILE	1368,VAL	1369,ILE	-	-
1370,GLU	-	-	1370,GLU	1370,GLU	1370,GLU	1370,GLU	1370,GLU	-	-	1370,GLU	1369,ILE	1370,GLU	-	-
1371,ASN	-	-	1371,ASN	1371,ASN	1371,ASN	1371,ASN	1371,ASN	-	-	1371,ASN	1370,GLU	1371,ASN	-	-
1372,GLN	-	-	1372,GLN	1372,GLN	1372,GLN	1372,GLN	1372,GLN	-	-	1372,GLN	1372,GLN	1372,GLN	-	-
1373,GLY	-	-	1373,GLY	1373,GLY	1373,GLY	1373,GLY	1373,GLY	-	-	1373,GLY	1373,GLY	1373,GLY	-	-
1374,SER	-	-	1374,SER	1374,SER	1374,SER	1374,SER	1374,SER	-	-	1374,SER	1374,SER	1374,SER	-	-
1375,MET	-	-	1375,MET	1375,MET	1375,MET	1375,MET	1375,MET	-	-	1375,MET	1375,MET	1375,MET	-	-
1376,ASP	-	-	1376,ASP	1376,ASP	1376,ASP	1376,ASP	1376,ASP	-	-	1376,ASP	1376,ASP	1376,ASP	-	-
1377,ALA	-	-	1377,ALA	1377,ALA	1377,ALA	1377,ALA	1377,ALA	-	-	1377,ALA	1377,ALA	1377,ALA	-	-
1378,LEU	-	-	1378,LEU	1378,LEU	1378,LEU	1378,LEU	1378,LEU	-	-	1378,LEU	1378,LEU	1378,LEU	-	-
1379,ASN	-	-	1379,ASN	1379,ASN	1379,ASN	1379,ASN	1379,ASN	-	-	1379,ASN	1379,ASN	1379,ASN	-	-
1380,MET	-	-	1380,MET	1380,MET	1380,MET	1380,MET	1380,MET	-	-	1380,MET	1380,MET	1380,MET	-	-
1381,ASP	-	-	1381,ASP	1381,ASP	1381,ASP	1381,ASP	1381,ASP	-	-	1381,ASP	1381,ASP	1381,ASP	-	-
1382,THR	-	-	1382,THR	1382,THR	1382,THR	1382,THR	1382,THR	-	-	1382,THR	1382,THR	1382,THR	-	-
1383,VAL	-	-	1383,VAL	1383,VAL	1383,VAL	1383,VAL	1383,VAL	-	-	1383,VAL	1383,VAL	1383,VAL	-	-
1384,CYS	-	-	1384,CYS	1384,CYS	1384,CYS	1384,CYS	1384,CYS	-	-	1384,CYS	1384,CYS	1384,CYS	-	-
1385,ARG	-	-	1385,ARG	1385,ARG	1385,ARG	1385,ARG	1385,ARG	-	-	1385,ARG	1385,ARG	1385,ARG	-	-
1386,LEU	-	-	1386,LEU	1386,LEU	1386,LEU	1386,LEU	1386,LEU	-	-	1386,LEU	1386,LEU	1386,LEU	-	-
1387,TYR	-	-	1387,TYR	1387,TYR	1387,TYR	1387,TYR	1387,TYR	-	-	1387,TYR	1387,TYR	1387,TYR	-	-
1388,GLU	-	-	1388,GLU	1388,GLU	1388,GLU	1388,GLU	1388,GLU	-	-	1388,GLU	1388,GLU	1388,GLU	-	-
1389,VAL	-	-	1389,VAL	1389,VAL	1389,VAL	1389,VAL	1389,VAL	-	-	1389,VAL	1389,VAL	1389,VAL	-	-
1390,GLY	-	-	1390,GLY	1390,GLY	1390,GLY	1390,GLY	1390,GLY	-	-	1390,GLY	1390,GLY	1390,GLY	-	-
1391,ARG	-	-	1391,ARG	1391,ARG	1391,ARG	1391,ARG	1391,ARG	-	-	1391,ARG	1391,ARG	1391,ARG	-	-
1392,GLN	-	-	1392,GLN	1392,GLN	1392,GLN	1392,GLN	1392,GLN	-	-	1392,GLN	1392,GLN	1392,GLN	-	-
1393,ARG	-	-	1393,ARG	1393,ARG	1393,ARG	1393,ARG	1393,ARG	-	-	1393,ARG	1393,ARG	1393,ARG	-	-
1394,LEU	-	-	1394,LEU	1394,LEU	1394,LEU	1394,LEU	1394,LEU	-	-	1394,LEU	1394,LEU	1394,LEU	-	-
1395,ALA	-	-	1395,ALA	1395,ALA	1395,ALA	1395,ALA	1395,ALA	-	-	1395,ALA	1395,ALA	1395,ALA	-	-
1396,GLU	-	-	1396,GLU	1396,GLU	1396,GLU	1396,GLU	1396,GLU	-	-	1396,GLU	1396,GLU	1396,GLU	-	-
1397,ASP	-	-	-	1397,ASP	1397,ASP	-	-	-	-	-	-	-	-	-
1398,GLU	-	-	-	1398,GLU	1398,GLU	-	-	-	-	-	-	-	-	-
1399,ASP	-	-	-	1399,ASP	1399,ASP	-	-	-	-	-	-	-	-	-
1400,GLU	-	-	-	1400,GLU	1400,GLU	-	-	-	-	-	-	-	-	-
1401,GLU	-	-	-	1401,GLU	1401,GLU	-	-	-	-	-	-	-	-	-
1402,GLU	-	-	-	-	-	-	-	-	-	-	-	-	-	-
1403,ASP	-	-	-	-	-	-	-	-	-	-	-	-	-	-
1404,GLN	-	-	-	-	-	-	-	-	-	-	-	-	-	-
1405,GLU	-	-	-	-	-	-	-	-	-	-	-	-	-	-
1406,GLU	-	-	-	-	-	-	-	-	-	-	-	-	-	-
1407,GLU	-	-	-	-	-	-	-	-	-	-	-	-	-	-
1408,GLU	-	-	-	-	-	-	-	-	-	-	-	-	-	-
1409,GLN	-	-	-	-	-	-	-	-	-	-	-	-	-	-
1410,GLU	-	-	-	-	-	-	-	-	-	-	-	-	-	-
1411,GLU	-	-	-	-	-	-	-	-	-	-	-	-	-	-
1412,GLU	-	-	-	-	-	-	-	-	-	-	-	-	-	-
1413,ASP	-	-	-	-	-	-	-	-	-	-	-	-	-	-
1414,ASP	-	-	-	-	-	-	-	-	-	-	-	-	-	-
1415,ASP	-	-	-	-	-	-	-	-	-	-	-	-	-	-
1416,GLU	-	-	-	-	-	-	-	-	-	-	-	-	-	-
1417,ASP	-	-	-	-	-	-	-	-	-	-	-	-	-	-
1418,ASP	-	-	-	-	-	-	-	-	-	-	-	-	1417,ASP	1417,ASP
1419,ASP	-	-	-	-	-	-	-	-	-	-	-	-	1418,ASP	1418,ASP
1420,ASP	-	-	-	-	-	-	-	-	-	-	-	-	1419,ASP	1419,ASP
1421,THR	-	-	-	-	-	-	-	-	-	-	-	-	1420,THR	1420,THR
1422,ASP	-	-	-	-	-	-	-	-	-	-	-	-	1421,ASP	1421,ASP
1423,ASP	-	-	-	-	-	-	-	-	-	-	-	-	1422,ASP	1422,ASP
1424,LEU	-	-	-	-	-	-	-	-	-	-	-	-	1423,LEU	1423,LEU
1425,ASP	-	-	-	-	-	-	-	-	-	-	-	-	1424,ASP	1424,ASP
1426,GLU	-	-	-	-	-	-	-	-	-	-	-	-	1425,GLU	1425,GLU
1427,LEU	-	-	-	-	-	-	-	-	-	-	-	-	1426,LEU	1426,LEU
1428,ASP	-	-	-	-	-	-	-	-	-	-	-	-	1427,ASP	1427,ASP
1429,THR	-	-	-	-	-	-	-	-	-	-	-	-	1428,THR	1428,THR
1430,ASP	-	-	-	-	-	-	-	-	-	-	-	-	1429,ASP	1429,ASP
1431,GLN	-	-	-	-	-	-	-	-	-	-	-	-	1430,GLN	1430,GLN
1432,LEU	-	-	-	-	-	-	-	-	-	-	-	-	1431,LEU	1431,LEU
1433,LEU	-	-	-	-	-	-	-	-	-	-	-	-	1432,LEU	1432,LEU
1434,GLU	-	-	-	-	-	-	-	-	-	-	-	-	1433,GLU	1433,GLU
1435,ALA	-	-	-	-	-	-	-	-	-	-	-	-	1434,ALA	1434,ALA
1436,GLU	-	-	-	-	-	-	-	-	-	-	-	-	1435,GLU	1435,GLU
1437,LEU	-	-	-	-	-	-	-	-	-	-	-	-	1436,LEU	1436,LEU
1438,GLU	-	-	-	-	-	-	-	-	-	-	-	-	1437,GLU	1437,GLU
1439,GLU	-	-	-	-	-	-	-	-	-	-	-	-	1438,GLU	1438,GLU
1440,ASP	-	-	-	-	-	-	-	-	-	-	-	-	1439,ASP	1439,ASP
1441,ASP	-	-	-	-	-	-	-	-	-	-	-	-	1440,ASP	1440,ASP
1442,ASN	-	-	-	-	-	-	-	-	-	-	-	-	1441,ASN	1441,ASN
1443,ASN	-	-	-	-	-	-	-	-	-	-	-	-	1442,ASN	1442,ASN
1444,GLU	-	-	-	-	-	-	-	-	-	-	-	-	1443,GLU	1443,GLU
1445,ASN	-	-	-	-	-	-	-	-	-	-	-	-	1444,ASN	1444,ASN
1446,ALA	-	-	-	-	-	-	-	-	-	-	-	-	1445,ALA	1445,ALA
1447,GLY	-	-	-	-	-	-	-	1447,GLY	1447,GLY	-	-	-	1446,GLY	1446,GLY
1448,GLU	-	-	-	-	-	-	-	1448,GLU	1448,GLU	-	-	-	1447,GLU	1447,GLU
1449,ASP	-	-	-	-	-	-	-	1449,ASP	1449,ASP	-	-	-	1448,ASP	1448,ASP
1450,GLY	-	-	-	-	-	-	-	1450,GLY	1450,GLY	-	-	-	1449,GLY	1449,GLY
1451,ASP	-	-	-	-	-	-	-	1451,ASP	1451,ASP	-	-	-	1450,ASP	1450,ASP
1452,ASN	-	-	-	-	-	-	-	1452,ASN	1452,ASN	-	-	-	1451,ASN	1451,ASN
1453,ASP	-	-	-	-	-	-	-	1453,ASP	1453,ASP	-	-	-	1452,ASP	1452,ASP
1454,PHE	-	-	-	-	-	-	-	1454,PHE	1454,PHE	-	-	-	1453,PHE	1453,PHE
1455,SER	-	-	-	-	-	-	-	1455,SER	1455,SER	-	-	-	1454,SER	1454,SER
1456,PRO	-	-	-	-	-	-	-	1456,PRO	1456,PRO	-	-	-	1455,PRO	1455,PRO
1457,SER	-	-	-	-	-	-	-	1457,SER	1457,SER	-	-	-	1456,SER	1456,SER
1458,ASP	-	-	-	-	-	-	-	1458,ASP	1458,ASP	-	-	-	1457,ASP	1457,ASP
1459,GLU	-	-	-	-	-	-	-	1459,GLU	1459,GLU	-	-	-	1458,GLU	1458,GLU
1460,GLU	-	-	-	-	-	-	-	1460,GLU	1460,GLU	-	-	-	1459,GLU	1459,GLU
1461,LEU	-	-	-	-	-	-	-	1461,LEU	1461,LEU	-	-	-	1460,LEU	1460,LEU
1462,ALA	-	-	-	-	-	-	-	1462,ALA	1462,ALA	-	-	-	1461,ALA	1461,ALA
1463,ASN	-	-	-	-	-	-	-	1463,ASN	1463,ASN	-	-	-	1462,ASN	1462,ASN
1464,LEU	-	-	-	-	-	-	-	1464,LEU	1464,LEU	-	-	-	1463,LEU	1463,LEU
1465,LEU	-	-	-	-	-	-	-	1465,LEU	1465,LEU	-	-	-	1464,LEU	1464,LEU
1466,GLU	-	-	-	-	-	-	-	1466,GLU	1466,GLU	-	-	-	1465,GLU	1465,GLU
1467,GLU	-	-	-	-	-	-	-	1467,GLU	1467,GLU	-	-	-	1466,GLU	1466,GLU
1468,GLY	-	-	-	-	-	-	-	1468,GLY	1468,GLY	-	-	-	1467,GLY	1467,GLY
1469,GLU	-	-	-	-	-	-	-	1469,GLU	1469,GLU	-	-	-	1468,GLU	1468,GLU
1470,ASP	-	-	-	-	-	-	-	1470,ASP	1470,ASP	-	-	-	1469,ASP	1469,ASP
1471,GLY	-	-	-	-	-	-	-	1471,GLY	1471,GLY	-	-	-	1470,GLY	1470,GLY
1472,GLU	-	-	-	-	-	-	-	1472,GLU	1472,GLU	-	-	-	1471,GLU	1471,GLU
1473,ASP	-	-	-	-	-	-	-	1473,ASP	1473,ASP	-	-	-	1472,ASP	1472,ASP
1474,GLU	-	-	-	-	-	-	-	1474,GLU	1474,GLU	-	-	-	1473,GLU	1473,GLU
1475,ASP	810,ASP	810,ASP	-	-	-	-	-	1475,ASP	1475,ASP	-	-	-	1474,ASP	1474,ASP
1476,SER	811,SER	811,SER	-	-	-	-	-	1476,SER	1476,SER	-	-	-	1475,SER	1475,SER
1477,ASP	812,ASP	812,ASP	-	-	-	-	-	1477,ASP	1477,ASP	-	-	-	1476,ASP	1476,ASP
1478,ALA	813,ALA	813,ALA	-	-	-	-	-	1478,ALA	1478,ALA	-	-	-	1477,ALA	1477,ALA
1479,ASP	814,ASP	814,ASP	-	-	-	-	-	1479,ASP	1479,ASP	-	-	-	1478,ASP	1478,ASP
1480,GLU	815,GLU	815,GLU	-	-	-	-	-	1480,GLU	1480,GLU	-	-	-	1479,GLU	1479,GLU
1481,GLU	816,GLU	816,GLU	-	-	-	-	-	1481,GLU	1481,GLU	-	-	-	1480,GLU	1480,GLU
1482,VAL	817,VAL	817,VAL	-	-	-	-	-	1482,VAL	1482,VAL	-	-	-	1481,VAL	1481,VAL
1483,GLU	818,GLU	818,GLU	-	-	-	-	-	1483,GLU	1483,GLU	-	-	-	1482,GLU	1482,GLU
1484,LEU	819,LEU	819,LEU	-	-	-	-	-	1484,LEU	1484,LEU	-	-	-	1483,LEU	1483,LEU
1485,ILE	820,ILE	820,ILE	-	-	-	-	-	1485,ILE	1485,ILE	-	-	-	1484,ILE	1484,ILE
1486,LEU	821,LEU	821,LEU	-	-	-	-	-	1486,LEU	1486,LEU	-	-	-	1485,LEU	1485,LEU
1487,GLY	822,GLY	822,GLY	-	-	-	-	-	1487,GLY	1487,GLY	-	-	-	1486,GLY	1486,GLY
1488,ASP	823,ASP	823,ASP	-	-	-	-	-	1488,ASP	1488,ASP	-	-	-	1487,ASP	1487,ASP
1489,THR	824,THR	824,THR	-	-	-	-	-	1489,THR	1489,THR	-	-	-	1488,THR	1488,THR
1490,ASP	825,ASP	825,ASP	-	-	-	-	-	1490,ASP	1490,ASP	-	-	-	1489,ASP	1489,ASP
1491,SER	826,SER	826,SER	-	-	-	-	-	1491,SER	1491,SER	-	-	-	1490,SER	1490,SER
1492,SER	827,SER	827,SER	-	-	-	-	-	1492,SER	1492,SER	-	-	-	1491,SER	1491,SER
1493,ASP	828,ASP	828,ASP	-	-	-	-	-	1493,ASP	1493,ASP	-	-	-	1492,ASP	1492,ASP
1494,ASN	829,ASN	829,ASN	-	-	-	-	-	1494,ASN	1494,ASN	-	-	-	1493,ASN	1493,ASN
1495,SER	830,SER	830,SER	-	-	-	-	-	1495,SER	1495,SER	-	-	-	1494,SER	1494,SER
1496,ASP	831,ASP	831,ASP	-	-	-	-	-	1496,ASP	1496,ASP	-	-	-	1495,ASP	1495,ASP
1497,LEU	832,LEU	832,LEU	-	-	-	-	-	1497,LEU	1497,LEU	-	-	-	1496,LEU	1496,LEU
1498,GLU	833,GLU	833,GLU	-	-	-	-	-	1498,GLU	1498,GLU	-	-	-	1497,GLU	1497,GLU
1499,ASP	834,ASP	834,ASP	-	-	-	-	-	1499,ASP	1502,ILE	-	-	-	1498,ASP	1498,ASP
1500,ASP	835,ASP	835,ASP	-	-	-	-	-	1500,ASP	1499,ASP	-	-	-	1499,ASP	1499,ASP
1501,ILE	836,ILE	836,ILE	-	-	-	-	-	1501,ILE	1500,ASP	-	-	-	1500,ILE	1500,ILE
1502,ILE	837,ILE	837,ILE	-	-	-	-	-	1502,ILE	1501,ILE	-	-	-	1501,ILE	1501,ILE
1503,LEU	838,LEU	838,LEU	-	-	-	-	-	1503,LEU	1503,LEU	-	-	-	1502,LEU	1502,LEU
1504,SER	839,SER	839,SER	-	-	-	-	-	1504,SER	1504,SER	-	-	-	1503,SER	1503,SER
1505,LEU	840,LEU	840,LEU	-	-	-	-	-	1505,LEU	1505,LEU	-	-	-	1504,LEU	1504,LEU
1506,ASN	841,ASN	841,ASN	-	-	-	-	-	1506,ASN	1506,ASN	-	-	-	1505,ASN	1505,ASN
1507,GLU	842,GLU	842,GLU	-	-	-	-	-	1507,GLU	1507,GLU	-	-	-	1506,GLU	1506,GLU
