uniprot_isoform	location_id	ENSEMBL ID	uniprot_start	uniprot_end	1bj7A_start	1bj7A_end	4wfuA_start	4wfuA_end	4wfvA_start	4wfvA_end
1	X_137187949_137184000_-1	ENSBTAE00000470186	1	27	-	11	-	11	-	11
1	X_137187949_137184000_-1	ENSBTAE00000374727	28	74	12	58	12	58	12	58
1	X_137187949_137184000_-1	ENSBTAE00000463652	74	98	58	82	58	82	58	82
1	X_137187949_137184000_-1	ENSBTAE00000468035	98	134	82	118	82	118	82	118
1	X_137187949_137184000_-1	ENSBTAE00000480630	134	168	118	152	118	152	118	152
1	X_137187949_137184000_-1	ENSBTAE00000473826	168	172	152	156	152	156	152	156
2	X_137187949_137184000_-1	ENSBTAE00000483852	1	27	-	11	-	11	-	11
2	X_137187949_137184000_-1	ENSBTAE00000374727	28	74	12	58	12	58	12	58
2	X_137187949_137184000_-1	ENSBTAE00000463652	74	98	58	82	58	82	58	82
2	X_137187949_137184000_-1	ENSBTAE00000468035	98	134	82	118	82	118	82	118
2	X_137187949_137184000_-1	ENSBTAE00000480630	134	168	118	152	118	152	118	152
2	X_137187949_137184000_-1	ENSBTAE00000505865	168	172	152	156	152	156	152	156
