uniprot_isoform	location_id	ENSEMBL ID	uniprot_start	uniprot_end	2v70A_start	2v70A_end	2v70C_start	2v70C_end	2v70B_start	2v70B_end	2v70D_start	2v70D_end	2wfhA_start	2wfhA_end	2wfhB_start	2wfhB_end	2v9sA_start	2v9sA_end	2v9sC_start	2v9sC_end	2v9sB_start	2v9sB_end	2v9sD_start	2v9sD_end	2v9tB_start	2v9tB_end
1	4_20253816_20619006_1	ENSE00002066916	1	60	-	-	-	-	-	-	-	-	-	-	-	-	-	-	-	-	-	-	-	-	-	-
1	4_20253816_20619006_1	ENSE00001722579	60	84	-	-	-	-	-	-	-	-	-	-	-	-	-	-	-	-	-	-	-	-	-	-
1	4_20253816_20619006_1	ENSE00001795924	84	108	-	-	-	-	-	-	-	-	-	-	-	-	-	-	-	-	-	-	-	-	-	-
1	4_20253816_20619006_1	ENSE00001071965	108	132	-	-	-	-	-	-	-	-	-	-	-	-	-	-	-	-	-	-	-	-	-	-
1	4_20253816_20619006_1	ENSE00000998139	132	156	-	-	-	-	-	-	-	-	-	-	-	-	-	-	-	-	-	-	-	-	-	-
1	4_20253816_20619006_1	ENSE00000998162	156	180	-	-	-	-	-	-	-	-	-	-	-	-	-	-	-	-	-	-	-	-	-	-
1	4_20253816_20619006_1	ENSE00000998154	180	204	-	-	-	-	-	-	-	-	-	-	-	-	-	-	-	-	-	-	-	-	-	-
1	4_20253816_20619006_1	ENSE00000998143	204	259	-	-	-	-	-	-	-	-	-	-	-	-	-	-	-	-	-	-	-	-	-	-
1	4_20253816_20619006_1	ENSE00000998149	259	305	-	-	-	-	-	-	-	-	-	-	-	-	-	305	-	305	-	305	-	305	-	305
1	4_20253816_20619006_1	ENSE00000998132	305	329	-	-	-	-	-	-	-	-	-	-	-	-	305	329	305	329	305	329	305	329	305	329
1	4_20253816_20619006_1	ENSE00000998160	329	353	-	-	-	-	-	-	-	-	-	-	-	-	329	353	329	353	329	353	329	353	329	353
1	4_20253816_20619006_1	ENSE00000998130	353	377	-	-	-	-	-	-	-	-	-	-	-	-	353	377	353	377	353	377	353	377	353	377
1	4_20253816_20619006_1	ENSE00000998157	377	425	-	-	-	-	-	-	-	-	-	-	-	-	377	425	377	425	377	425	377	425	377	425
1	4_20253816_20619006_1	ENSE00000998136	425	480	-	-	-	-	-	-	-	-	-	-	-	-	425	480	425	480	425	480	425	480	425	480
1	4_20253816_20619006_1	ENSE00000998156	480	488	-	-	-	-	-	-	-	-	-	-	-	-	480	-	480	-	480	-	480	-	480	-
1	4_20253816_20619006_1	ENSE00000998158	488	538	-	538	-	538	-	538	-	538	-	-	-	-	-	-	-	-	-	-	-	-	-	-
1	4_20253816_20619006_1	ENSE00000998137	538	563	538	563	538	563	538	563	538	563	-	-	-	-	-	-	-	-	-	-	-	-	-	-
1	4_20253816_20619006_1	ENSE00000998147	563	611	563	611	563	611	563	611	563	611	-	-	-	-	-	-	-	-	-	-	-	-	-	-
1	4_20253816_20619006_1	ENSE00000998159	611	659	611	659	611	659	611	659	611	659	-	-	-	-	-	-	-	-	-	-	-	-	-	-
1	4_20253816_20619006_1	ENSE00000998151	659	715	659	715	659	715	659	715	659	715	-	-	-	-	-	-	-	-	-	-	-	-	-	-
1	4_20253816_20619006_1	ENSE00003491609	715	759	715	-	715	-	715	-	715	-	-	759	-	759	-	-	-	-	-	-	-	-	-	-
1	4_20253816_20619006_1	ENSE00003547381	759	782	-	-	-	-	-	-	-	-	759	782	759	782	-	-	-	-	-	-	-	-	-	-
1	4_20253816_20619006_1	ENSE00003561586	782	806	-	-	-	-	-	-	-	-	782	806	782	806	-	-	-	-	-	-	-	-	-	-
1	4_20253816_20619006_1	ENSE00003578988	806	830	-	-	-	-	-	-	-	-	806	830	806	830	-	-	-	-	-	-	-	-	-	-
1	4_20253816_20619006_1	ENSE00003573338	830	854	-	-	-	-	-	-	-	-	830	854	830	854	-	-	-	-	-	-	-	-	-	-
1	4_20253816_20619006_1	ENSE00000998141	854	909	-	-	-	-	-	-	-	-	854	-	854	-	-	-	-	-	-	-	-	-	-	-
1	4_20253816_20619006_1	ENSE00000998153	909	950	-	-	-	-	-	-	-	-	-	-	-	-	-	-	-	-	-	-	-	-	-	-
1	4_20253816_20619006_1	ENSE00000998150	951	983	-	-	-	-	-	-	-	-	-	-	-	-	-	-	-	-	-	-	-	-	-	-
1	4_20253816_20619006_1	ENSE00000998140	983	1030	-	-	-	-	-	-	-	-	-	-	-	-	-	-	-	-	-	-	-	-	-	-
1	4_20253816_20619006_1	ENSE00000998131	1030	1061	-	-	-	-	-	-	-	-	-	-	-	-	-	-	-	-	-	-	-	-	-	-
1	4_20253816_20619006_1	ENSE00000998148	1061	1107	-	-	-	-	-	-	-	-	-	-	-	-	-	-	-	-	-	-	-	-	-	-
1	4_20253816_20619006_1	ENSE00000998135	1107	1187	-	-	-	-	-	-	-	-	-	-	-	-	-	-	-	-	-	-	-	-	-	-
1	4_20253816_20619006_1	ENSE00000998161	1188	1231	-	-	-	-	-	-	-	-	-	-	-	-	-	-	-	-	-	-	-	-	-	-
1	4_20253816_20619006_1	ENSE00001316493	1231	1283	-	-	-	-	-	-	-	-	-	-	-	-	-	-	-	-	-	-	-	-	-	-
1	4_20253816_20619006_1	ENSE00000998133	1283	1379	-	-	-	-	-	-	-	-	-	-	-	-	-	-	-	-	-	-	-	-	-	-
1	4_20253816_20619006_1	ENSE00003618372	1379	1450	-	-	-	-	-	-	-	-	-	-	-	-	-	-	-	-	-	-	-	-	-	-
1	4_20253816_20619006_1	ENSE00002031800	1450	1529	-	-	-	-	-	-	-	-	-	-	-	-	-	-	-	-	-	-	-	-	-	-
