Q7SIG6	1dcqA
1,MET	-
2,PRO	-
3,ASP	-
4,GLN	-
5,ILE	-
6,SER	-
7,VAL	-
8,SER	-
9,GLU	-
10,PHE	-
11,VAL	-
12,ALA	-
13,GLU	-
14,THR	-
15,HIS	-
16,GLU	-
17,ASP	-
18,TYR	-
19,LYS	-
20,ALA	-
21,PRO	-
22,THR	-
23,ALA	-
24,SER	-
25,SER	-
26,PHE	-
27,THR	-
28,THR	-
29,ARG	-
30,THR	-
31,ALA	-
32,GLN	-
33,CYS	-
34,ARG	-
35,ASN	-
36,THR	-
37,VAL	-
38,ALA	-
39,ALA	-
40,ILE	-
41,GLU	-
42,GLU	-
43,ALA	-
44,LEU	-
45,ASP	-
46,VAL	-
47,ASP	-
48,ARG	-
49,MET	-
50,VAL	-
51,LEU	-
52,TYR	-
53,LYS	-
54,MET	-
55,LYS	-
56,LYS	-
57,SER	-
58,VAL	-
59,LYS	-
60,ALA	-
61,ILE	-
62,ASN	-
63,ILE	-
64,SER	-
65,GLY	-
66,LEU	-
67,ALA	-
68,HIS	-
69,VAL	-
70,GLU	-
71,ASN	-
72,GLU	-
73,GLU	-
74,GLN	-
75,TYR	-
76,THR	-
77,GLN	-
78,ALA	-
79,LEU	-
80,GLU	-
81,LYS	-
82,PHE	-
83,GLY	-
84,GLY	-
85,ASN	-
86,CYS	-
87,VAL	-
88,CYS	-
89,ARG	-
90,ASP	-
91,ASP	-
92,PRO	-
93,ASP	-
94,LEU	-
95,GLY	-
96,SER	-
97,ALA	-
98,PHE	-
99,LEU	-
100,LYS	-
101,PHE	-
102,SER	-
103,VAL	-
104,PHE	-
105,THR	-
106,LYS	-
107,GLU	-
108,LEU	-
109,THR	-
110,ALA	-
111,LEU	-
112,PHE	-
113,LYS	-
114,ASN	-
115,LEU	-
116,ILE	-
117,GLN	-
118,ASN	-
119,MET	-
120,ASN	-
121,ASN	-
122,ILE	-
123,ILE	-
124,SER	-
125,PHE	-
126,PRO	-
127,LEU	-
128,ASP	-
129,SER	-
130,LEU	-
131,LEU	-
132,LYS	-
133,GLY	-
134,ASP	-
135,LEU	-
136,LYS	-
137,GLY	-
138,VAL	-
139,LYS	-
140,GLY	-
141,ASP	-
142,LEU	-
143,LYS	-
144,LYS	-
145,PRO	-
146,PHE	-
147,ASP	-
148,LYS	-
149,ALA	-
150,TRP	-
151,LYS	-
152,ASP	-
153,TYR	-
154,GLU	-
155,THR	-
156,LYS	-
157,ILE	-
158,THR	-
159,LYS	-
160,ILE	-
161,GLU	-
162,LYS	-
163,GLU	-
164,LYS	-
165,LYS	-
166,GLU	-
167,HIS	-
168,ALA	-
169,LYS	-
170,LEU	-
171,HIS	-
172,GLY	-
173,MET	-
174,ILE	-
175,ARG	-
176,THR	-
177,GLU	-
178,ILE	-
179,SER	-
180,GLY	-
181,ALA	-
182,GLU	-
183,ILE	-
184,ALA	-
185,GLU	-
186,GLU	-
187,MET	-
188,GLU	-
189,LYS	-
190,GLU	-
191,ARG	-
192,ARG	-
193,PHE	-
194,PHE	-
195,GLN	-
196,LEU	-
197,GLN	-
198,MET	-
199,CYS	-
200,GLU	-
201,TYR	-
202,LEU	-
203,LEU	-
204,LYS	-
205,VAL	-
206,ASN	-
207,GLU	-
208,ILE	-
209,LYS	-
210,VAL	-
211,LYS	-
212,LYS	-
213,GLY	-
214,VAL	-
215,ASP	-
216,LEU	-
217,LEU	-
218,GLN	-
219,ASN	-
220,LEU	-
221,ILE	-
222,LYS	-
223,TYR	-
224,PHE	-
225,HIS	-
226,ALA	-
227,GLN	-
228,CYS	-
229,ASN	-
230,PHE	-
231,PHE	-
232,GLN	-
233,ASP	-
234,GLY	-
235,LEU	-
236,LYS	-
237,ALA	-
238,VAL	-
239,GLU	-
240,SER	-
241,LEU	-
242,LYS	-
243,PRO	-
244,SER	-
245,ILE	-
246,GLU	-
247,THR	-
248,LEU	-
249,SER	-
250,THR	-
251,ASP	-
252,LEU	-
253,HIS	-
254,THR	-
255,ILE	-
256,LYS	-
257,GLN	-
258,ALA	-
259,GLN	-
260,ASP	-
261,GLU	-
262,GLU	-
263,ARG	-
264,ARG	-
265,GLN	-
266,LEU	-
267,ILE	-
268,GLN	-
269,LEU	-
270,ARG	-
271,ASP	-
272,ILE	-
273,LEU	-
274,LYS	-
275,SER	-
276,ALA	-
277,LEU	-
278,GLN	-
279,VAL	-
280,GLU	-
281,GLN	-
282,LYS	-
283,GLU	-
284,SER	-
285,ARG	-
286,ARG	-
287,ASP	-
288,SER	-
289,GLN	-
290,LEU	-
291,ARG	-
292,GLN	-
293,SER	-
294,THR	-
295,ALA	-
296,TYR	-
297,SER	-
298,LEU	-
299,HIS	-
300,GLN	-
301,PRO	-
302,GLN	-
303,GLY	-
304,ASN	-
305,LYS	-
306,GLU	-
307,HIS	-
308,GLY	-
309,THR	-
310,GLU	-
311,ARG	-
312,ASN	-
313,GLY	-
314,ASN	-
315,LEU	-
316,TYR	-
317,LYS	-
318,LYS	-
319,SER	-
320,ASP	-
321,GLY	-
322,ILE	-
323,ARG	-
324,LYS	-
325,VAL	-
326,TRP	-
327,GLN	-
328,LYS	-
329,ARG	-
330,LYS	-
331,CYS	-
332,SER	-
333,VAL	-
334,LYS	-
335,ASN	-
336,GLY	-
337,PHE	-
338,LEU	-
339,THR	-
340,ILE	-
341,SER	-
342,HIS	-
343,GLY	-
344,THR	-
345,ALA	-
346,ASN	-
347,ARG	-
348,PRO	-
349,PRO	-
350,ALA	-
351,LYS	-
352,LEU	-
353,ASN	-
354,LEU	-
355,LEU	-
356,THR	-
357,CYS	-
358,GLN	-
359,VAL	-
360,LYS	-
361,THR	-
362,ASN	-
363,PRO	-
364,GLU	-
365,GLU	-
366,LYS	-
367,LYS	-
368,CYS	-
369,PHE	-
370,ASP	-
371,LEU	-
372,ILE	-
373,SER	-
374,HIS	-
375,ASP	-
376,ARG	-
377,THR	-
378,TYR	-
379,HIS	-
380,PHE	-
381,GLN	-
382,ALA	-
383,GLU	-
384,ASP	-
385,GLU	-
386,GLN	-
387,GLU	-
388,CYS	-
389,GLN	-
390,ILE	-
391,TRP	-
392,MET	-
393,SER	-
394,VAL	-
395,LEU	-
396,GLN	-
397,ASN	-
398,SER	-
399,LYS	-
400,GLU	-
401,GLU	-
402,ALA	-
403,LEU	-
404,ASN	-
405,ASN	-
406,ALA	-
407,PHE	-
408,LYS	-
409,GLY	-
410,ASP	-
411,ASP	-
412,ASN	-
413,THR	-
414,GLY	-
415,GLU	-
416,ASN	-
417,ASN	-
418,ILE	-
419,VAL	-
420,GLN	245,MET
421,GLU	246,GLU
422,LEU	247,LEU
423,THR	248,THR
424,LYS	249,LYS
425,GLU	250,GLU
426,ILE	251,ILE
427,ILE	252,ILE
428,SER	253,SER
429,GLU	254,GLU
430,VAL	255,VAL
431,GLN	256,GLN
432,ARG	257,ARG
433,MET	258,MET
434,THR	259,THR
435,GLY	260,GLY
436,ASN	261,ASN
437,ASP	262,ASP
438,VAL	263,VAL
439,CYS	264,CYS
440,CYS	265,CYS
441,ASP	266,ASP
442,CYS	267,CYS
443,GLY	268,GLY
444,ALA	269,ALA
445,PRO	270,PRO
446,ASP	271,ASP
447,PRO	272,PRO
448,THR	273,THR
449,TRP	274,TRP
450,LEU	275,LEU
451,SER	276,SER
452,THR	277,THR
453,ASN	278,ASN
454,LEU	279,LEU
455,GLY	280,GLY
456,ILE	281,ILE
457,LEU	282,LEU
458,THR	283,THR
459,CYS	284,CYS
460,ILE	285,ILE
461,GLU	286,GLU
462,CYS	287,CYS
463,SER	288,SER
464,GLY	289,GLY
465,ILE	290,ILE
466,HIS	291,HIS
467,ARG	292,ARG
468,GLU	293,GLU
469,LEU	294,LEU
470,GLY	295,GLY
471,VAL	296,VAL
472,HIS	297,HIS
473,TYR	298,TYR
474,SER	299,SER
475,ARG	300,ARG
476,MET	301,MET
477,GLN	302,GLN
478,SER	303,SER
479,LEU	304,LEU
480,THR	305,THR
481,LEU	306,LEU
482,ASP	307,ASP
483,VAL	308,VAL
484,LEU	309,LEU
485,GLY	310,GLY
486,THR	311,THR
487,SER	312,SER
488,GLU	313,GLU
489,LEU	314,LEU
490,LEU	315,LEU
491,LEU	316,LEU
492,ALA	317,ALA
493,LYS	318,LYS
494,ASN	319,ASN
495,ILE	320,ILE
496,GLY	321,GLY
497,ASN	322,ASN
498,ALA	323,ALA
499,GLY	324,GLY
500,PHE	325,PHE
501,ASN	326,ASN
502,GLU	327,GLU
503,ILE	328,ILE
504,MET	329,MET
505,GLU	330,GLU
506,CYS	331,CYS
507,CYS	332,CYS
508,LEU	333,LEU
509,PRO	334,PRO
510,SER	335,SER
511,GLU	336,GLU
512,ASP	337,ASP
513,PRO	338,PRO
514,VAL	339,VAL
515,LYS	340,LYS
516,PRO	341,PRO
517,ASN	342,ASN
518,PRO	343,PRO
519,GLY	344,GLY
520,SER	345,SER
521,ASP	346,ASP
522,MET	347,MET
523,ILE	348,ILE
524,ALA	349,ALA
525,ARG	350,ARG
526,LYS	351,LYS
527,ASP	352,ASP
528,TYR	353,TYR
529,ILE	354,ILE
530,THR	355,THR
531,ALA	356,ALA
532,LYS	357,LYS
533,TYR	358,TYR
534,MET	359,MET
535,GLU	360,GLU
536,ARG	361,ARG
537,ARG	362,ARG
538,TYR	363,TYR
539,ALA	364,ALA
540,ARG	365,ARG
541,LYS	366,LYS
542,LYS	367,LYS
543,HIS	368,HIS
544,ALA	369,ALA
545,ASP	370,ASP
546,THR	371,THR
547,ALA	372,ALA
548,ALA	373,ALA
549,LYS	374,LYS
550,LEU	375,LEU
551,HIS	376,HIS
552,SER	377,SER
553,LEU	378,LEU
554,CYS	379,CYS
555,GLU	380,GLU
556,ALA	381,ALA
557,VAL	382,VAL
558,LYS	383,LYS
559,THR	384,THR
560,ARG	385,ARG
561,ASP	386,ASP
562,ILE	387,ILE
563,PHE	388,PHE
564,GLY	389,GLY
565,LEU	390,LEU
566,LEU	391,LEU
567,GLN	392,GLN
568,ALA	393,ALA
569,TYR	394,TYR
570,ALA	395,ALA
571,ASP	396,ASP
572,GLY	397,GLY
573,VAL	398,VAL
574,ASP	399,ASP
575,LEU	400,LEU
576,THR	401,THR
577,GLU	402,GLU
578,LYS	403,LYS
579,ILE	404,ILE
580,PRO	405,PRO
581,LEU	406,LEU
582,ALA	407,ALA
583,ASN	408,ASN
584,GLY	409,GLY
585,HIS	410,HIS
586,GLU	411,GLU
587,PRO	412,PRO
588,ASP	413,ASP
589,GLU	414,GLU
590,THR	415,THR
591,ALA	416,ALA
592,LEU	417,LEU
593,HIS	418,HIS
594,LEU	419,LEU
595,ALA	420,ALA
596,VAL	421,VAL
597,ARG	422,ARG
598,SER	423,SER
599,VAL	424,VAL
600,ASP	425,ASP
601,ARG	426,ARG
602,THR	427,THR
603,SER	428,SER
604,LEU	429,LEU
605,HIS	430,HIS
606,ILE	431,ILE
607,VAL	432,VAL
608,ASP	433,ASP
609,PHE	434,PHE
610,LEU	435,LEU
611,VAL	436,VAL
612,GLN	437,GLN
613,ASN	438,ASN
614,SER	439,SER
615,GLY	440,GLY
616,ASN	441,ASN
617,LEU	442,LEU
618,ASP	443,ASP
619,LYS	444,LYS
620,GLN	445,GLN
621,THR	446,THR
622,GLY	447,GLY
623,LYS	448,LYS
624,GLY	449,GLY
625,SER	450,SER
626,THR	451,THR
627,ALA	452,ALA
628,LEU	453,LEU
629,HIS	454,HIS
630,TYR	455,TYR
631,CYS	456,CYS
632,CYS	457,CYS
633,LEU	458,LEU
634,THR	459,THR
635,ASP	460,ASP
636,ASN	461,ASN
637,ALA	462,ALA
638,GLU	463,GLU
639,CYS	464,CYS
640,LEU	465,LEU
641,LYS	466,LYS
642,LEU	467,LEU
643,LEU	468,LEU
644,LEU	469,LEU
645,ARG	470,ARG
646,GLY	471,GLY
647,LYS	472,LYS
648,ALA	473,ALA
649,SER	474,SER
650,ILE	475,ILE
651,GLU	476,GLU
652,ILE	477,ILE
653,ALA	478,ALA
654,ASN	479,ASN
655,GLU	480,GLU
656,SER	481,SER
657,GLY	482,GLY
658,GLU	483,GLU
659,THR	484,THR
660,PRO	485,PRO
661,LEU	486,LEU
662,ASP	487,ASP
663,ILE	488,ILE
664,ALA	489,ALA
665,LYS	490,LYS
666,ARG	491,ARG
667,LEU	492,LEU
668,LYS	493,LYS
669,HIS	494,HIS
670,GLU	495,GLU
671,HIS	496,HIS
672,CYS	497,CYS
673,GLU	498,GLU
674,GLU	499,GLU
675,LEU	500,LEU
676,LEU	501,LEU
677,THR	502,THR
678,GLN	503,GLN
679,ALA	504,ALA
680,LEU	505,LEU
681,SER	506,SER
682,GLY	507,GLY
683,ARG	508,ARG
684,PHE	509,PHE
685,ASN	510,ASN
686,SER	511,SER
687,HIS	512,HIS
688,VAL	513,VAL
689,HIS	514,HIS
690,VAL	515,VAL
691,GLU	516,GLU
692,TYR	517,TYR
693,GLU	518,GLU
694,TRP	519,TRP
695,ARG	520,ARG
696,LEU	521,LEU
697,LEU	522,LEU
698,HIS	-
699,GLU	-
700,ASP	-
701,LEU	-
702,ASP	-
703,GLU	-
704,SER	-
705,ASP	-
706,ASP	-
707,ASP	-
708,VAL	-
709,ASP	-
710,GLU	-
711,LYS	-
712,LEU	-
713,GLN	-
714,PRO	-
715,SER	-
716,PRO	-
717,ASN	-
718,ARG	-
719,ARG	-
720,GLU	-
721,ASP	-
722,ARG	-
723,PRO	-
724,VAL	-
725,SER	-
726,PHE	-
727,TYR	-
728,GLN	-
729,LEU	-
730,GLY	-
731,SER	-
732,SER	-
733,GLN	-
734,PHE	-
735,GLN	-
736,SER	-
737,ASN	-
738,ALA	-
739,VAL	-
740,SER	-
741,LEU	-
742,ALA	-
743,ARG	-
744,ASP	-
745,THR	-
746,ALA	-
747,ASN	-
748,LEU	-
749,THR	-
750,LYS	-
751,ASP	-
752,LYS	-
753,GLN	-
754,ARG	-
755,GLY	-
756,PHE	-
757,GLY	-
758,PRO	-
759,SER	-
760,ILE	-
761,LEU	-
762,GLN	-
763,ASN	-
764,GLU	-
765,THR	-
766,TYR	-
767,GLY	-
768,ALA	-
769,ILE	-
770,LEU	-
771,SER	-
772,GLY	-
773,SER	-
774,PRO	-
775,PRO	-
776,SER	-
777,SER	-
778,GLN	-
779,SER	-
780,ILE	-
781,PRO	-
782,PRO	-
783,SER	-
784,THR	-
785,THR	-
786,SER	-
787,ALA	-
788,PRO	-
789,PRO	-
790,LEU	-
791,PRO	-
792,PRO	-
793,ARG	-
794,ASN	-
795,VAL	-
796,GLY	-
797,LYS	-
798,ASP	-
799,PRO	-
800,LEU	-
801,THR	-
802,THR	-
803,THR	-
804,PRO	-
805,PRO	-
806,PRO	-
807,PRO	-
808,VAL	-
809,ALA	-
810,LYS	-
811,THR	-
812,SER	-
813,GLY	-
814,THR	-
815,LEU	-
816,GLU	-
817,ALA	-
818,MET	-
819,ASN	-
820,GLN	-
821,PRO	-
822,SER	-
823,LYS	-
824,SER	-
825,SER	-
826,GLN	-
827,PRO	-
828,GLY	-
829,THR	-
830,SER	-
831,GLN	-
832,SER	-
833,LYS	-
834,PRO	-
835,PRO	-
836,PRO	-
837,LEU	-
838,PRO	-
839,PRO	-
840,GLN	-
841,PRO	-
842,PRO	-
843,SER	-
844,ARG	-
845,LEU	-
846,PRO	-
847,GLN	-
848,LYS	-
849,LYS	-
850,PRO	-
851,ALA	-
852,SER	-
853,GLY	-
854,THR	-
855,ASP	-
856,LYS	-
857,PRO	-
858,THR	-
859,PRO	-
860,LEU	-
861,THR	-
862,ASN	-
863,LYS	-
864,GLY	-
865,GLN	-
866,PRO	-
867,ARG	-
868,GLY	-
869,PRO	-
870,GLU	-
871,ALA	-
872,SER	-
873,GLY	-
874,PRO	-
875,LEU	-
876,SER	-
877,ASN	-
878,ALA	-
879,MET	-
880,ALA	-
881,LEU	-
882,GLN	-
883,PRO	-
884,PRO	-
885,ALA	-
886,PRO	-
887,MET	-
888,PRO	-
889,ARG	-
890,LYS	-
891,SER	-
892,GLN	-
893,ALA	-
894,THR	-
895,LYS	-
896,SER	-
897,LYS	-
898,PRO	-
899,LYS	-
900,ARG	-
901,VAL	-
902,LYS	-
903,ALA	-
904,LEU	-
905,TYR	-
906,ASN	-
907,CYS	-
908,VAL	-
909,ALA	-
910,ASP	-
911,ASN	-
912,PRO	-
913,ASP	-
914,GLU	-
915,LEU	-
916,THR	-
917,PHE	-
918,SER	-
919,GLU	-
920,GLY	-
921,ASP	-
922,VAL	-
923,ILE	-
924,ILE	-
925,VAL	-
926,ASP	-
927,GLY	-
928,GLU	-
929,GLU	-
930,ASP	-
931,GLN	-
932,GLU	-
933,TRP	-
934,TRP	-
935,ILE	-
936,GLY	-
937,HIS	-
938,ILE	-
939,ASP	-
940,GLY	-
941,GLU	-
942,PRO	-
943,SER	-
944,ARG	-
945,LYS	-
946,GLY	-
947,ALA	-
948,PHE	-
949,PRO	-
950,VAL	-
951,SER	-
952,PHE	-
953,VAL	-
954,HIS	-
955,PHE	-
956,ILE	-
957,ALA	-
958,ASP	-
