uniprot_isoform	location_id	ENSEMBL ID	uniprot_start	uniprot_end	2jllA_start	2jllA_end	2docA_start	2docA_end	2xy1A_start	2xy1A_end	2vajA_start	2vajA_end	2v5tA_start	2v5tA_end	2wimA_start	2wimA_end	2wimB_start	2wimB_end	2xy2A_start	2xy2A_end	2kbgA_start	2kbgA_end	2xycA_start	2xycA_end
1	21_20998564_21537954_1	ENSE00001543472	1	19	-	-	-	-	-	-	-	-	-	-	-	19	-	19	-	19	-	-	-	-
1	21_20998564_21537954_1	ENSE00003496361	19	44	-	-	-	-	-	-	-	24	-	-	19	44	19	44	19	44	-	-	-	-
1	21_20998564_21537954_1	ENSE00003691834	44	113	-	-	-	-	-	-	24	93	-	-	44	113	44	113	44	113	-	-	-	-
1	21_20998564_21537954_1	ENSE00003484151	113	161	-	-	-	-	-	-	93	-	-	161	113	161	113	161	113	161	-	-	-	-
1	21_20998564_21537954_1	ENSE00003667449	161	207	-	-	-	-	-	-	-	-	161	207	161	207	161	207	161	207	-	-	-	-
1	21_20998564_21537954_1	ENSE00003570848	207	246	-	-	-	-	-	246	-	-	207	246	207	246	207	246	207	-	-	-	-	-
1	21_20998564_21537954_1	ENSE00003633427	246	300	-	-	-	-	246	300	-	-	246	300	246	300	246	300	-	-	-	-	-	-
1	21_20998564_21537954_1	ENSE00001017033	300	348	-	348	-	-	300	348	-	-	300	-	300	-	300	-	-	-	-	-	-	348
1	21_20998564_21537954_1	ENSE00001017041	349	399	349	399	-	-	349	-	-	-	-	-	-	-	-	-	-	-	-	-	349	399
1	21_20998564_21537954_1	ENSE00001017045	399	461	399	461	-	-	-	-	-	-	-	-	-	-	-	-	-	-	-	-	399	461
1	21_20998564_21537954_1	ENSE00001017052	462	494	462	494	-	16	-	-	-	-	-	-	-	-	-	-	-	-	-	-	462	494
1	21_20998564_21537954_1	ENSE00001017031	494	552	494	552	16	74	-	-	-	-	-	-	-	-	-	-	-	-	-	-	494	552
1	21_20998564_21537954_1	ENSE00003566319	552	592	552	592	74	-	-	-	-	-	-	-	-	-	-	-	-	-	-	1	552	-
1	21_20998564_21537954_1	ENSE00003613335	592	632	592	632	-	-	-	-	-	-	-	-	-	-	-	-	-	-	1	41	-	-
1	21_20998564_21537954_1	ENSE00001017035	633	693	633	-	-	-	-	-	-	-	-	-	-	-	-	-	-	-	42	102	-	-
1	21_20998564_21537954_1	ENSE00001017048	693	761	-	-	-	-	-	-	-	-	-	-	-	-	-	-	-	-	102	-	-	-
1	21_20998564_21537954_1	ENSE00001017044	761	801	-	-	-	-	-	-	-	-	-	-	-	-	-	-	-	-	-	-	-	-
1	21_20998564_21537954_1	ENSE00001543443	801	837	-	-	-	-	-	-	-	-	-	-	-	-	-	-	-	-	-	-	-	-
