O15394	2jllA	2docA	2xy1A	2vajA	2v5tA	2wimA	2wimB	2xy2A	2kbgA	2xycA
1,MET	-	-	-	-	-	-	-	-	-	-
2,SER	-	-	-	-	-	-	-	-	-	-
3,LEU	-	-	-	-	-	-	-	-	-	-
4,LEU	-	-	-	-	-	-	-	-	-	-
5,LEU	-	-	-	-	-	-	-	-	-	-
6,SER	-	-	-	-	-	-	-	-	-	-
7,PHE	-	-	-	-	-	-	-	-	-	-
8,TYR	-	-	-	-	-	-	-	-	-	-
9,LEU	-	-	-	-	-	-	-	-	-	-
10,LEU	-	-	-	-	-	-	-	-	-	-
11,GLY	-	-	-	-	-	-	-	-	-	-
12,LEU	-	-	-	-	-	-	-	-	-	-
13,LEU	-	-	-	-	-	-	-	-	-	-
14,VAL	-	-	-	-	-	-	-	-	-	-
15,SER	-	-	-	-	-	-	-	-	-	-
16,SER	-	-	-	-	-	-	-	-	-	-
17,GLY	-	-	-	-	-	-	-	-	-	-
18,GLN	-	-	-	-	-	-	-	-	-	-
19,ALA	-	-	-	-	-	19,ALA	19,ALA	19,ALA	-	-
20,LEU	-	-	-	-	-	20,LEU	20,LEU	20,LEU	-	-
21,LEU	-	-	-	1,LEU	-	21,LEU	21,LEU	21,LEU	-	-
22,GLN	-	-	-	2,GLN	-	22,GLN	22,GLN	22,GLN	-	-
23,VAL	-	-	-	3,VAL	-	23,VAL	23,VAL	23,VAL	-	-
24,THR	-	-	-	4,THR	-	24,THR	24,THR	24,THR	-	-
25,ILE	-	-	-	5,ILE	-	25,ILE	25,ILE	25,ILE	-	-
26,SER	-	-	-	6,SER	-	26,SER	26,SER	26,SER	-	-
27,LEU	-	-	-	7,LEU	-	27,LEU	27,LEU	27,LEU	-	-
28,SER	-	-	-	8,SER	-	28,SER	28,SER	28,SER	-	-
29,LYS	-	-	-	9,LYS	-	29,LYS	29,LYS	29,LYS	-	-
30,VAL	-	-	-	10,VAL	-	30,VAL	30,VAL	30,VAL	-	-
31,GLU	-	-	-	11,GLU	-	31,GLU	31,GLU	31,GLU	-	-
32,LEU	-	-	-	12,LEU	-	32,LEU	32,LEU	32,LEU	-	-
33,SER	-	-	-	13,SER	-	33,SER	33,SER	33,SER	-	-
34,VAL	-	-	-	14,VAL	-	34,VAL	34,VAL	34,VAL	-	-
35,GLY	-	-	-	15,GLY	-	35,GLY	35,GLY	35,GLY	-	-
36,GLU	-	-	-	16,GLU	-	36,GLU	36,GLU	36,GLU	-	-
37,SER	-	-	-	17,SER	-	37,SER	37,SER	37,SER	-	-
38,LYS	-	-	-	18,LYS	-	38,LYS	38,LYS	38,LYS	-	-
39,PHE	-	-	-	19,PHE	-	39,PHE	39,PHE	39,PHE	-	-
40,PHE	-	-	-	20,PHE	-	40,PHE	40,PHE	40,PHE	-	-
41,THR	-	-	-	21,THR	-	41,THR	41,THR	41,THR	-	-
42,CYS	-	-	-	22,CYS	-	42,CYS	42,CYS	42,CYS	-	-
43,THR	-	-	-	23,THR	-	43,THR	43,THR	43,THR	-	-
44,ALA	-	-	-	24,ALA	-	44,ALA	44,ALA	44,ALA	-	-
45,ILE	-	-	-	25,ILE	-	45,ILE	45,ILE	45,ILE	-	-
46,GLY	-	-	-	26,GLY	-	46,GLY	46,GLY	46,GLY	-	-
47,GLU	-	-	-	27,GLU	-	47,GLU	47,GLU	47,GLU	-	-
48,PRO	-	-	-	28,PRO	-	48,PRO	48,PRO	48,PRO	-	-
49,GLU	-	-	-	29,GLU	-	49,GLU	49,GLU	49,GLU	-	-
50,SER	-	-	-	30,SER	-	50,SER	50,SER	50,SER	-	-
51,ILE	-	-	-	31,ILE	-	51,ILE	51,ILE	51,ILE	-	-
52,ASP	-	-	-	32,ASP	-	52,ASP	52,ASP	52,ASP	-	-
53,TRP	-	-	-	33,TRP	-	53,TRP	53,TRP	53,TRP	-	-
54,TYR	-	-	-	34,TYR	-	54,TYR	54,TYR	54,TYR	-	-
55,ASN	-	-	-	35,ASN	-	55,ASN	55,ASN	55,ASN	-	-
56,PRO	-	-	-	36,PRO	-	56,PRO	56,PRO	56,PRO	-	-
57,GLN	-	-	-	37,GLN	-	57,GLN	57,GLN	57,GLN	-	-
58,GLY	-	-	-	38,GLY	-	58,GLY	58,GLY	58,GLY	-	-
59,GLU	-	-	-	39,GLU	-	59,GLU	59,GLU	59,GLU	-	-
60,LYS	-	-	-	40,LYS	-	60,LYS	60,LYS	60,LYS	-	-
61,ILE	-	-	-	41,ILE	-	61,ILE	61,ILE	61,ILE	-	-
62,ILE	-	-	-	42,ILE	-	62,ILE	62,ILE	62,ILE	-	-
63,SER	-	-	-	43,SER	-	63,SER	63,SER	63,SER	-	-
64,THR	-	-	-	44,THR	-	64,THR	64,THR	64,THR	-	-
65,GLN	-	-	-	45,GLN	-	65,GLN	65,GLN	65,GLN	-	-
66,ARG	-	-	-	46,ARG	-	66,ARG	66,ARG	66,ARG	-	-
67,VAL	-	-	-	47,VAL	-	67,VAL	67,VAL	67,VAL	-	-
68,VAL	-	-	-	48,VAL	-	68,VAL	68,VAL	68,VAL	-	-
69,VAL	-	-	-	49,VAL	-	69,VAL	69,VAL	69,VAL	-	-
70,GLN	-	-	-	50,GLN	-	70,GLN	70,GLN	70,GLN	-	-
71,LYS	-	-	-	51,LYS	-	71,LYS	71,LYS	71,LYS	-	-
72,GLU	-	-	-	52,GLU	-	72,GLU	72,GLU	72,GLU	-	-
73,GLY	-	-	-	53,GLY	-	73,GLY	73,GLY	73,GLY	-	-
74,VAL	-	-	-	54,VAL	-	74,VAL	74,VAL	74,VAL	-	-
75,ARG	-	-	-	55,ARG	-	75,ARG	75,ARG	75,ARG	-	-
76,SER	-	-	-	56,SER	-	76,SER	76,SER	76,SER	-	-
77,ARG	-	-	-	57,ARG	-	77,ARG	77,ARG	77,ARG	-	-
78,LEU	-	-	-	58,LEU	-	78,LEU	78,LEU	78,LEU	-	-
79,THR	-	-	-	59,THR	-	79,THR	79,THR	79,THR	-	-
80,ILE	-	-	-	60,ILE	-	80,ILE	80,ILE	80,ILE	-	-
81,TYR	-	-	-	61,TYR	-	81,TYR	81,TYR	81,TYR	-	-
82,ASN	-	-	-	62,ASN	-	82,ASN	82,ASN	82,ASN	-	-
83,ALA	-	-	-	63,ALA	-	83,ALA	83,ALA	83,ALA	-	-
84,ASN	-	-	-	64,ASN	-	84,ASN	84,ASN	84,ASN	-	-
85,ILE	-	-	-	65,ILE	-	85,ILE	85,ILE	85,ILE	-	-
86,GLU	-	-	-	66,GLU	-	86,GLU	86,GLU	86,GLU	-	-
87,ASP	-	-	-	67,ASP	-	87,ASP	87,ASP	87,ASP	-	-
88,ALA	-	-	-	68,ALA	-	88,ALA	88,ALA	88,ALA	-	-
89,GLY	-	-	-	69,GLY	-	89,GLY	89,GLY	89,GLY	-	-
90,ILE	-	-	-	70,ILE	-	90,ILE	90,ILE	90,ILE	-	-
91,TYR	-	-	-	71,TYR	-	91,TYR	91,TYR	91,TYR	-	-
92,ARG	-	-	-	72,ARG	-	92,ARG	92,ARG	92,ARG	-	-
93,CYS	-	-	-	73,CYS	-	93,CYS	93,CYS	93,CYS	-	-
94,GLN	-	-	-	74,GLN	-	94,GLN	94,GLN	94,GLN	-	-
95,ALA	-	-	-	75,ALA	-	95,ALA	95,ALA	95,ALA	-	-
96,THR	-	-	-	76,THR	-	96,THR	96,THR	96,THR	-	-
97,ASP	-	-	-	77,ASP	-	97,ASP	97,ASP	97,ASP	-	-
98,ALA	-	-	-	78,ALA	-	98,ALA	98,ALA	98,ALA	-	-
99,LYS	-	-	-	79,LYS	-	99,LYS	99,LYS	99,LYS	-	-
100,GLY	-	-	-	80,GLY	-	100,GLY	100,GLY	100,GLY	-	-
101,GLN	-	-	-	81,GLN	-	101,GLN	101,GLN	101,GLN	-	-
102,THR	-	-	-	82,THR	-	102,THR	102,THR	102,THR	-	-
103,GLN	-	-	-	83,GLN	-	103,GLN	103,GLN	103,GLN	-	-
104,GLU	-	-	-	84,GLU	-	104,GLU	104,GLU	104,GLU	-	-
105,ALA	-	-	-	85,ALA	-	105,ALA	105,ALA	105,ALA	-	-
106,THR	-	-	-	86,THR	-	106,THR	106,THR	106,THR	-	-
107,VAL	-	-	-	87,VAL	-	107,VAL	107,VAL	107,VAL	-	-
108,VAL	-	-	-	88,VAL	-	108,VAL	108,VAL	108,VAL	-	-
109,LEU	-	-	-	89,LEU	-	109,LEU	109,LEU	109,LEU	-	-
110,GLU	-	-	-	90,GLU	-	110,GLU	110,GLU	110,GLU	-	-
111,ILE	-	-	-	91,ILE	-	111,ILE	111,ILE	111,ILE	-	-
112,TYR	-	-	-	92,TYR	-	112,TYR	112,TYR	112,TYR	-	-
113,GLN	-	-	-	93,GLN	-	113,GLN	113,GLN	113,GLN	-	-
114,LYS	-	-	-	-	-	114,LYS	114,LYS	114,LYS	-	-
115,LEU	-	-	-	-	115,LEU	115,LEU	115,LEU	115,LEU	-	-
116,THR	-	-	-	-	116,THR	116,THR	116,THR	116,THR	-	-
117,PHE	-	-	-	-	117,PHE	117,PHE	117,PHE	117,PHE	-	-
118,ARG	-	-	-	-	118,ARG	118,ARG	118,ARG	118,ARG	-	-
119,GLU	-	-	-	-	119,GLU	119,GLU	119,GLU	119,GLU	-	-
120,VAL	-	-	-	-	120,VAL	120,VAL	120,VAL	120,VAL	-	-
121,VAL	-	-	-	-	121,VAL	121,VAL	121,VAL	121,VAL	-	-
122,SER	-	-	-	-	122,SER	122,SER	122,SER	122,SER	-	-
123,PRO	-	-	-	-	123,PRO	123,PRO	123,PRO	123,PRO	-	-
124,GLN	-	-	-	-	124,GLN	124,GLN	124,GLN	124,GLN	-	-
125,GLU	-	-	-	-	125,GLU	125,GLU	125,GLU	125,GLU	-	-
126,PHE	-	-	-	-	126,PHE	126,PHE	126,PHE	126,PHE	-	-
127,LYS	-	-	-	-	127,LYS	127,LYS	127,LYS	127,LYS	-	-
128,GLN	-	-	-	-	128,GLN	128,GLN	128,GLN	128,GLN	-	-
129,GLY	-	-	-	-	129,GLY	129,GLY	129,GLY	129,GLY	-	-
130,GLU	-	-	-	-	130,GLU	130,GLU	130,GLU	130,GLU	-	-
131,ASP	-	-	-	-	131,ASP	131,ASP	131,ASP	131,ASP	-	-
132,ALA	-	-	-	-	132,ALA	132,ALA	132,ALA	132,ALA	-	-
133,GLU	-	-	-	-	133,GLU	133,GLU	133,GLU	133,GLU	-	-
134,VAL	-	-	-	-	134,VAL	134,VAL	134,VAL	134,VAL	-	-
135,VAL	-	-	-	-	135,VAL	135,VAL	135,VAL	135,VAL	-	-
136,CYS	-	-	-	-	136,CYS	136,CYS	136,CYS	136,CYS	-	-
137,ARG	-	-	-	-	137,ARG	137,ARG	137,ARG	137,ARG	-	-
138,VAL	-	-	-	-	138,VAL	138,VAL	138,VAL	138,VAL	-	-
139,SER	-	-	-	-	139,SER	139,SER	139,SER	139,SER	-	-
140,SER	-	-	-	-	140,SER	140,SER	140,SER	140,SER	-	-
141,SER	-	-	-	-	141,SER	141,SER	141,SER	141,SER	-	-
142,PRO	-	-	-	-	142,PRO	142,PRO	142,PRO	142,PRO	-	-
143,ALA	-	-	-	-	143,ALA	143,ALA	143,ALA	143,ALA	-	-
144,PRO	-	-	-	-	144,PRO	144,PRO	144,PRO	144,PRO	-	-
145,ALA	-	-	-	-	145,ALA	145,ALA	145,ALA	145,ALA	-	-
146,VAL	-	-	-	-	146,VAL	146,VAL	146,VAL	146,VAL	-	-
147,SER	-	-	-	-	147,SER	147,SER	147,SER	147,SER	-	-
148,TRP	-	-	-	-	148,TRP	148,TRP	148,TRP	148,TRP	-	-
149,LEU	-	-	-	-	149,LEU	149,LEU	149,LEU	149,LEU	-	-
150,TYR	-	-	-	-	150,TYR	150,TYR	150,TYR	150,TYR	-	-
151,HIS	-	-	-	-	151,HIS	151,HIS	151,HIS	151,HIS	-	-
152,ASN	-	-	-	-	152,ASN	152,ASN	152,ASN	152,ASN	-	-
153,GLU	-	-	-	-	153,GLU	153,GLU	153,GLU	153,GLU	-	-
154,GLU	-	-	-	-	154,GLU	154,GLU	154,GLU	154,GLU	-	-
155,VAL	-	-	-	-	155,VAL	155,VAL	155,VAL	155,VAL	-	-
156,THR	-	-	-	-	156,THR	156,THR	156,THR	156,THR	-	-
157,THR	-	-	-	-	157,THR	157,THR	157,THR	157,THR	-	-
158,ILE	-	-	-	-	158,ILE	158,ILE	158,ILE	158,ILE	-	-
159,SER	-	-	-	-	159,SER	159,SER	159,SER	159,SER	-	-
160,ASP	-	-	-	-	160,ASP	160,ASP	160,ASP	160,ASP	-	-
161,ASN	-	-	-	-	161,ASN	161,ASN	161,ASN	161,ASN	-	-
162,ARG	-	-	-	-	162,ARG	162,ARG	162,ARG	162,ARG	-	-
163,PHE	-	-	-	-	163,PHE	163,PHE	163,PHE	163,PHE	-	-
164,ALA	-	-	-	-	164,ALA	164,ALA	164,ALA	164,ALA	-	-
165,MET	-	-	-	-	165,MET	165,MET	165,MET	165,MET	-	-
166,LEU	-	-	-	-	166,LEU	166,LEU	166,LEU	166,LEU	-	-
167,ALA	-	-	-	-	167,ALA	167,ALA	167,ALA	167,ALA	-	-
168,ASN	-	-	-	-	168,ASN	168,ASN	168,ASN	168,ASN	-	-
169,ASN	-	-	-	-	169,ASN	169,ASN	169,ASN	169,ASN	-	-
170,ASN	-	-	-	-	170,ASN	170,ASN	170,ASN	170,ASN	-	-
171,LEU	-	-	-	-	171,LEU	171,LEU	171,LEU	171,LEU	-	-
172,GLN	-	-	-	-	172,GLN	172,GLN	172,GLN	172,GLN	-	-
173,ILE	-	-	-	-	173,ILE	173,ILE	173,ILE	173,ILE	-	-
174,LEU	-	-	-	-	174,LEU	174,LEU	174,LEU	174,LEU	-	-
175,ASN	-	-	-	-	175,ASN	175,ASN	175,ASN	175,ASN	-	-
176,ILE	-	-	-	-	176,ILE	176,ILE	176,ILE	176,ILE	-	-
177,ASN	-	-	-	-	177,ASN	177,ASN	177,ASN	177,ASN	-	-
178,LYS	-	-	-	-	178,LYS	178,LYS	178,LYS	178,LYS	-	-
179,SER	-	-	-	-	179,SER	179,SER	179,SER	179,SER	-	-
180,ASP	-	-	-	-	180,ASP	180,ASP	180,ASP	180,ASP	-	-
181,GLU	-	-	-	-	181,GLU	181,GLU	181,GLU	181,GLU	-	-
182,GLY	-	-	-	-	182,GLY	182,GLY	182,GLY	182,GLY	-	-
183,ILE	-	-	-	-	183,ILE	183,ILE	183,ILE	183,ILE	-	-
184,TYR	-	-	-	-	184,TYR	184,TYR	184,TYR	184,TYR	-	-
185,ARG	-	-	-	-	185,ARG	185,ARG	185,ARG	185,ARG	-	-
186,CYS	-	-	-	-	186,CYS	186,CYS	186,CYS	186,CYS	-	-
187,GLU	-	-	-	-	187,GLU	187,GLU	187,GLU	187,GLU	-	-
188,GLY	-	-	-	-	188,GLY	188,GLY	188,GLY	188,GLY	-	-
189,ARG	-	-	-	-	189,ARG	189,ARG	189,ARG	189,ARG	-	-
190,VAL	-	-	-	-	190,VAL	190,VAL	190,VAL	190,VAL	-	-
191,GLU	-	-	-	-	191,GLU	191,GLU	191,GLU	191,GLU	-	-
192,ALA	-	-	-	-	192,ALA	192,ALA	192,ALA	192,ALA	-	-
193,ARG	-	-	-	-	193,ARG	193,ARG	193,ARG	193,ARG	-	-
194,GLY	-	-	-	-	194,GLY	194,GLY	194,GLY	194,GLY	-	-
195,GLU	-	-	-	-	195,GLU	195,GLU	195,GLU	195,GLU	-	-
196,ILE	-	-	-	-	196,ILE	196,ILE	196,ILE	196,ILE	-	-
197,ASP	-	-	-	-	197,ASP	197,ASP	197,ASP	197,ASP	-	-
198,PHE	-	-	-	-	198,PHE	198,PHE	198,PHE	198,PHE	-	-
199,ARG	-	-	-	-	199,ARG	199,ARG	199,ARG	199,ARG	-	-
200,ASP	-	-	-	-	200,ASP	200,ASP	200,ASP	200,ASP	-	-
201,ILE	-	-	-	-	201,ILE	201,ILE	201,ILE	201,ILE	-	-
202,ILE	-	-	-	-	202,ILE	202,ILE	202,ILE	202,ILE	-	-
203,VAL	-	-	-	-	203,VAL	203,VAL	203,VAL	203,VAL	-	-
204,ILE	-	-	-	-	204,ILE	204,ILE	204,ILE	204,ILE	-	-
205,VAL	-	-	-	-	205,VAL	205,VAL	205,VAL	205,VAL	-	-
206,ASN	-	-	-	-	206,ASN	206,ASN	206,ASN	206,ASN	-	-
207,VAL	-	-	-	-	207,VAL	207,VAL	207,VAL	207,VAL	-	-
208,PRO	-	-	-	-	208,PRO	208,PRO	208,PRO	-	-	-
209,PRO	-	-	209,PRO	-	209,PRO	209,PRO	209,PRO	-	-	-
210,ALA	-	-	210,ALA	-	210,ALA	210,ALA	210,ALA	-	-	-
211,ILE	-	-	211,ILE	-	211,ILE	211,ILE	211,ILE	-	-	-
212,SER	-	-	212,SER	-	212,SER	212,SER	212,SER	-	-	-
213,MET	-	-	213,MET	-	213,MET	213,MET	213,MET	-	-	-
214,PRO	-	-	214,PRO	-	214,PRO	214,PRO	214,PRO	-	-	-
215,GLN	-	-	215,GLN	-	215,GLN	215,GLN	215,GLN	-	-	-
216,LYS	-	-	216,LYS	-	216,LYS	216,LYS	216,LYS	-	-	-
217,SER	-	-	217,SER	-	217,SER	217,SER	217,SER	-	-	-
218,PHE	-	-	218,PHE	-	218,PHE	218,PHE	218,PHE	-	-	-
219,ASN	-	-	219,ASN	-	219,ASN	219,ASN	219,ASN	-	-	-
220,ALA	-	-	220,ALA	-	220,ALA	220,ALA	220,ALA	-	-	-
221,THR	-	-	221,THR	-	221,THR	221,THR	221,THR	-	-	-
222,ALA	-	-	222,ALA	-	222,ALA	222,ALA	222,ALA	-	-	-
223,GLU	-	-	223,GLU	-	223,GLU	223,GLU	223,GLU	-	-	-
224,ARG	-	-	224,ARG	-	224,ARG	224,ARG	224,ARG	-	-	-
225,GLY	-	-	225,GLY	-	225,GLY	225,GLY	225,GLY	-	-	-
226,GLU	-	-	226,GLU	-	226,GLU	226,GLU	226,GLU	-	-	-
227,GLU	-	-	227,GLU	-	227,GLU	227,GLU	227,GLU	-	-	-
228,MET	-	-	228,MET	-	228,MET	228,MET	228,MET	-	-	-
229,THR	-	-	229,THR	-	229,THR	229,THR	229,THR	-	-	-
230,PHE	-	-	230,PHE	-	230,PHE	230,PHE	230,PHE	-	-	-
231,SER	-	-	231,SER	-	231,SER	231,SER	231,SER	-	-	-
232,CYS	-	-	232,CYS	-	232,CYS	232,CYS	232,CYS	-	-	-
233,ARG	-	-	233,ARG	-	233,ARG	233,ARG	233,ARG	-	-	-
234,ALA	-	-	234,ALA	-	234,ALA	234,ALA	234,ALA	-	-	-
235,SER	-	-	235,SER	-	235,SER	235,SER	235,SER	-	-	-
236,GLY	-	-	236,GLY	-	236,GLY	236,GLY	236,GLY	-	-	-
237,SER	-	-	237,SER	-	237,SER	237,SER	237,SER	-	-	-
238,PRO	-	-	238,PRO	-	238,PRO	238,PRO	238,PRO	-	-	-
239,GLU	-	-	239,GLU	-	239,GLU	239,GLU	239,GLU	-	-	-
240,PRO	-	-	240,PRO	-	240,PRO	240,PRO	240,PRO	-	-	-
241,ALA	-	-	241,ALA	-	241,ALA	241,ALA	241,ALA	-	-	-
242,ILE	-	-	242,ILE	-	242,ILE	242,ILE	242,ILE	-	-	-
243,SER	-	-	243,SER	-	243,SER	243,SER	243,SER	-	-	-
244,TRP	-	-	244,TRP	-	244,TRP	244,TRP	244,TRP	-	-	-
245,PHE	-	-	245,PHE	-	245,PHE	245,PHE	245,PHE	-	-	-
246,ARG	-	-	246,ARG	-	246,ARG	246,ARG	246,ARG	-	-	-
247,ASN	-	-	247,ASN	-	247,ASN	247,ASN	247,ASN	-	-	-
248,GLY	-	-	248,GLY	-	248,GLY	248,GLY	248,GLY	-	-	-
249,LYS	-	-	249,LYS	-	249,LYS	249,LYS	249,LYS	-	-	-
250,LEU	-	-	250,LEU	-	250,LEU	250,LEU	250,LEU	-	-	-
251,ILE	-	-	251,ILE	-	251,ILE	251,ILE	251,ILE	-	-	-
252,GLU	-	-	252,GLU	-	252,GLU	252,GLU	252,GLU	-	-	-
253,GLU	-	-	253,GLU	-	253,GLU	253,GLU	253,GLU	-	-	-
254,ASN	-	-	254,ASN	-	254,ASN	254,ASN	254,ASN	-	-	-
255,GLU	-	-	255,GLU	-	255,GLU	255,GLU	255,GLU	-	-	-
256,LYS	-	-	256,LYS	-	256,LYS	256,LYS	256,LYS	-	-	-
257,TYR	-	-	257,TYR	-	257,TYR	257,TYR	257,TYR	-	-	-
258,ILE	-	-	258,ILE	-	258,ILE	258,ILE	258,ILE	-	-	-
259,LEU	-	-	259,LEU	-	259,LEU	259,LEU	259,LEU	-	-	-
260,LYS	-	-	260,LYS	-	260,LYS	260,LYS	260,LYS	-	-	-
261,GLY	-	-	261,GLY	-	261,GLY	261,GLY	261,GLY	-	-	-
262,SER	-	-	262,SER	-	262,SER	262,SER	262,SER	-	-	-
263,ASN	-	-	263,ASN	-	263,ASN	263,ASN	263,ASN	-	-	-
264,THR	-	-	264,THR	-	264,THR	264,THR	264,THR	-	-	-
265,GLU	-	-	265,GLU	-	265,GLU	265,GLU	265,GLU	-	-	-
266,LEU	-	-	266,LEU	-	266,LEU	266,LEU	266,LEU	-	-	-
267,THR	-	-	267,THR	-	267,THR	267,THR	267,THR	-	-	-
268,VAL	-	-	268,VAL	-	268,VAL	268,VAL	268,VAL	-	-	-
269,ARG	-	-	269,ARG	-	269,ARG	269,ARG	269,ARG	-	-	-
270,ASN	-	-	270,ASN	-	270,ASN	270,ASN	270,ASN	-	-	-
271,ILE	-	-	271,ILE	-	271,ILE	271,ILE	271,ILE	-	-	-
272,ILE	-	-	272,ILE	-	272,ILE	272,ILE	272,ILE	-	-	-
273,ASN	-	-	273,ASN	-	273,ASN	273,ASN	273,ASN	-	-	-
274,SER	-	-	274,SER	-	274,SER	274,SER	274,SER	-	-	-
275,ASP	-	-	275,ASP	-	275,ASP	275,ASP	275,ASP	-	-	-
276,GLY	-	-	276,GLY	-	276,GLY	276,GLY	276,GLY	-	-	-
277,GLY	-	-	277,GLY	-	277,GLY	277,GLY	277,GLY	-	-	-
278,PRO	-	-	278,PRO	-	278,PRO	278,PRO	278,PRO	-	-	-
279,TYR	-	-	279,TYR	-	279,TYR	279,TYR	279,TYR	-	-	-
280,VAL	-	-	280,VAL	-	280,VAL	280,VAL	280,VAL	-	-	-
281,CYS	-	-	281,CYS	-	281,CYS	281,CYS	281,CYS	-	-	-
282,ARG	-	-	282,ARG	-	282,ARG	282,ARG	282,ARG	-	-	-
283,ALA	-	-	283,ALA	-	283,ALA	283,ALA	283,ALA	-	-	-
284,THR	-	-	284,THR	-	284,THR	284,THR	284,THR	-	-	-
285,ASN	-	-	285,ASN	-	285,ASN	285,ASN	285,ASN	-	-	-
286,LYS	-	-	286,LYS	-	286,LYS	286,LYS	286,LYS	-	-	-
287,ALA	-	-	287,ALA	-	287,ALA	287,ALA	287,ALA	-	-	-
288,GLY	-	-	288,GLY	-	288,GLY	288,GLY	288,GLY	-	-	-
289,GLU	-	-	289,GLU	-	289,GLU	289,GLU	289,GLU	-	-	-
290,ASP	-	-	290,ASP	-	290,ASP	290,ASP	290,ASP	-	-	-
291,GLU	-	-	291,GLU	-	291,GLU	291,GLU	291,GLU	-	-	-
292,LYS	-	-	292,LYS	-	292,LYS	292,LYS	292,LYS	-	-	-
293,GLN	-	-	293,GLN	-	293,GLN	293,GLN	293,GLN	-	-	-
294,ALA	-	-	294,ALA	-	294,ALA	294,ALA	294,ALA	-	-	-
295,PHE	-	-	295,PHE	-	295,PHE	295,PHE	295,PHE	-	-	-
296,LEU	-	-	296,LEU	-	296,LEU	296,LEU	296,LEU	-	-	-
297,GLN	-	-	297,GLN	-	297,GLN	297,GLN	297,GLN	-	-	-
298,VAL	-	-	298,VAL	-	298,VAL	298,VAL	298,VAL	-	-	-
299,PHE	-	-	299,PHE	-	299,PHE	299,PHE	299,PHE	-	-	-
300,VAL	-	-	300,VAL	-	300,VAL	300,VAL	300,VAL	-	-	-
301,GLN	301,GLN	-	301,GLN	-	301,GLN	301,GLN	301,GLN	-	-	301,GLN
302,PRO	302,PRO	-	302,PRO	-	-	-	-	-	-	302,PRO
303,HIS	303,HIS	-	303,HIS	-	-	-	-	-	-	303,HIS
304,ILE	304,ILE	-	304,ILE	-	-	-	-	-	-	304,ILE
305,ILE	305,ILE	-	305,ILE	-	-	-	-	-	-	305,ILE
306,GLN	306,GLN	-	306,GLN	-	-	-	-	-	-	306,GLN
307,LEU	307,LEU	-	307,LEU	-	-	-	-	-	-	307,LEU
308,LYS	308,LYS	-	308,LYS	-	-	-	-	-	-	308,LYS
309,ASN	309,ASN	-	309,ASN	-	-	-	-	-	-	309,ASN
310,GLU	310,GLU	-	310,GLU	-	-	-	-	-	-	310,GLU
311,THR	311,THR	-	311,THR	-	-	-	-	-	-	311,THR
312,THR	312,THR	-	312,THR	-	-	-	-	-	-	312,THR
313,TYR	313,TYR	-	313,TYR	-	-	-	-	-	-	313,TYR
314,GLU	314,GLU	-	314,GLU	-	-	-	-	-	-	314,GLU
315,ASN	315,ASN	-	315,ASN	-	-	-	-	-	-	315,ASN
316,GLY	316,GLY	-	316,GLY	-	-	-	-	-	-	316,GLY
317,GLN	317,GLN	-	317,GLN	-	-	-	-	-	-	317,GLN
318,VAL	318,VAL	-	318,VAL	-	-	-	-	-	-	318,VAL
319,THR	319,THR	-	319,THR	-	-	-	-	-	-	319,THR
320,LEU	320,LEU	-	320,LEU	-	-	-	-	-	-	320,LEU
321,VAL	321,VAL	-	321,VAL	-	-	-	-	-	-	321,VAL
322,CYS	322,CYS	-	322,CYS	-	-	-	-	-	-	322,CYS
323,ASP	323,ASP	-	323,ASP	-	-	-	-	-	-	323,ASP
324,ALA	324,ALA	-	324,ALA	-	-	-	-	-	-	324,ALA
325,GLU	325,GLU	-	325,GLU	-	-	-	-	-	-	325,GLU
326,GLY	326,GLY	-	326,GLY	-	-	-	-	-	-	326,GLY
327,GLU	327,GLU	-	327,GLU	-	-	-	-	-	-	327,GLU
328,PRO	328,PRO	-	328,PRO	-	-	-	-	-	-	328,PRO
329,ILE	329,ILE	-	329,ILE	-	-	-	-	-	-	329,ILE
330,PRO	330,PRO	-	330,PRO	-	-	-	-	-	-	330,PRO
331,GLU	331,GLU	-	331,GLU	-	-	-	-	-	-	331,GLU
332,ILE	332,ILE	-	332,ILE	-	-	-	-	-	-	332,ILE
333,THR	333,THR	-	333,THR	-	-	-	-	-	-	333,THR
334,TRP	334,TRP	-	334,TRP	-	-	-	-	-	-	334,TRP
335,LYS	335,LYS	-	335,LYS	-	-	-	-	-	-	335,LYS
336,ARG	336,ARG	-	336,ARG	-	-	-	-	-	-	336,ARG
337,ALA	337,ALA	-	337,ALA	-	-	-	-	-	-	337,ALA
338,VAL	338,VAL	-	338,VAL	-	-	-	-	-	-	338,VAL
339,ASP	339,ASP	-	339,ASP	-	-	-	-	-	-	339,ASP
340,GLY	340,GLY	-	340,GLY	-	-	-	-	-	-	340,GLY
341,PHE	341,PHE	-	341,PHE	-	-	-	-	-	-	341,PHE
342,THR	342,THR	-	342,THR	-	-	-	-	-	-	342,THR
343,PHE	343,PHE	-	343,PHE	-	-	-	-	-	-	343,PHE
344,THR	344,THR	-	344,THR	-	-	-	-	-	-	344,THR
345,GLU	345,GLU	-	345,GLU	-	-	-	-	-	-	345,GLU
346,GLY	346,GLY	-	346,GLY	-	-	-	-	-	-	346,GLY
347,ASP	347,ASP	-	347,ASP	-	-	-	-	-	-	347,ASP
348,LYS	348,LYS	-	348,LYS	-	-	-	-	-	-	348,LYS
349,SER	349,SER	-	349,SER	-	-	-	-	-	-	349,SER
350,LEU	350,LEU	-	350,LEU	-	-	-	-	-	-	350,LEU
351,ASP	351,ASP	-	351,ASP	-	-	-	-	-	-	351,ASP
352,GLY	352,GLY	-	352,GLY	-	-	-	-	-	-	352,GLY
353,ARG	353,ARG	-	353,ARG	-	-	-	-	-	-	353,ARG
354,ILE	354,ILE	-	354,ILE	-	-	-	-	-	-	354,ILE
355,GLU	355,GLU	-	355,GLU	-	-	-	-	-	-	355,GLU
356,VAL	356,VAL	-	356,VAL	-	-	-	-	-	-	356,VAL
357,LYS	357,LYS	-	357,LYS	-	-	-	-	-	-	357,LYS
358,GLY	358,GLY	-	358,GLY	-	-	-	-	-	-	358,GLY
359,GLN	359,GLN	-	359,GLN	-	-	-	-	-	-	359,GLN
360,HIS	360,HIS	-	360,HIS	-	-	-	-	-	-	360,HIS
361,GLY	361,GLY	-	361,GLY	-	-	-	-	-	-	361,GLY
362,SER	362,SER	-	362,SER	-	-	-	-	-	-	362,SER
363,SER	363,SER	-	363,SER	-	-	-	-	-	-	363,SER
364,SER	364,SER	-	364,SER	-	-	-	-	-	-	364,SER
365,LEU	365,LEU	-	365,LEU	-	-	-	-	-	-	365,LEU
366,HIS	366,HIS	-	366,HIS	-	-	-	-	-	-	366,HIS
367,ILE	367,ILE	-	367,ILE	-	-	-	-	-	-	367,ILE
368,LYS	368,LYS	-	368,LYS	-	-	-	-	-	-	368,LYS
369,ASP	369,ASP	-	369,ASP	-	-	-	-	-	-	369,ASP
370,VAL	370,VAL	-	370,VAL	-	-	-	-	-	-	370,VAL
371,LYS	371,LYS	-	371,LYS	-	-	-	-	-	-	371,LYS
372,LEU	372,LEU	-	372,LEU	-	-	-	-	-	-	372,LEU
373,SER	373,SER	-	373,SER	-	-	-	-	-	-	373,SER
374,ASP	374,ASP	-	374,ASP	-	-	-	-	-	-	374,ASP
375,SER	375,SER	-	375,SER	-	-	-	-	-	-	375,SER
376,GLY	376,GLY	-	376,GLY	-	-	-	-	-	-	376,GLY
377,ARG	377,ARG	-	377,ARG	-	-	-	-	-	-	377,ARG
378,TYR	378,TYR	-	378,TYR	-	-	-	-	-	-	378,TYR
379,ASP	379,ASP	-	379,ASP	-	-	-	-	-	-	379,ASP
380,CYS	380,CYS	-	380,CYS	-	-	-	-	-	-	380,CYS
381,GLU	381,GLU	-	381,GLU	-	-	-	-	-	-	381,GLU
382,ALA	382,ALA	-	382,ALA	-	-	-	-	-	-	382,ALA
383,ALA	383,ALA	-	383,ALA	-	-	-	-	-	-	383,ALA
384,SER	384,SER	-	384,SER	-	-	-	-	-	-	384,SER
385,ARG	385,ARG	-	385,ARG	-	-	-	-	-	-	385,ARG
386,ILE	386,ILE	-	386,ILE	-	-	-	-	-	-	386,ILE
387,GLY	387,GLY	-	387,GLY	-	-	-	-	-	-	387,GLY
388,GLY	388,GLY	-	388,GLY	-	-	-	-	-	-	388,GLY
389,HIS	389,HIS	-	389,HIS	-	-	-	-	-	-	389,HIS
390,GLN	390,GLN	-	390,GLN	-	-	-	-	-	-	390,GLN
391,LYS	391,LYS	-	391,LYS	-	-	-	-	-	-	391,LYS
392,SER	392,SER	-	392,SER	-	-	-	-	-	-	392,SER
393,MET	393,MET	-	393,MET	-	-	-	-	-	-	393,MET
394,TYR	394,TYR	-	394,TYR	-	-	-	-	-	-	394,TYR
395,LEU	395,LEU	-	395,LEU	-	-	-	-	-	-	395,LEU
396,ASP	396,ASP	-	396,ASP	-	-	-	-	-	-	396,ASP
397,ILE	397,ILE	-	397,ILE	-	-	-	-	-	-	397,ILE
398,GLU	398,GLU	-	398,GLU	-	-	-	-	-	-	398,GLU
399,TYR	399,TYR	-	-	-	-	-	-	-	-	399,TYR
400,ALA	400,ALA	-	-	-	-	-	-	-	-	400,ALA
401,PRO	401,PRO	-	-	-	-	-	-	-	-	401,PRO
402,LYS	402,LYS	-	-	-	-	-	-	-	-	402,LYS
403,PHE	403,PHE	-	-	-	-	-	-	-	-	403,PHE
404,ILE	404,ILE	-	-	-	-	-	-	-	-	404,ILE
405,SER	405,SER	-	-	-	-	-	-	-	-	405,SER
406,ASN	406,ASN	-	-	-	-	-	-	-	-	406,ASN
407,GLN	407,GLN	-	-	-	-	-	-	-	-	407,GLN
408,THR	408,THR	-	-	-	-	-	-	-	-	408,THR
409,ILE	409,ILE	-	-	-	-	-	-	-	-	409,ILE
410,TYR	410,TYR	-	-	-	-	-	-	-	-	410,TYR
411,TYR	411,TYR	-	-	-	-	-	-	-	-	411,TYR
412,SER	412,SER	-	-	-	-	-	-	-	-	412,SER
413,TRP	413,TRP	-	-	-	-	-	-	-	-	413,TRP
414,GLU	414,GLU	-	-	-	-	-	-	-	-	414,GLU
415,GLY	415,GLY	-	-	-	-	-	-	-	-	415,GLY
416,ASN	416,ASN	-	-	-	-	-	-	-	-	416,ASN
417,PRO	417,PRO	-	-	-	-	-	-	-	-	417,PRO
418,ILE	418,ILE	-	-	-	-	-	-	-	-	418,ILE
419,ASN	419,ASN	-	-	-	-	-	-	-	-	419,ASN
420,ILE	420,ILE	-	-	-	-	-	-	-	-	420,ILE
421,SER	421,SER	-	-	-	-	-	-	-	-	421,SER
422,CYS	422,CYS	-	-	-	-	-	-	-	-	422,CYS
423,ASP	423,ASP	-	-	-	-	-	-	-	-	423,ASP
424,VAL	424,VAL	-	-	-	-	-	-	-	-	424,VAL
425,LYS	425,LYS	-	-	-	-	-	-	-	-	425,LYS
426,SER	426,SER	-	-	-	-	-	-	-	-	426,SER
427,ASN	427,ASN	-	-	-	-	-	-	-	-	427,ASN
428,PRO	428,PRO	-	-	-	-	-	-	-	-	428,PRO
429,PRO	429,PRO	-	-	-	-	-	-	-	-	429,PRO
430,ALA	430,ALA	-	-	-	-	-	-	-	-	430,ALA
431,SER	431,SER	-	-	-	-	-	-	-	-	431,SER
432,ILE	432,ILE	-	-	-	-	-	-	-	-	432,ILE
433,HIS	433,HIS	-	-	-	-	-	-	-	-	433,HIS
434,TRP	434,TRP	-	-	-	-	-	-	-	-	434,TRP
435,ARG	435,ARG	-	-	-	-	-	-	-	-	435,ARG
436,ARG	436,ARG	-	-	-	-	-	-	-	-	436,ARG
437,ASP	437,ASP	-	-	-	-	-	-	-	-	437,ASP
438,LYS	438,LYS	-	-	-	-	-	-	-	-	438,LYS
439,LEU	439,LEU	-	-	-	-	-	-	-	-	439,LEU
440,VAL	440,VAL	-	-	-	-	-	-	-	-	440,VAL
441,LEU	441,LEU	-	-	-	-	-	-	-	-	441,LEU
442,PRO	442,PRO	-	-	-	-	-	-	-	-	442,PRO
443,ALA	443,ALA	-	-	-	-	-	-	-	-	443,ALA
444,LYS	444,LYS	-	-	-	-	-	-	-	-	444,LYS
445,ASN	445,ASN	-	-	-	-	-	-	-	-	445,ASN
446,THR	446,THR	-	-	-	-	-	-	-	-	446,THR
447,THR	447,THR	-	-	-	-	-	-	-	-	447,THR
448,ASN	448,ASN	-	-	-	-	-	-	-	-	448,ASN
449,LEU	449,LEU	-	-	-	-	-	-	-	-	449,LEU
450,LYS	450,LYS	-	-	-	-	-	-	-	-	450,LYS
451,THR	451,THR	-	-	-	-	-	-	-	-	451,THR
452,TYR	452,TYR	-	-	-	-	-	-	-	-	452,TYR
453,SER	453,SER	-	-	-	-	-	-	-	-	453,SER
454,THR	454,THR	-	-	-	-	-	-	-	-	454,THR
455,GLY	455,GLY	-	-	-	-	-	-	-	-	455,GLY
456,ARG	456,ARG	-	-	-	-	-	-	-	-	456,ARG
457,LYS	457,LYS	-	-	-	-	-	-	-	-	457,LYS
458,MET	458,MET	-	-	-	-	-	-	-	-	458,MET
459,ILE	459,ILE	-	-	-	-	-	-	-	-	459,ILE
460,LEU	460,LEU	-	-	-	-	-	-	-	-	460,LEU
461,GLU	461,GLU	-	-	-	-	-	-	-	-	461,GLU
462,ILE	462,ILE	-	-	-	-	-	-	-	-	462,ILE
463,ALA	463,ALA	-	-	-	-	-	-	-	-	463,ALA
464,PRO	464,PRO	-	-	-	-	-	-	-	-	464,PRO
465,THR	465,THR	-	-	-	-	-	-	-	-	465,THR
466,SER	466,SER	-	-	-	-	-	-	-	-	466,SER
467,ASP	467,ASP	-	-	-	-	-	-	-	-	467,ASP
468,ASN	468,ASN	-	-	-	-	-	-	-	-	468,ASN
469,ASP	469,ASP	-	-	-	-	-	-	-	-	469,ASP
470,PHE	470,PHE	-	-	-	-	-	-	-	-	470,PHE
471,GLY	471,GLY	-	-	-	-	-	-	-	-	471,GLY
472,ARG	472,ARG	-	-	-	-	-	-	-	-	472,ARG
473,TYR	473,TYR	-	-	-	-	-	-	-	-	473,TYR
474,ASN	474,ASN	-	-	-	-	-	-	-	-	474,ASN
475,CYS	475,CYS	-	-	-	-	-	-	-	-	475,CYS
476,THR	476,THR	-	-	-	-	-	-	-	-	476,THR
477,ALA	477,ALA	-	-	-	-	-	-	-	-	477,ALA
478,THR	478,THR	-	-	-	-	-	-	-	-	478,THR
479,ASN	479,ASN	-	-	-	-	-	-	-	-	479,ASN
480,HIS	480,HIS	-	-	-	-	-	-	-	-	480,HIS
481,ILE	481,ILE	-	-	-	-	-	-	-	-	481,ILE
482,GLY	482,GLY	-	-	-	-	-	-	-	-	482,GLY
483,THR	483,THR	-	-	-	-	-	-	-	-	483,THR
484,ARG	484,ARG	-	-	-	-	-	-	-	-	484,ARG
485,PHE	485,PHE	-	-	-	-	-	-	-	-	485,PHE
486,GLN	486,GLN	8,GLN	-	-	-	-	-	-	-	486,GLN
487,GLU	487,GLU	9,GLU	-	-	-	-	-	-	-	487,GLU
488,TYR	488,TYR	10,TYR	-	-	-	-	-	-	-	488,TYR
489,ILE	489,ILE	11,ILE	-	-	-	-	-	-	-	489,ILE
490,LEU	490,LEU	12,LEU	-	-	-	-	-	-	-	490,LEU
491,ALA	491,ALA	13,ALA	-	-	-	-	-	-	-	491,ALA
492,LEU	492,LEU	14,LEU	-	-	-	-	-	-	-	492,LEU
493,ALA	493,ALA	15,ALA	-	-	-	-	-	-	-	493,ALA
494,ASP	494,ASP	16,ASP	-	-	-	-	-	-	-	494,ASP
495,VAL	495,VAL	17,VAL	-	-	-	-	-	-	-	495,VAL
496,PRO	496,PRO	18,PRO	-	-	-	-	-	-	-	496,PRO
497,SER	497,SER	19,SER	-	-	-	-	-	-	-	497,SER
498,SER	498,SER	20,SER	-	-	-	-	-	-	-	498,SER
499,PRO	499,PRO	21,PRO	-	-	-	-	-	-	-	499,PRO
500,TYR	500,TYR	22,TYR	-	-	-	-	-	-	-	500,TYR
501,GLY	501,GLY	23,GLY	-	-	-	-	-	-	-	501,GLY
502,VAL	502,VAL	24,VAL	-	-	-	-	-	-	-	502,VAL
503,LYS	503,LYS	25,LYS	-	-	-	-	-	-	-	503,LYS
504,ILE	504,ILE	26,ILE	-	-	-	-	-	-	-	504,ILE
505,ILE	505,ILE	27,ILE	-	-	-	-	-	-	-	505,ILE
506,GLU	506,GLU	28,GLU	-	-	-	-	-	-	-	506,GLU
507,LEU	507,LEU	29,LEU	-	-	-	-	-	-	-	507,LEU
508,SER	508,SER	30,SER	-	-	-	-	-	-	-	508,SER
509,GLN	509,GLN	31,GLN	-	-	-	-	-	-	-	509,GLN
510,THR	510,THR	32,THR	-	-	-	-	-	-	-	510,THR
511,THR	511,THR	33,THR	-	-	-	-	-	-	-	511,THR
512,ALA	512,ALA	34,ALA	-	-	-	-	-	-	-	512,ALA
513,LYS	513,LYS	35,LYS	-	-	-	-	-	-	-	513,LYS
514,VAL	514,VAL	36,VAL	-	-	-	-	-	-	-	514,VAL
515,SER	515,SER	37,SER	-	-	-	-	-	-	-	515,SER
516,PHE	516,PHE	38,PHE	-	-	-	-	-	-	-	516,PHE
517,ASN	517,ASN	39,ASN	-	-	-	-	-	-	-	517,ASN
518,LYS	518,LYS	40,LYS	-	-	-	-	-	-	-	518,LYS
519,PRO	519,PRO	41,PRO	-	-	-	-	-	-	-	519,PRO
520,ASP	520,ASP	42,ASP	-	-	-	-	-	-	-	520,ASP
521,SER	521,SER	43,SER	-	-	-	-	-	-	-	521,SER
522,HIS	522,HIS	44,HIS	-	-	-	-	-	-	-	522,HIS
523,GLY	523,GLY	45,GLY	-	-	-	-	-	-	-	523,GLY
524,GLY	524,GLY	46,GLY	-	-	-	-	-	-	-	524,GLY
525,VAL	525,VAL	47,VAL	-	-	-	-	-	-	-	525,VAL
526,PRO	526,PRO	48,PRO	-	-	-	-	-	-	-	526,PRO
527,ILE	527,ILE	49,ILE	-	-	-	-	-	-	-	527,ILE
528,HIS	528,HIS	50,HIS	-	-	-	-	-	-	-	528,HIS
529,HIS	529,HIS	51,HIS	-	-	-	-	-	-	-	529,HIS
530,TYR	530,TYR	52,TYR	-	-	-	-	-	-	-	530,TYR
531,GLN	531,GLN	53,GLN	-	-	-	-	-	-	-	531,GLN
532,VAL	532,VAL	57,LYS	-	-	-	-	-	-	-	532,VAL
533,ASP	533,ASP	54,VAL	-	-	-	-	-	-	-	533,ASP
534,VAL	534,VAL	55,ASP	-	-	-	-	-	-	-	534,VAL
535,LYS	535,LYS	56,VAL	-	-	-	-	-	-	-	535,LYS
536,GLU	536,GLU	58,GLU	-	-	-	-	-	-	-	536,GLU
537,VAL	537,VAL	59,VAL	-	-	-	-	-	-	-	537,VAL
538,ALA	538,ALA	60,ALA	-	-	-	-	-	-	-	538,ALA
539,SER	539,SER	61,SER	-	-	-	-	-	-	-	539,SER
540,GLU	540,GLU	62,GLU	-	-	-	-	-	-	-	540,GLU
541,ILE	541,ILE	63,ILE	-	-	-	-	-	-	-	541,ILE
542,TRP	542,TRP	64,TRP	-	-	-	-	-	-	-	542,TRP
543,LYS	543,LYS	65,LYS	-	-	-	-	-	-	-	543,LYS
544,ILE	544,ILE	66,ILE	-	-	-	-	-	-	-	544,ILE
545,VAL	545,VAL	67,VAL	-	-	-	-	-	-	-	545,VAL
546,ARG	546,ARG	68,ARG	-	-	-	-	-	-	-	546,ARG
547,SER	547,SER	69,SER	-	-	-	-	-	-	-	547,SER
548,HIS	548,HIS	70,HIS	-	-	-	-	-	-	-	548,HIS
549,GLY	549,GLY	71,GLY	-	-	-	-	-	-	-	549,GLY
550,VAL	550,VAL	72,VAL	-	-	-	-	-	-	-	550,VAL
551,GLN	551,GLN	73,GLN	-	-	-	-	-	-	-	551,GLN
552,THR	552,THR	74,THR	-	-	-	-	-	-	-	552,THR
553,MET	553,MET	75,MET	-	-	-	-	-	-	-	553,MET
554,VAL	554,VAL	76,VAL	-	-	-	-	-	-	-	554,VAL
555,VAL	555,VAL	77,VAL	-	-	-	-	-	-	-	555,VAL
556,LEU	556,LEU	78,LEU	-	-	-	-	-	-	-	556,LEU
557,ASN	557,ASN	79,ASN	-	-	-	-	-	-	-	557,ASN
558,ASN	558,ASN	80,ASN	-	-	-	-	-	-	-	558,ASN
559,LEU	559,LEU	81,LEU	-	-	-	-	-	-	-	559,LEU
560,GLU	560,GLU	82,GLU	-	-	-	-	-	-	-	560,GLU
561,PRO	561,PRO	83,PRO	-	-	-	-	-	-	-	561,PRO
562,ASN	562,ASN	84,ASN	-	-	-	-	-	-	-	562,ASN
563,THR	563,THR	85,THR	-	-	-	-	-	-	-	563,THR
564,THR	564,THR	86,THR	-	-	-	-	-	-	-	564,THR
565,TYR	565,TYR	87,TYR	-	-	-	-	-	-	-	565,TYR
566,GLU	566,GLU	88,GLU	-	-	-	-	-	-	-	566,GLU
567,ILE	567,ILE	89,ILE	-	-	-	-	-	-	-	567,ILE
568,ARG	568,ARG	90,ARG	-	-	-	-	-	-	-	568,ARG
569,VAL	569,VAL	91,VAL	-	-	-	-	-	-	-	569,VAL
570,ALA	570,ALA	92,ALA	-	-	-	-	-	-	-	570,ALA
571,ALA	571,ALA	93,ALA	-	-	-	-	-	-	-	571,ALA
572,VAL	572,VAL	94,VAL	-	-	-	-	-	-	-	572,VAL
573,ASN	573,ASN	95,ASN	-	-	-	-	-	-	-	573,ASN
574,GLY	574,GLY	96,GLY	-	-	-	-	-	-	-	574,GLY
575,LYS	575,LYS	97,LYS	-	-	-	-	-	-	-	575,LYS
576,GLY	576,GLY	98,GLY	-	-	-	-	-	-	-	576,GLY
577,GLN	577,GLN	99,GLN	-	-	-	-	-	-	-	577,GLN
578,GLY	578,GLY	100,GLY	-	-	-	-	-	-	-	578,GLY
579,ASP	579,ASP	101,ASP	-	-	-	-	-	-	-	579,ASP
580,TYR	580,TYR	102,TYR	-	-	-	-	-	-	-	580,TYR
581,SER	581,SER	103,SER	-	-	-	-	-	-	-	581,SER
582,LYS	582,LYS	104,LYS	-	-	-	-	-	-	-	582,LYS
583,ILE	583,ILE	105,ILE	-	-	-	-	-	-	-	583,ILE
584,GLU	584,GLU	106,GLU	-	-	-	-	-	-	-	584,GLU
585,ILE	585,ILE	107,ILE	-	-	-	-	-	-	-	585,ILE
586,PHE	586,PHE	108,PHE	-	-	-	-	-	-	-	586,PHE
587,GLN	587,GLN	109,GLN	-	-	-	-	-	-	-	587,GLN
588,THR	588,THR	110,THR	-	-	-	-	-	-	-	588,THR
589,LEU	589,LEU	111,LEU	-	-	-	-	-	-	-	589,LEU
590,PRO	590,PRO	112,PRO	-	-	-	-	-	-	-	590,PRO
591,VAL	591,VAL	113,VAL	-	-	-	-	-	-	-	591,VAL
592,ARG	592,ARG	-	-	-	-	-	-	-	1,ARG	-
593,GLU	593,GLU	-	-	-	-	-	-	-	2,GLU	-
594,PRO	594,PRO	-	-	-	-	-	-	-	3,PRO	-
595,SER	595,SER	-	-	-	-	-	-	-	4,SER	-
596,PRO	596,PRO	-	-	-	-	-	-	-	5,PRO	-
597,PRO	597,PRO	-	-	-	-	-	-	-	6,PRO	-
598,SER	598,SER	-	-	-	-	-	-	-	7,SER	-
599,ILE	599,ILE	-	-	-	-	-	-	-	8,ILE	-
600,HIS	600,HIS	-	-	-	-	-	-	-	9,HIS	-
601,GLY	601,GLY	-	-	-	-	-	-	-	10,GLY	-
602,GLN	602,GLN	-	-	-	-	-	-	-	11,GLN	-
603,PRO	603,PRO	-	-	-	-	-	-	-	12,PRO	-
604,SER	604,SER	-	-	-	-	-	-	-	13,SER	-
605,SER	605,SER	-	-	-	-	-	-	-	14,SER	-
606,GLY	606,GLY	-	-	-	-	-	-	-	15,GLY	-
607,LYS	607,LYS	-	-	-	-	-	-	-	16,LYS	-
608,SER	608,SER	-	-	-	-	-	-	-	17,SER	-
609,PHE	609,PHE	-	-	-	-	-	-	-	18,PHE	-
610,LYS	610,LYS	-	-	-	-	-	-	-	19,LYS	-
611,LEU	611,LEU	-	-	-	-	-	-	-	20,LEU	-
612,SER	612,SER	-	-	-	-	-	-	-	21,SER	-
613,ILE	613,ILE	-	-	-	-	-	-	-	22,ILE	-
614,THR	614,THR	-	-	-	-	-	-	-	23,THR	-
615,LYS	615,LYS	-	-	-	-	-	-	-	24,LYS	-
616,GLN	616,GLN	-	-	-	-	-	-	-	25,GLN	-
617,ASP	617,ASP	-	-	-	-	-	-	-	26,ASP	-
618,ASP	618,ASP	-	-	-	-	-	-	-	27,ASP	-
619,GLY	619,GLY	-	-	-	-	-	-	-	28,GLY	-
620,GLY	620,GLY	-	-	-	-	-	-	-	29,GLY	-
621,ALA	621,ALA	-	-	-	-	-	-	-	30,ALA	-
622,PRO	622,PRO	-	-	-	-	-	-	-	31,PRO	-
623,ILE	623,ILE	-	-	-	-	-	-	-	32,ILE	-
624,LEU	624,LEU	-	-	-	-	-	-	-	33,LEU	-
625,GLU	625,GLU	-	-	-	-	-	-	-	34,GLU	-
626,TYR	626,TYR	-	-	-	-	-	-	-	35,TYR	-
627,ILE	627,ILE	-	-	-	-	-	-	-	36,ILE	-
628,VAL	628,VAL	-	-	-	-	-	-	-	37,VAL	-
629,LYS	629,LYS	-	-	-	-	-	-	-	38,LYS	-
630,TYR	630,TYR	-	-	-	-	-	-	-	39,TYR	-
631,ARG	631,ARG	-	-	-	-	-	-	-	40,ARG	-
632,SER	632,SER	-	-	-	-	-	-	-	41,SER	-
633,LYS	633,LYS	-	-	-	-	-	-	-	42,LYS	-
634,ASP	634,ASP	-	-	-	-	-	-	-	43,ASP	-
635,LYS	635,LYS	-	-	-	-	-	-	-	44,LYS	-
636,GLU	636,GLU	-	-	-	-	-	-	-	45,GLU	-
637,ASP	637,ASP	-	-	-	-	-	-	-	46,ASP	-
638,GLN	638,GLN	-	-	-	-	-	-	-	47,GLN	-
639,TRP	639,TRP	-	-	-	-	-	-	-	48,TRP	-
640,LEU	640,LEU	-	-	-	-	-	-	-	49,LEU	-
641,GLU	641,GLU	-	-	-	-	-	-	-	50,GLU	-
642,LYS	642,LYS	-	-	-	-	-	-	-	51,LYS	-
643,LYS	643,LYS	-	-	-	-	-	-	-	52,LYS	-
644,VAL	644,VAL	-	-	-	-	-	-	-	53,VAL	-
645,GLN	645,GLN	-	-	-	-	-	-	-	54,GLN	-
646,GLY	646,GLY	-	-	-	-	-	-	-	55,GLY	-
647,ASN	647,ASN	-	-	-	-	-	-	-	56,ASN	-
648,LYS	648,LYS	-	-	-	-	-	-	-	57,LYS	-
649,ASP	649,ASP	-	-	-	-	-	-	-	58,ASP	-
650,HIS	650,HIS	-	-	-	-	-	-	-	59,HIS	-
651,ILE	651,ILE	-	-	-	-	-	-	-	60,ILE	-
652,ILE	652,ILE	-	-	-	-	-	-	-	61,ILE	-
653,LEU	653,LEU	-	-	-	-	-	-	-	62,LEU	-
654,GLU	654,GLU	-	-	-	-	-	-	-	63,GLU	-
655,HIS	655,HIS	-	-	-	-	-	-	-	64,HIS	-
656,LEU	656,LEU	-	-	-	-	-	-	-	65,LEU	-
657,GLN	657,GLN	-	-	-	-	-	-	-	66,GLN	-
658,TRP	658,TRP	-	-	-	-	-	-	-	67,TRP	-
659,THR	659,THR	-	-	-	-	-	-	-	68,THR	-
660,MET	660,MET	-	-	-	-	-	-	-	69,MET	-
661,GLY	661,GLY	-	-	-	-	-	-	-	70,GLY	-
662,TYR	662,TYR	-	-	-	-	-	-	-	71,TYR	-
663,GLU	663,GLU	-	-	-	-	-	-	-	72,GLU	-
664,VAL	664,VAL	-	-	-	-	-	-	-	73,VAL	-
665,GLN	665,GLN	-	-	-	-	-	-	-	74,GLN	-
666,ILE	666,ILE	-	-	-	-	-	-	-	75,ILE	-
667,THR	667,THR	-	-	-	-	-	-	-	76,THR	-
668,ALA	668,ALA	-	-	-	-	-	-	-	77,ALA	-
669,ALA	669,ALA	-	-	-	-	-	-	-	78,ALA	-
670,ASN	670,ASN	-	-	-	-	-	-	-	79,ASN	-
671,ARG	671,ARG	-	-	-	-	-	-	-	80,ARG	-
672,LEU	672,LEU	-	-	-	-	-	-	-	81,LEU	-
673,GLY	673,GLY	-	-	-	-	-	-	-	82,GLY	-
674,TYR	674,TYR	-	-	-	-	-	-	-	83,TYR	-
675,SER	675,SER	-	-	-	-	-	-	-	84,SER	-
676,GLU	676,GLU	-	-	-	-	-	-	-	85,GLU	-
677,PRO	677,PRO	-	-	-	-	-	-	-	86,PRO	-
678,THR	678,THR	-	-	-	-	-	-	-	87,THR	-
679,VAL	679,VAL	-	-	-	-	-	-	-	88,VAL	-
680,TYR	680,TYR	-	-	-	-	-	-	-	89,TYR	-
681,GLU	681,GLU	-	-	-	-	-	-	-	90,GLU	-
682,PHE	682,PHE	-	-	-	-	-	-	-	91,PHE	-
683,SER	683,SER	-	-	-	-	-	-	-	92,SER	-
684,MET	684,MET	-	-	-	-	-	-	-	93,MET	-
685,PRO	685,PRO	-	-	-	-	-	-	-	94,PRO	-
686,PRO	686,PRO	-	-	-	-	-	-	-	95,PRO	-
687,LYS	687,LYS	-	-	-	-	-	-	-	96,LYS	-
688,PRO	688,PRO	-	-	-	-	-	-	-	97,PRO	-
689,ASN	689,ASN	-	-	-	-	-	-	-	98,ASN	-
690,ILE	-	-	-	-	-	-	-	-	99,ILE	-
691,ILE	-	-	-	-	-	-	-	-	100,ILE	-
692,LYS	-	-	-	-	-	-	-	-	101,LYS	-
693,ASP	-	-	-	-	-	-	-	-	102,ASP	-
694,THR	-	-	-	-	-	-	-	-	-	-
695,LEU	-	-	-	-	-	-	-	-	-	-
696,PHE	-	-	-	-	-	-	-	-	-	-
697,ASN	-	-	-	-	-	-	-	-	-	-
698,GLY	-	-	-	-	-	-	-	-	-	-
699,LEU	-	-	-	-	-	-	-	-	-	-
700,GLY	-	-	-	-	-	-	-	-	-	-
701,LEU	-	-	-	-	-	-	-	-	-	-
702,GLY	-	-	-	-	-	-	-	-	-	-
703,ALA	-	-	-	-	-	-	-	-	-	-
704,VAL	-	-	-	-	-	-	-	-	-	-
705,ILE	-	-	-	-	-	-	-	-	-	-
706,GLY	-	-	-	-	-	-	-	-	-	-
707,LEU	-	-	-	-	-	-	-	-	-	-
708,GLY	-	-	-	-	-	-	-	-	-	-
709,VAL	-	-	-	-	-	-	-	-	-	-
710,ALA	-	-	-	-	-	-	-	-	-	-
711,ALA	-	-	-	-	-	-	-	-	-	-
712,LEU	-	-	-	-	-	-	-	-	-	-
713,LEU	-	-	-	-	-	-	-	-	-	-
714,LEU	-	-	-	-	-	-	-	-	-	-
715,ILE	-	-	-	-	-	-	-	-	-	-
716,LEU	-	-	-	-	-	-	-	-	-	-
717,VAL	-	-	-	-	-	-	-	-	-	-
718,VAL	-	-	-	-	-	-	-	-	-	-
719,THR	-	-	-	-	-	-	-	-	-	-
720,ASP	-	-	-	-	-	-	-	-	-	-
721,VAL	-	-	-	-	-	-	-	-	-	-
722,SER	-	-	-	-	-	-	-	-	-	-
723,CYS	-	-	-	-	-	-	-	-	-	-
724,PHE	-	-	-	-	-	-	-	-	-	-
725,PHE	-	-	-	-	-	-	-	-	-	-
726,ILE	-	-	-	-	-	-	-	-	-	-
727,ARG	-	-	-	-	-	-	-	-	-	-
728,GLN	-	-	-	-	-	-	-	-	-	-
729,CYS	-	-	-	-	-	-	-	-	-	-
730,GLY	-	-	-	-	-	-	-	-	-	-
731,LEU	-	-	-	-	-	-	-	-	-	-
732,LEU	-	-	-	-	-	-	-	-	-	-
733,MET	-	-	-	-	-	-	-	-	-	-
734,CYS	-	-	-	-	-	-	-	-	-	-
735,ILE	-	-	-	-	-	-	-	-	-	-
736,THR	-	-	-	-	-	-	-	-	-	-
737,ARG	-	-	-	-	-	-	-	-	-	-
738,ARG	-	-	-	-	-	-	-	-	-	-
739,MET	-	-	-	-	-	-	-	-	-	-
740,CYS	-	-	-	-	-	-	-	-	-	-
741,GLY	-	-	-	-	-	-	-	-	-	-
742,LYS	-	-	-	-	-	-	-	-	-	-
743,LYS	-	-	-	-	-	-	-	-	-	-
744,SER	-	-	-	-	-	-	-	-	-	-
745,GLY	-	-	-	-	-	-	-	-	-	-
746,SER	-	-	-	-	-	-	-	-	-	-
747,SER	-	-	-	-	-	-	-	-	-	-
748,GLY	-	-	-	-	-	-	-	-	-	-
749,LYS	-	-	-	-	-	-	-	-	-	-
750,SER	-	-	-	-	-	-	-	-	-	-
751,LYS	-	-	-	-	-	-	-	-	-	-
752,GLU	-	-	-	-	-	-	-	-	-	-
753,LEU	-	-	-	-	-	-	-	-	-	-
754,GLU	-	-	-	-	-	-	-	-	-	-
755,GLU	-	-	-	-	-	-	-	-	-	-
756,GLY	-	-	-	-	-	-	-	-	-	-
757,LYS	-	-	-	-	-	-	-	-	-	-
758,ALA	-	-	-	-	-	-	-	-	-	-
759,ALA	-	-	-	-	-	-	-	-	-	-
760,TYR	-	-	-	-	-	-	-	-	-	-
761,LEU	-	-	-	-	-	-	-	-	-	-
762,LYS	-	-	-	-	-	-	-	-	-	-
763,ASP	-	-	-	-	-	-	-	-	-	-
764,GLY	-	-	-	-	-	-	-	-	-	-
765,SER	-	-	-	-	-	-	-	-	-	-
766,LYS	-	-	-	-	-	-	-	-	-	-
767,GLU	-	-	-	-	-	-	-	-	-	-
768,PRO	-	-	-	-	-	-	-	-	-	-
769,ILE	-	-	-	-	-	-	-	-	-	-
770,VAL	-	-	-	-	-	-	-	-	-	-
771,GLU	-	-	-	-	-	-	-	-	-	-
772,MET	-	-	-	-	-	-	-	-	-	-
773,ARG	-	-	-	-	-	-	-	-	-	-
774,THR	-	-	-	-	-	-	-	-	-	-
775,GLU	-	-	-	-	-	-	-	-	-	-
776,ASP	-	-	-	-	-	-	-	-	-	-
777,GLU	-	-	-	-	-	-	-	-	-	-
778,ARG	-	-	-	-	-	-	-	-	-	-
779,VAL	-	-	-	-	-	-	-	-	-	-
780,THR	-	-	-	-	-	-	-	-	-	-
781,ASN	-	-	-	-	-	-	-	-	-	-
782,HIS	-	-	-	-	-	-	-	-	-	-
783,GLU	-	-	-	-	-	-	-	-	-	-
784,ASP	-	-	-	-	-	-	-	-	-	-
785,GLY	-	-	-	-	-	-	-	-	-	-
786,SER	-	-	-	-	-	-	-	-	-	-
787,PRO	-	-	-	-	-	-	-	-	-	-
788,VAL	-	-	-	-	-	-	-	-	-	-
789,ASN	-	-	-	-	-	-	-	-	-	-
790,GLU	-	-	-	-	-	-	-	-	-	-
791,PRO	-	-	-	-	-	-	-	-	-	-
792,ASN	-	-	-	-	-	-	-	-	-	-
793,GLU	-	-	-	-	-	-	-	-	-	-
794,THR	-	-	-	-	-	-	-	-	-	-
795,THR	-	-	-	-	-	-	-	-	-	-
796,PRO	-	-	-	-	-	-	-	-	-	-
797,LEU	-	-	-	-	-	-	-	-	-	-
798,THR	-	-	-	-	-	-	-	-	-	-
799,GLU	-	-	-	-	-	-	-	-	-	-
800,PRO	-	-	-	-	-	-	-	-	-	-
801,GLU	-	-	-	-	-	-	-	-	-	-
802,LYS	-	-	-	-	-	-	-	-	-	-
803,LEU	-	-	-	-	-	-	-	-	-	-
804,PRO	-	-	-	-	-	-	-	-	-	-
805,LEU	-	-	-	-	-	-	-	-	-	-
806,LYS	-	-	-	-	-	-	-	-	-	-
807,GLU	-	-	-	-	-	-	-	-	-	-
808,GLU	-	-	-	-	-	-	-	-	-	-
809,ASP	-	-	-	-	-	-	-	-	-	-
810,GLY	-	-	-	-	-	-	-	-	-	-
811,LYS	-	-	-	-	-	-	-	-	-	-
812,GLU	-	-	-	-	-	-	-	-	-	-
813,ALA	-	-	-	-	-	-	-	-	-	-
814,LEU	-	-	-	-	-	-	-	-	-	-
815,ASN	-	-	-	-	-	-	-	-	-	-
816,PRO	-	-	-	-	-	-	-	-	-	-
817,GLU	-	-	-	-	-	-	-	-	-	-
818,THR	-	-	-	-	-	-	-	-	-	-
819,ILE	-	-	-	-	-	-	-	-	-	-
820,GLU	-	-	-	-	-	-	-	-	-	-
821,ILE	-	-	-	-	-	-	-	-	-	-
822,LYS	-	-	-	-	-	-	-	-	-	-
823,VAL	-	-	-	-	-	-	-	-	-	-
824,SER	-	-	-	-	-	-	-	-	-	-
825,ASN	-	-	-	-	-	-	-	-	-	-
826,ASP	-	-	-	-	-	-	-	-	-	-
827,ILE	-	-	-	-	-	-	-	-	-	-
828,ILE	-	-	-	-	-	-	-	-	-	-
829,GLN	-	-	-	-	-	-	-	-	-	-
830,SER	-	-	-	-	-	-	-	-	-	-
831,LYS	-	-	-	-	-	-	-	-	-	-
832,GLU	-	-	-	-	-	-	-	-	-	-
833,ASP	-	-	-	-	-	-	-	-	-	-
834,ASP	-	-	-	-	-	-	-	-	-	-
835,SER	-	-	-	-	-	-	-	-	-	-
836,LYS	-	-	-	-	-	-	-	-	-	-
837,ALA	-	-	-	-	-	-	-	-	-	-
