uniprot_isoform	location_id	ENSEMBL ID	uniprot_start	uniprot_end	4tnmA_start	4tnmA_end
1	4_953602_950887_-1	AT4G02150.1.exon1	1	72	1	72
1	4_953602_950887_-1	AT4G02150.1.exon2	73	106	73	106
1	4_953602_950887_-1	AT4G02150.1.exon3	106	136	106	136
1	4_953602_950887_-1	AT4G02150.1.exon4	137	180	137	180
1	4_953602_950887_-1	AT4G02150.1.exon5	181	242	181	242
1	4_953602_950887_-1	AT4G02150.1.exon6	243	297	243	297
1	4_953602_950887_-1	AT4G02150.1.exon7	297	323	297	323
1	4_953602_950887_-1	AT4G02150.1.exon8	324	366	324	366
1	4_953602_950887_-1	AT4G02150.1.exon9	367	409	367	409
1	4_953602_950887_-1	AT4G02150.1.exon10	409	531	409	531
