P07359	1qyyA	4mgxB	1sq0B	4yr6C	4yr6F	1gwbA	1gwbB	4c2aB	4c2bB	4c2bD	4c2bF	4c2bH	1u0nD	1m0zA	1m0zB	3p72A	1p8vA	1m10B
1,MET	-	-	-	-	-	-	-	-	-	-	-	-	-	-	-	-	-	-
2,PRO	-	-	-	-	-	-	-	-	-	-	-	-	-	-	-	-	-	-
3,LEU	-	-	-	-	-	-	-	-	-	-	-	-	-	-	-	-	-	-
4,LEU	-	-	-	-	-	-	-	-	-	-	-	-	-	-	-	-	-	-
5,LEU	-	-	-	-	-	-	-	-	-	-	-	-	-	-	-	-	-	-
6,LEU	-	-	-	-	-	-	-	-	-	-	-	-	-	-	-	-	-	-
7,LEU	-	-	-	-	-	-	-	-	-	-	-	-	-	-	-	-	-	-
8,LEU	-	-	-	-	-	-	-	-	-	-	-	-	-	-	-	-	-	-
9,LEU	-	-	-	-	-	-	-	-	-	-	-	-	-	-	-	-	-	-
10,LEU	-	-	-	-	-	-	-	-	-	-	-	-	-	-	-	-	-	-
11,PRO	-	-	-	-	-	-	-	-	-	-	-	-	-	-	-	-	-	-
12,SER	-	-	-	-	-	-	-	-	-	-	-	-	-	-	-	-	-	-
13,PRO	-	-	-	-	-	-	-	-	-	-	-	-	-	-	-	-	-	-
14,LEU	-	-	-	-	-	-	-	-	-	-	-	-	-	-	-	-	-	-
15,HIS	-	-	-	-	-	-	-	-	-	-	-	-	-	-	-	-	-	-
16,PRO	-	-	-	-	-	16,PRO	16,PRO	-	-	-	-	-	-	-	-	-	-	-
17,HIS	1,HIS	-	1,HIS	-	-	17,HIS	17,HIS	1,HIS	1,HIS	1,HIS	1,HIS	1,HIS	1,HIS	1,HIS	1,HIS	1,HIS	1,HIS	1,HIS
18,PRO	2,PRO	-	2,PRO	-	-	18,PRO	18,PRO	2,PRO	2,PRO	2,PRO	2,PRO	2,PRO	2,PRO	2,PRO	2,PRO	2,PRO	2,PRO	2,PRO
19,ILE	3,ILE	-	3,ILE	-	-	19,ILE	19,ILE	3,ILE	3,ILE	3,ILE	3,ILE	3,ILE	3,ILE	3,ILE	3,ILE	3,ILE	3,ILE	3,ILE
20,CYS	4,CYS	-	4,CYS	-	-	20,CYS	20,CYS	4,CYS	4,CYS	4,CYS	4,CYS	4,CYS	4,CYS	4,CYS	4,CYS	4,CYS	4,CYS	4,CYS
21,GLU	5,GLU	-	5,GLU	-	-	21,GLU	21,GLU	5,GLU	5,GLU	5,GLU	5,GLU	5,GLU	5,GLU	5,GLU	5,GLU	5,GLU	5,GLU	5,GLU
22,VAL	6,VAL	-	6,VAL	-	-	22,VAL	22,VAL	6,VAL	6,VAL	6,VAL	6,VAL	6,VAL	6,VAL	6,VAL	6,VAL	6,VAL	6,VAL	6,VAL
23,SER	7,SER	-	7,SER	-	-	23,SER	23,SER	7,SER	7,SER	7,SER	7,SER	7,SER	7,SER	7,SER	7,SER	7,SER	7,SER	7,SER
24,LYS	8,LYS	-	8,LYS	-	-	24,LYS	24,LYS	8,LYS	8,LYS	8,LYS	8,LYS	8,LYS	8,LYS	8,LYS	8,LYS	8,LYS	8,LYS	8,LYS
25,VAL	9,VAL	-	9,VAL	-	-	25,VAL	25,VAL	9,VAL	9,VAL	9,VAL	9,VAL	9,VAL	9,VAL	9,VAL	9,VAL	9,VAL	9,VAL	9,VAL
26,ALA	10,ALA	-	10,ALA	-	-	26,ALA	26,ALA	10,ALA	10,ALA	10,ALA	10,ALA	10,ALA	10,ALA	10,ALA	10,ALA	10,ALA	10,ALA	10,ALA
27,SER	11,SER	-	11,SER	-	-	27,SER	27,SER	11,SER	11,SER	11,SER	11,SER	11,SER	11,SER	11,SER	11,SER	11,SER	11,SER	11,SER
28,HIS	12,HIS	-	12,HIS	-	-	28,HIS	28,HIS	12,HIS	12,HIS	12,HIS	12,HIS	12,HIS	12,HIS	12,HIS	12,HIS	12,HIS	12,HIS	12,HIS
29,LEU	13,LEU	-	13,LEU	-	-	29,LEU	29,LEU	13,LEU	13,LEU	13,LEU	13,LEU	13,LEU	13,LEU	13,LEU	13,LEU	13,LEU	13,LEU	13,LEU
30,GLU	14,GLU	-	14,GLU	-	-	30,GLU	30,GLU	14,GLU	14,GLU	14,GLU	14,GLU	14,GLU	14,GLU	14,GLU	14,GLU	14,GLU	14,GLU	14,GLU
31,VAL	15,VAL	-	15,VAL	-	-	31,VAL	31,VAL	15,VAL	15,VAL	15,VAL	15,VAL	15,VAL	15,VAL	15,VAL	15,VAL	15,VAL	15,VAL	15,VAL
32,ASN	16,ASN	-	16,ASN	-	-	32,ASN	32,ASN	16,ASN	16,ASN	16,ASN	16,ASN	16,ASN	16,ASN	16,ASN	16,ASN	16,ASN	16,ASN	16,ASN
33,CYS	17,CYS	-	17,CYS	-	-	33,CYS	33,CYS	17,CYS	17,CYS	17,CYS	17,CYS	17,CYS	17,CYS	17,CYS	17,CYS	17,CYS	17,CYS	17,CYS
34,ASP	18,ASP	-	18,ASP	-	-	34,ASP	34,ASP	18,ASP	18,ASP	18,ASP	18,ASP	18,ASP	18,ASP	18,ASP	18,ASP	18,ASP	18,ASP	18,ASP
35,LYS	19,LYS	-	19,LYS	-	-	35,LYS	35,LYS	19,LYS	19,LYS	19,LYS	19,LYS	19,LYS	19,LYS	19,LYS	19,LYS	19,LYS	19,LYS	19,LYS
36,ARG	20,ARG	-	20,ARG	-	-	36,ARG	36,ARG	20,ARG	20,ARG	20,ARG	20,ARG	20,ARG	20,ARG	20,ARG	20,ARG	20,ARG	20,ARG	20,ARG
37,ASN	21,ASN	-	21,ASP	-	-	37,ASN	37,ASN	21,ARG	21,ARG	21,ARG	21,ARG	21,ARG	21,GLN	21,GLN	21,GLN	21,GLN	21,ASP	21,GLN
38,LEU	22,LEU	-	22,LEU	-	-	38,LEU	38,LEU	22,LEU	22,LEU	22,LEU	22,LEU	22,LEU	22,LEU	22,LEU	22,LEU	22,LEU	22,LEU	22,LEU
39,THR	23,THR	-	23,THR	-	-	39,THR	39,THR	23,THR	23,THR	23,THR	23,THR	23,THR	23,THR	23,THR	23,THR	23,THR	23,THR	23,THR
40,ALA	24,ALA	-	24,ALA	-	-	40,ALA	40,ALA	24,ALA	24,ALA	24,ALA	24,ALA	24,ALA	24,ALA	24,ALA	24,ALA	24,ALA	24,ALA	24,ALA
41,LEU	25,LEU	-	25,LEU	-	-	41,LEU	41,LEU	25,LEU	25,LEU	25,LEU	25,LEU	25,LEU	25,LEU	25,LEU	25,LEU	25,LEU	25,LEU	25,LEU
42,PRO	26,PRO	-	26,PRO	-	-	42,PRO	42,PRO	26,PRO	26,PRO	26,PRO	26,PRO	26,PRO	26,PRO	26,PRO	26,PRO	26,PRO	26,PRO	26,PRO
43,PRO	27,PRO	-	27,PRO	-	-	43,PRO	43,PRO	27,PRO	27,PRO	27,PRO	27,PRO	27,PRO	27,PRO	27,PRO	27,PRO	27,PRO	27,PRO	27,PRO
44,ASP	28,ASP	-	28,ASP	-	-	44,ASP	44,ASP	28,ASP	28,ASP	28,ASP	28,ASP	28,ASP	28,ASP	28,ASP	28,ASP	28,ASP	28,ASP	28,ASP
45,LEU	29,LEU	-	29,LEU	-	-	45,LEU	45,LEU	29,LEU	29,LEU	29,LEU	29,LEU	29,LEU	29,LEU	29,LEU	29,LEU	29,LEU	29,LEU	29,LEU
46,PRO	30,PRO	-	30,PRO	-	-	46,PRO	46,PRO	30,PRO	30,PRO	30,PRO	30,PRO	30,PRO	30,PRO	30,PRO	30,PRO	30,PRO	30,PRO	30,PRO
47,LYS	31,LYS	-	31,LYS	-	-	47,LYS	47,LYS	31,LYS	31,LYS	31,LYS	31,LYS	31,LYS	31,LYS	31,LYS	31,LYS	31,LYS	31,LYS	31,LYS
48,ASP	32,ASP	-	32,ASP	-	-	48,ASP	48,ASP	32,ASP	32,ASP	32,ASP	32,ASP	32,ASP	32,ASP	32,ASP	32,ASP	32,ASP	32,ASP	32,ASP
49,THR	33,THR	-	33,THR	-	-	49,THR	49,THR	33,THR	33,THR	33,THR	33,THR	33,THR	33,THR	33,THR	33,THR	33,THR	33,THR	33,THR
50,THR	34,THR	-	34,THR	-	-	50,THR	50,THR	34,THR	34,THR	34,THR	34,THR	34,THR	34,THR	34,THR	34,THR	34,THR	34,THR	34,THR
51,ILE	35,ILE	-	35,ILE	-	-	51,ILE	51,ILE	35,ILE	35,ILE	35,ILE	35,ILE	35,ILE	35,ILE	35,ILE	35,ILE	35,ILE	35,ILE	35,ILE
52,LEU	36,LEU	-	36,LEU	-	-	52,LEU	52,LEU	36,LEU	36,LEU	36,LEU	36,LEU	36,LEU	36,LEU	36,LEU	36,LEU	36,LEU	36,LEU	36,LEU
53,HIS	37,HIS	-	37,HIS	-	-	53,HIS	53,HIS	37,HIS	37,HIS	37,HIS	37,HIS	37,HIS	37,HIS	37,HIS	37,HIS	37,HIS	37,HIS	37,HIS
54,LEU	38,LEU	-	38,LEU	-	-	54,LEU	54,LEU	38,LEU	38,LEU	38,LEU	38,LEU	38,LEU	38,LEU	38,LEU	38,LEU	38,LEU	38,LEU	38,LEU
55,SER	39,SER	-	39,SER	-	-	55,SER	55,SER	39,SER	39,SER	39,SER	39,SER	39,SER	39,SER	39,SER	39,SER	39,SER	39,SER	39,SER
56,GLU	40,GLU	-	40,GLU	-	-	56,GLU	56,GLU	40,GLU	40,GLU	40,GLU	40,GLU	40,GLU	40,GLU	40,GLU	40,GLU	40,GLU	40,GLU	40,GLU
57,ASN	41,ASN	-	41,ASN	-	-	57,ASN	57,ASN	41,ASN	41,ASN	41,ASN	41,ASN	41,ASN	41,ASN	41,ASN	41,ASN	41,ASN	41,ASN	41,ASN
58,LEU	42,LEU	-	42,LEU	-	-	58,LEU	58,LEU	42,LEU	42,LEU	42,LEU	42,LEU	42,LEU	42,LEU	42,LEU	42,LEU	42,LEU	42,LEU	42,LEU
59,LEU	43,LEU	-	43,LEU	-	-	59,LEU	59,LEU	43,LEU	43,LEU	43,LEU	43,LEU	43,LEU	43,LEU	43,LEU	43,LEU	43,LEU	43,LEU	43,LEU
60,TYR	44,TYR	-	44,TYR	-	-	60,TYR	60,TYR	44,TYR	44,TYR	44,TYR	44,TYR	44,TYR	44,TYR	44,TYR	44,TYR	44,TYR	44,TYR	44,TYR
61,THR	45,THR	-	45,THR	-	-	61,THR	61,THR	45,THR	45,THR	45,THR	45,THR	45,THR	45,THR	45,THR	45,THR	45,THR	45,THR	45,THR
62,PHE	46,PHE	-	46,PHE	-	-	62,PHE	62,PHE	46,PHE	46,PHE	46,PHE	46,PHE	46,PHE	46,PHE	46,PHE	46,PHE	46,PHE	46,PHE	46,PHE
63,SER	47,SER	-	47,SER	-	-	63,SER	63,SER	47,SER	47,SER	47,SER	47,SER	47,SER	47,SER	47,SER	47,SER	47,SER	47,SER	47,SER
64,LEU	48,LEU	-	48,LEU	-	-	64,LEU	64,LEU	48,LEU	48,LEU	48,LEU	48,LEU	48,LEU	48,LEU	48,LEU	48,LEU	48,LEU	48,LEU	48,LEU
65,ALA	49,ALA	-	49,ALA	-	-	65,ALA	65,ALA	49,ALA	49,ALA	49,ALA	49,ALA	49,ALA	49,ALA	49,ALA	49,ALA	49,ALA	49,ALA	49,ALA
66,THR	50,THR	-	50,THR	-	-	66,THR	66,THR	50,THR	50,THR	50,THR	50,THR	50,THR	50,THR	50,THR	50,THR	50,THR	50,THR	50,THR
67,LEU	51,LEU	-	51,LEU	-	-	67,LEU	67,LEU	51,LEU	51,LEU	51,LEU	51,LEU	51,LEU	51,LEU	51,LEU	51,LEU	51,LEU	51,LEU	51,LEU
68,MET	52,MET	-	52,MET	-	-	68,MET	68,MET	52,MET	52,MET	52,MET	52,MET	52,MET	52,MET	52,MET	52,MET	52,MET	52,MET	52,MET
69,PRO	53,PRO	-	53,PRO	-	-	69,PRO	69,PRO	53,PRO	53,PRO	53,PRO	53,PRO	53,PRO	53,PRO	53,PRO	53,PRO	53,PRO	53,PRO	53,PRO
70,TYR	54,TYR	-	54,TYR	-	-	70,TYR	70,TYR	54,TYR	54,TYR	54,TYR	54,TYR	54,TYR	54,TYR	54,TYR	54,TYR	54,TYR	54,TYR	54,TYR
71,THR	55,THR	-	55,THR	-	-	71,THR	71,THR	55,THR	55,THR	55,THR	55,THR	55,THR	55,THR	55,THR	55,THR	55,THR	55,THR	55,THR
72,ARG	56,ARG	-	56,ARG	-	-	72,ARG	72,ARG	56,ARG	56,ARG	56,ARG	56,ARG	56,ARG	56,ARG	56,ARG	56,ARG	56,ARG	56,ARG	56,ARG
73,LEU	57,LEU	-	57,LEU	-	-	73,LEU	73,LEU	57,LEU	57,LEU	57,LEU	57,LEU	57,LEU	57,LEU	57,LEU	57,LEU	57,LEU	57,LEU	57,LEU
74,THR	58,THR	-	58,THR	-	-	74,THR	74,THR	58,THR	58,THR	58,THR	58,THR	58,THR	58,THR	58,THR	58,THR	58,THR	58,THR	58,THR
75,GLN	59,GLN	-	59,GLN	-	-	75,GLN	75,GLN	59,GLN	59,GLN	59,GLN	59,GLN	59,GLN	59,GLN	59,GLN	59,GLN	59,GLN	59,GLN	59,GLN
76,LEU	60,LEU	-	60,LEU	-	-	76,LEU	76,LEU	60,LEU	60,LEU	60,LEU	60,LEU	60,LEU	60,LEU	60,LEU	60,LEU	60,LEU	60,LEU	60,LEU
77,ASN	61,ASN	-	61,ASN	-	-	77,ASN	77,ASN	61,ASN	61,ASN	61,ASN	61,ASN	61,ASN	61,ASN	61,ASN	61,ASN	61,ASN	61,ASN	61,ASN
78,LEU	62,LEU	-	62,LEU	-	-	78,LEU	78,LEU	62,LEU	62,LEU	62,LEU	62,LEU	62,LEU	62,LEU	62,LEU	62,LEU	62,LEU	62,LEU	62,LEU
79,ASP	63,ASP	-	63,ASP	-	-	79,ASP	79,ASP	63,ASP	63,ASP	63,ASP	63,ASP	63,ASP	63,ASP	63,ASP	63,ASP	63,ASP	63,ASP	63,ASP
80,ARG	64,ARG	-	64,ARG	-	-	80,ARG	80,ARG	64,ARG	64,ARG	64,ARG	64,ARG	64,ARG	64,ARG	64,ARG	64,ARG	64,ARG	64,ARG	64,ARG
81,CYS	65,ALA	-	65,CYS	-	-	81,CYS	81,CYS	65,CYS	65,CYS	65,CYS	65,CYS	65,CYS	65,CYS	65,CYS	65,CYS	65,CYS	65,CYS	65,CYS
82,GLU	66,GLU	-	66,GLU	-	-	82,GLU	82,GLU	66,GLU	66,GLU	66,GLU	66,GLU	66,GLU	66,GLU	66,GLU	66,GLU	66,GLU	66,GLU	66,GLU
83,LEU	67,LEU	-	67,LEU	-	-	83,LEU	83,LEU	67,LEU	67,LEU	67,LEU	67,LEU	67,LEU	67,LEU	67,LEU	67,LEU	67,LEU	67,LEU	67,LEU
84,THR	68,THR	-	68,THR	-	-	84,THR	84,THR	68,THR	68,THR	68,THR	68,THR	68,THR	68,THR	68,THR	68,THR	68,THR	68,THR	68,THR
85,LYS	69,LYS	-	69,LYS	-	-	85,LYS	85,LYS	69,LYS	69,LYS	69,LYS	69,LYS	69,LYS	69,LYS	69,LYS	69,LYS	69,LYS	69,LYS	69,LYS
86,LEU	70,LEU	-	70,LEU	-	-	86,LEU	86,LEU	70,LEU	70,LEU	70,LEU	70,LEU	70,LEU	70,LEU	70,LEU	70,LEU	70,LEU	70,LEU	70,LEU
87,GLN	71,GLN	-	71,GLN	-	-	87,GLN	87,GLN	71,GLN	71,GLN	71,GLN	71,GLN	71,GLN	71,GLN	71,GLN	71,GLN	71,GLN	71,GLN	71,GLN
88,VAL	72,VAL	-	72,VAL	-	-	88,VAL	88,VAL	72,VAL	72,VAL	72,VAL	72,VAL	72,VAL	72,VAL	72,VAL	72,VAL	72,VAL	72,VAL	72,VAL
89,ASP	73,ASP	-	73,ASP	-	-	89,ASP	89,ASP	73,ASP	73,ASP	73,ASP	73,ASP	73,ASP	73,ASP	73,ASP	73,ASP	73,ASP	73,ASP	73,ASP
90,GLY	74,GLY	-	74,GLY	-	-	90,GLY	90,GLY	74,GLY	74,GLY	74,GLY	74,GLY	74,GLY	74,GLY	74,GLY	74,GLY	74,GLY	74,GLY	74,GLY
91,THR	75,THR	-	75,THR	-	-	91,THR	91,THR	75,THR	75,THR	75,THR	75,THR	75,THR	75,THR	75,THR	75,THR	75,THR	75,THR	75,THR
92,LEU	76,LEU	-	76,LEU	-	-	92,LEU	92,LEU	76,LEU	76,LEU	76,LEU	76,LEU	76,LEU	76,LEU	76,LEU	76,LEU	76,LEU	76,LEU	76,LEU
93,PRO	77,PRO	-	77,PRO	-	-	93,PRO	93,PRO	77,PRO	77,PRO	77,PRO	77,PRO	77,PRO	77,PRO	77,PRO	77,PRO	77,PRO	77,PRO	77,PRO
94,VAL	78,VAL	-	78,VAL	-	-	94,VAL	94,VAL	78,VAL	78,VAL	78,VAL	78,VAL	78,VAL	78,VAL	78,VAL	78,VAL	78,VAL	78,VAL	78,VAL
95,LEU	79,LEU	-	79,LEU	-	-	95,LEU	95,LEU	79,LEU	79,LEU	79,LEU	79,LEU	79,LEU	79,LEU	79,LEU	79,LEU	79,LEU	79,LEU	79,LEU
96,GLY	80,GLY	-	80,GLY	-	-	96,GLY	96,GLY	80,GLY	80,GLY	80,GLY	80,GLY	80,GLY	80,GLY	80,GLY	80,GLY	80,GLY	80,GLY	80,GLY
97,THR	81,THR	-	81,THR	-	-	97,THR	97,THR	81,THR	81,THR	81,THR	81,THR	81,THR	81,THR	81,THR	81,THR	81,THR	81,THR	81,THR
98,LEU	82,LEU	-	82,LEU	-	-	98,LEU	98,LEU	82,LEU	82,LEU	82,LEU	82,LEU	82,LEU	82,LEU	82,LEU	82,LEU	82,LEU	82,LEU	82,LEU
99,ASP	83,ASP	-	83,ASP	-	-	99,ASP	99,ASP	83,ASP	83,ASP	83,ASP	83,ASP	83,ASP	83,ASP	83,ASP	83,ASP	83,ASP	83,ASP	83,ASP
100,LEU	84,LEU	-	84,LEU	-	-	100,LEU	100,LEU	84,LEU	84,LEU	84,LEU	84,LEU	84,LEU	84,LEU	84,LEU	84,LEU	84,LEU	84,LEU	84,LEU
101,SER	85,SER	-	85,SER	-	-	101,SER	101,SER	85,SER	85,SER	85,SER	85,SER	85,SER	85,SER	85,SER	85,SER	85,SER	85,SER	85,SER
102,HIS	86,HIS	-	86,HIS	-	-	102,HIS	102,HIS	86,HIS	86,HIS	86,HIS	86,HIS	86,HIS	86,HIS	86,HIS	86,HIS	86,HIS	86,HIS	86,HIS
103,ASN	87,ASN	-	87,ASN	-	-	103,ASN	103,ASN	87,ASN	87,ASN	87,ASN	87,ASN	87,ASN	87,ASN	87,ASN	87,ASN	87,ASN	87,ASN	87,ASN
104,GLN	88,GLN	-	88,GLN	-	-	104,GLN	104,GLN	88,GLN	88,GLN	88,GLN	88,GLN	88,GLN	88,GLN	88,GLN	88,GLN	88,GLN	88,GLN	88,GLN
105,LEU	89,LEU	-	89,LEU	-	-	105,LEU	105,LEU	89,LEU	89,LEU	89,LEU	89,LEU	89,LEU	89,LEU	89,LEU	89,LEU	89,LEU	89,LEU	89,LEU
106,GLN	90,GLN	-	90,GLN	-	-	106,GLN	106,GLN	90,GLN	90,GLN	90,GLN	90,GLN	90,GLN	90,GLN	90,GLN	90,GLN	90,GLN	90,GLN	90,GLN
107,SER	91,SER	-	91,SER	-	-	107,SER	107,SER	91,SER	91,SER	91,SER	91,SER	91,SER	91,SER	91,SER	91,SER	91,SER	91,SER	91,SER
108,LEU	92,LEU	-	92,LEU	-	-	108,LEU	108,LEU	92,LEU	92,LEU	92,LEU	92,LEU	92,LEU	92,LEU	92,LEU	92,LEU	92,LEU	92,LEU	92,LEU
109,PRO	93,PRO	-	93,PRO	-	-	109,PRO	109,PRO	93,PRO	93,PRO	93,PRO	93,PRO	93,PRO	93,PRO	93,PRO	93,PRO	93,PRO	93,PRO	93,PRO
110,LEU	94,LEU	-	94,LEU	-	-	110,LEU	110,LEU	94,LEU	94,LEU	94,LEU	94,LEU	94,LEU	94,LEU	94,LEU	94,LEU	94,LEU	94,LEU	94,LEU
111,LEU	95,LEU	-	95,LEU	-	-	111,LEU	111,LEU	95,LEU	95,LEU	95,LEU	95,LEU	95,LEU	95,LEU	95,LEU	95,LEU	95,LEU	95,LEU	95,LEU
112,GLY	96,GLY	-	96,GLY	-	-	112,GLY	112,GLY	96,GLY	96,GLY	96,GLY	96,GLY	96,GLY	96,GLY	96,GLY	96,GLY	96,GLY	96,GLY	96,GLY
113,GLN	97,GLN	-	97,GLN	-	-	113,GLN	113,GLN	97,GLN	97,GLN	97,GLN	97,GLN	97,GLN	97,GLN	97,GLN	97,GLN	97,GLN	97,GLN	97,GLN
114,THR	98,THR	-	98,THR	-	-	114,THR	114,THR	98,THR	98,THR	98,THR	98,THR	98,THR	98,THR	98,THR	98,THR	98,THR	98,THR	98,THR
115,LEU	99,LEU	-	99,LEU	-	-	115,LEU	115,LEU	99,LEU	99,LEU	99,LEU	99,LEU	99,LEU	99,LEU	99,LEU	99,LEU	99,LEU	99,LEU	99,LEU
116,PRO	100,PRO	-	100,PRO	-	-	116,PRO	116,PRO	100,PRO	100,PRO	100,PRO	100,PRO	100,PRO	100,PRO	100,PRO	100,PRO	100,PRO	100,PRO	100,PRO
117,ALA	101,ALA	-	101,ALA	-	-	117,ALA	117,ALA	101,ALA	101,ALA	101,ALA	101,ALA	101,ALA	101,ALA	101,ALA	101,ALA	101,ALA	101,ALA	101,ALA
118,LEU	102,LEU	-	102,LEU	-	-	118,LEU	118,LEU	102,LEU	102,LEU	102,LEU	102,LEU	102,LEU	102,LEU	102,LEU	102,LEU	102,LEU	102,LEU	102,LEU
119,THR	103,THR	-	103,THR	-	-	119,THR	119,THR	103,THR	103,THR	103,THR	103,THR	103,THR	103,THR	103,THR	103,THR	103,THR	103,THR	103,THR
120,VAL	104,VAL	-	104,VAL	-	-	120,VAL	120,VAL	104,VAL	104,VAL	104,VAL	104,VAL	104,VAL	104,VAL	104,VAL	104,VAL	104,VAL	104,VAL	104,VAL
121,LEU	105,LEU	-	105,LEU	-	-	121,LEU	121,LEU	105,LEU	105,LEU	105,LEU	105,LEU	105,LEU	105,LEU	105,LEU	105,LEU	105,LEU	105,LEU	105,LEU
122,ASP	106,ASP	-	106,ASP	-	-	122,ASP	122,ASP	106,ASP	106,ASP	106,ASP	106,ASP	106,ASP	106,ASP	106,ASP	106,ASP	106,ASP	106,ASP	106,ASP
123,VAL	107,VAL	-	107,VAL	-	-	123,VAL	123,VAL	107,VAL	107,VAL	107,VAL	107,VAL	107,VAL	107,VAL	107,VAL	107,VAL	107,VAL	107,VAL	107,VAL
124,SER	108,SER	-	108,SER	-	-	124,SER	124,SER	108,SER	108,SER	108,SER	108,SER	108,SER	108,SER	108,SER	108,SER	108,SER	108,SER	108,SER
125,PHE	109,PHE	-	109,PHE	-	-	125,PHE	125,PHE	109,PHE	109,PHE	109,PHE	109,PHE	109,PHE	109,PHE	109,PHE	109,PHE	109,PHE	109,PHE	109,PHE
126,ASN	110,ASN	-	110,ASN	-	-	126,ASN	126,ASN	110,ASN	110,ASN	110,ASN	110,ASN	110,ASN	110,ASN	110,ASN	110,ASN	110,ASN	110,ASN	110,ASN
127,ARG	111,ARG	-	111,ARG	-	-	127,ARG	127,ARG	111,ARG	111,ARG	111,ARG	111,ARG	111,ARG	111,ARG	111,ARG	111,ARG	111,ARG	111,ARG	111,ARG
128,LEU	112,LEU	-	112,LEU	-	-	128,LEU	128,LEU	112,LEU	112,LEU	112,LEU	112,LEU	112,LEU	112,LEU	112,LEU	112,LEU	112,LEU	112,LEU	112,LEU
129,THR	113,THR	-	113,THR	-	-	129,THR	129,THR	113,THR	113,THR	113,THR	113,THR	113,THR	113,THR	113,THR	113,THR	113,THR	113,THR	113,THR
130,SER	114,SER	-	114,SER	-	-	130,SER	130,SER	114,SER	114,SER	114,SER	114,SER	114,SER	114,SER	114,SER	114,SER	114,SER	114,SER	114,SER
131,LEU	115,LEU	-	115,LEU	-	-	131,LEU	131,LEU	115,LEU	115,LEU	115,LEU	115,LEU	115,LEU	115,LEU	115,LEU	115,LEU	115,LEU	115,LEU	115,LEU
132,PRO	116,PRO	-	116,PRO	-	-	132,PRO	132,PRO	116,PRO	116,PRO	116,PRO	116,PRO	116,PRO	116,PRO	116,PRO	116,PRO	116,PRO	116,PRO	116,PRO
133,LEU	117,LEU	-	117,LEU	-	-	133,LEU	133,LEU	117,LEU	117,LEU	117,LEU	117,LEU	117,LEU	117,LEU	117,LEU	117,LEU	117,LEU	117,LEU	117,LEU
134,GLY	118,GLY	-	118,GLY	-	-	134,GLY	134,GLY	121,ARG	118,GLY	118,GLY	118,GLY	118,GLY	118,GLY	118,GLY	118,GLY	118,GLY	118,GLY	118,GLY
135,ALA	119,ALA	-	119,ALA	-	-	135,ALA	135,ALA	118,GLY	119,ALA	119,ALA	119,ALA	119,ALA	119,ALA	119,ALA	119,ALA	119,ALA	119,ALA	119,ALA
136,LEU	120,LEU	-	120,LEU	-	-	136,LEU	136,LEU	119,ALA	120,LEU	120,LEU	120,LEU	120,LEU	120,LEU	120,LEU	120,LEU	120,LEU	120,LEU	120,LEU
137,ARG	121,ARG	-	121,ARG	-	-	137,ARG	137,ARG	120,LEU	121,ARG	121,ARG	121,ARG	121,ARG	121,ARG	121,ARG	121,ARG	121,ARG	121,ARG	121,ARG
138,GLY	122,GLY	-	122,GLY	-	-	138,GLY	138,GLY	122,GLY	122,GLY	122,GLY	122,GLY	122,GLY	122,GLY	122,GLY	122,GLY	122,GLY	122,GLY	122,GLY
139,LEU	123,LEU	-	123,LEU	-	-	139,LEU	139,LEU	123,LEU	123,LEU	123,LEU	123,LEU	123,LEU	123,LEU	123,LEU	123,LEU	123,LEU	123,LEU	123,LEU
140,GLY	124,GLY	-	124,GLY	-	-	140,GLY	140,GLY	124,GLY	124,GLY	124,GLY	124,GLY	124,GLY	124,GLY	124,GLY	124,GLY	124,GLY	124,GLY	124,GLY
141,GLU	125,GLU	-	125,GLU	-	-	141,GLU	141,GLU	125,GLU	125,GLU	125,GLU	125,GLU	125,GLU	125,GLU	125,GLU	125,GLU	125,GLU	125,GLU	125,GLU
142,LEU	126,LEU	-	126,LEU	-	-	142,LEU	142,LEU	126,LEU	126,LEU	126,LEU	126,LEU	126,LEU	126,LEU	126,LEU	126,LEU	126,LEU	126,LEU	126,LEU
143,GLN	127,GLN	-	127,GLN	-	-	143,GLN	143,GLN	127,GLN	127,GLN	127,GLN	127,GLN	127,GLN	127,GLN	127,GLN	127,GLN	127,GLN	127,GLN	127,GLN
144,GLU	128,GLU	-	128,GLU	-	-	144,GLU	144,GLU	128,GLU	128,GLU	128,GLU	128,GLU	128,GLU	128,GLU	128,GLU	128,GLU	128,GLU	128,GLU	128,GLU
145,LEU	129,LEU	-	129,LEU	-	-	145,LEU	145,LEU	129,LEU	129,LEU	129,LEU	129,LEU	129,LEU	129,LEU	129,LEU	129,LEU	129,LEU	129,LEU	129,LEU
146,TYR	130,TYR	-	130,TYR	-	-	146,TYR	146,TYR	130,TYR	130,TYR	130,TYR	130,TYR	130,TYR	130,TYR	130,TYR	130,TYR	130,TYR	130,TYR	130,TYR
147,LEU	131,LEU	-	131,LEU	-	-	147,LEU	147,LEU	131,LEU	131,LEU	131,LEU	131,LEU	131,LEU	131,LEU	131,LEU	131,LEU	131,LEU	131,LEU	131,LEU
148,LYS	132,LYS	-	132,LYS	-	-	148,LYS	148,LYS	132,LYS	132,LYS	132,LYS	132,LYS	132,LYS	132,LYS	132,LYS	132,LYS	132,LYS	132,LYS	132,LYS
149,GLY	133,GLY	-	133,GLY	-	-	149,GLY	149,GLY	133,GLY	133,GLY	133,GLY	133,GLY	133,GLY	133,GLY	133,GLY	133,GLY	133,GLY	133,GLY	133,GLY
150,ASN	134,ASN	-	134,ASN	-	-	150,ASN	150,ASN	134,ASN	134,ASN	134,ASN	134,ASN	134,ASN	134,ASN	134,ASN	134,ASN	134,ASN	134,ASN	134,ASN
151,GLU	135,GLU	-	135,GLU	-	-	151,GLU	151,GLU	135,GLU	135,GLU	135,GLU	135,GLU	135,GLU	138,THR	135,GLU	135,GLU	135,GLU	135,GLU	135,GLU
152,LEU	136,LEU	-	136,LEU	-	-	152,LEU	152,LEU	136,LEU	136,LEU	136,LEU	136,LEU	136,LEU	135,GLU	136,LEU	136,LEU	136,LEU	136,LEU	136,LEU
153,LYS	137,LYS	-	137,LYS	-	-	153,LYS	153,LYS	137,LYS	137,LYS	137,LYS	137,LYS	137,LYS	136,LEU	137,LYS	137,LYS	137,LYS	137,LYS	137,LYS
154,THR	138,THR	-	138,THR	-	-	154,THR	154,THR	138,THR	138,THR	138,THR	138,THR	138,THR	137,LYS	138,THR	138,THR	138,THR	138,THR	138,THR
155,LEU	139,LEU	-	139,LEU	-	-	155,LEU	155,LEU	139,LEU	139,LEU	139,LEU	139,LEU	139,LEU	139,LEU	139,LEU	139,LEU	139,LEU	139,LEU	139,LEU
156,PRO	140,PRO	-	140,PRO	-	-	156,PRO	156,PRO	140,PRO	140,PRO	140,PRO	140,PRO	140,PRO	140,PRO	140,PRO	140,PRO	140,PRO	140,PRO	140,PRO
157,PRO	141,PRO	-	141,PRO	-	-	157,PRO	157,PRO	141,PRO	141,PRO	141,PRO	141,PRO	141,PRO	141,PRO	141,PRO	141,PRO	141,PRO	141,PRO	141,PRO
158,GLY	142,GLY	-	142,GLY	-	-	158,GLY	158,GLY	142,GLY	142,GLY	142,GLY	142,GLY	142,GLY	142,GLY	142,GLY	142,GLY	142,GLY	142,GLY	142,GLY
159,LEU	143,LEU	-	143,LEU	-	-	159,LEU	159,LEU	143,LEU	143,LEU	143,LEU	143,LEU	143,LEU	143,LEU	143,LEU	143,LEU	143,LEU	143,LEU	143,LEU
160,LEU	144,LEU	-	144,LEU	-	-	160,LEU	160,LEU	144,LEU	144,LEU	144,LEU	144,LEU	144,LEU	144,LEU	144,LEU	144,LEU	144,LEU	144,LEU	144,LEU
161,THR	145,THR	-	145,THR	-	-	161,THR	161,THR	145,THR	145,THR	145,THR	145,THR	145,THR	145,THR	145,THR	145,THR	145,THR	145,THR	145,THR
162,PRO	146,PRO	-	146,PRO	-	-	162,PRO	162,PRO	146,PRO	146,PRO	146,PRO	146,PRO	146,PRO	146,PRO	146,PRO	146,PRO	146,PRO	146,PRO	146,PRO
163,THR	147,THR	-	147,THR	-	-	163,THR	163,THR	147,THR	147,THR	147,THR	147,THR	147,THR	147,THR	147,THR	147,THR	147,THR	147,THR	147,THR
164,PRO	148,PRO	-	148,PRO	-	-	164,PRO	164,PRO	148,PRO	148,PRO	148,PRO	148,PRO	148,PRO	148,PRO	148,PRO	148,PRO	148,PRO	148,PRO	148,PRO
165,LYS	149,LYS	-	149,LYS	-	-	165,LYS	165,LYS	149,LYS	149,LYS	149,LYS	149,LYS	149,LYS	149,LYS	149,LYS	149,LYS	149,LYS	149,LYS	149,LYS
166,LEU	150,LEU	-	150,LEU	-	-	166,LEU	166,LEU	150,LEU	150,LEU	150,LEU	150,LEU	150,LEU	150,LEU	150,LEU	150,LEU	150,LEU	150,LEU	150,LEU
167,GLU	151,GLU	-	151,GLU	-	-	167,GLU	167,GLU	151,GLU	151,GLU	151,GLU	151,GLU	151,GLU	151,GLU	151,GLU	151,GLU	151,GLU	151,GLU	151,GLU
168,LYS	152,LYS	-	152,LYS	-	-	168,LYS	168,LYS	152,LYS	152,LYS	152,LYS	152,LYS	152,LYS	152,LYS	152,LYS	152,LYS	152,LYS	152,LYS	152,LYS
169,LEU	153,LEU	-	153,LEU	-	-	169,LEU	169,LEU	153,LEU	153,LEU	153,LEU	153,LEU	153,LEU	153,LEU	153,LEU	153,LEU	153,LEU	153,LEU	153,LEU
170,SER	154,SER	-	154,SER	-	-	170,SER	170,SER	154,SER	154,SER	154,SER	154,SER	154,SER	154,SER	154,SER	154,SER	154,SER	154,SER	154,SER
171,LEU	155,LEU	-	155,LEU	-	-	171,LEU	171,LEU	155,LEU	155,LEU	155,LEU	155,LEU	155,LEU	155,LEU	155,LEU	155,LEU	155,LEU	155,LEU	155,LEU
172,ALA	156,ALA	-	156,ALA	-	-	172,ALA	172,ALA	156,ALA	156,ALA	156,ALA	156,ALA	156,ALA	156,ALA	156,ALA	156,ALA	156,ALA	156,ALA	156,ALA
173,ASN	157,ASN	-	157,ASN	-	-	173,ASN	173,ASN	157,ASN	157,ASN	157,ASN	157,ASN	157,ASN	157,ASN	157,ASN	157,ASN	157,ASN	157,ASN	157,ASN
174,ASN	158,ASN	-	158,ASN	-	-	174,ASN	174,ASN	158,ASN	158,ASN	158,ASN	158,ASN	158,ASN	158,ASN	158,ASN	158,ASN	158,ASN	158,ASN	158,ASN
175,ASN	159,ASN	-	159,ASP	-	-	175,ASN	175,ASN	159,ARG	159,ARG	159,ARG	159,ARG	159,ARG	159,GLN	159,GLN	159,GLN	159,GLN	159,ASN	159,GLN
176,LEU	160,LEU	-	160,LEU	-	-	176,LEU	176,LEU	160,LEU	160,LEU	160,LEU	160,LEU	160,LEU	160,LEU	160,LEU	160,LEU	160,LEU	160,LEU	160,LEU
177,THR	161,THR	-	161,THR	-	-	177,THR	177,THR	161,THR	161,THR	161,THR	161,THR	161,THR	161,THR	161,THR	161,THR	161,THR	161,THR	161,THR
178,GLU	162,GLU	-	162,GLU	-	-	178,GLU	178,GLU	162,GLU	162,GLU	162,GLU	162,GLU	162,GLU	162,GLU	162,GLU	162,GLU	162,GLU	162,GLU	162,GLU
179,LEU	163,LEU	-	163,LEU	-	-	179,LEU	179,LEU	163,LEU	163,LEU	163,LEU	163,LEU	163,LEU	163,LEU	163,LEU	163,LEU	163,LEU	163,LEU	163,LEU
180,PRO	164,PRO	-	164,PRO	-	-	180,PRO	180,PRO	164,PRO	164,PRO	164,PRO	164,PRO	164,PRO	164,PRO	164,PRO	164,PRO	164,PRO	164,PRO	164,PRO
181,ALA	165,ALA	-	165,ALA	-	-	181,ALA	181,ALA	165,ALA	165,ALA	165,ALA	165,ALA	165,ALA	165,ALA	165,ALA	165,ALA	165,ALA	165,ALA	165,ALA
182,GLY	166,GLY	-	166,GLY	-	-	182,GLY	182,GLY	166,GLY	166,GLY	166,GLY	166,GLY	166,GLY	166,GLY	166,GLY	166,GLY	166,GLY	166,GLY	166,GLY
183,LEU	167,LEU	-	167,LEU	-	-	183,LEU	183,LEU	167,LEU	167,LEU	167,LEU	167,LEU	167,LEU	167,LEU	167,LEU	167,LEU	167,LEU	167,LEU	167,LEU
184,LEU	168,LEU	-	168,LEU	-	-	184,LEU	184,LEU	168,LEU	168,LEU	168,LEU	168,LEU	168,LEU	168,LEU	168,LEU	168,LEU	168,LEU	168,LEU	168,LEU
185,ASN	169,ASN	-	169,ASN	-	-	185,ASN	185,ASN	169,ASN	169,ASN	169,ASN	169,ASN	169,ASN	169,ASN	169,ASN	169,ASN	169,ASN	169,ASN	169,ASN
186,GLY	170,GLY	-	170,GLY	-	-	186,GLY	186,GLY	170,GLY	170,GLY	170,GLY	170,GLY	170,GLY	170,GLY	170,GLY	170,GLY	170,GLY	170,GLY	170,GLY
187,LEU	171,LEU	-	171,LEU	-	-	187,LEU	187,LEU	171,LEU	171,LEU	171,LEU	171,LEU	171,LEU	171,LEU	171,LEU	171,LEU	171,LEU	171,LEU	171,LEU
188,GLU	172,GLU	-	172,GLU	-	-	188,GLU	188,GLU	172,GLU	172,GLU	172,GLU	172,GLU	172,GLU	172,GLU	172,GLU	172,GLU	172,GLU	172,GLU	172,GLU
189,ASN	173,ASN	-	173,ASN	-	-	189,ASN	189,ASN	173,ASN	173,ASN	173,ASN	173,ASN	173,ASN	173,ASN	173,ASN	173,ASN	173,ASN	173,ASN	173,ASN
190,LEU	174,LEU	-	174,LEU	-	-	190,LEU	190,LEU	174,LEU	174,LEU	174,LEU	174,LEU	174,LEU	174,LEU	174,LEU	174,LEU	174,LEU	174,LEU	174,LEU
191,ASP	175,ASP	-	175,ASP	-	-	191,ASP	191,ASP	175,ASP	175,ASP	175,ASP	175,ASP	175,ASP	175,ASP	175,ASP	175,ASP	175,ASP	175,ASP	175,ASP
192,THR	176,THR	-	176,THR	-	-	192,THR	192,THR	176,THR	176,THR	176,THR	176,THR	176,THR	176,THR	176,THR	176,THR	176,THR	176,THR	176,THR
193,LEU	177,LEU	-	177,LEU	-	-	193,LEU	193,LEU	177,LEU	177,LEU	177,LEU	177,LEU	177,LEU	177,LEU	177,LEU	177,LEU	177,LEU	177,LEU	177,LEU
194,LEU	178,LEU	-	178,LEU	-	-	194,LEU	194,LEU	178,LEU	178,LEU	178,LEU	178,LEU	178,LEU	178,LEU	178,LEU	178,LEU	178,LEU	178,LEU	178,LEU
195,LEU	179,LEU	-	179,LEU	-	-	195,LEU	195,LEU	179,LEU	179,LEU	179,LEU	179,LEU	179,LEU	179,LEU	179,LEU	179,LEU	179,LEU	179,LEU	179,LEU
196,GLN	180,GLN	-	180,GLN	-	-	196,GLN	196,GLN	180,GLN	180,GLN	180,GLN	180,GLN	180,GLN	180,GLN	180,GLN	180,GLN	180,GLN	180,GLN	180,GLN
197,GLU	181,GLU	-	181,GLU	-	-	197,GLU	197,GLU	181,GLU	181,GLU	181,GLU	181,GLU	181,GLU	181,GLU	181,GLU	181,GLU	181,GLU	181,GLU	181,GLU
198,ASN	182,ASN	-	182,ASN	-	-	198,ASN	198,ASN	182,ASN	182,ASN	182,ASN	182,ASN	182,ASN	182,ASN	182,ASN	182,ASN	182,ASN	182,ASN	182,ASN
199,SER	183,SER	-	183,SER	-	-	199,SER	199,SER	183,SER	183,SER	183,SER	183,SER	183,SER	183,SER	183,SER	183,SER	183,SER	183,SER	183,SER
200,LEU	184,LEU	-	184,LEU	-	-	200,LEU	200,LEU	184,LEU	184,LEU	184,LEU	184,LEU	184,LEU	184,LEU	184,LEU	184,LEU	184,LEU	184,LEU	184,LEU
201,TYR	185,TYR	-	185,TYR	-	-	201,TYR	201,TYR	185,TYR	185,TYR	185,TYR	185,TYR	185,TYR	185,TYR	185,TYR	185,TYR	185,TYR	185,TYR	185,TYR
202,THR	186,THR	-	186,THR	-	-	202,THR	202,THR	189,LYS	189,LYS	186,THR	186,THR	186,THR	186,THR	186,THR	186,THR	186,THR	186,THR	186,THR
203,ILE	187,ILE	-	187,ILE	-	-	203,ILE	203,ILE	186,THR	186,THR	187,ILE	187,ILE	187,ILE	187,ILE	187,ILE	187,ILE	187,ILE	187,ILE	187,ILE
204,PRO	188,PRO	-	188,PRO	-	-	204,PRO	204,PRO	187,ILE	187,ILE	188,PRO	188,PRO	188,PRO	188,PRO	188,PRO	188,PRO	188,PRO	188,PRO	188,PRO
205,LYS	189,LYS	-	189,LYS	-	-	205,LYS	205,LYS	188,PRO	188,PRO	189,LYS	189,LYS	189,LYS	189,LYS	189,LYS	189,LYS	189,LYS	189,LYS	189,LYS
206,GLY	190,GLY	-	190,GLY	-	-	206,GLY	206,GLY	190,GLY	190,GLY	190,GLY	190,GLY	190,GLY	190,GLY	190,GLY	190,GLY	190,GLY	190,GLY	190,GLY
207,PHE	191,PHE	-	191,PHE	-	-	207,PHE	207,PHE	191,PHE	191,PHE	191,PHE	191,PHE	191,PHE	191,PHE	191,PHE	191,PHE	191,PHE	191,PHE	191,PHE
208,PHE	192,PHE	-	192,PHE	-	-	208,PHE	208,PHE	192,PHE	192,PHE	192,PHE	192,PHE	192,PHE	192,PHE	192,PHE	192,PHE	192,PHE	192,PHE	192,PHE
209,GLY	193,GLY	-	193,GLY	-	-	209,GLY	209,GLY	193,GLY	193,GLY	193,GLY	193,GLY	193,GLY	193,GLY	193,GLY	193,GLY	193,GLY	193,GLY	193,GLY
210,SER	194,SER	-	194,SER	-	-	210,SER	210,SER	194,SER	194,SER	194,SER	194,SER	194,SER	194,SER	194,SER	194,SER	194,SER	194,SER	194,SER
211,HIS	195,HIS	-	195,HIS	-	-	211,HIS	211,HIS	195,HIS	195,HIS	195,HIS	195,HIS	195,HIS	195,HIS	195,HIS	195,HIS	195,HIS	195,HIS	195,HIS
212,LEU	196,LEU	-	196,LEU	-	-	212,LEU	212,LEU	196,LEU	196,LEU	196,LEU	196,LEU	196,LEU	196,LEU	196,LEU	196,LEU	196,LEU	196,LEU	196,LEU
213,LEU	197,LEU	-	197,LEU	-	-	213,LEU	213,LEU	197,LEU	197,LEU	197,LEU	197,LEU	197,LEU	197,LEU	197,LEU	197,LEU	197,LEU	197,LEU	197,LEU
214,PRO	198,PRO	-	198,PRO	-	-	214,PRO	214,PRO	198,PRO	198,PRO	198,PRO	198,PRO	198,PRO	198,PRO	198,PRO	198,PRO	198,PRO	198,PRO	198,PRO
215,PHE	199,PHE	-	199,PHE	-	-	215,PHE	215,PHE	199,PHE	199,PHE	199,PHE	199,PHE	199,PHE	199,PHE	199,PHE	199,PHE	199,PHE	199,PHE	199,PHE
216,ALA	200,ALA	-	200,ALA	-	-	216,ALA	216,ALA	200,ALA	200,ALA	200,ALA	200,ALA	200,ALA	200,ALA	200,ALA	200,ALA	200,ALA	200,ALA	200,ALA
217,PHE	201,PHE	-	201,PHE	-	-	217,PHE	217,PHE	201,PHE	201,PHE	204,GLY	201,PHE	201,PHE	201,PHE	201,PHE	201,PHE	201,PHE	201,PHE	201,PHE
218,LEU	202,LEU	-	202,LEU	-	-	218,LEU	218,LEU	202,LEU	202,LEU	201,PHE	202,LEU	202,LEU	202,LEU	202,LEU	202,LEU	202,LEU	202,LEU	202,LEU
219,HIS	203,HIS	-	203,HIS	-	-	219,HIS	219,HIS	203,HIS	203,HIS	202,LEU	203,HIS	203,HIS	203,HIS	203,HIS	203,HIS	203,HIS	203,HIS	203,HIS
220,GLY	204,GLY	-	204,GLY	-	-	220,GLY	220,GLY	204,GLY	204,GLY	203,HIS	204,GLY	204,GLY	204,GLY	204,GLY	204,GLY	204,GLY	204,GLY	204,GLY
221,ASN	205,ASN	-	205,ASN	-	-	221,ASN	221,ASN	205,ASN	205,ASN	205,ASN	205,ASN	205,ASN	205,ASN	205,ASN	205,ASN	205,ASN	205,ASN	205,ASN
222,PRO	206,PRO	-	206,PRO	-	-	222,PRO	222,PRO	206,PRO	206,PRO	206,PRO	206,PRO	206,PRO	206,PRO	206,PRO	206,PRO	206,PRO	206,PRO	206,PRO
223,TRP	207,TRP	-	207,TRP	-	-	223,TRP	223,TRP	207,TRP	207,TRP	207,TRP	207,TRP	207,TRP	207,TRP	207,TRP	207,TRP	207,TRP	207,TRP	207,TRP
224,LEU	208,LEU	-	208,LEU	-	-	224,LEU	224,LEU	208,LEU	208,LEU	208,LEU	208,LEU	208,LEU	208,LEU	208,LEU	208,LEU	208,LEU	208,LEU	208,LEU
225,CYS	209,CYS	-	209,CYS	-	-	225,CYS	225,CYS	209,CYS	209,CYS	209,CYS	209,CYS	209,CYS	209,CYS	209,CYS	209,CYS	209,CYS	209,CYS	209,CYS
226,ASN	210,ASN	-	210,ASN	-	-	226,ASN	226,ASN	210,ASN	210,ASN	210,ASN	210,ASN	210,ASN	210,ASN	210,ASN	210,ASN	210,ASN	210,ASN	210,ASN
227,CYS	211,CYS	-	211,CYS	-	-	227,CYS	227,CYS	211,CYS	211,CYS	211,CYS	211,CYS	211,CYS	211,CYS	211,CYS	211,CYS	211,CYS	211,CYS	211,CYS
228,GLU	212,GLU	-	212,GLU	-	-	228,GLU	228,GLU	212,GLU	212,GLU	212,GLU	212,GLU	212,GLU	212,GLU	212,GLU	212,GLU	212,GLU	212,GLU	212,GLU
229,ILE	213,ILE	-	213,ILE	-	-	229,ILE	229,ILE	213,ILE	213,ILE	213,ILE	213,ILE	213,ILE	213,ILE	213,ILE	213,ILE	213,ILE	213,ILE	213,ILE
230,LEU	214,LEU	-	214,LEU	-	-	230,LEU	230,LEU	214,LEU	214,LEU	214,LEU	214,LEU	214,LEU	214,LEU	214,LEU	214,LEU	214,LEU	214,LEU	214,LEU
231,TYR	215,TYR	-	215,TYR	-	-	231,TYR	231,TYR	215,TYR	215,TYR	215,TYR	215,TYR	215,TYR	215,TYR	215,TYR	215,TYR	215,TYR	215,TYR	215,TYR
232,PHE	216,PHE	-	216,PHE	-	-	232,PHE	232,PHE	216,PHE	216,PHE	216,PHE	216,PHE	216,PHE	216,PHE	216,PHE	216,PHE	216,PHE	216,PHE	216,PHE
233,ARG	217,ARG	-	217,ARG	-	-	233,ARG	233,ARG	217,ARG	217,ARG	217,ARG	217,ARG	217,ARG	217,ARG	217,ARG	217,ARG	217,ARG	217,ARG	217,ARG
234,ARG	218,ARG	-	218,ARG	-	-	234,ARG	234,ARG	218,ARG	218,ARG	218,ARG	218,ARG	218,ARG	218,ARG	218,ARG	218,ARG	218,ARG	218,ARG	218,ARG
235,TRP	219,TRP	-	219,TRP	-	-	235,TRP	235,TRP	219,TRP	219,TRP	219,TRP	219,TRP	219,TRP	219,TRP	219,TRP	219,TRP	219,TRP	219,TRP	219,TRP
236,LEU	220,LEU	-	220,LEU	-	-	236,LEU	236,LEU	220,LEU	220,LEU	220,LEU	220,LEU	220,LEU	220,LEU	220,LEU	220,LEU	220,LEU	220,LEU	220,LEU
237,GLN	221,GLN	-	221,GLN	-	-	237,GLN	237,GLN	221,GLN	221,GLN	221,GLN	221,GLN	221,GLN	221,GLN	221,GLN	221,GLN	221,GLN	221,GLN	221,GLN
238,ASP	222,ASP	-	222,ASP	-	-	238,ASP	238,ASP	222,ASP	222,ASP	222,ASP	222,ASP	222,ASP	222,ASP	222,ASP	222,ASP	222,ASP	222,ASP	222,ASP
239,ASN	223,ASN	-	223,ASN	-	-	239,ASN	239,ASN	223,ASN	223,ASN	223,ASN	223,ASN	223,ASN	223,ASN	223,ASN	223,ASN	223,ASN	223,ASN	223,ASN
240,ALA	224,ALA	-	224,ALA	-	-	240,ALA	240,ALA	224,ALA	224,ALA	224,ALA	224,ALA	224,ALA	224,ALA	224,ALA	227,VAL	224,ALA	224,ALA	224,ALA
241,GLU	225,GLU	-	225,GLU	-	-	241,GLU	241,GLU	225,GLU	225,GLU	225,GLU	225,GLU	225,GLU	225,GLU	225,GLU	224,ALA	225,GLU	225,GLU	225,GLU
242,ASN	226,ASN	-	226,ASN	-	-	242,ASN	242,ASN	226,ASN	226,ASN	226,ASN	226,ASN	226,ASN	226,ASN	226,ASN	225,GLU	226,ASN	226,ASN	226,ASN
243,VAL	227,VAL	-	227,VAL	-	-	243,VAL	243,VAL	227,VAL	227,VAL	227,VAL	227,VAL	227,VAL	227,VAL	227,VAL	226,ASN	227,VAL	227,VAL	227,VAL
244,TYR	228,TYR	-	228,TYR	-	-	244,TYR	244,TYR	228,TYR	228,TYR	228,TYR	228,TYR	228,TYR	228,TYR	228,TYR	228,TYR	228,TYR	228,TYR	228,TYR
245,VAL	229,VAL	-	229,VAL	-	-	245,VAL	245,VAL	229,VAL	229,VAL	229,VAL	229,VAL	229,VAL	229,VAL	229,VAL	229,VAL	229,VAL	229,VAL	229,VAL
246,TRP	230,TRP	-	230,TRP	-	-	246,TRP	246,TRP	230,TRP	230,TRP	230,TRP	230,TRP	230,TRP	230,TRP	230,TRP	230,TRP	230,TRP	230,TRP	230,TRP
247,LYS	231,LYS	-	231,LYS	-	-	247,LYS	247,LYS	231,LYS	231,LYS	231,LYS	231,LYS	231,LYS	231,LYS	231,LYS	231,LYS	231,LYS	231,LYS	231,LYS
248,GLN	232,GLN	-	232,GLN	-	-	248,GLN	248,GLN	232,GLN	232,GLN	232,GLN	232,GLN	232,GLN	232,GLN	232,GLN	232,GLN	232,GLN	232,GLN	232,GLN
249,GLY	233,GLY	-	233,GLY	-	-	249,GLY	249,GLY	233,VAL	233,VAL	233,VAL	233,VAL	233,VAL	233,GLY	233,GLY	233,GLY	233,GLY	233,GLY	233,GLY
250,VAL	234,VAL	-	234,VAL	-	-	250,VAL	250,VAL	234,VAL	234,VAL	234,VAL	234,VAL	234,VAL	234,VAL	234,VAL	234,VAL	234,VAL	234,VAL	234,VAL
251,ASP	235,ASP	-	235,ASP	-	-	251,ASP	251,ASP	235,ASP	235,ASP	235,ASP	235,ASP	235,ASP	235,ASP	235,ASP	235,ASP	235,ASP	235,ASP	235,ASP
252,VAL	236,VAL	-	236,VAL	-	-	252,VAL	252,VAL	236,VAL	236,VAL	236,VAL	236,VAL	236,VAL	236,VAL	236,VAL	236,VAL	236,VAL	236,VAL	236,VAL
253,LYS	237,LYS	-	237,LYS	-	-	253,LYS	253,LYS	237,LYS	237,LYS	237,LYS	237,LYS	237,LYS	237,LYS	237,LYS	237,LYS	237,LYS	237,LYS	237,LYS
254,ALA	238,ALA	-	238,ALA	-	-	254,ALA	254,ALA	238,ALA	238,ALA	238,ALA	238,ALA	238,ALA	238,ALA	238,ALA	238,ALA	238,ALA	238,ALA	238,ALA
255,MET	239,MET	-	239,MET	-	-	255,MET	255,MET	239,VAL	239,VAL	239,VAL	239,VAL	239,VAL	239,MET	239,MET	239,MET	239,MET	239,MET	239,VAL
256,THR	240,THR	-	240,THR	-	-	256,THR	256,THR	240,THR	240,THR	240,THR	240,THR	240,THR	240,THR	240,THR	240,THR	240,THR	240,THR	240,THR
257,SER	241,SER	-	241,SER	-	-	257,SER	257,SER	241,SER	241,SER	241,SER	241,SER	241,SER	241,SER	241,SER	241,SER	241,SER	241,SER	241,SER
258,ASN	242,ASN	-	242,ASN	-	-	258,ASN	258,ASN	242,ASN	242,ASN	242,ASN	242,ASN	242,ASN	242,ASN	242,ASN	242,ASN	242,ASN	242,ASN	242,ASN
259,VAL	243,VAL	-	243,VAL	-	-	259,VAL	259,VAL	243,VAL	243,VAL	243,VAL	243,VAL	243,VAL	243,VAL	243,VAL	243,VAL	243,VAL	243,VAL	243,VAL
260,ALA	244,ALA	-	244,ALA	-	-	260,ALA	260,ALA	244,ALA	244,ALA	244,ALA	244,ALA	244,ALA	244,ALA	244,ALA	244,ALA	244,ALA	244,ALA	244,ALA
261,SER	245,SER	-	245,SER	-	-	261,SER	261,SER	245,SER	245,SER	245,SER	245,SER	245,SER	245,SER	245,SER	245,SER	245,SER	245,SER	245,SER
262,VAL	246,VAL	-	246,VAL	-	-	262,VAL	262,VAL	246,VAL	246,VAL	246,VAL	246,VAL	246,VAL	246,VAL	246,VAL	246,VAL	246,VAL	246,VAL	246,VAL
263,GLN	247,GLN	-	247,GLN	-	-	263,GLN	263,GLN	247,GLN	247,GLN	247,GLN	247,GLN	247,GLN	247,GLN	247,GLN	247,GLN	247,GLN	247,GLN	247,GLN
264,CYS	248,CYS	-	248,CYS	-	-	264,CYS	264,CYS	248,CYS	248,CYS	248,CYS	248,CYS	248,CYS	248,CYS	248,CYS	248,CYS	248,CYS	248,CYS	248,CYS
265,ASP	249,ASP	-	249,ASP	-	-	265,ASP	265,ASP	249,ASP	249,ASP	249,ASP	249,ASP	249,ASP	249,ASP	249,ASP	249,ASP	249,ASP	249,ASP	249,ASP
266,ASN	250,ASN	-	250,ASN	-	-	266,ASN	266,ASN	250,ASN	250,ASN	250,ASN	250,ASN	250,ASN	250,ASN	250,ASN	250,ASN	250,ASN	250,ASN	250,ASN
267,SER	251,SER	-	251,SER	-	-	267,SER	267,SER	251,SER	251,SER	251,SER	251,SER	251,SER	251,SER	251,SER	251,SER	251,SER	251,SER	251,SER
268,ASP	252,ASP	-	252,ASP	-	-	268,ASP	268,ASP	252,ASP	252,ASP	252,ASP	252,ASP	252,ASP	252,ASP	252,ASP	252,ASP	252,ASP	252,ASP	252,ASP
269,LYS	253,LYS	-	253,LYS	-	-	269,LYS	269,LYS	253,LYS	253,LYS	253,LYS	253,LYS	253,LYS	253,LYS	253,LYS	253,LYS	253,LYS	253,LYS	253,LYS
270,PHE	254,PHE	-	254,PHE	-	-	270,PHE	270,PHE	254,PHE	254,PHE	254,PHE	254,PHE	254,PHE	254,PHE	254,PHE	254,PHE	254,PHE	254,PHE	254,PHE
271,PRO	255,PRO	-	255,PRO	-	-	271,PRO	271,PRO	255,PRO	255,PRO	255,PRO	255,PRO	255,PRO	255,PRO	255,PRO	255,PRO	255,PRO	255,PRO	255,PRO
272,VAL	256,VAL	-	256,VAL	-	-	272,VAL	272,VAL	256,VAL	256,VAL	256,VAL	256,VAL	256,VAL	256,VAL	256,VAL	256,VAL	256,VAL	256,VAL	256,VAL
273,TYR	257,TYR	-	257,TYR	-	-	273,TYR	273,TYR	257,TYR	257,TYR	257,TYR	257,TYR	257,TYR	257,TYR	257,TYR	257,TYR	257,TYR	257,TYR	257,TYR
274,LYS	258,LYS	-	258,LYS	-	-	274,LYS	274,LYS	258,LYS	258,LYS	258,LYS	258,LYS	258,LYS	258,LYS	258,LYS	258,LYS	258,LYS	258,LYS	258,LYS
275,TYR	259,TYR	-	259,TYR	-	-	275,TYR	275,TYR	259,TYR	259,TYR	259,TYR	262,LYS	259,TYR	259,TYR	259,TYR	259,TYR	259,TYR	259,TYR	259,TYR
276,PRO	260,PRO	-	260,PRO	-	-	276,PRO	276,PRO	260,PRO	260,PRO	260,PRO	259,TYR	260,PRO	260,PRO	260,PRO	260,PRO	260,PRO	260,PRO	260,PRO
277,GLY	261,GLY	-	261,GLY	-	-	277,GLY	277,GLY	261,GLY	261,GLY	261,GLY	260,PRO	261,GLY	261,GLY	261,GLY	261,GLY	261,GLY	261,GLY	261,GLY
278,LYS	262,LYS	-	262,LYS	-	-	278,LYS	278,LYS	262,LYS	262,LYS	262,LYS	261,GLY	262,LYS	262,LYS	262,LYS	262,LYS	262,LYS	262,LYS	262,LYS
279,GLY	263,GLY	-	263,GLY	-	-	279,GLY	279,GLY	263,GLY	263,GLY	263,GLY	263,GLY	263,GLY	263,GLY	263,GLY	263,GLY	263,GLY	263,GLY	263,GLY
280,CYS	264,CYS	-	264,CYS	-	-	280,CYS	280,CYS	264,CYS	264,CYS	264,CYS	264,CYS	264,CYS	264,CYS	264,CYS	264,CYS	264,CYS	264,CYS	264,CYS
281,PRO	265,PRO	-	265,PRO	-	-	281,PRO	281,PRO	265,PRO	265,PRO	265,PRO	265,PRO	265,PRO	265,PRO	265,PRO	265,PRO	265,PRO	265,PRO	265,PRO
282,THR	266,THR	-	266,THR	-	-	282,THR	282,THR	266,THR	266,THR	266,THR	266,THR	266,THR	-	266,THR	266,THR	-	266,THR	266,THR
283,LEU	267,LEU	-	267,LEU	-	-	283,LEU	283,LEU	267,LEU	267,LEU	267,LEU	267,LEU	267,LEU	-	267,LEU	267,LEU	-	267,LEU	267,LEU
284,GLY	268,GLY	-	268,GLY	-	-	284,GLY	284,GLY	268,GLY	268,GLY	268,GLY	268,GLY	268,GLY	-	268,GLY	268,GLY	-	268,GLY	268,GLY
285,ASP	269,ASP	-	269,ASP	-	-	285,ASP	285,ASP	269,ASP	269,ASP	269,ASP	269,ASP	269,ASP	-	269,ASP	269,ASP	-	269,ASP	269,ASP
286,GLU	270,GLU	-	270,GLU	-	-	286,GLU	286,GLU	270,GLU	270,GLU	270,GLU	270,GLU	270,GLU	-	270,GLU	270,GLU	-	270,GLU	270,GLU
287,GLY	271,GLY	-	271,GLY	-	-	287,GLY	287,GLY	271,GLY	271,GLY	271,GLY	271,GLY	271,GLY	-	271,GLY	271,GLY	-	271,GLY	271,GLY
288,ASP	272,ASP	-	272,ASP	-	-	288,ASP	288,ASP	272,ASP	272,ASP	272,ASP	272,ASP	272,ASP	-	272,ASP	272,ASP	-	272,ASP	272,ASP
289,THR	273,THR	-	273,THR	-	-	289,THR	289,THR	273,THR	273,THR	273,THR	273,THR	273,THR	-	273,THR	273,THR	-	273,THR	273,THR
290,ASP	274,ASP	-	274,ASP	-	-	290,ASP	290,ASP	274,ASP	274,ASP	274,ASP	274,ASP	274,ASP	-	274,ASP	274,ASP	-	274,ASP	274,ASP
291,LEU	275,LEU	-	275,LEU	-	-	291,LEU	291,LEU	275,LEU	275,LEU	275,LEU	275,LEU	275,LEU	-	275,LEU	275,LEU	-	275,LEU	275,LEU
292,TYR	276,TYR	-	276,TYR	-	-	292,TYS	292,TYS	276,TYR	276,TYR	276,TYR	276,TYR	276,TYR	-	276,TYR	276,TYR	-	276,TYS	276,TYR
293,ASP	277,ASP	-	277,ASP	-	-	293,ASP	293,ASP	277,ASP	277,ASP	277,ASP	277,ASP	277,ASP	-	277,ASP	277,ASP	-	277,ASP	277,ASP
294,TYR	278,TYR	-	278,TYR	-	-	294,TYS	294,TYS	278,TYR	278,TYR	278,TYR	278,TYR	278,TYR	-	278,TYR	278,TYR	-	278,TYR	278,TYR
295,TYR	279,TYR	-	279,TYR	-	-	295,TYS	295,TYS	279,TYR	279,TYR	279,TYR	279,TYR	279,TYR	-	279,TYR	279,TYR	-	-	279,TYR
296,PRO	280,PRO	-	280,PRO	-	-	296,PRO	296,PRO	280,PRO	280,PRO	280,PRO	280,PRO	280,PRO	-	280,PRO	280,PRO	-	-	280,PRO
297,GLU	281,GLU	-	281,GLU	-	-	-	-	281,GLU	281,GLU	281,GLU	281,GLU	281,GLU	-	281,GLU	281,GLU	-	-	281,GLU
298,GLU	282,GLU	-	282,GLU	-	-	-	-	282,GLU	282,GLU	282,GLU	282,GLU	282,GLU	-	282,GLU	282,GLU	-	-	282,GLU
299,ASP	283,ASP	-	283,ASP	-	-	-	-	283,ASP	283,ASP	283,ASP	283,ASP	283,ASP	-	283,ASP	283,ASP	-	-	283,ASP
300,THR	284,THR	-	284,THR	-	-	-	-	284,THR	284,THR	284,THR	284,THR	284,THR	-	284,THR	284,THR	-	-	284,THR
301,GLU	285,GLU	-	285,GLU	-	-	-	-	285,GLU	285,GLU	285,GLU	285,GLU	285,GLU	-	285,GLU	285,GLU	-	-	285,GLU
302,GLY	286,GLY	-	286,GLY	-	-	-	-	286,GLY	286,GLY	286,GLY	286,GLY	286,GLY	-	286,GLY	286,GLY	-	-	286,GLY
303,ASP	287,ASP	-	287,ASP	-	-	-	-	287,ASP	287,ASP	287,ASP	287,ASP	287,ASP	-	287,ASP	287,ASP	-	-	287,ASP
304,LYS	288,LYS	-	288,LYS	-	-	-	-	288,LYS	288,LYS	288,LYS	288,LYS	288,LYS	-	288,LYS	288,LYS	-	-	288,LYS
305,VAL	289,VAL	-	-	-	-	-	-	289,VAL	289,VAL	289,VAL	289,VAL	289,VAL	-	289,VAL	289,VAL	-	-	289,VAL
306,ARG	290,ARG	-	-	-	-	-	-	290,ARG	290,ARG	290,ARG	290,ARG	290,ARG	-	290,ARG	290,ARG	-	-	290,ARG
307,ALA	-	-	-	-	-	-	-	-	-	-	-	-	-	-	-	-	-	-
308,THR	-	-	-	-	-	-	-	-	-	-	-	-	-	-	-	-	-	-
309,ARG	-	-	-	-	-	-	-	-	-	-	-	-	-	-	-	-	-	-
310,THR	-	-	-	-	-	-	-	-	-	-	-	-	-	-	-	-	-	-
311,VAL	-	-	-	-	-	-	-	-	-	-	-	-	-	-	-	-	-	-
312,VAL	-	-	-	-	-	-	-	-	-	-	-	-	-	-	-	-	-	-
313,LYS	-	-	-	-	-	-	-	-	-	-	-	-	-	-	-	-	-	-
314,PHE	-	-	-	-	-	-	-	-	-	-	-	-	-	-	-	-	-	-
315,PRO	-	-	-	-	-	-	-	-	-	-	-	-	-	-	-	-	-	-
316,THR	-	-	-	-	-	-	-	-	-	-	-	-	-	-	-	-	-	-
317,LYS	-	-	-	-	-	-	-	-	-	-	-	-	-	-	-	-	-	-
318,ALA	-	-	-	-	-	-	-	-	-	-	-	-	-	-	-	-	-	-
319,HIS	-	-	-	-	-	-	-	-	-	-	-	-	-	-	-	-	-	-
320,THR	-	-	-	-	-	-	-	-	-	-	-	-	-	-	-	-	-	-
321,THR	-	-	-	-	-	-	-	-	-	-	-	-	-	-	-	-	-	-
322,PRO	-	-	-	-	-	-	-	-	-	-	-	-	-	-	-	-	-	-
323,TRP	-	-	-	-	-	-	-	-	-	-	-	-	-	-	-	-	-	-
324,GLY	-	-	-	-	-	-	-	-	-	-	-	-	-	-	-	-	-	-
325,LEU	-	-	-	-	-	-	-	-	-	-	-	-	-	-	-	-	-	-
326,PHE	-	-	-	-	-	-	-	-	-	-	-	-	-	-	-	-	-	-
327,TYR	-	-	-	-	-	-	-	-	-	-	-	-	-	-	-	-	-	-
328,SER	-	-	-	-	-	-	-	-	-	-	-	-	-	-	-	-	-	-
329,TRP	-	-	-	-	-	-	-	-	-	-	-	-	-	-	-	-	-	-
330,SER	-	-	-	-	-	-	-	-	-	-	-	-	-	-	-	-	-	-
331,THR	-	-	-	-	-	-	-	-	-	-	-	-	-	-	-	-	-	-
332,ALA	-	-	-	-	-	-	-	-	-	-	-	-	-	-	-	-	-	-
333,SER	-	-	-	-	-	-	-	-	-	-	-	-	-	-	-	-	-	-
334,LEU	-	-	-	-	-	-	-	-	-	-	-	-	-	-	-	-	-	-
335,ASP	-	-	-	-	-	-	-	-	-	-	-	-	-	-	-	-	-	-
336,SER	-	-	-	-	-	-	-	-	-	-	-	-	-	-	-	-	-	-
337,GLN	-	-	-	-	-	-	-	-	-	-	-	-	-	-	-	-	-	-
338,MET	-	-	-	-	-	-	-	-	-	-	-	-	-	-	-	-	-	-
339,PRO	-	-	-	-	-	-	-	-	-	-	-	-	-	-	-	-	-	-
340,SER	-	-	-	-	-	-	-	-	-	-	-	-	-	-	-	-	-	-
341,SER	-	-	-	-	-	-	-	-	-	-	-	-	-	-	-	-	-	-
342,LEU	-	-	-	-	-	-	-	-	-	-	-	-	-	-	-	-	-	-
343,HIS	-	-	-	-	-	-	-	-	-	-	-	-	-	-	-	-	-	-
344,PRO	-	-	-	-	-	-	-	-	-	-	-	-	-	-	-	-	-	-
345,THR	-	-	-	-	-	-	-	-	-	-	-	-	-	-	-	-	-	-
346,GLN	-	-	-	-	-	-	-	-	-	-	-	-	-	-	-	-	-	-
347,GLU	-	-	-	-	-	-	-	-	-	-	-	-	-	-	-	-	-	-
348,SER	-	-	-	-	-	-	-	-	-	-	-	-	-	-	-	-	-	-
349,THR	-	-	-	-	-	-	-	-	-	-	-	-	-	-	-	-	-	-
350,LYS	-	-	-	-	-	-	-	-	-	-	-	-	-	-	-	-	-	-
351,GLU	-	-	-	-	-	-	-	-	-	-	-	-	-	-	-	-	-	-
352,GLN	-	-	-	-	-	-	-	-	-	-	-	-	-	-	-	-	-	-
353,THR	-	-	-	-	-	-	-	-	-	-	-	-	-	-	-	-	-	-
354,THR	-	-	-	-	-	-	-	-	-	-	-	-	-	-	-	-	-	-
355,PHE	-	-	-	-	-	-	-	-	-	-	-	-	-	-	-	-	-	-
356,PRO	-	-	-	-	-	-	-	-	-	-	-	-	-	-	-	-	-	-
357,PRO	-	-	-	-	-	-	-	-	-	-	-	-	-	-	-	-	-	-
358,ARG	-	-	-	-	-	-	-	-	-	-	-	-	-	-	-	-	-	-
359,TRP	-	-	-	-	-	-	-	-	-	-	-	-	-	-	-	-	-	-
360,THR	-	-	-	-	-	-	-	-	-	-	-	-	-	-	-	-	-	-
361,PRO	-	-	-	-	-	-	-	-	-	-	-	-	-	-	-	-	-	-
362,ASN	-	-	-	-	-	-	-	-	-	-	-	-	-	-	-	-	-	-
363,PHE	-	-	-	-	-	-	-	-	-	-	-	-	-	-	-	-	-	-
364,THR	-	-	-	-	-	-	-	-	-	-	-	-	-	-	-	-	-	-
365,LEU	-	-	-	-	-	-	-	-	-	-	-	-	-	-	-	-	-	-
366,HIS	-	-	-	-	-	-	-	-	-	-	-	-	-	-	-	-	-	-
367,MET	-	-	-	-	-	-	-	-	-	-	-	-	-	-	-	-	-	-
368,GLU	-	-	-	-	-	-	-	-	-	-	-	-	-	-	-	-	-	-
369,SER	-	-	-	-	-	-	-	-	-	-	-	-	-	-	-	-	-	-
370,ILE	-	-	-	-	-	-	-	-	-	-	-	-	-	-	-	-	-	-
371,THR	-	-	-	-	-	-	-	-	-	-	-	-	-	-	-	-	-	-
372,PHE	-	-	-	-	-	-	-	-	-	-	-	-	-	-	-	-	-	-
373,SER	-	-	-	-	-	-	-	-	-	-	-	-	-	-	-	-	-	-
374,LYS	-	-	-	-	-	-	-	-	-	-	-	-	-	-	-	-	-	-
375,THR	-	-	-	-	-	-	-	-	-	-	-	-	-	-	-	-	-	-
376,PRO	-	-	-	-	-	-	-	-	-	-	-	-	-	-	-	-	-	-
377,LYS	-	-	-	-	-	-	-	-	-	-	-	-	-	-	-	-	-	-
378,SER	-	-	-	-	-	-	-	-	-	-	-	-	-	-	-	-	-	-
379,THR	-	-	-	-	-	-	-	-	-	-	-	-	-	-	-	-	-	-
380,THR	-	-	-	-	-	-	-	-	-	-	-	-	-	-	-	-	-	-
381,GLU	-	-	-	-	-	-	-	-	-	-	-	-	-	-	-	-	-	-
382,PRO	-	-	-	-	-	-	-	-	-	-	-	-	-	-	-	-	-	-
383,THR	-	-	-	-	-	-	-	-	-	-	-	-	-	-	-	-	-	-
384,PRO	-	-	-	-	-	-	-	-	-	-	-	-	-	-	-	-	-	-
385,SER	-	-	-	-	-	-	-	-	-	-	-	-	-	-	-	-	-	-
386,PRO	-	-	-	-	-	-	-	-	-	-	-	-	-	-	-	-	-	-
387,THR	-	-	-	-	-	-	-	-	-	-	-	-	-	-	-	-	-	-
388,THR	-	-	-	-	-	-	-	-	-	-	-	-	-	-	-	-	-	-
389,SER	-	-	-	-	-	-	-	-	-	-	-	-	-	-	-	-	-	-
390,GLU	-	-	-	-	-	-	-	-	-	-	-	-	-	-	-	-	-	-
391,PRO	-	-	-	-	-	-	-	-	-	-	-	-	-	-	-	-	-	-
392,VAL	-	-	-	-	-	-	-	-	-	-	-	-	-	-	-	-	-	-
393,PRO	-	-	-	-	-	-	-	-	-	-	-	-	-	-	-	-	-	-
394,GLU	-	-	-	-	-	-	-	-	-	-	-	-	-	-	-	-	-	-
395,PRO	-	-	-	-	-	-	-	-	-	-	-	-	-	-	-	-	-	-
396,ALA	-	-	-	-	-	-	-	-	-	-	-	-	-	-	-	-	-	-
397,PRO	-	-	-	-	-	-	-	-	-	-	-	-	-	-	-	-	-	-
398,ASN	-	-	-	-	-	-	-	-	-	-	-	-	-	-	-	-	-	-
399,MET	-	-	-	-	-	-	-	-	-	-	-	-	-	-	-	-	-	-
400,THR	-	-	-	-	-	-	-	-	-	-	-	-	-	-	-	-	-	-
401,THR	-	-	-	-	-	-	-	-	-	-	-	-	-	-	-	-	-	-
402,LEU	-	-	-	-	-	-	-	-	-	-	-	-	-	-	-	-	-	-
403,GLU	-	-	-	-	-	-	-	-	-	-	-	-	-	-	-	-	-	-
404,PRO	-	-	-	-	-	-	-	-	-	-	-	-	-	-	-	-	-	-
405,THR	-	-	-	-	-	-	-	-	-	-	-	-	-	-	-	-	-	-
406,PRO	-	-	-	-	-	-	-	-	-	-	-	-	-	-	-	-	-	-
407,SER	-	-	-	-	-	-	-	-	-	-	-	-	-	-	-	-	-	-
408,PRO	-	-	-	-	-	-	-	-	-	-	-	-	-	-	-	-	-	-
409,THR	-	-	-	-	-	-	-	-	-	-	-	-	-	-	-	-	-	-
410,THR	-	-	-	-	-	-	-	-	-	-	-	-	-	-	-	-	-	-
411,PRO	-	-	-	-	-	-	-	-	-	-	-	-	-	-	-	-	-	-
412,GLU	-	-	-	-	-	-	-	-	-	-	-	-	-	-	-	-	-	-
413,PRO	-	-	-	-	-	-	-	-	-	-	-	-	-	-	-	-	-	-
414,THR	-	-	-	-	-	-	-	-	-	-	-	-	-	-	-	-	-	-
415,SER	-	-	-	-	-	-	-	-	-	-	-	-	-	-	-	-	-	-
416,GLU	-	-	-	-	-	-	-	-	-	-	-	-	-	-	-	-	-	-
417,PRO	-	-	-	-	-	-	-	-	-	-	-	-	-	-	-	-	-	-
418,ALA	-	-	-	-	-	-	-	-	-	-	-	-	-	-	-	-	-	-
419,PRO	-	-	-	-	-	-	-	-	-	-	-	-	-	-	-	-	-	-
420,SER	-	-	-	-	-	-	-	-	-	-	-	-	-	-	-	-	-	-
421,PRO	-	-	-	-	-	-	-	-	-	-	-	-	-	-	-	-	-	-
422,THR	-	-	-	-	-	-	-	-	-	-	-	-	-	-	-	-	-	-
423,THR	-	-	-	-	-	-	-	-	-	-	-	-	-	-	-	-	-	-
424,PRO	-	-	-	-	-	-	-	-	-	-	-	-	-	-	-	-	-	-
425,GLU	-	-	-	-	-	-	-	-	-	-	-	-	-	-	-	-	-	-
426,PRO	-	-	-	-	-	-	-	-	-	-	-	-	-	-	-	-	-	-
427,THR	-	-	-	-	-	-	-	-	-	-	-	-	-	-	-	-	-	-
428,SER	-	-	-	-	-	-	-	-	-	-	-	-	-	-	-	-	-	-
429,GLU	-	-	-	-	-	-	-	-	-	-	-	-	-	-	-	-	-	-
430,PRO	-	-	-	-	-	-	-	-	-	-	-	-	-	-	-	-	-	-
431,ALA	-	-	-	-	-	-	-	-	-	-	-	-	-	-	-	-	-	-
432,PRO	-	-	-	-	-	-	-	-	-	-	-	-	-	-	-	-	-	-
433,SER	-	-	-	-	-	-	-	-	-	-	-	-	-	-	-	-	-	-
434,PRO	-	-	-	-	-	-	-	-	-	-	-	-	-	-	-	-	-	-
435,THR	-	-	-	-	-	-	-	-	-	-	-	-	-	-	-	-	-	-
436,THR	-	-	-	-	-	-	-	-	-	-	-	-	-	-	-	-	-	-
437,PRO	-	-	-	-	-	-	-	-	-	-	-	-	-	-	-	-	-	-
438,GLU	-	-	-	-	-	-	-	-	-	-	-	-	-	-	-	-	-	-
439,PRO	-	-	-	-	-	-	-	-	-	-	-	-	-	-	-	-	-	-
440,THR	-	-	-	-	-	-	-	-	-	-	-	-	-	-	-	-	-	-
441,SER	-	-	-	-	-	-	-	-	-	-	-	-	-	-	-	-	-	-
442,GLU	-	-	-	-	-	-	-	-	-	-	-	-	-	-	-	-	-	-
443,PRO	-	-	-	-	-	-	-	-	-	-	-	-	-	-	-	-	-	-
444,ALA	-	-	-	-	-	-	-	-	-	-	-	-	-	-	-	-	-	-
445,PRO	-	-	-	-	-	-	-	-	-	-	-	-	-	-	-	-	-	-
446,SER	-	-	-	-	-	-	-	-	-	-	-	-	-	-	-	-	-	-
447,PRO	-	-	-	-	-	-	-	-	-	-	-	-	-	-	-	-	-	-
448,THR	-	-	-	-	-	-	-	-	-	-	-	-	-	-	-	-	-	-
449,THR	-	-	-	-	-	-	-	-	-	-	-	-	-	-	-	-	-	-
450,PRO	-	-	-	-	-	-	-	-	-	-	-	-	-	-	-	-	-	-
451,GLU	-	-	-	-	-	-	-	-	-	-	-	-	-	-	-	-	-	-
452,PRO	-	-	-	-	-	-	-	-	-	-	-	-	-	-	-	-	-	-
453,THR	-	-	-	-	-	-	-	-	-	-	-	-	-	-	-	-	-	-
454,PRO	-	-	-	-	-	-	-	-	-	-	-	-	-	-	-	-	-	-
455,ILE	-	-	-	-	-	-	-	-	-	-	-	-	-	-	-	-	-	-
456,PRO	-	-	-	-	-	-	-	-	-	-	-	-	-	-	-	-	-	-
457,THR	-	-	-	-	-	-	-	-	-	-	-	-	-	-	-	-	-	-
458,ILE	-	-	-	-	-	-	-	-	-	-	-	-	-	-	-	-	-	-
459,ALA	-	-	-	-	-	-	-	-	-	-	-	-	-	-	-	-	-	-
460,THR	-	-	-	-	-	-	-	-	-	-	-	-	-	-	-	-	-	-
461,SER	-	-	-	-	-	-	-	-	-	-	-	-	-	-	-	-	-	-
462,PRO	-	-	-	-	-	-	-	-	-	-	-	-	-	-	-	-	-	-
463,THR	-	-	-	-	-	-	-	-	-	-	-	-	-	-	-	-	-	-
464,ILE	-	-	-	-	-	-	-	-	-	-	-	-	-	-	-	-	-	-
465,LEU	-	-	-	-	-	-	-	-	-	-	-	-	-	-	-	-	-	-
466,VAL	-	-	-	-	-	-	-	-	-	-	-	-	-	-	-	-	-	-
467,SER	-	-	-	-	-	-	-	-	-	-	-	-	-	-	-	-	-	-
468,ALA	-	-	-	-	-	-	-	-	-	-	-	-	-	-	-	-	-	-
469,THR	-	-	-	-	-	-	-	-	-	-	-	-	-	-	-	-	-	-
470,SER	-	-	-	-	-	-	-	-	-	-	-	-	-	-	-	-	-	-
471,LEU	-	-	-	-	-	-	-	-	-	-	-	-	-	-	-	-	-	-
472,ILE	-	-	-	-	-	-	-	-	-	-	-	-	-	-	-	-	-	-
473,THR	-	-	-	-	-	-	-	-	-	-	-	-	-	-	-	-	-	-
474,PRO	-	-	-	-	-	-	-	-	-	-	-	-	-	-	-	-	-	-
475,LYS	-	-	-	-	-	-	-	-	-	-	-	-	-	-	-	-	-	-
476,SER	-	-	-	-	-	-	-	-	-	-	-	-	-	-	-	-	-	-
477,THR	-	-	-	-	-	-	-	-	-	-	-	-	-	-	-	-	-	-
478,PHE	-	-	-	-	-	-	-	-	-	-	-	-	-	-	-	-	-	-
479,LEU	-	-	-	-	-	-	-	-	-	-	-	-	-	-	-	-	-	-
480,THR	-	-	-	-	-	-	-	-	-	-	-	-	-	-	-	-	-	-
481,THR	-	-	-	-	-	-	-	-	-	-	-	-	-	-	-	-	-	-
482,THR	-	-	-	-	-	-	-	-	-	-	-	-	-	-	-	-	-	-
483,LYS	-	-	-	-	-	-	-	-	-	-	-	-	-	-	-	-	-	-
484,PRO	-	-	-	-	-	-	-	-	-	-	-	-	-	-	-	-	-	-
485,VAL	-	-	-	-	-	-	-	-	-	-	-	-	-	-	-	-	-	-
486,SER	-	-	-	-	-	-	-	-	-	-	-	-	-	-	-	-	-	-
487,LEU	-	-	-	-	-	-	-	-	-	-	-	-	-	-	-	-	-	-
488,LEU	-	-	-	-	-	-	-	-	-	-	-	-	-	-	-	-	-	-
489,GLU	-	-	-	-	-	-	-	-	-	-	-	-	-	-	-	-	-	-
490,SER	-	-	-	-	-	-	-	-	-	-	-	-	-	-	-	-	-	-
491,THR	-	-	-	-	-	-	-	-	-	-	-	-	-	-	-	-	-	-
492,LYS	-	-	-	-	-	-	-	-	-	-	-	-	-	-	-	-	-	-
493,LYS	-	-	-	-	-	-	-	-	-	-	-	-	-	-	-	-	-	-
494,THR	-	-	-	-	-	-	-	-	-	-	-	-	-	-	-	-	-	-
495,ILE	-	-	-	-	-	-	-	-	-	-	-	-	-	-	-	-	-	-
496,PRO	-	-	-	-	-	-	-	-	-	-	-	-	-	-	-	-	-	-
497,GLU	-	-	-	-	-	-	-	-	-	-	-	-	-	-	-	-	-	-
498,LEU	-	-	-	-	-	-	-	-	-	-	-	-	-	-	-	-	-	-
499,ASP	-	-	-	-	-	-	-	-	-	-	-	-	-	-	-	-	-	-
500,GLN	-	-	-	-	-	-	-	-	-	-	-	-	-	-	-	-	-	-
501,PRO	-	-	-	-	-	-	-	-	-	-	-	-	-	-	-	-	-	-
502,PRO	-	-	-	-	-	-	-	-	-	-	-	-	-	-	-	-	-	-
503,LYS	-	-	-	1,LYS	1,LYS	-	-	-	-	-	-	-	-	-	-	-	-	-
504,LEU	-	-	-	2,LEU	2,LEU	-	-	-	-	-	-	-	-	-	-	-	-	-
505,ARG	-	-	-	3,ARG	3,ARG	-	-	-	-	-	-	-	-	-	-	-	-	-
506,GLY	-	-	-	4,GLY	4,GLY	-	-	-	-	-	-	-	-	-	-	-	-	-
507,VAL	-	-	-	5,VAL	5,VAL	-	-	-	-	-	-	-	-	-	-	-	-	-
508,LEU	-	-	-	6,LEU	6,LEU	-	-	-	-	-	-	-	-	-	-	-	-	-
509,GLN	-	-	-	7,GLN	7,GLN	-	-	-	-	-	-	-	-	-	-	-	-	-
510,GLY	-	-	-	8,GLY	8,GLY	-	-	-	-	-	-	-	-	-	-	-	-	-
511,HIS	-	-	-	9,HIS	9,HIS	-	-	-	-	-	-	-	-	-	-	-	-	-
512,LEU	-	-	-	10,LEU	10,LEU	-	-	-	-	-	-	-	-	-	-	-	-	-
513,GLU	-	-	-	-	-	-	-	-	-	-	-	-	-	-	-	-	-	-
514,SER	-	-	-	-	-	-	-	-	-	-	-	-	-	-	-	-	-	-
515,SER	-	-	-	-	-	-	-	-	-	-	-	-	-	-	-	-	-	-
516,ARG	-	-	-	-	-	-	-	-	-	-	-	-	-	-	-	-	-	-
517,ASN	-	-	-	-	-	-	-	-	-	-	-	-	-	-	-	-	-	-
518,ASP	-	-	-	-	-	-	-	-	-	-	-	-	-	-	-	-	-	-
519,PRO	-	-	-	-	-	-	-	-	-	-	-	-	-	-	-	-	-	-
520,PHE	-	-	-	-	-	-	-	-	-	-	-	-	-	-	-	-	-	-
521,LEU	-	-	-	-	-	-	-	-	-	-	-	-	-	-	-	-	-	-
522,HIS	-	-	-	-	-	-	-	-	-	-	-	-	-	-	-	-	-	-
523,PRO	-	-	-	-	-	-	-	-	-	-	-	-	-	-	-	-	-	-
524,ASP	-	-	-	-	-	-	-	-	-	-	-	-	-	-	-	-	-	-
525,PHE	-	-	-	-	-	-	-	-	-	-	-	-	-	-	-	-	-	-
526,CYS	-	-	-	-	-	-	-	-	-	-	-	-	-	-	-	-	-	-
527,CYS	-	-	-	-	-	-	-	-	-	-	-	-	-	-	-	-	-	-
528,LEU	-	-	-	-	-	-	-	-	-	-	-	-	-	-	-	-	-	-
529,LEU	-	-	-	-	-	-	-	-	-	-	-	-	-	-	-	-	-	-
530,PRO	-	-	-	-	-	-	-	-	-	-	-	-	-	-	-	-	-	-
531,LEU	-	-	-	-	-	-	-	-	-	-	-	-	-	-	-	-	-	-
532,GLY	-	-	-	-	-	-	-	-	-	-	-	-	-	-	-	-	-	-
533,PHE	-	-	-	-	-	-	-	-	-	-	-	-	-	-	-	-	-	-
534,TYR	-	-	-	-	-	-	-	-	-	-	-	-	-	-	-	-	-	-
535,VAL	-	-	-	-	-	-	-	-	-	-	-	-	-	-	-	-	-	-
536,LEU	-	-	-	-	-	-	-	-	-	-	-	-	-	-	-	-	-	-
537,GLY	-	-	-	-	-	-	-	-	-	-	-	-	-	-	-	-	-	-
538,LEU	-	-	-	-	-	-	-	-	-	-	-	-	-	-	-	-	-	-
539,PHE	-	-	-	-	-	-	-	-	-	-	-	-	-	-	-	-	-	-
540,TRP	-	-	-	-	-	-	-	-	-	-	-	-	-	-	-	-	-	-
541,LEU	-	-	-	-	-	-	-	-	-	-	-	-	-	-	-	-	-	-
542,LEU	-	-	-	-	-	-	-	-	-	-	-	-	-	-	-	-	-	-
543,PHE	-	-	-	-	-	-	-	-	-	-	-	-	-	-	-	-	-	-
544,ALA	-	-	-	-	-	-	-	-	-	-	-	-	-	-	-	-	-	-
545,SER	-	-	-	-	-	-	-	-	-	-	-	-	-	-	-	-	-	-
546,VAL	-	-	-	-	-	-	-	-	-	-	-	-	-	-	-	-	-	-
547,VAL	-	-	-	-	-	-	-	-	-	-	-	-	-	-	-	-	-	-
548,LEU	-	-	-	-	-	-	-	-	-	-	-	-	-	-	-	-	-	-
549,ILE	-	-	-	-	-	-	-	-	-	-	-	-	-	-	-	-	-	-
550,LEU	-	-	-	-	-	-	-	-	-	-	-	-	-	-	-	-	-	-
551,LEU	-	-	-	-	-	-	-	-	-	-	-	-	-	-	-	-	-	-
552,LEU	-	-	-	-	-	-	-	-	-	-	-	-	-	-	-	-	-	-
553,SER	-	-	-	-	-	-	-	-	-	-	-	-	-	-	-	-	-	-
554,TRP	-	-	-	-	-	-	-	-	-	-	-	-	-	-	-	-	-	-
555,VAL	-	-	-	-	-	-	-	-	-	-	-	-	-	-	-	-	-	-
556,GLY	-	-	-	-	-	-	-	-	-	-	-	-	-	-	-	-	-	-
557,HIS	-	-	-	-	-	-	-	-	-	-	-	-	-	-	-	-	-	-
558,VAL	-	-	-	-	-	-	-	-	-	-	-	-	-	-	-	-	-	-
559,LYS	-	-	-	-	-	-	-	-	-	-	-	-	-	-	-	-	-	-
560,PRO	-	-	-	-	-	-	-	-	-	-	-	-	-	-	-	-	-	-
561,GLN	-	-	-	-	-	-	-	-	-	-	-	-	-	-	-	-	-	-
562,ALA	-	-	-	-	-	-	-	-	-	-	-	-	-	-	-	-	-	-
563,LEU	-	-	-	-	-	-	-	-	-	-	-	-	-	-	-	-	-	-
564,ASP	-	-	-	-	-	-	-	-	-	-	-	-	-	-	-	-	-	-
565,SER	-	-	-	-	-	-	-	-	-	-	-	-	-	-	-	-	-	-
566,GLY	-	-	-	-	-	-	-	-	-	-	-	-	-	-	-	-	-	-
567,GLN	-	-	-	-	-	-	-	-	-	-	-	-	-	-	-	-	-	-
568,GLY	-	-	-	-	-	-	-	-	-	-	-	-	-	-	-	-	-	-
569,ALA	-	-	-	-	-	-	-	-	-	-	-	-	-	-	-	-	-	-
570,ALA	-	-	-	-	-	-	-	-	-	-	-	-	-	-	-	-	-	-
571,LEU	-	-	-	-	-	-	-	-	-	-	-	-	-	-	-	-	-	-
572,THR	-	-	-	-	-	-	-	-	-	-	-	-	-	-	-	-	-	-
573,THR	-	-	-	-	-	-	-	-	-	-	-	-	-	-	-	-	-	-
574,ALA	-	-	-	-	-	-	-	-	-	-	-	-	-	-	-	-	-	-
575,THR	-	-	-	-	-	-	-	-	-	-	-	-	-	-	-	-	-	-
576,GLN	-	-	-	-	-	-	-	-	-	-	-	-	-	-	-	-	-	-
577,THR	-	-	-	-	-	-	-	-	-	-	-	-	-	-	-	-	-	-
578,THR	-	-	-	-	-	-	-	-	-	-	-	-	-	-	-	-	-	-
579,HIS	-	-	-	-	-	-	-	-	-	-	-	-	-	-	-	-	-	-
580,LEU	-	-	-	-	-	-	-	-	-	-	-	-	-	-	-	-	-	-
581,GLU	-	-	-	-	-	-	-	-	-	-	-	-	-	-	-	-	-	-
582,LEU	-	-	-	-	-	-	-	-	-	-	-	-	-	-	-	-	-	-
583,GLN	-	-	-	-	-	-	-	-	-	-	-	-	-	-	-	-	-	-
584,ARG	-	-	-	-	-	-	-	-	-	-	-	-	-	-	-	-	-	-
585,GLY	-	-	-	-	-	-	-	-	-	-	-	-	-	-	-	-	-	-
586,ARG	-	-	-	-	-	-	-	-	-	-	-	-	-	-	-	-	-	-
587,GLN	-	-	-	-	-	-	-	-	-	-	-	-	-	-	-	-	-	-
588,VAL	-	-	-	-	-	-	-	-	-	-	-	-	-	-	-	-	-	-
589,THR	-	-	-	-	-	-	-	-	-	-	-	-	-	-	-	-	-	-
590,VAL	-	-	-	-	-	-	-	-	-	-	-	-	-	-	-	-	-	-
591,PRO	-	-	-	-	-	-	-	-	-	-	-	-	-	-	-	-	-	-
592,ARG	-	-	-	-	-	-	-	-	-	-	-	-	-	-	-	-	-	-
593,ALA	-	-	-	-	-	-	-	-	-	-	-	-	-	-	-	-	-	-
594,TRP	-	-	-	-	-	-	-	-	-	-	-	-	-	-	-	-	-	-
595,LEU	-	-	-	-	-	-	-	-	-	-	-	-	-	-	-	-	-	-
596,LEU	-	-	-	-	-	-	-	-	-	-	-	-	-	-	-	-	-	-
597,PHE	-	-	-	-	-	-	-	-	-	-	-	-	-	-	-	-	-	-
598,LEU	-	-	-	-	-	-	-	-	-	-	-	-	-	-	-	-	-	-
599,ARG	-	-	-	-	-	-	-	-	-	-	-	-	-	-	-	-	-	-
600,GLY	-	-	-	-	-	-	-	-	-	-	-	-	-	-	-	-	-	-
601,SER	-	-	-	-	-	-	-	-	-	-	-	-	-	-	-	-	-	-
602,LEU	-	-	-	-	-	-	-	-	-	-	-	-	-	-	-	-	-	-
603,PRO	-	577,PRO	-	-	-	-	-	-	-	-	-	-	-	-	-	-	-	-
604,THR	-	578,THR	-	-	-	-	-	-	-	-	-	-	-	-	-	-	-	-
605,PHE	-	579,PHE	-	-	-	-	-	-	-	-	-	-	-	-	-	-	-	-
606,ARG	-	580,ARG	-	-	-	-	-	-	-	-	-	-	-	-	-	-	-	-
607,SER	-	581,SER	-	-	-	-	-	-	-	-	-	-	-	-	-	-	-	-
608,SER	-	582,SER	-	-	-	-	-	-	-	-	-	-	-	-	-	-	-	-
609,LEU	-	583,LEU	-	-	-	-	-	-	-	-	-	-	-	-	-	-	-	-
610,PHE	-	584,PHE	-	-	-	-	-	-	-	-	-	-	-	-	-	-	-	-
611,LEU	-	585,LEU	-	-	-	-	-	-	-	-	-	-	-	-	-	-	-	-
612,TRP	-	-	-	-	-	-	-	-	-	-	-	-	-	-	-	-	-	-
613,VAL	-	-	-	-	-	-	-	-	-	-	-	-	-	-	-	-	-	-
614,ARG	-	-	-	-	-	-	-	-	-	-	-	-	-	-	-	-	-	-
615,PRO	-	-	-	-	-	-	-	-	-	-	-	-	-	-	-	-	-	-
616,ASN	-	-	-	-	-	-	-	-	-	-	-	-	-	-	-	-	-	-
617,GLY	-	-	-	-	-	-	-	-	-	-	-	-	-	-	-	-	-	-
618,ARG	-	-	-	-	-	-	-	-	-	-	-	-	-	-	-	-	-	-
619,VAL	-	-	-	-	-	-	-	-	-	-	-	-	-	-	-	-	-	-
620,GLY	-	-	-	-	-	-	-	-	-	-	-	-	-	-	-	-	-	-
621,PRO	-	-	-	-	-	-	-	-	-	-	-	-	-	-	-	-	-	-
622,LEU	-	-	-	-	-	-	-	-	-	-	-	-	-	-	-	-	-	-
623,VAL	-	-	-	-	-	-	-	-	-	-	-	-	-	-	-	-	-	-
624,ALA	-	-	-	-	-	-	-	-	-	-	-	-	-	-	-	-	-	-
625,GLY	-	-	-	-	-	-	-	-	-	-	-	-	-	-	-	-	-	-
626,ARG	-	-	-	-	-	-	-	-	-	-	-	-	-	-	-	-	-	-
627,ARG	-	-	-	-	-	-	-	-	-	-	-	-	-	-	-	-	-	-
628,PRO	-	-	-	-	-	-	-	-	-	-	-	-	-	-	-	-	-	-
629,SER	-	-	-	-	-	-	-	-	-	-	-	-	-	-	-	-	-	-
630,ALA	-	-	-	-	-	-	-	-	-	-	-	-	-	-	-	-	-	-
631,LEU	-	-	-	-	-	-	-	-	-	-	-	-	-	-	-	-	-	-
632,SER	-	-	-	-	-	-	-	-	-	-	-	-	-	-	-	-	-	-
633,GLN	-	-	-	-	-	-	-	-	-	-	-	-	-	-	-	-	-	-
634,GLY	-	-	-	-	-	-	-	-	-	-	-	-	-	-	-	-	-	-
635,ARG	-	-	-	-	-	-	-	-	-	-	-	-	-	-	-	-	-	-
636,GLY	-	-	-	-	-	-	-	-	-	-	-	-	-	-	-	-	-	-
637,GLN	-	-	-	-	-	-	-	-	-	-	-	-	-	-	-	-	-	-
638,ASP	-	-	-	-	-	-	-	-	-	-	-	-	-	-	-	-	-	-
639,LEU	-	-	-	-	-	-	-	-	-	-	-	-	-	-	-	-	-	-
640,LEU	-	-	-	-	-	-	-	-	-	-	-	-	-	-	-	-	-	-
641,SER	-	-	-	-	-	-	-	-	-	-	-	-	-	-	-	-	-	-
642,THR	-	-	-	-	-	-	-	-	-	-	-	-	-	-	-	-	-	-
643,VAL	-	-	-	-	-	-	-	-	-	-	-	-	-	-	-	-	-	-
644,SER	-	-	-	-	-	-	-	-	-	-	-	-	-	-	-	-	-	-
645,ILE	-	-	-	-	-	-	-	-	-	-	-	-	-	-	-	-	-	-
646,ARG	-	-	-	-	-	-	-	-	-	-	-	-	-	-	-	-	-	-
647,TYR	-	-	-	-	-	-	-	-	-	-	-	-	-	-	-	-	-	-
648,SER	-	-	-	-	-	-	-	-	-	-	-	-	-	-	-	-	-	-
649,GLY	-	-	-	-	-	-	-	-	-	-	-	-	-	-	-	-	-	-
650,HIS	-	-	-	-	-	-	-	-	-	-	-	-	-	-	-	-	-	-
651,SER	-	-	-	-	-	-	-	-	-	-	-	-	-	-	-	-	-	-
652,LEU	-	-	-	-	-	-	-	-	-	-	-	-	-	-	-	-	-	-
