O60763	2w3cA
1,MET	-
2,ASN	-
3,PHE	-
4,LEU	-
5,ARG	-
6,GLY	-
7,VAL	-
8,MET	-
9,GLY	-
10,GLY	-
11,GLN	-
12,SER	-
13,ALA	-
14,GLY	-
15,PRO	-
16,GLN	-
17,HIS	-
18,THR	-
19,GLU	-
20,ALA	-
21,GLU	-
22,THR	-
23,ILE	-
24,GLN	-
25,LYS	-
26,LEU	-
27,CYS	-
28,ASP	-
29,ARG	-
30,VAL	-
31,ALA	-
32,SER	-
33,SER	-
34,THR	-
35,LEU	-
36,LEU	-
37,ASP	-
38,ASP	-
39,ARG	-
40,ARG	-
41,ASN	-
42,ALA	-
43,VAL	-
44,ARG	-
45,ALA	-
46,LEU	-
47,LYS	-
48,SER	-
49,LEU	-
50,SER	-
51,LYS	-
52,LYS	-
53,TYR	53,TYR
54,ARG	54,ARG
55,LEU	55,LEU
56,GLU	56,GLU
57,VAL	57,VAL
58,GLY	58,GLY
59,ILE	59,ILE
60,GLN	60,GLN
61,ALA	61,ALA
62,MET	62,MET
63,GLU	63,GLU
64,HIS	64,HIS
65,LEU	65,LEU
66,ILE	66,ILE
67,HIS	67,HIS
68,VAL	68,VAL
69,LEU	69,LEU
70,GLN	70,GLN
71,THR	71,THR
72,ASP	72,ASP
73,ARG	73,ARG
74,SER	74,SER
75,ASP	75,ASP
76,SER	76,SER
77,GLU	77,GLU
78,ILE	78,ILE
79,ILE	79,ILE
80,GLY	80,GLY
81,TYR	81,TYR
82,ALA	82,ALA
83,LEU	83,LEU
84,ASP	84,ASP
85,THR	85,THR
86,LEU	86,LEU
87,TYR	87,TYR
88,ASN	88,ASN
89,ILE	89,ILE
90,ILE	90,ILE
91,SER	91,SER
92,ASN	92,ASN
93,GLU	93,GLU
94,GLU	94,GLU
95,GLU	95,GLU
96,GLU	96,GLU
97,GLU	97,GLU
98,VAL	98,VAL
99,GLU	99,GLU
100,GLU	100,GLU
101,ASN	101,ASN
102,SER	102,SER
103,THR	103,THR
104,ARG	104,ARG
105,GLN	105,GLN
106,SER	106,SER
107,GLU	107,GLU
108,ASP	108,ASP
109,LEU	109,LEU
110,GLY	110,GLY
111,SER	111,SER
112,GLN	112,GLN
113,PHE	113,PHE
114,THR	114,THR
115,GLU	115,GLU
116,ILE	116,ILE
117,PHE	117,PHE
118,ILE	118,ILE
119,LYS	119,LYS
120,GLN	120,GLN
121,GLN	121,GLN
122,GLU	122,GLU
123,ASN	123,ASN
124,VAL	124,VAL
125,THR	125,THR
126,LEU	126,LEU
127,LEU	127,LEU
128,LEU	128,LEU
129,SER	129,SER
130,LEU	130,LEU
131,LEU	131,LEU
132,GLU	132,GLU
133,GLU	133,GLU
134,PHE	134,PHE
135,ASP	135,ASP
136,PHE	136,PHE
137,HIS	137,HIS
138,VAL	138,VAL
139,ARG	139,ARG
140,TRP	140,TRP
141,PRO	141,PRO
142,GLY	142,GLY
143,VAL	143,VAL
144,LYS	144,LYS
145,LEU	145,LEU
146,LEU	146,LEU
147,THR	147,THR
148,SER	148,SER
149,LEU	149,LEU
150,LEU	150,LEU
151,LYS	151,LYS
152,GLN	152,GLN
153,LEU	153,LEU
154,GLY	154,GLY
155,PRO	155,PRO
156,GLN	156,GLN
157,VAL	157,VAL
158,GLN	158,GLN
159,GLN	159,GLN
160,ILE	160,ILE
161,ILE	161,ILE
162,LEU	162,LEU
163,VAL	163,VAL
164,SER	164,SER
165,PRO	165,PRO
166,MET	166,MET
167,GLY	167,GLY
168,VAL	168,VAL
169,SER	169,SER
170,ARG	170,ARG
171,LEU	171,LEU
172,MET	172,MET
173,ASP	173,ASP
174,LEU	174,LEU
175,LEU	175,LEU
176,ALA	176,ALA
177,ASP	177,ASP
178,SER	178,SER
179,ARG	179,ARG
180,GLU	180,GLU
181,VAL	181,VAL
182,ILE	182,ILE
183,ARG	183,ARG
184,ASN	184,ASN
185,ASP	185,ASP
186,GLY	186,GLY
187,VAL	187,VAL
188,LEU	188,LEU
189,LEU	189,LEU
190,LEU	190,LEU
191,GLN	191,GLN
192,ALA	192,ALA
193,LEU	193,LEU
194,THR	194,THR
195,ARG	195,ARG
196,SER	196,SER
197,ASN	197,ASN
198,GLY	198,GLY
199,ALA	199,ALA
200,ILE	200,ILE
201,GLN	201,GLN
202,LYS	202,LYS
203,ILE	203,ILE
204,VAL	204,VAL
205,ALA	205,ALA
206,PHE	206,PHE
207,GLU	207,GLU
208,ASN	208,ASN
209,ALA	209,ALA
210,PHE	210,PHE
211,GLU	211,GLU
212,ARG	212,ARG
213,LEU	213,LEU
214,LEU	214,LEU
215,ASP	215,ASP
216,ILE	216,ILE
217,ILE	217,ILE
218,SER	218,SER
219,GLU	219,GLU
220,GLU	220,GLU
221,GLY	221,GLY
222,ASN	222,ASN
223,SER	223,SER
224,ASP	224,ASP
225,GLY	225,GLY
226,GLY	226,GLY
227,ILE	227,ILE
228,VAL	228,VAL
229,VAL	229,VAL
230,GLU	230,GLU
231,ASP	231,ASP
232,CYS	232,CYS
233,LEU	233,LEU
234,ILE	234,ILE
235,LEU	235,LEU
236,LEU	236,LEU
237,GLN	237,GLN
238,ASN	238,ASN
239,LEU	239,LEU
240,LEU	240,LEU
241,LYS	241,LYS
242,ASN	242,ASN
243,ASN	243,ASN
244,ASN	244,ASN
245,SER	245,SER
246,ASN	246,ASN
247,GLN	247,GLN
248,ASN	248,ASN
249,PHE	249,PHE
250,PHE	250,PHE
251,LYS	251,LYS
252,GLU	252,GLU
253,GLY	253,GLY
254,SER	254,SER
255,TYR	255,TYR
256,ILE	256,ILE
257,GLN	257,GLN
258,ARG	258,ARG
259,MET	259,MET
260,LYS	260,LYS
261,PRO	261,PRO
262,TRP	262,TRP
263,PHE	263,PHE
264,GLU	264,GLU
265,VAL	265,VAL
266,GLY	266,GLY
267,ASP	267,ASP
268,GLU	268,GLU
269,ASN	269,ASN
270,SER	270,SER
271,GLY	271,GLY
272,TRP	272,TRP
273,SER	273,SER
274,ALA	274,ALA
275,GLN	275,GLN
276,LYS	276,LYS
277,VAL	277,VAL
278,THR	278,THR
279,ASN	279,ASN
280,LEU	280,LEU
281,HIS	281,HIS
282,LEU	282,LEU
283,MET	283,MET
284,LEU	284,LEU
285,GLN	285,GLN
286,LEU	286,LEU
287,VAL	287,VAL
288,ARG	288,ARG
289,VAL	289,VAL
290,LEU	290,LEU
291,VAL	291,VAL
292,SER	292,SER
293,PRO	293,PRO
294,THR	294,THR
295,ASN	295,ASN
296,PRO	296,PRO
297,PRO	297,PRO
298,GLY	298,GLY
299,ALA	299,ALA
300,THR	300,THR
301,SER	301,SER
302,SER	302,SER
303,CYS	303,CYS
304,GLN	304,GLN
305,LYS	305,LYS
306,ALA	306,ALA
307,MET	307,MET
308,PHE	308,PHE
309,GLN	309,GLN
310,CYS	310,CYS
311,GLY	311,GLY
312,LEU	312,LEU
313,LEU	313,LEU
314,GLN	314,GLN
315,GLN	315,GLN
316,LEU	316,LEU
317,CYS	317,CYS
318,THR	318,THR
319,ILE	319,ILE
320,LEU	320,LEU
321,MET	321,MET
322,ALA	322,ALA
323,THR	323,THR
324,GLY	324,GLY
325,VAL	325,VAL
326,PRO	326,PRO
327,ALA	327,ALA
328,ASP	328,ASP
329,ILE	329,ILE
330,LEU	330,LEU
331,THR	331,THR
332,GLU	332,GLU
333,THR	333,THR
334,ILE	334,ILE
335,ASN	335,ASN
336,THR	336,THR
337,VAL	337,VAL
338,SER	338,SER
339,GLU	339,GLU
340,VAL	340,VAL
341,ILE	341,ILE
342,ARG	342,ARG
343,GLY	343,GLY
344,CYS	344,CYS
345,GLN	345,GLN
346,VAL	346,VAL
347,ASN	347,ASN
348,GLN	348,GLN
349,ASP	349,ASP
350,TYR	350,TYR
351,PHE	351,PHE
352,ALA	352,ALA
353,SER	353,SER
354,VAL	354,VAL
355,ASN	355,ASN
356,ALA	356,ALA
357,PRO	357,PRO
358,SER	358,SER
359,ASN	359,ASN
360,PRO	360,PRO
361,PRO	361,PRO
362,ARG	362,ARG
363,PRO	363,PRO
364,ALA	364,ALA
365,ILE	365,ILE
366,VAL	366,VAL
367,VAL	367,VAL
368,LEU	368,LEU
369,LEU	369,LEU
370,MET	370,MET
371,SER	371,SER
372,MET	372,MET
373,VAL	373,VAL
374,ASN	374,ASN
375,GLU	375,GLU
376,ARG	376,ARG
377,GLN	377,GLN
378,PRO	378,PRO
379,PHE	379,PHE
380,VAL	380,VAL
381,LEU	381,LEU
382,ARG	382,ARG
383,CYS	383,CYS
384,ALA	384,ALA
385,VAL	385,VAL
386,LEU	386,LEU
387,TYR	387,TYR
388,CYS	388,CYS
389,PHE	389,PHE
390,GLN	390,GLN
391,CYS	391,CYS
392,PHE	392,PHE
393,LEU	393,LEU
394,TYR	394,TYR
395,LYS	395,LYS
396,ASN	396,ASN
397,GLN	397,GLN
398,LYS	398,LYS
399,GLY	399,GLY
400,GLN	400,GLN
401,GLY	401,GLY
402,GLU	402,GLU
403,ILE	403,ILE
404,VAL	404,VAL
405,SER	405,SER
406,THR	406,THR
407,LEU	407,LEU
408,LEU	408,LEU
409,PRO	409,PRO
410,SER	410,SER
411,THR	411,THR
412,ILE	412,ILE
413,ASP	413,ASP
414,ALA	414,ALA
415,THR	415,THR
416,GLY	416,GLY
417,ASN	417,ASN
418,SER	418,SER
419,VAL	419,VAL
420,SER	420,SER
421,ALA	421,ALA
422,GLY	422,GLY
423,GLN	423,GLN
424,LEU	424,LEU
425,LEU	425,LEU
426,CYS	426,CYS
427,GLY	427,GLY
428,GLY	428,GLY
429,LEU	429,LEU
430,PHE	430,PHE
431,SER	431,SER
432,THR	432,THR
433,ASP	433,ASP
434,SER	434,SER
435,LEU	435,LEU
436,SER	436,SER
437,ASN	437,ASN
438,TRP	438,TRP
439,CYS	439,CYS
440,ALA	440,ALA
441,ALA	441,ALA
442,VAL	442,VAL
443,ALA	443,ALA
444,LEU	444,LEU
445,ALA	445,ALA
446,HIS	446,HIS
447,ALA	447,ALA
448,LEU	448,LEU
449,GLN	449,GLN
450,GLU	450,GLU
451,ASN	451,ASN
452,ALA	452,ALA
453,THR	453,THR
454,GLN	454,GLN
455,LYS	455,LYS
456,GLU	456,GLU
457,GLN	457,GLN
458,LEU	458,LEU
459,LEU	459,LEU
460,ARG	460,ARG
461,VAL	461,VAL
462,GLN	462,GLN
463,LEU	463,LEU
464,ALA	464,ALA
465,THR	465,THR
466,SER	466,SER
467,ILE	467,ILE
468,GLY	468,GLY
469,ASN	469,ASN
470,PRO	470,PRO
471,PRO	471,PRO
472,VAL	472,VAL
473,SER	473,SER
474,LEU	474,LEU
475,LEU	475,LEU
476,GLN	476,GLN
477,GLN	477,GLN
478,CYS	478,CYS
479,THR	479,THR
480,ASN	480,ASN
481,ILE	481,ILE
482,LEU	482,LEU
483,SER	483,SER
484,GLN	484,GLN
485,GLY	485,GLY
486,SER	486,SER
487,LYS	487,LYS
488,ILE	488,ILE
489,GLN	489,GLN
490,THR	490,THR
491,ARG	491,ARG
492,VAL	492,VAL
493,GLY	493,GLY
494,LEU	494,LEU
495,LEU	495,LEU
496,MET	496,MET
497,LEU	497,LEU
498,LEU	498,LEU
499,CYS	499,CYS
500,THR	500,THR
501,TRP	501,TRP
502,LEU	502,LEU
503,SER	503,SER
504,ASN	504,ASN
505,CYS	505,CYS
506,PRO	506,PRO
507,ILE	507,ILE
508,ALA	508,ALA
509,VAL	509,VAL
510,THR	510,THR
511,HIS	511,HIS
512,PHE	512,PHE
513,LEU	513,LEU
514,HIS	514,HIS
515,ASN	515,ASN
516,SER	516,SER
517,ALA	517,ALA
518,ASN	518,ASN
519,VAL	519,VAL
520,PRO	520,PRO
521,PHE	521,PHE
522,LEU	522,LEU
523,THR	523,THR
524,GLY	524,GLY
525,GLN	525,GLN
526,ILE	526,ILE
527,ALA	527,ALA
528,GLU	528,GLU
529,ASN	529,ASN
530,LEU	530,LEU
531,GLY	531,GLY
532,GLU	532,GLU
533,GLU	533,GLU
534,GLU	534,GLU
535,GLN	535,GLN
536,LEU	536,LEU
537,VAL	537,VAL
538,GLN	538,GLN
539,GLY	539,GLY
540,LEU	540,LEU
541,CYS	541,CYS
542,ALA	542,ALA
543,LEU	543,LEU
544,LEU	544,LEU
545,LEU	545,LEU
546,GLY	546,GLY
547,ILE	547,ILE
548,SER	548,SER
549,ILE	549,ILE
550,TYR	550,TYR
551,PHE	551,PHE
552,ASN	552,ASN
553,ASP	553,ASP
554,ASN	554,ASN
555,SER	555,SER
556,LEU	556,LEU
557,GLU	557,GLU
558,SER	558,SER
559,TYR	559,TYR
560,MET	560,MET
561,LYS	561,LYS
562,GLU	562,GLU
563,LYS	563,LYS
564,LEU	564,LEU
565,LYS	565,LYS
566,GLN	566,GLN
567,LEU	567,LEU
568,ILE	568,ILE
569,GLU	569,GLU
570,LYS	570,LYS
571,ARG	571,ARG
572,ILE	572,ILE
573,GLY	573,GLY
574,LYS	574,LYS
575,GLU	575,GLU
576,ASN	576,ASN
577,PHE	577,PHE
578,ILE	578,ILE
579,GLU	579,GLU
580,LYS	580,LYS
581,LEU	581,LEU
582,GLY	582,GLY
583,PHE	583,PHE
584,ILE	584,ILE
585,SER	585,SER
586,LYS	586,LYS
587,HIS	587,HIS
588,GLU	588,GLU
589,LEU	589,LEU
590,TYR	590,TYR
591,SER	591,SER
592,ARG	595,GLN
593,ALA	592,ARG
594,SER	593,ALA
595,GLN	594,SER
596,LYS	596,LYS
597,PRO	597,PRO
598,GLN	598,GLN
599,PRO	599,PRO
600,ASN	600,ASN
601,PHE	604,PRO
602,PRO	601,PHE
603,SER	602,PRO
604,PRO	603,SER
605,GLU	605,GLU
606,TYR	606,TYR
607,MET	607,MET
608,ILE	608,ILE
609,PHE	609,PHE
610,ASP	610,ASP
611,HIS	611,HIS
612,GLU	612,GLU
613,PHE	613,PHE
614,THR	614,THR
615,LYS	615,LYS
616,LEU	616,LEU
617,VAL	617,VAL
618,LYS	618,LYS
619,GLU	619,GLU
620,LEU	620,LEU
621,GLU	621,GLU
622,GLY	622,GLY
623,VAL	623,VAL
624,ILE	624,ILE
625,THR	625,THR
626,LYS	626,LYS
627,ALA	627,ALA
628,ILE	628,ILE
629,TYR	629,TYR
630,LYS	-
631,SER	-
632,SER	-
633,GLU	-
634,GLU	-
635,ASP	-
636,LYS	-
637,LYS	-
638,GLU	-
639,GLU	-
640,GLU	-
641,VAL	-
642,LYS	-
643,LYS	-
644,THR	-
645,LEU	-
646,GLU	-
647,GLN	-
648,HIS	-
649,ASP	-
650,ASN	-
651,ILE	-
652,VAL	-
653,THR	-
654,HIS	-
655,TYR	-
656,LYS	-
657,ASN	-
658,MET	-
659,ILE	-
660,ARG	-
661,GLU	-
662,GLN	-
663,ASP	-
664,LEU	-
665,GLN	-
666,LEU	-
667,GLU	-
668,GLU	-
669,LEU	-
670,ARG	-
671,GLN	-
672,GLN	-
673,VAL	-
674,SER	-
675,THR	-
676,LEU	-
677,LYS	-
678,CYS	-
679,GLN	-
680,ASN	-
681,GLU	-
682,GLN	-
683,LEU	-
684,GLN	-
685,THR	-
686,ALA	-
687,VAL	-
688,THR	-
689,GLN	-
690,GLN	-
691,VAL	-
692,SER	-
693,GLN	-
694,ILE	-
695,GLN	-
696,GLN	-
697,HIS	-
698,LYS	-
699,ASP	-
700,GLN	-
701,TYR	-
702,ASN	-
703,LEU	-
704,LEU	-
705,LYS	-
706,ILE	-
707,GLN	-
708,LEU	-
709,GLY	-
710,LYS	-
711,ASP	-
712,ASN	-
713,GLN	-
714,HIS	-
715,GLN	-
716,GLY	-
717,SER	-
718,TYR	-
719,SER	-
720,GLU	-
721,GLY	-
722,ALA	-
723,GLN	-
724,MET	-
725,ASN	-
726,GLY	-
727,ILE	-
728,GLN	-
729,PRO	-
730,GLU	-
731,GLU	-
732,ILE	-
733,GLY	-
734,ARG	-
735,LEU	-
736,ARG	-
737,GLU	-
738,GLU	-
739,ILE	-
740,GLU	-
741,GLU	-
742,LEU	-
743,LYS	-
744,ARG	-
745,ASN	-
746,GLN	-
747,GLU	-
748,LEU	-
749,LEU	-
750,GLN	-
751,SER	-
752,GLN	-
753,LEU	-
754,THR	-
755,GLU	-
756,LYS	-
757,ASP	-
758,SER	-
759,MET	-
760,ILE	-
761,GLU	-
762,ASN	-
763,MET	-
764,LYS	-
765,SER	-
766,SER	-
767,GLN	-
768,THR	-
769,SER	-
770,GLY	-
771,THR	-
772,ASN	-
773,GLU	-
774,GLN	-
775,SER	-
776,SER	-
777,ALA	-
778,ILE	-
779,VAL	-
780,SER	-
781,ALA	-
782,ARG	-
783,ASP	-
784,SER	-
785,GLU	-
786,GLN	-
787,VAL	-
788,ALA	-
789,GLU	-
790,LEU	-
791,LYS	-
792,GLN	-
793,GLU	-
794,LEU	-
795,ALA	-
796,THR	-
797,LEU	-
798,LYS	-
799,SER	-
800,GLN	-
801,LEU	-
802,ASN	-
803,SER	-
804,GLN	-
805,SER	-
806,VAL	-
807,GLU	-
808,ILE	-
809,THR	-
810,LYS	-
811,LEU	-
812,GLN	-
813,THR	-
814,GLU	-
815,LYS	-
816,GLN	-
817,GLU	-
818,LEU	-
819,LEU	-
820,GLN	-
821,LYS	-
822,THR	-
823,GLU	-
824,ALA	-
825,PHE	-
826,ALA	-
827,LYS	-
828,SER	-
829,VAL	-
830,GLU	-
831,VAL	-
832,GLN	-
833,GLY	-
834,GLU	-
835,THR	-
836,GLU	-
837,THR	-
838,ILE	-
839,ILE	-
840,ALA	-
841,THR	-
842,LYS	-
843,THR	-
844,THR	-
845,ASP	-
846,VAL	-
847,GLU	-
848,GLY	-
849,ARG	-
850,LEU	-
851,SER	-
852,ALA	-
853,LEU	-
854,LEU	-
855,GLN	-
856,GLU	-
857,THR	-
858,LYS	-
859,GLU	-
860,LEU	-
861,LYS	-
862,ASN	-
863,GLU	-
864,ILE	-
865,LYS	-
866,ALA	-
867,LEU	-
868,SER	-
869,GLU	-
870,GLU	-
871,ARG	-
872,THR	-
873,ALA	-
874,ILE	-
875,LYS	-
876,GLU	-
877,GLN	-
878,LEU	-
879,ASP	-
880,SER	-
881,SER	-
882,ASN	-
883,SER	-
884,THR	-
885,ILE	-
886,ALA	-
887,ILE	-
888,LEU	-
889,GLN	-
890,THR	-
891,GLU	-
892,LYS	-
893,ASP	-
894,LYS	-
895,LEU	-
896,GLU	-
897,LEU	-
898,GLU	-
899,ILE	-
900,THR	-
901,ASP	-
902,SER	-
903,LYS	-
904,LYS	-
905,GLU	-
906,GLN	-
907,ASP	-
908,ASP	-
909,LEU	-
910,LEU	-
911,VAL	-
912,LEU	-
913,LEU	-
914,ALA	-
915,ASP	-
916,GLN	-
917,ASP	-
918,GLN	-
919,LYS	-
920,ILE	-
921,LEU	-
922,SER	-
923,LEU	-
924,LYS	-
925,ASN	-
926,LYS	-
927,LEU	-
928,LYS	-
929,ASP	-
930,LEU	-
931,GLY	-
932,HIS	-
933,PRO	-
934,VAL	-
935,GLU	-
936,GLU	-
937,GLU	-
938,ASP	-
939,GLU	-
940,LEU	-
941,GLU	-
942,SER	-
943,GLY	-
944,ASP	-
945,GLN	-
946,GLU	-
947,ASP	-
948,GLU	-
949,ASP	-
950,ASP	-
951,GLU	-
952,SER	-
953,GLU	-
954,ASP	-
955,PRO	-
956,GLY	-
957,LYS	-
958,ASP	-
959,LEU	-
960,ASP	-
961,HIS	-
962,ILE	-
