uniprot_isoform	location_id	ENSEMBL ID	uniprot_start	uniprot_end	3l6aA_start	3l6aA_end	3d3mA_start	3d3mA_end	3d3mB_start	3d3mB_end	4iulA_start	4iulA_end	4iulB_start	4iulB_end
1	11_10807295_10797819_-1	ENSE00003804702	1	14	-	-	-	-	-	-	-	-	-	-
1	11_10807295_10797819_-1	ENSE00003687058	14	36	-	-	-	-	-	-	-	-	-	-
1	11_10807295_10797819_-1	ENSE00003667558	36	83	-	-	-	-	-	-	-	83	-	83
1	11_10807295_10797819_-1	ENSE00003690813	83	117	-	-	-	-	-	-	83	117	83	117
1	11_10807295_10797819_-1	ENSE00003531025	118	161	-	-	-	-	-	-	118	161	118	161
1	11_10807295_10797819_-1	ENSE00003527127	162	184	-	-	-	-	-	-	162	184	162	184
1	11_10807295_10797819_-1	ENSE00003614449	184	234	-	-	-	-	-	-	184	234	184	234
1	11_10807295_10797819_-1	ENSE00001738872	235	271	-	-	-	-	-	-	235	271	235	271
1	11_10807295_10797819_-1	ENSE00003520867	272	299	-	-	-	-	-	-	272	299	272	299
1	11_10807295_10797819_-1	ENSE00003490839	300	332	-	-	-	-	-	-	300	-	300	-
1	11_10807295_10797819_-1	ENSE00003624787	333	380	-	-	-	-	-	-	-	-	-	-
1	11_10807295_10797819_-1	ENSE00001591309	380	433	-	-	-	-	-	-	-	-	-	-
1	11_10807295_10797819_-1	ENSE00001755026	434	471	-	-	-	-	-	-	-	-	-	-
1	11_10807295_10797819_-1	ENSE00003644073	472	513	-	-	-	-	-	-	-	-	-	-
1	11_10807295_10797819_-1	ENSE00003567431	514	548	-	11	-	-	-	-	-	-	-	-
1	11_10807295_10797819_-1	ENSE00003649388	549	620	12	83	-	-	-	-	-	-	-	-
1	11_10807295_10797819_-1	ENSE00000702669	621	707	84	170	-	-	-	-	-	-	-	-
1	11_10807295_10797819_-1	ENSE00003672663	707	775	170	238	-	775	-	775	-	-	-	-
1	11_10807295_10797819_-1	ENSE00003660146	775	846	238	309	775	846	775	846	-	-	-	-
1	11_10807295_10797819_-1	ENSE00003785564	846	886	309	349	846	886	846	886	-	-	-	-
1	11_10807295_10797819_-1	ENSE00003804487	887	907	350	-	887	-	887	-	-	-	-	-
