P46680	1pi6A	1pguA	1pguB
1,MET	1,MET	1,MET	1,MET
2,SER	2,SER	2,SER	2,SER
3,SER	3,SER	3,SER	3,SER
4,ILE	4,ILE	4,ILE	4,ILE
5,SER	5,SER	5,SER	5,SER
6,LEU	6,LEU	6,LEU	6,LEU
7,LYS	7,LYS	7,LYS	7,LYS
8,GLU	8,GLU	8,GLU	8,GLU
9,ILE	9,ILE	9,ILE	9,ILE
10,ILE	10,ILE	10,ILE	10,ILE
11,PRO	11,PRO	11,PRO	11,PRO
12,PRO	12,PRO	12,PRO	12,PRO
13,GLN	13,GLN	13,GLN	13,GLN
14,PRO	14,PRO	14,PRO	14,PRO
15,SER	15,SER	15,SER	15,SER
16,THR	16,THR	16,THR	16,THR
17,GLN	17,GLN	17,GLN	17,GLN
18,ARG	18,ARG	18,ARG	18,ARG
19,ASN	19,ASN	19,ASN	19,ASN
20,PHE	20,PHE	20,PHE	20,PHE
21,THR	21,THR	21,THR	21,THR
22,THR	22,THR	22,THR	22,THR
23,HIS	23,HIS	23,HIS	23,HIS
24,LEU	24,LEU	24,LEU	24,LEU
25,SER	25,SER	25,SER	25,SER
26,TYR	26,TYR	26,TYR	26,TYR
27,ASP	27,ASP	27,ASP	27,ASP
28,PRO	28,PRO	28,PRO	28,PRO
29,THR	29,THR	29,THR	29,THR
30,THR	30,THR	30,THR	30,THR
31,ASN	31,ASN	31,ASN	31,ASN
32,ALA	32,ALA	32,ALA	32,ALA
33,ILE	33,ILE	33,ILE	33,ILE
34,ALA	34,ALA	34,ALA	34,ALA
35,TYR	35,TYR	35,TYR	35,TYR
36,PRO	36,PRO	36,PRO	36,PRO
37,CYS	37,CYS	37,CYS	37,CYS
38,GLY	38,GLY	38,GLY	38,GLY
39,LYS	39,LYS	39,LYS	39,LYS
40,SER	40,SER	40,SER	40,SER
41,ALA	41,ALA	41,ALA	41,ALA
42,PHE	42,PHE	42,PHE	42,PHE
43,VAL	43,VAL	43,VAL	43,VAL
44,ARG	44,ARG	44,ARG	44,ARG
45,CYS	45,CYS	45,CYS	45,CYS
46,LEU	46,LEU	46,LEU	46,LEU
47,ASP	47,ASP	47,ASP	47,ASP
48,ASP	48,ASP	48,ASP	48,ASP
49,GLY	49,GLY	49,GLY	49,GLY
50,ASP	50,ASP	50,ASP	50,ASP
51,SER	51,SER	51,SER	51,SER
52,LYS	52,LYS	52,LYS	52,LYS
53,VAL	53,VAL	53,VAL	53,VAL
54,PRO	54,PRO	54,PRO	54,PRO
55,PRO	55,PRO	55,PRO	55,PRO
56,VAL	56,VAL	56,VAL	56,VAL
57,VAL	57,VAL	57,VAL	57,VAL
58,GLN	58,GLN	58,GLN	58,GLN
59,PHE	59,PHE	59,PHE	59,PHE
60,THR	60,THR	60,THR	60,THR
61,GLY	61,GLY	61,GLY	61,GLY
62,HIS	62,HIS	62,HIS	62,HIS
63,GLY	63,GLY	63,GLY	63,GLY
64,SER	64,SER	64,SER	64,SER
65,SER	65,SER	65,SER	65,SER
66,VAL	66,VAL	66,VAL	66,VAL
67,VAL	67,VAL	67,VAL	67,VAL
68,THR	68,THR	68,THR	68,THR
69,THR	69,THR	69,THR	69,THR
70,VAL	70,VAL	70,VAL	70,VAL
71,LYS	71,LYS	71,LYS	71,LYS
72,PHE	72,PHE	72,PHE	72,PHE
73,SER	73,SER	73,SER	73,SER
74,PRO	74,PRO	74,PRO	74,PRO
75,ILE	75,ILE	75,ILE	75,ILE
76,LYS	76,LYS	76,LYS	76,LYS
77,GLY	77,GLY	77,GLY	77,GLY
78,SER	78,SER	78,SER	78,SER
79,GLN	79,GLN	79,GLN	79,GLN
80,TYR	80,TYR	80,TYR	80,TYR
81,LEU	81,LEU	81,LEU	81,LEU
82,CYS	82,CYS	82,CYS	82,CYS
83,SER	83,SER	83,SER	83,SER
84,GLY	84,GLY	84,GLY	84,GLY
85,ASP	85,ASP	85,ASP	85,ASP
86,GLU	86,GLU	86,GLU	86,GLU
87,SER	87,SER	87,SER	87,SER
88,GLY	88,GLY	88,GLY	88,GLY
89,LYS	89,LYS	89,LYS	89,LYS
90,VAL	90,VAL	90,VAL	90,VAL
91,ILE	91,ILE	91,ILE	91,ILE
92,VAL	92,VAL	92,VAL	92,VAL
93,TRP	93,TRP	93,TRP	93,TRP
94,GLY	94,GLY	94,GLY	94,GLY
95,TRP	95,TRP	95,TRP	95,TRP
96,THR	96,THR	96,THR	96,THR
97,PHE	97,PHE	97,PHE	97,PHE
98,ASP	98,ASP	98,ASP	98,ASP
99,LYS	99,LYS	99,LYS	99,LYS
100,GLU	100,GLU	100,GLU	100,GLU
101,SER	101,SER	101,SER	101,SER
102,ASN	102,ASN	102,ASN	102,ASN
103,SER	103,SER	103,SER	103,SER
104,VAL	104,VAL	104,VAL	104,VAL
105,GLU	105,GLU	105,GLU	105,GLU
106,VAL	106,VAL	106,VAL	106,VAL
107,ASN	107,ASN	107,ASN	107,ASN
108,VAL	108,VAL	108,VAL	108,VAL
109,LYS	109,LYS	109,LYS	109,LYS
110,SER	110,SER	110,SER	110,SER
111,GLU	111,GLU	111,GLU	111,GLU
112,PHE	112,PHE	112,PHE	112,PHE
113,GLN	113,GLN	113,GLN	113,GLN
114,VAL	114,VAL	114,VAL	114,VAL
115,LEU	115,LEU	115,LEU	115,LEU
116,ALA	116,ALA	116,ALA	116,ALA
117,GLY	117,GLY	117,GLY	117,GLY
118,PRO	118,PRO	118,PRO	118,PRO
119,ILE	119,ILE	119,ILE	119,ILE
120,SER	120,SER	120,SER	120,SER
121,ASP	121,ASP	121,ASP	121,ASP
122,ILE	122,ILE	122,ILE	122,ILE
123,SER	123,SER	123,SER	123,SER
124,TRP	124,TRP	124,TRP	124,TRP
125,ASP	125,ASP	125,ASP	125,ASP
126,PHE	126,PHE	126,PHE	126,PHE
127,GLU	127,GLU	127,GLU	127,GLU
128,GLY	128,GLY	128,GLY	128,GLY
129,ARG	129,ARG	129,ARG	129,ARG
130,ARG	130,ARG	130,ARG	130,ARG
131,LEU	131,LEU	131,LEU	131,LEU
132,CYS	132,CYS	132,CYS	132,CYS
133,VAL	133,VAL	133,VAL	133,VAL
134,VAL	134,VAL	134,VAL	134,VAL
135,GLY	135,GLY	135,GLY	135,GLY
136,GLU	136,GLU	136,GLU	136,GLU
137,GLY	137,GLY	137,GLY	137,GLY
138,ARG	138,ARG	138,ARG	138,ARG
139,ASP	139,ASP	139,ASP	139,ASP
140,ASN	140,ASN	140,ASN	140,ASN
141,PHE	141,PHE	141,PHE	141,PHE
142,GLY	142,GLY	142,GLY	142,GLY
143,VAL	143,VAL	143,VAL	143,VAL
144,PHE	144,PHE	144,PHE	144,PHE
145,ILE	145,ILE	145,ILE	145,ILE
146,SER	146,SER	146,SER	146,SER
147,TRP	147,TRP	147,TRP	147,TRP
148,ASP	148,ASP	148,ASP	148,ASP
149,SER	149,SER	149,SER	149,SER
150,GLY	150,GLY	150,GLY	150,GLY
151,ASN	151,ASN	151,ASN	151,ASN
152,SER	152,SER	152,SER	152,SER
153,LEU	153,LEU	153,LEU	153,LEU
154,GLY	154,GLY	154,GLY	154,GLY
155,GLU	155,GLU	155,GLU	155,GLU
156,VAL	156,VAL	156,VAL	156,VAL
157,SER	157,SER	157,SER	157,SER
158,GLY	158,GLY	158,GLY	158,GLY
159,HIS	159,HIS	159,HIS	159,HIS
160,SER	160,SER	160,SER	160,SER
161,GLN	161,GLN	161,GLN	161,GLN
162,ARG	162,ARG	162,ARG	162,ARG
163,ILE	163,ILE	163,ILE	163,ILE
164,ASN	164,ASN	164,ASN	164,ASN
165,ALA	165,ALA	165,ALA	165,ALA
166,CYS	166,CYS	166,CYS	166,CYS
167,HIS	167,HIS	167,HIS	167,HIS
168,LEU	168,LEU	168,LEU	168,LEU
169,LYS	169,LYS	169,LYS	169,LYS
170,GLN	170,GLN	170,GLN	170,GLN
171,SER	171,SER	171,SER	171,SER
172,ARG	172,ARG	172,ARG	172,ARG
173,PRO	173,PRO	173,PRO	173,PRO
174,MET	174,MET	174,MSE	174,MSE
175,ARG	175,ARG	175,ARG	175,ARG
176,SER	176,SER	176,SER	176,SER
177,MET	177,MET	177,MSE	177,MSE
178,THR	178,THR	178,THR	178,THR
179,VAL	179,VAL	179,VAL	179,VAL
180,GLY	180,GLY	180,GLY	180,GLY
181,ASP	181,ASP	181,ASP	181,ASP
182,ASP	182,ASP	182,ASP	182,ASP
183,GLY	183,GLY	183,GLY	183,GLY
184,SER	184,SER	184,SER	184,SER
185,VAL	185,VAL	185,VAL	185,VAL
186,VAL	186,VAL	186,VAL	186,VAL
187,PHE	187,PHE	187,PHE	187,PHE
188,TYR	188,TYR	188,TYR	188,TYR
189,GLN	189,GLN	189,GLN	189,GLN
190,GLY	190,GLY	190,GLY	190,GLY
191,PRO	191,PRO	191,PRO	191,PRO
192,PRO	192,PRO	192,PRO	192,PRO
193,PHE	193,PHE	193,PHE	193,PHE
194,LYS	194,LYS	194,LYS	194,LYS
195,PHE	195,PHE	195,PHE	195,PHE
196,SER	196,SER	196,SER	196,SER
197,ALA	197,ALA	197,ALA	197,ALA
198,SER	198,SER	198,SER	198,SER
199,ASP	199,ASP	199,ASP	199,ASP
200,ARG	200,ARG	200,ARG	200,ARG
201,THR	201,THR	201,THR	201,THR
202,HIS	202,HIS	202,HIS	205,GLN
203,HIS	203,HIS	203,HIS	202,HIS
204,LYS	204,LYS	204,LYS	203,HIS
205,GLN	205,GLN	205,GLN	204,LYS
206,GLY	206,GLY	206,GLY	206,GLY
207,SER	207,SER	207,SER	207,SER
208,PHE	208,PHE	208,PHE	208,PHE
209,VAL	209,VAL	209,VAL	209,VAL
210,ARG	210,ARG	210,ARG	210,ARG
211,ASP	211,ASP	211,ASP	211,ASP
212,VAL	212,VAL	212,VAL	212,VAL
213,GLU	213,GLU	213,GLU	213,GLU
214,PHE	214,PHE	214,PHE	214,PHE
215,SER	215,SER	215,SER	215,SER
216,PRO	216,PRO	216,PRO	216,PRO
217,ASP	217,ASP	217,ASP	217,ASP
218,SER	218,SER	218,SER	218,SER
219,GLY	219,GLY	219,GLY	219,GLY
220,GLU	220,GLU	220,GLU	220,GLU
221,PHE	221,PHE	221,PHE	221,PHE
222,VAL	222,VAL	222,VAL	222,VAL
223,ILE	223,ILE	223,ILE	223,ILE
224,THR	224,THR	224,THR	224,THR
225,VAL	225,VAL	225,VAL	225,VAL
226,GLY	226,GLY	226,GLY	226,GLY
227,SER	227,SER	227,SER	227,SER
228,ASP	228,ASP	228,ASP	228,ASP
229,ARG	229,ARG	229,ARG	229,ARG
230,LYS	230,LYS	230,LYS	230,LYS
231,ILE	231,ILE	231,ILE	231,ILE
232,SER	232,SER	232,SER	232,SER
233,CYS	233,CYS	233,CYS	233,CYS
234,PHE	234,PHE	234,PHE	234,PHE
235,ASP	235,ASP	235,ASP	235,ASP
236,GLY	236,GLY	236,GLY	236,GLY
237,LYS	237,LYS	237,LYS	237,LYS
238,SER	238,SER	238,SER	238,SER
239,GLY	239,GLY	239,GLY	239,GLY
240,GLU	240,GLU	240,GLU	240,GLU
241,PHE	241,PHE	241,PHE	241,PHE
242,LEU	242,LEU	242,LEU	242,LEU
243,LYS	243,LYS	243,LYS	243,LYS
244,TYR	244,TYR	244,TYR	244,TYR
245,ILE	245,ILE	245,ILE	245,ILE
246,GLU	246,GLU	246,GLU	246,GLU
247,ASP	247,ASP	247,ASP	247,ASP
248,ASP	248,ASP	248,ASP	248,ASP
249,GLN	249,GLN	249,GLN	249,GLN
250,GLU	250,GLU	250,GLU	250,GLU
251,PRO	251,PRO	251,PRO	251,PRO
252,VAL	252,VAL	252,VAL	252,VAL
253,GLN	253,GLN	253,GLN	253,GLN
254,GLY	254,GLY	254,GLY	254,GLY
255,GLY	255,GLY	255,GLY	255,GLY
256,ILE	256,ILE	256,ILE	256,ILE
257,PHE	257,PHE	257,PHE	257,PHE
258,ALA	258,ALA	258,ALA	258,ALA
259,LEU	259,LEU	259,LEU	259,LEU
260,SER	260,SER	260,SER	260,SER
261,TRP	261,TRP	261,TRP	261,TRP
262,LEU	262,LEU	262,LEU	262,LEU
263,ASP	263,ASP	263,ASP	263,ASP
264,SER	264,SER	264,SER	264,SER
265,GLN	265,GLN	265,GLN	265,GLN
266,LYS	266,LYS	266,LYS	266,LYS
267,PHE	267,PHE	267,PHE	267,PHE
268,ALA	268,ALA	268,ALA	268,ALA
269,THR	269,THR	269,THR	269,THR
270,VAL	270,VAL	270,VAL	270,VAL
271,GLY	271,GLY	271,GLY	271,GLY
272,ALA	272,ALA	272,ALA	272,ALA
273,ASP	273,ASP	273,ASP	273,ASP
274,ALA	274,ALA	274,ALA	274,ALA
275,THR	275,THR	275,THR	275,THR
276,ILE	276,ILE	276,ILE	276,ILE
277,ARG	277,ARG	277,ARG	277,ARG
278,VAL	278,VAL	278,VAL	278,VAL
279,TRP	279,TRP	279,TRP	279,TRP
280,ASP	280,ASP	280,ASP	280,ASP
281,VAL	281,VAL	281,VAL	281,VAL
282,THR	282,THR	282,THR	282,THR
283,THR	283,THR	283,THR	283,THR
284,SER	284,SER	284,SER	284,SER
285,LYS	285,LYS	285,LYS	285,LYS
286,CYS	286,CYS	286,CYS	286,CYS
287,VAL	287,VAL	287,VAL	287,VAL
288,GLN	288,GLN	288,GLN	288,GLN
289,LYS	289,LYS	289,LYS	289,LYS
290,TRP	290,TRP	290,TRP	290,TRP
291,THR	291,THR	291,THR	291,THR
292,LEU	292,LEU	292,LEU	292,LEU
293,ASP	293,ASP	293,ASP	293,ASP
294,LYS	294,LYS	294,LYS	294,LYS
295,GLN	295,GLN	295,GLN	295,GLN
296,GLN	296,GLN	296,GLN	296,GLN
297,LEU	297,LEU	297,LEU	297,LEU
298,GLY	298,GLY	298,GLY	298,GLY
299,ASN	299,ASN	302,VAL	299,ASN
300,GLN	300,GLN	299,ASN	300,GLN
301,GLN	301,GLN	300,GLN	301,GLN
302,VAL	302,VAL	301,GLN	302,VAL
303,GLY	303,GLY	303,GLY	303,GLY
304,VAL	304,VAL	304,VAL	304,VAL
305,VAL	305,VAL	305,VAL	305,VAL
306,ALA	306,ALA	306,ALA	306,ALA
307,THR	307,THR	307,THR	307,THR
308,GLY	308,GLY	308,GLY	308,GLY
309,ASN	309,ASN	309,ASN	309,ASN
310,GLY	310,GLY	310,GLY	310,GLY
311,ARG	311,ARG	311,ARG	311,ARG
312,ILE	312,ILE	312,ILE	312,ILE
313,ILE	313,ILE	313,ILE	313,ILE
314,SER	314,SER	314,SER	314,SER
315,LEU	315,LEU	315,LEU	315,LEU
316,SER	316,SER	316,SER	316,SER
317,LEU	317,LEU	317,LEU	317,LEU
318,ASP	318,ASP	318,ASP	318,ASP
319,GLY	319,GLY	319,GLY	319,GLY
320,THR	320,THR	320,THR	320,THR
321,LEU	321,LEU	321,LEU	321,LEU
322,ASN	322,ASN	322,ASN	322,ASN
323,PHE	323,PHE	323,PHE	323,PHE
324,TYR	324,TYR	324,TYR	324,TYR
325,GLU	325,GLU	325,GLU	325,GLU
326,LEU	326,LEU	326,LEU	326,LEU
327,GLY	327,GLY	327,GLY	327,GLY
328,HIS	328,HIS	328,HIS	328,HIS
329,ASP	329,ASP	329,ASP	329,ASP
330,GLU	330,GLU	330,GLU	330,GLU
331,VAL	331,VAL	331,VAL	331,VAL
332,LEU	332,LEU	332,LEU	332,LEU
333,LYS	333,LYS	333,LYS	333,LYS
334,THR	334,THR	334,THR	334,THR
335,ILE	335,ILE	335,ILE	335,ILE
336,SER	336,SER	336,SER	336,SER
337,GLY	337,GLY	337,GLY	337,GLY
338,HIS	338,HIS	338,HIS	338,HIS
339,ASN	339,ASN	339,ASN	339,ASN
340,LYS	340,LYS	340,LYS	340,LYS
341,GLY	341,GLY	341,GLY	341,GLY
342,ILE	342,ILE	342,ILE	342,ILE
343,THR	343,THR	343,THR	343,THR
344,ALA	344,ALA	344,ALA	344,ALA
345,LEU	345,LEU	345,LEU	345,LEU
346,THR	346,THR	346,THR	346,THR
347,VAL	347,VAL	347,VAL	347,VAL
348,ASN	348,ASN	348,ASN	348,ASN
349,PRO	349,PRO	349,PRO	349,PRO
350,LEU	350,LEU	350,LEU	350,LEU
351,ILE	351,ILE	351,ILE	351,ILE
352,SER	352,SER	352,SER	352,SER
353,GLY	353,GLY	353,GLY	353,GLY
354,SER	354,SER	354,SER	354,SER
355,TYR	355,TYR	355,TYR	355,TYR
356,ASP	356,ASP	356,ASP	356,ASP
357,GLY	357,GLY	357,GLY	357,GLY
358,ARG	358,ARG	358,ARG	358,ARG
359,ILE	359,ILE	359,ILE	359,ILE
360,MET	360,MET	360,MSE	360,MSE
361,GLU	361,GLU	361,GLU	361,GLU
362,TRP	362,TRP	362,TRP	362,TRP
363,SER	363,SER	363,SER	363,SER
364,SER	364,SER	364,SER	364,SER
365,SER	365,SER	365,SER	365,SER
366,SER	366,SER	366,SER	366,SER
367,MET	367,MET	367,MSE	367,MSE
368,HIS	368,HIS	368,HIS	368,HIS
369,GLN	369,GLN	369,GLN	369,GLN
370,ASP	370,ASP	370,ASP	370,ASP
371,HIS	371,HIS	371,HIS	371,HIS
372,SER	372,SER	372,SER	372,SER
373,ASN	373,ASN	373,ASN	373,ASN
374,LEU	374,LEU	374,LEU	374,LEU
375,ILE	375,ILE	375,ILE	375,ILE
376,VAL	376,VAL	376,VAL	376,VAL
377,SER	377,SER	377,SER	377,SER
378,LEU	378,LEU	378,LEU	378,LEU
379,ASP	379,ASP	379,ASP	379,ASP
380,ASN	380,ASN	380,ASN	380,ASN
381,SER	381,SER	381,SER	381,SER
382,LYS	382,LYS	382,LYS	382,LYS
383,ALA	383,ALA	383,ALA	383,ALA
384,GLN	384,GLN	384,GLN	384,GLN
385,GLU	385,GLU	385,GLU	385,GLU
386,TYR	386,TYR	386,TYR	386,TYR
387,SER	387,SER	387,SER	387,SER
388,SER	388,SER	388,SER	388,SER
389,ILE	389,ILE	389,ILE	389,ILE
390,SER	390,SER	390,SER	390,SER
391,TRP	391,TRP	391,TRP	391,TRP
392,ASP	392,ASP	392,ASP	392,ASP
393,ASP	393,ASP	393,ASP	393,ASP
394,THR	394,THR	394,THR	394,THR
395,LEU	395,LEU	395,LEU	395,LEU
396,LYS	396,LYS	396,LYS	396,LYS
397,VAL	397,VAL	397,VAL	397,VAL
398,ASN	398,ASN	398,ASN	398,ASN
399,GLY	399,GLY	399,GLY	399,GLY
400,ILE	400,ILE	400,ILE	400,ILE
401,THR	401,THR	401,THR	401,THR
402,LYS	402,LYS	402,LYS	402,LYS
403,HIS	403,HIS	403,HIS	403,HIS
404,GLU	404,GLU	404,GLU	404,GLU
405,PHE	405,PHE	405,PHE	405,PHE
406,GLY	406,GLY	406,GLY	406,GLY
407,SER	407,SER	407,SER	407,SER
408,GLN	408,GLN	408,GLN	408,GLN
409,PRO	409,PRO	409,PRO	409,PRO
410,LYS	410,LYS	410,LYS	410,LYS
411,VAL	411,VAL	411,VAL	411,VAL
412,ALA	412,ALA	412,ALA	412,ALA
413,SER	413,SER	413,SER	413,SER
414,ALA	414,ALA	414,ALA	414,ALA
415,ASN	415,ASN	415,ASN	415,ASN
416,ASN	416,ASN	416,ASN	416,ASN
417,ASP	417,ASP	417,ASP	417,ASP
418,GLY	418,GLY	418,GLY	418,GLY
419,PHE	419,PHE	419,PHE	419,PHE
420,THR	420,THR	420,THR	420,THR
421,ALA	421,ALA	421,ALA	421,ALA
422,VAL	422,VAL	422,VAL	422,VAL
423,LEU	423,LEU	423,LEU	423,LEU
424,THR	424,THR	424,THR	424,THR
425,ASN	425,ASN	425,ASN	425,ASN
426,ASP	426,ASP	426,ASP	426,ASP
427,ASP	427,ASP	427,ASP	427,ASP
428,ASP	428,ASP	428,ASP	428,ASP
429,LEU	429,LEU	429,LEU	429,LEU
430,LEU	430,LEU	430,LEU	430,LEU
431,ILE	431,ILE	431,ILE	431,ILE
432,LEU	432,LEU	432,LEU	432,LEU
433,GLN	433,GLN	433,GLN	433,GLN
434,SER	434,SER	434,SER	434,SER
435,PHE	435,PHE	435,PHE	435,PHE
436,THR	436,THR	436,THR	436,THR
437,GLY	437,GLY	437,GLY	437,GLY
438,ASP	438,ASP	438,ASP	438,ASP
439,ILE	439,ILE	439,ILE	439,ILE
440,ILE	440,ILE	440,ILE	440,ILE
441,LYS	441,LYS	441,LYS	441,LYS
442,SER	442,SER	442,SER	442,SER
443,VAL	443,VAL	443,VAL	443,VAL
444,ARG	444,ARG	444,ARG	444,ARG
445,LEU	445,LEU	445,LEU	445,LEU
446,ASN	446,ASN	446,ASN	446,ASN
447,SER	447,SER	447,SER	447,SER
448,PRO	448,PRO	448,PRO	448,PRO
449,GLY	449,GLY	449,GLY	449,GLY
450,SER	450,SER	450,SER	450,SER
451,ALA	451,ALA	451,ALA	451,ALA
452,VAL	452,VAL	452,VAL	452,VAL
453,SER	453,SER	453,SER	453,SER
454,LEU	454,LEU	454,LEU	454,LEU
455,SER	455,SER	455,SER	455,SER
456,GLN	456,GLN	456,GLN	456,GLN
457,ASN	457,ASN	457,ASN	457,ASN
458,TYR	458,TYR	458,TYR	458,TYR
459,VAL	459,VAL	459,VAL	459,VAL
460,ALA	460,ALA	460,ALA	460,ALA
461,VAL	461,VAL	461,VAL	461,VAL
462,GLY	462,GLY	462,GLY	462,GLY
463,LEU	463,LEU	463,LEU	463,LEU
464,GLU	464,GLU	464,GLU	464,GLU
465,GLU	465,GLU	465,GLU	465,GLU
466,GLY	466,GLY	466,GLY	466,GLY
467,ASN	467,ASN	467,ASN	467,ASN
468,THR	468,THR	468,THR	468,THR
469,ILE	469,ILE	469,ILE	469,ILE
470,GLN	470,GLN	470,GLN	470,GLN
471,VAL	471,VAL	471,VAL	471,VAL
472,PHE	472,PHE	472,PHE	472,PHE
473,LYS	473,LYS	473,LYS	473,LYS
474,LEU	474,LEU	474,LEU	474,LEU
475,SER	475,SER	475,SER	475,SER
476,ASP	476,ASP	476,ASP	476,ASP
477,LEU	477,LEU	477,LEU	477,LEU
478,GLU	478,GLU	478,GLU	478,GLU
479,VAL	479,VAL	479,VAL	479,VAL
480,SER	480,SER	480,SER	480,SER
481,PHE	481,PHE	481,PHE	481,PHE
482,ASP	482,ASP	482,ASP	482,ASP
483,LEU	483,LEU	483,LEU	483,LEU
484,LYS	484,LYS	484,LYS	484,LYS
485,THR	485,THR	485,THR	485,THR
486,PRO	486,PRO	486,PRO	486,PRO
487,LEU	487,LEU	487,LEU	487,LEU
488,ARG	488,ARG	488,ARG	488,ARG
489,ALA	489,ALA	489,ALA	489,ALA
490,LYS	490,LYS	490,LYS	490,LYS
491,PRO	491,PRO	491,PRO	491,PRO
492,SER	492,SER	492,SER	492,SER
493,TYR	493,TYR	493,TYR	493,TYR
494,ILE	494,ILE	494,ILE	494,ILE
495,SER	495,SER	495,SER	495,SER
496,ILE	496,ILE	496,ILE	496,ILE
497,SER	497,SER	497,SER	497,SER
498,PRO	498,PRO	498,PRO	498,PRO
499,SER	499,SER	499,SER	499,SER
500,GLU	500,GLU	500,GLU	500,GLU
501,THR	501,THR	501,THR	501,THR
502,TYR	502,TYR	502,TYR	502,TYR
503,ILE	503,ILE	503,ILE	503,ILE
504,ALA	504,ALA	504,ALA	504,ALA
505,ALA	505,ALA	505,ALA	505,ALA
506,GLY	506,GLY	506,GLY	506,GLY
507,ASP	507,ASP	507,ASP	507,ASP
508,VAL	508,VAL	508,VAL	508,VAL
509,MET	509,MET	509,MSE	509,MSE
510,GLY	510,GLY	510,GLY	510,GLY
511,LYS	511,LYS	511,LYS	511,LYS
512,ILE	512,ILE	512,ILE	512,ILE
513,LEU	513,LEU	513,LEU	513,LEU
514,LEU	514,LEU	514,LEU	514,LEU
515,TYR	515,TYR	515,TYR	515,TYR
516,ASP	516,ASP	516,ASP	516,ASP
517,LEU	517,LEU	517,LEU	517,LEU
518,GLN	518,GLN	518,GLN	518,GLN
519,SER	519,SER	519,SER	519,SER
520,ARG	520,ARG	520,ARG	520,ARG
521,GLU	521,GLU	521,GLU	521,GLU
522,VAL	522,VAL	522,VAL	522,VAL
523,LYS	523,LYS	523,LYS	523,LYS
524,THR	524,THR	524,THR	524,THR
525,SER	525,SER	525,SER	525,SER
526,ARG	526,ARG	526,ARG	526,ARG
527,TRP	527,TRP	527,TRP	527,TRP
528,ALA	528,ALA	528,ALA	528,ALA
529,PHE	529,PHE	529,PHE	529,PHE
530,HIS	530,ARG	530,ARG	530,ARG
531,THR	531,THR	531,THR	531,THR
532,SER	532,SER	532,SER	532,SER
533,LYS	533,LYS	533,LYS	533,LYS
534,ILE	534,ILE	534,ILE	534,ILE
535,ASN	535,ASN	535,ASN	535,ASN
536,ALA	536,ALA	536,ALA	536,ALA
537,ILE	537,ILE	537,ILE	537,ILE
538,SER	538,SER	538,SER	538,SER
539,TRP	539,TRP	539,TRP	539,TRP
540,LYS	540,LYS	540,LYS	540,LYS
541,PRO	541,PRO	541,PRO	541,PRO
542,ALA	542,ALA	542,ALA	542,ALA
543,GLU	543,GLU	543,GLU	543,GLU
544,LYS	544,LYS	544,LYS	544,LYS
545,GLY	545,GLY	545,GLY	545,GLY
546,ALA	546,ALA	546,ALA	546,ALA
547,ASN	547,ASN	547,ASN	547,ASN
548,GLU	548,GLU	548,GLU	548,GLU
549,GLU	549,GLU	549,GLU	549,GLU
550,GLU	550,GLU	550,GLU	550,GLU
551,ILE	551,ILE	551,ILE	551,ILE
552,GLU	552,GLU	552,GLU	552,GLU
553,GLU	553,GLU	553,GLU	553,GLU
554,ASP	554,ASP	554,ASP	554,ASP
555,LEU	555,LEU	555,LEU	555,LEU
556,VAL	556,VAL	556,VAL	556,VAL
557,ALA	557,ALA	557,ALA	557,ALA
558,THR	558,THR	558,THR	558,THR
559,GLY	559,GLY	559,GLY	559,GLY
560,SER	560,SER	560,SER	560,SER
561,LEU	561,LEU	561,LEU	561,LEU
562,ASP	562,ASP	562,ASP	562,ASP
563,THR	563,THR	563,THR	563,THR
564,ASN	564,ASN	564,ASN	564,ASN
565,ILE	565,ILE	565,ILE	565,ILE
566,PHE	566,PHE	566,PHE	566,PHE
567,ILE	567,ILE	567,ILE	567,ILE
568,TYR	568,TYR	568,TYR	568,TYR
569,SER	569,SER	569,SER	569,SER
570,VAL	570,VAL	570,VAL	570,VAL
571,LYS	571,LYS	571,LYS	571,LYS
572,ARG	572,ARG	572,ARG	572,ARG
573,PRO	573,PRO	573,PRO	573,PRO
574,MET	574,MET	574,MSE	574,MSE
575,LYS	575,LYS	575,LYS	575,LYS
576,ILE	576,ILE	576,ILE	576,ILE
577,ILE	577,ILE	577,ILE	577,ILE
578,LYS	578,LYS	578,LYS	578,LYS
579,ALA	579,ALA	579,ALA	579,ALA
580,LEU	580,LEU	580,LEU	580,LEU
581,ASN	581,ASN	581,ASN	581,ASN
582,ALA	582,ALA	582,ALA	582,ALA
583,HIS	583,HIS	583,HIS	583,HIS
584,LYS	584,LYS	584,LYS	584,LYS
585,ASP	585,ASP	585,ASP	585,ASP
586,GLY	586,GLY	586,GLY	586,GLY
587,VAL	587,VAL	587,VAL	587,VAL
588,ASN	588,ASN	588,ASN	588,ASN
589,ASN	589,ASN	589,ASN	589,ASN
590,LEU	590,LEU	590,LEU	590,LEU
591,LEU	591,LEU	591,LEU	591,LEU
592,TRP	592,TRP	592,TRP	592,TRP
593,GLU	593,GLU	593,GLU	593,GLU
594,THR	594,THR	594,THR	594,THR
595,PRO	595,PRO	595,PRO	595,PRO
596,SER	596,SER	596,SER	596,SER
597,THR	597,THR	597,THR	597,THR
598,LEU	598,LEU	598,LEU	598,LEU
599,VAL	599,VAL	599,VAL	599,VAL
600,SER	600,SER	600,SER	600,SER
601,SER	601,SER	601,SER	601,SER
602,GLY	602,GLY	602,GLY	602,GLY
603,ALA	603,ALA	603,ALA	603,ALA
604,ASP	604,ASP	604,ASP	604,ASP
605,ALA	605,ALA	605,ALA	605,ALA
606,CYS	606,CYS	606,CYS	606,CYS
607,ILE	607,ILE	607,ILE	607,ILE
608,LYS	608,LYS	608,LYS	608,LYS
609,ARG	609,ARG	609,ARG	609,ARG
610,TRP	610,TRP	610,TRP	610,TRP
611,ASN	611,ASN	611,ASN	611,ASN
612,VAL	612,VAL	612,VAL	612,VAL
613,VAL	613,VAL	613,VAL	613,VAL
614,LEU	614,LEU	614,LEU	614,LEU
615,GLU	615,GLU	615,GLU	615,GLU
