uniprot_isoform	location_id	ENSEMBL ID	uniprot_start	uniprot_end	1g3nB_start	1g3nB_end	1bu9A_start	1bu9A_end	1mx2B_start	1mx2B_end	1mx2A_start	1mx2A_end	1mx6A_start	1mx6A_end	1mx6B_start	1mx6B_end	1mx4A_start	1mx4A_end	1mx4B_start	1mx4B_end	1ihbA_start	1ihbA_end	1ihbB_start	1ihbB_end
1	1_50970369_50974267_1	ENSE00001064516	1	43	1	43	1	43	1	43	1	43	1	43	1	43	1	43	1	43	1	43	1	43
1	1_50970369_50974267_1	ENSE00001064515	44	168	44	168	44	168	44	168	44	168	44	168	44	168	44	168	44	168	44	-	44	-
2	1_50970369_50974267_1	ENSE00001064516	1	43	1	43	1	43	1	43	1	43	1	43	1	43	1	43	1	43	1	43	1	43
2	1_50970369_50974267_1	ENSE00001064515	44	168	44	168	44	168	44	168	44	168	44	168	44	168	44	168	44	168	44	-	44	-
3	1_50970369_50974267_1	ENSE00001456052	1	43	1	43	1	43	1	43	1	43	1	43	1	43	1	43	1	43	1	43	1	43
3	1_50970369_50974267_1	ENSE00001456048	44	168	44	168	44	168	44	168	44	168	44	168	44	168	44	168	44	168	44	-	44	-
