P42773	1g3nB	1bu9A	1mx2B	1mx2A	1mx6A	1mx6B	1mx4A	1mx4B	1ihbA	1ihbB
1,MET	1,MET	1,MET	1,MET	1,MET	1,MET	1,MET	1,MET	1,MET	1,MET	1,MET
2,ALA	2,ALA	2,ALA	2,ALA	2,ALA	2,ALA	2,ALA	2,ALA	2,ALA	2,ALA	2,ALA
3,GLU	3,GLU	3,GLU	3,GLU	3,GLU	3,GLU	3,GLU	3,GLU	3,GLU	3,GLU	3,GLU
4,PRO	4,PRO	4,PRO	4,PRO	4,PRO	4,PRO	4,PRO	4,PRO	4,PRO	4,PRO	4,PRO
5,TRP	5,TRP	5,TRP	5,TRP	5,TRP	5,TRP	5,TRP	5,TRP	5,TRP	5,TRP	5,TRP
6,GLY	6,GLY	6,GLY	6,GLY	6,GLY	6,GLY	6,GLY	6,GLY	6,GLY	6,GLY	6,GLY
7,ASN	7,ASN	7,ASN	7,ASN	7,ASN	7,ASN	7,ASN	7,ASN	7,ASN	7,ASN	7,ASN
8,GLU	8,GLU	8,GLU	8,GLU	8,GLU	8,GLU	8,GLU	8,GLU	8,GLU	8,GLU	8,GLU
9,LEU	9,LEU	9,LEU	9,LEU	9,LEU	9,LEU	9,LEU	9,LEU	9,LEU	9,LEU	9,LEU
10,ALA	10,ALA	10,ALA	10,ALA	10,ALA	10,ALA	10,ALA	10,ALA	10,ALA	10,ALA	10,ALA
11,SER	11,SER	11,SER	11,SER	11,SER	11,SER	11,SER	11,SER	11,SER	11,SER	11,SER
12,ALA	12,ALA	12,ALA	12,ALA	12,ALA	12,ALA	12,ALA	12,ALA	12,ALA	12,ALA	12,ALA
13,ALA	13,ALA	13,ALA	13,ALA	13,ALA	13,ALA	13,ALA	13,ALA	13,ALA	13,ALA	13,ALA
14,ALA	14,ALA	14,ALA	14,ALA	14,ALA	14,ALA	14,ALA	14,ALA	14,ALA	14,ALA	14,ALA
15,ARG	15,ARG	15,ARG	15,ARG	15,ARG	15,ARG	15,ARG	15,ARG	15,ARG	15,ARG	15,ARG
16,GLY	16,GLY	16,GLY	16,GLY	16,GLY	16,GLY	16,GLY	16,GLY	16,GLY	16,GLY	16,GLY
17,ASP	17,ASP	17,ASP	17,ASP	17,ASP	17,ASP	17,ASP	17,ASP	17,ASP	17,ASP	17,ASP
18,LEU	18,LEU	18,LEU	18,LEU	18,LEU	18,LEU	18,LEU	18,LEU	18,LEU	18,LEU	18,LEU
19,GLU	19,GLU	19,GLU	19,GLU	19,GLU	19,GLU	19,GLU	19,GLU	19,GLU	19,GLU	19,GLU
20,GLN	20,GLN	20,GLN	20,GLN	20,GLN	20,GLN	20,GLN	20,GLN	20,GLN	20,GLN	20,GLN
21,LEU	21,LEU	21,LEU	21,LEU	21,LEU	21,LEU	21,LEU	21,LEU	21,LEU	21,LEU	21,LEU
22,THR	22,THR	22,THR	22,THR	22,THR	22,THR	22,THR	22,THR	22,THR	22,THR	22,THR
23,SER	23,SER	23,SER	23,SER	23,SER	23,SER	23,SER	23,SER	23,SER	23,SER	23,SER
24,LEU	24,LEU	24,LEU	24,LEU	24,LEU	24,LEU	24,LEU	24,LEU	24,LEU	24,LEU	24,LEU
25,LEU	25,LEU	25,LEU	28,ASN	25,LEU	25,LEU	25,LEU	25,LEU	25,LEU	25,LEU	25,LEU
26,GLN	26,GLN	26,GLN	25,LEU	26,GLN	26,GLN	26,GLN	26,GLN	26,GLN	26,GLN	26,GLN
27,ASN	27,ASN	27,ASN	26,GLN	27,ASN	27,ASN	27,ASN	27,ASN	27,ASN	27,ASN	27,ASN
28,ASN	28,ASN	28,ASN	27,ASN	28,ASN	28,ASN	28,ASN	28,ASN	28,ASN	28,ASN	28,ASN
29,VAL	29,VAL	29,VAL	29,VAL	29,VAL	29,VAL	29,VAL	29,VAL	29,VAL	29,VAL	29,VAL
30,ASN	30,ASN	30,ASN	30,ASN	30,ASN	30,ASN	30,ASN	30,ASN	30,ASN	30,ASN	30,ASN
31,VAL	31,VAL	31,VAL	31,VAL	31,VAL	31,VAL	31,VAL	31,VAL	31,VAL	31,VAL	31,VAL
32,ASN	32,ASN	32,ASN	32,ASN	32,ASN	32,ASN	32,ASN	32,ASN	32,ASN	32,ASN	32,ASN
33,ALA	33,ALA	33,ALA	33,ALA	33,ALA	33,ALA	33,ALA	33,ALA	33,ALA	33,ALA	33,ALA
34,GLN	34,GLN	34,GLN	34,GLN	34,GLN	34,GLN	34,GLN	34,GLN	34,GLN	34,GLN	34,GLN
35,ASN	35,ASN	35,ASN	35,ASN	35,ASN	35,ASN	35,ASN	35,ASN	35,ASN	35,ASN	35,ASN
36,GLY	36,GLY	36,GLY	36,GLY	36,GLY	36,GLY	36,GLY	36,GLY	36,GLY	36,GLY	36,GLY
37,PHE	37,PHE	37,PHE	37,PHE	37,PHE	37,PHE	37,PHE	37,PHE	37,PHE	37,PHE	37,PHE
38,GLY	38,GLY	38,GLY	38,GLY	38,GLY	38,GLY	38,GLY	38,GLY	38,GLY	38,GLY	38,GLY
39,ARG	39,ARG	39,ARG	39,ARG	39,ARG	39,ARG	39,ARG	39,ARG	39,ARG	39,ARG	39,ARG
40,THR	40,THR	40,THR	40,THR	40,THR	40,THR	40,THR	40,THR	40,THR	40,THR	40,THR
41,ALA	41,ALA	41,ALA	41,ALA	41,ALA	41,ALA	41,ALA	41,ALA	41,ALA	41,ALA	41,ALA
42,LEU	42,LEU	42,LEU	42,LEU	42,LEU	42,LEU	42,LEU	42,LEU	42,LEU	42,LEU	42,LEU
43,GLN	43,GLN	43,GLN	43,GLN	43,GLN	43,GLN	43,GLN	43,GLN	43,GLN	43,GLN	43,GLN
44,VAL	44,VAL	44,VAL	44,VAL	44,VAL	44,VAL	44,VAL	44,VAL	44,VAL	44,VAL	44,VAL
45,MET	45,MET	45,MET	45,MET	45,MET	45,MET	45,MET	45,MET	45,MET	45,MET	45,MET
46,LYS	46,LYS	46,LYS	46,LYS	46,LYS	46,LYS	46,LYS	46,LYS	46,LYS	46,LYS	46,LYS
47,LEU	47,LEU	47,LEU	47,LEU	47,LEU	47,LEU	47,LEU	47,LEU	47,LEU	47,LEU	47,LEU
48,GLY	48,GLY	48,GLY	48,GLY	48,GLY	48,GLY	48,GLY	48,GLY	48,GLY	48,GLY	48,GLY
49,ASN	49,ASN	49,ASN	49,ASN	49,ASN	49,ASN	49,ASN	49,ASN	49,ASN	49,ASN	49,ASN
50,PRO	50,PRO	50,PRO	50,PRO	50,PRO	50,PRO	50,PRO	50,PRO	50,PRO	50,PRO	50,PRO
51,GLU	51,GLU	51,GLU	51,GLU	51,GLU	51,GLU	51,GLU	51,GLU	51,GLU	51,GLU	51,GLU
52,ILE	52,ILE	52,ILE	52,ILE	52,ILE	52,ILE	52,ILE	52,ILE	52,ILE	52,ILE	52,ILE
53,ALA	53,ALA	53,ALA	53,ALA	53,ALA	53,ALA	53,ALA	53,ALA	53,ALA	53,ALA	53,ALA
54,ARG	54,ARG	54,ARG	54,ARG	54,ARG	54,ARG	54,ARG	54,ARG	54,ARG	54,ARG	54,ARG
55,ARG	55,ARG	55,ARG	55,ARG	55,ARG	55,ARG	55,ARG	55,ARG	55,ARG	55,ARG	55,ARG
56,LEU	56,LEU	56,LEU	56,LEU	56,LEU	56,LEU	56,LEU	56,LEU	56,LEU	56,LEU	56,LEU
57,LEU	57,LEU	57,LEU	57,LEU	57,LEU	57,LEU	57,LEU	57,LEU	57,LEU	57,LEU	57,LEU
58,LEU	58,LEU	58,LEU	58,LEU	58,LEU	58,LEU	58,LEU	58,LEU	58,LEU	58,LEU	58,LEU
59,ARG	59,ARG	59,ARG	59,ARG	59,ARG	59,ARG	59,ARG	59,ARG	59,ARG	59,ARG	59,ARG
60,GLY	60,GLY	60,GLY	60,GLY	60,GLY	60,GLY	60,GLY	60,GLY	60,GLY	60,GLY	60,GLY
61,ALA	61,ALA	61,ALA	61,ALA	61,ALA	61,ALA	61,ALA	61,ALA	61,ALA	61,ALA	61,ALA
62,ASN	62,ASN	62,ASN	62,ASN	62,ASN	62,ASN	62,ASN	62,ASN	62,ASN	62,ASN	62,ASN
63,PRO	63,PRO	63,PRO	63,PRO	63,PRO	63,PRO	63,PRO	63,PRO	63,PRO	63,PRO	63,PRO
64,ASP	64,ASP	64,ASP	64,ASP	64,ASP	64,ASP	64,ASP	64,ASP	64,ASP	64,ASP	64,ASP
65,LEU	65,LEU	65,LEU	65,LEU	65,LEU	65,LEU	65,LEU	65,LEU	65,LEU	65,LEU	65,LEU
66,LYS	66,LYS	66,LYS	66,LYS	66,LYS	66,LYS	66,LYS	66,LYS	66,LYS	66,LYS	66,LYS
67,ASP	67,ASP	67,ASP	67,ASP	67,ASP	67,ASP	67,ASP	67,ASP	67,ASP	67,ASP	67,ASP
68,ARG	68,ARG	68,ARG	68,ARG	68,ARG	68,ARG	68,ARG	68,ARG	68,ARG	68,ARG	68,ARG
69,THR	69,THR	69,THR	69,THR	69,THR	69,THR	69,THR	69,THR	69,THR	69,THR	69,THR
70,GLY	70,GLY	70,GLY	70,GLY	70,GLY	70,GLY	70,GLY	70,GLY	70,GLY	70,GLY	70,GLY
71,PHE	71,PHE	71,PHE	71,ASN	71,ASN	71,PHE	71,PHE	71,PHE	71,PHE	71,PHE	71,PHE
72,ALA	72,ALA	72,ALA	72,ALA	72,ALA	72,ALA	72,ALA	72,ALA	72,ALA	72,ALA	72,ALA
73,VAL	73,VAL	73,VAL	73,VAL	73,VAL	73,VAL	73,VAL	73,VAL	73,VAL	73,VAL	73,VAL
74,ILE	74,ILE	74,ILE	74,ILE	74,ILE	74,ILE	74,ILE	74,ILE	74,ILE	74,ILE	74,ILE
75,HIS	75,HIS	75,HIS	75,HIS	75,HIS	75,HIS	75,HIS	75,HIS	75,HIS	75,HIS	75,HIS
76,ASP	76,ASP	76,ASP	76,ASP	76,ASP	76,ASP	76,ASP	76,ASP	76,ASP	76,ASP	76,ASP
77,ALA	77,ALA	77,ALA	77,ALA	77,ALA	77,ALA	80,ALA	77,ALA	77,ALA	77,ALA	77,ALA
78,ALA	78,ALA	78,ALA	78,ALA	78,ALA	78,ALA	77,ALA	78,ALA	78,ALA	78,ALA	78,ALA
79,ARG	79,ARG	79,ARG	79,ARG	79,ARG	79,ARG	78,ALA	79,ARG	79,ARG	79,ARG	79,ARG
80,ALA	80,ALA	80,ALA	80,ALA	80,ALA	80,ALA	79,ARG	80,ALA	80,ALA	80,ALA	80,ALA
81,GLY	81,GLY	81,GLY	81,GLY	81,GLY	81,GLY	81,GLY	81,GLY	81,GLY	81,GLY	81,GLY
82,PHE	82,PHE	82,PHE	82,PHE	82,PHE	82,PHE	82,PHE	82,GLN	82,GLN	82,PHE	82,PHE
83,LEU	83,LEU	83,LEU	83,LEU	83,LEU	83,LEU	83,LEU	83,LEU	83,LEU	83,LEU	83,LEU
84,ASP	84,ASP	84,ASP	84,ASP	84,ASP	84,ASP	84,ASP	84,ASP	84,ASP	84,ASP	84,ASP
85,THR	85,THR	85,THR	85,THR	85,THR	85,THR	85,THR	85,THR	85,THR	85,THR	85,THR
86,LEU	86,LEU	86,LEU	86,LEU	86,LEU	86,LEU	86,LEU	86,LEU	86,LEU	86,LEU	86,LEU
87,GLN	87,GLN	87,GLN	87,GLN	87,GLN	87,GLN	87,GLN	87,GLN	87,GLN	87,GLN	87,GLN
88,THR	88,THR	88,THR	88,THR	88,THR	88,THR	88,THR	88,THR	88,THR	88,THR	88,THR
89,LEU	89,LEU	89,LEU	89,LEU	89,LEU	89,LEU	89,LEU	89,LEU	89,LEU	89,LEU	89,LEU
90,LEU	90,LEU	90,LEU	90,LEU	90,LEU	90,LEU	90,LEU	90,LEU	90,LEU	90,LEU	90,LEU
91,GLU	91,GLU	91,GLU	91,GLU	91,GLU	91,GLU	91,GLU	91,GLU	91,GLU	91,GLU	91,GLU
92,PHE	92,PHE	92,PHE	92,PHE	92,PHE	92,ASN	92,ASN	92,PHE	92,PHE	92,PHE	92,PHE
93,GLN	93,GLN	93,GLN	93,GLN	93,GLN	93,GLN	93,GLN	93,GLN	93,GLN	93,GLN	93,GLN
94,ALA	94,ALA	94,ALA	94,ALA	94,ALA	94,ALA	94,ALA	94,ALA	94,ALA	94,ALA	94,ALA
95,ASP	95,ASP	95,ASP	95,ASP	95,ASP	95,ASP	98,ILE	95,ASP	95,ASP	95,ASP	95,ASP
96,VAL	96,VAL	96,VAL	96,VAL	96,VAL	96,VAL	95,ASP	96,VAL	96,VAL	96,VAL	96,VAL
97,ASN	97,ASN	97,ASN	97,ASN	97,ASN	97,ASN	96,VAL	97,ASN	97,ASN	97,ASN	97,ASN
98,ILE	98,ILE	98,ILE	98,ILE	98,ILE	98,ILE	97,ASN	98,ILE	98,ILE	98,ILE	98,ILE
99,GLU	99,GLU	99,GLU	99,GLU	99,GLU	99,GLU	99,GLU	99,GLU	99,GLU	99,GLU	99,GLU
100,ASP	100,ASP	100,ASP	100,ASP	100,ASP	100,ASP	100,ASP	100,ASP	100,ASP	100,ASP	100,ASP
101,ASN	101,ASN	101,ASN	101,ASN	101,ASN	101,ASN	101,ASN	101,ASN	101,ASN	101,ASN	101,ASN
102,GLU	102,GLU	102,GLU	102,GLU	102,GLU	102,GLU	102,GLU	102,GLU	102,GLU	102,GLU	102,GLU
103,GLY	103,GLY	103,GLY	103,GLY	103,GLY	103,GLY	103,GLY	103,GLY	103,GLY	103,GLY	103,GLY
104,ASN	104,ASN	104,ASN	104,ASN	104,ASN	104,ASN	104,ASN	104,ASN	104,ASN	104,ASN	104,ASN
105,LEU	105,LEU	105,LEU	105,LEU	105,LEU	105,LEU	105,LEU	105,LEU	105,LEU	105,LEU	105,LEU
106,PRO	106,PRO	106,PRO	106,PRO	106,PRO	106,PRO	106,PRO	106,PRO	106,PRO	106,PRO	106,PRO
107,LEU	107,LEU	107,LEU	107,LEU	107,LEU	107,LEU	107,LEU	107,LEU	107,LEU	107,LEU	107,LEU
108,HIS	108,HIS	108,HIS	108,HIS	108,HIS	108,HIS	108,HIS	108,HIS	108,HIS	108,HIS	108,HIS
109,LEU	109,LEU	109,LEU	109,LEU	109,LEU	109,LEU	109,LEU	109,LEU	109,LEU	109,LEU	109,LEU
110,ALA	110,ALA	110,ALA	110,ALA	110,ALA	110,ALA	110,ALA	110,ALA	110,ALA	110,ALA	110,ALA
111,ALA	111,ALA	111,ALA	111,ALA	111,ALA	111,ALA	111,ALA	111,ALA	111,ALA	111,ALA	111,ALA
112,LYS	112,LYS	112,LYS	112,LYS	112,LYS	112,LYS	112,LYS	112,LYS	112,LYS	112,LYS	112,LYS
113,GLU	113,GLU	113,GLU	113,GLU	113,GLU	113,GLU	113,GLU	113,GLU	113,GLU	113,GLU	113,GLU
114,GLY	114,GLY	114,GLY	114,GLY	114,GLY	114,GLY	114,GLY	114,GLY	114,GLY	114,GLY	114,GLY
115,HIS	115,HIS	115,HIS	115,HIS	115,HIS	115,HIS	115,HIS	115,HIS	115,HIS	115,HIS	115,HIS
116,LEU	116,LEU	116,LEU	116,LEU	116,LEU	116,LEU	116,LEU	116,LEU	116,LEU	116,LEU	116,LEU
117,ARG	117,ARG	117,ARG	117,ARG	117,ARG	117,ARG	117,ARG	117,ARG	117,ARG	117,ARG	117,ARG
118,VAL	118,VAL	118,VAL	118,VAL	118,VAL	118,VAL	118,VAL	118,VAL	118,VAL	118,VAL	118,VAL
119,VAL	119,VAL	119,VAL	119,VAL	119,VAL	119,VAL	119,VAL	119,VAL	119,VAL	119,VAL	119,VAL
120,GLU	120,GLU	120,GLU	120,GLU	120,GLU	120,GLU	120,GLU	120,GLU	120,GLU	120,GLU	120,GLU
121,PHE	121,PHE	121,PHE	121,PHE	121,PHE	121,PHE	121,PHE	121,PHE	121,PHE	121,PHE	121,PHE
122,LEU	122,LEU	122,LEU	122,LEU	122,LEU	122,LEU	122,LEU	122,LEU	122,LEU	122,LEU	122,LEU
123,VAL	123,VAL	123,VAL	123,VAL	123,VAL	123,VAL	123,VAL	123,VAL	123,VAL	123,VAL	123,VAL
124,LYS	124,LYS	124,LYS	124,LYS	124,LYS	124,LYS	124,LYS	124,LYS	124,LYS	124,LYS	124,LYS
125,HIS	125,HIS	125,HIS	125,HIS	125,HIS	125,HIS	125,HIS	125,HIS	125,HIS	125,HIS	125,HIS
126,THR	126,THR	126,THR	126,THR	126,THR	126,THR	126,THR	126,THR	126,THR	126,THR	126,THR
127,ALA	127,ALA	127,ALA	127,ALA	127,ALA	127,ALA	127,ALA	127,ALA	127,ALA	127,ALA	127,ALA
128,SER	128,SER	128,SER	128,SER	128,SER	128,SER	128,SER	128,SER	128,SER	128,SER	128,SER
129,ASN	129,ASN	129,ASN	129,ASN	129,ASN	129,ASN	129,ASN	129,ASN	129,ASN	129,ASN	129,ASN
130,VAL	130,VAL	130,VAL	130,VAL	130,VAL	130,VAL	130,VAL	130,VAL	130,VAL	130,VAL	130,VAL
131,GLY	131,GLY	131,GLY	131,GLY	131,GLY	131,GLY	131,GLY	131,GLY	131,GLY	131,GLY	131,GLY
132,HIS	132,HIS	132,HIS	132,HIS	132,HIS	132,HIS	132,HIS	132,HIS	132,HIS	132,HIS	132,HIS
133,ARG	133,ARG	133,ARG	133,ARG	133,ARG	133,ARG	133,ARG	133,ARG	133,ARG	133,ARG	133,ARG
134,ASN	134,ASN	134,ASN	134,ASN	134,ASN	134,ASN	134,ASN	134,ASN	134,ASN	134,ASN	134,ASN
135,HIS	135,HIS	135,HIS	135,HIS	135,HIS	135,HIS	135,HIS	135,HIS	135,HIS	135,HIS	135,HIS
136,LYS	136,LYS	136,LYS	136,LYS	136,LYS	136,LYS	136,LYS	136,LYS	136,LYS	136,LYS	136,LYS
137,GLY	137,GLY	137,GLY	137,GLY	137,GLY	137,GLY	137,GLY	137,GLY	137,GLY	137,GLY	137,GLY
138,ASP	138,ASP	138,ASP	138,ASP	138,ASP	138,ASP	138,ASP	138,ASP	138,ASP	138,ASP	138,ASP
139,THR	139,THR	139,THR	139,THR	139,THR	139,THR	139,THR	139,THR	139,THR	139,THR	139,THR
140,ALA	140,ALA	140,ALA	140,ALA	140,ALA	140,ALA	140,ALA	140,ALA	140,ALA	140,ALA	140,ALA
141,CYS	141,CYS	141,CYS	141,CYS	141,CYS	141,CYS	141,CYS	141,CYS	141,CYS	141,CYS	141,CYS
142,ASP	142,ASP	142,ASP	142,ASP	142,ASP	142,ASP	142,ASP	142,ASP	142,ASP	142,ASP	142,ASP
143,LEU	143,LEU	143,LEU	143,LEU	143,LEU	143,LEU	143,LEU	143,LEU	143,LEU	143,LEU	143,LEU
144,ALA	144,ALA	144,ALA	144,ALA	144,ALA	144,ALA	144,ALA	144,ALA	144,ALA	144,ALA	144,ALA
145,ARG	145,ARG	145,ARG	145,ARG	145,ARG	145,ARG	145,ARG	145,ARG	145,ARG	145,ARG	145,ARG
146,LEU	146,LEU	146,LEU	146,LEU	146,LEU	146,LEU	146,LEU	146,LEU	146,LEU	146,LEU	146,LEU
147,TYR	147,TYR	147,TYR	147,TYR	147,TYR	147,TYR	147,TYR	147,TYR	147,TYR	147,TYR	147,TYR
148,GLY	148,GLY	148,GLY	148,GLY	148,GLY	148,GLY	148,GLY	148,GLY	148,GLY	148,GLY	148,GLY
149,ARG	149,ARG	149,ARG	149,ARG	149,ARG	149,ARG	149,ARG	149,ARG	149,ARG	149,ARG	149,ARG
150,ASN	150,ASN	150,ASN	150,ASN	150,ASN	150,ASN	150,ASN	150,ASN	150,ASN	150,ASN	150,ASN
151,GLU	151,GLU	151,GLU	151,GLU	151,GLU	151,GLU	151,GLU	151,GLU	151,GLU	151,GLU	151,GLU
152,VAL	152,VAL	152,VAL	152,VAL	152,VAL	152,VAL	152,VAL	152,VAL	152,VAL	152,VAL	152,VAL
153,VAL	153,VAL	153,VAL	153,VAL	153,VAL	153,VAL	153,VAL	153,VAL	153,VAL	153,VAL	153,VAL
154,SER	154,SER	154,SER	154,SER	154,SER	154,SER	154,SER	154,SER	154,SER	154,SER	154,SER
155,LEU	155,LEU	155,LEU	155,LEU	155,LEU	155,LEU	155,LEU	155,LEU	155,LEU	155,LEU	155,LEU
156,MET	156,MET	156,MET	156,MET	156,MET	156,MET	156,MET	156,MET	156,MET	156,MET	156,MET
157,GLN	157,GLN	157,GLN	157,GLN	157,GLN	157,GLN	157,GLN	157,GLN	157,GLN	157,GLN	157,GLN
158,ALA	158,ALA	158,ALA	158,ALA	158,ALA	158,ALA	158,ALA	158,ALA	158,ALA	158,ALA	158,ALA
159,ASN	159,ASN	159,ASN	159,ASN	159,ASN	159,ASN	159,ASN	159,ASN	159,ASN	159,ASN	159,ASN
160,GLY	160,GLY	160,GLY	160,GLY	160,GLY	160,GLY	160,GLY	160,GLY	160,GLY	160,GLY	160,GLY
161,ALA	161,ALA	161,ALA	161,ALA	161,ALA	161,ALA	161,ALA	161,ALA	161,ALA	161,ALA	161,ALA
162,GLY	162,GLY	162,GLY	162,GLY	162,GLY	162,GLY	162,GLY	162,GLY	162,GLY	162,GLY	162,GLY
163,GLY	163,GLY	163,GLY	163,GLY	163,GLY	163,GLY	163,GLY	163,GLY	163,GLY	-	-
164,ALA	164,ALA	164,ALA	164,ALA	164,ALA	164,ALA	164,ALA	164,ALA	164,ALA	-	-
165,THR	165,THR	165,THR	165,THR	165,THR	165,THR	165,THR	165,THR	165,THR	-	-
166,ASN	166,ASN	166,ASN	166,ASN	166,ASN	166,ASN	166,ASN	166,ASN	166,ASN	-	-
167,LEU	167,LEU	167,LEU	167,LEU	167,LEU	167,LEU	167,LEU	167,LEU	167,LEU	-	-
168,GLN	168,GLN	168,GLN	168,GLN	168,GLN	168,GLN	168,GLN	168,GLN	168,GLN	-	-
