uniprot_isoform	location_id	ENSEMBL ID	uniprot_start	uniprot_end	3nbzA_start	3nbzA_end	3nbzD_start	3nbzD_end	3nc0A_start	3nc0A_end	3nc0D_start	3nc0D_end
1	11_23261841_23296104_1	ENSMUSE00001306011	1	42	1	42	1	42	1	42	1	42
1	11_23261841_23296104_1	ENSMUSE00000401139	43	76	43	76	43	76	43	76	43	76
1	11_23261841_23296104_1	ENSMUSE00001209747	77	101	77	101	77	101	77	101	77	101
1	11_23261841_23296104_1	ENSMUSE00001237027	101	121	101	121	101	121	101	121	101	121
1	11_23261841_23296104_1	ENSMUSE00001273757	122	136	122	136	122	136	122	136	122	136
1	11_23261841_23296104_1	ENSMUSE00001301119	137	197	137	197	137	197	137	197	137	197
1	11_23261841_23296104_1	ENSMUSE00001262068	197	213	197	213	197	213	197	213	197	213
1	11_23261841_23296104_1	ENSMUSE00001215797	214	253	214	253	214	253	214	253	214	253
1	11_23261841_23296104_1	ENSMUSE00001211825	254	296	254	296	254	296	254	296	254	296
1	11_23261841_23296104_1	ENSMUSE00001240962	297	349	297	349	297	349	297	349	297	349
1	11_23261841_23296104_1	ENSMUSE00001281949	350	415	350	415	350	415	350	415	350	415
1	11_23261841_23296104_1	ENSMUSE00000386981	416	462	416	462	416	462	416	461	416	462
1	11_23261841_23296104_1	ENSMUSE00000103135	462	522	462	522	462	522	461	522	462	522
1	11_23261841_23296104_1	ENSMUSE00000103142	523	575	523	575	523	575	523	575	523	575
1	11_23261841_23296104_1	ENSMUSE00000103129	575	629	575	629	575	629	575	629	575	629
1	11_23261841_23296104_1	ENSMUSE00000103125	630	674	630	674	630	674	630	674	630	674
1	11_23261841_23296104_1	ENSMUSE00000103139	675	736	675	736	675	736	675	736	675	736
1	11_23261841_23296104_1	ENSMUSE00001371776	736	771	736	771	736	771	736	771	736	771
1	11_23261841_23296104_1	ENSMUSE00000103169	772	836	772	836	772	836	772	835	772	836
1	11_23261841_23296104_1	ENSMUSE00000103133	837	893	837	893	837	893	836	893	837	893
1	11_23261841_23296104_1	ENSMUSE00000103146	893	938	893	938	893	938	893	938	893	938
1	11_23261841_23296104_1	ENSMUSE00000103158	938	991	938	991	938	991	938	991	938	991
1	11_23261841_23296104_1	ENSMUSE00000271950	991	1023	991	1023	991	1023	991	1023	991	1023
1	11_23261841_23296104_1	ENSMUSE00000389994	1024	1071	1024	1071	1024	1071	1024	1071	1024	1071
2	11_23261841_23296104_1	ENSMUSE00001306011	1	42	1	42	1	42	1	42	1	42
2	11_23261841_23296104_1	ENSMUSE00000401139	43	76	43	76	43	76	43	76	43	76
2	11_23261841_23296104_1	ENSMUSE00001209747	77	101	77	101	77	101	77	101	77	101
2	11_23261841_23296104_1	ENSMUSE00001237027	101	121	101	121	101	121	101	121	101	121
2	11_23261841_23296104_1	ENSMUSE00001273757	122	136	122	136	122	136	122	136	122	136
2	11_23261841_23296104_1	ENSMUSE00001301119	137	197	137	197	137	197	137	197	137	197
2	11_23261841_23296104_1	ENSMUSE00001262068	197	213	197	213	197	213	197	213	197	213
2	11_23261841_23296104_1	ENSMUSE00001215797	214	253	214	253	214	253	214	253	214	253
2	11_23261841_23296104_1	ENSMUSE00001211825	254	296	254	296	254	296	254	296	254	296
2	11_23261841_23296104_1	ENSMUSE00001240962	297	349	297	349	297	349	297	349	297	349
2	11_23261841_23296104_1	ENSMUSE00001281949	350	415	350	415	350	415	350	415	350	415
2	11_23261841_23296104_1	ENSMUSE00000386981	416	462	416	462	416	462	416	461	416	462
2	11_23261841_23296104_1	ENSMUSE00000103135	462	522	462	522	462	522	461	522	462	522
2	11_23261841_23296104_1	ENSMUSE00000103142	523	575	523	575	523	575	523	575	523	575
2	11_23261841_23296104_1	ENSMUSE00000103129	575	629	575	629	575	629	575	629	575	629
2	11_23261841_23296104_1	ENSMUSE00000103125	630	674	630	674	630	674	630	674	630	674
2	11_23261841_23296104_1	ENSMUSE00000103139	675	736	675	736	675	736	675	736	675	736
2	11_23261841_23296104_1	ENSMUSE00001371776	736	771	736	771	736	771	736	771	736	771
2	11_23261841_23296104_1	ENSMUSE00000103169	772	836	772	836	772	836	772	835	772	836
2	11_23261841_23296104_1	ENSMUSE00000103133	837	893	837	893	837	893	836	893	837	893
2	11_23261841_23296104_1	ENSMUSE00000103146	893	938	893	938	893	938	893	938	893	938
2	11_23261841_23296104_1	ENSMUSE00000103158	938	991	938	991	938	991	938	991	938	991
2	11_23261841_23296104_1	ENSMUSE00000271950	991	1023	991	1023	991	1023	991	1023	991	1023
2	11_23261841_23296104_1	ENSMUSE00000389994	1024	1071	1024	1071	1024	1071	1024	1071	1024	1071
3	11_23261841_23296104_1	ENSMUSE00001306011	1	42	1	42	1	42	1	42	1	42
3	11_23261841_23296104_1	ENSMUSE00000401139	43	76	43	76	43	76	43	76	43	76
3	11_23261841_23296104_1	ENSMUSE00001209747	77	101	77	101	77	101	77	101	77	101
3	11_23261841_23296104_1	ENSMUSE00001237027	101	121	101	121	101	121	101	121	101	121
3	11_23261841_23296104_1	ENSMUSE00001273757	122	136	122	136	122	136	122	136	122	136
3	11_23261841_23296104_1	ENSMUSE00001301119	137	197	137	197	137	197	137	197	137	197
3	11_23261841_23296104_1	ENSMUSE00001262068	197	213	197	213	197	213	197	213	197	213
3	11_23261841_23296104_1	ENSMUSE00001215797	214	253	214	253	214	253	214	253	214	253
3	11_23261841_23296104_1	ENSMUSE00001211825	254	296	254	296	254	296	254	296	254	296
3	11_23261841_23296104_1	ENSMUSE00001240962	297	349	297	349	297	349	297	349	297	349
3	11_23261841_23296104_1	ENSMUSE00001281949	350	415	350	415	350	415	350	415	350	415
3	11_23261841_23296104_1	ENSMUSE00000386981	416	462	416	462	416	462	416	461	416	462
3	11_23261841_23296104_1	ENSMUSE00000103135	462	522	462	522	462	522	461	522	462	522
3	11_23261841_23296104_1	ENSMUSE00000103142	523	575	523	575	523	575	523	575	523	575
3	11_23261841_23296104_1	ENSMUSE00000103129	575	629	575	629	575	629	575	629	575	629
3	11_23261841_23296104_1	ENSMUSE00000103125	630	674	630	674	630	674	630	674	630	674
3	11_23261841_23296104_1	ENSMUSE00000103139	675	736	675	736	675	736	675	736	675	736
3	11_23261841_23296104_1	ENSMUSE00001371776	736	771	736	771	736	771	736	771	736	771
3	11_23261841_23296104_1	ENSMUSE00000103169	772	836	772	836	772	836	772	835	772	836
3	11_23261841_23296104_1	ENSMUSE00000103133	837	893	837	893	837	893	836	893	837	893
3	11_23261841_23296104_1	ENSMUSE00000103146	893	938	893	938	893	938	893	938	893	938
3	11_23261841_23296104_1	ENSMUSE00000103158	938	991	938	991	938	991	938	991	938	991
3	11_23261841_23296104_1	ENSMUSE00000271950	991	1023	991	1023	991	1023	991	1023	991	1023
3	11_23261841_23296104_1	ENSMUSE00000662859	1024	1071	1024	1071	1024	1071	1024	1071	1024	1071
4	11_23261841_23296104_1	ENSMUSE00001306011	1	42	1	42	1	42	1	42	1	42
4	11_23261841_23296104_1	ENSMUSE00000401139	43	76	43	76	43	76	43	76	43	76
4	11_23261841_23296104_1	ENSMUSE00001209747	77	101	77	101	77	101	77	101	77	101
4	11_23261841_23296104_1	ENSMUSE00001237027	101	121	101	121	101	121	101	121	101	121
4	11_23261841_23296104_1	ENSMUSE00001273757	122	136	122	136	122	136	122	136	122	136
4	11_23261841_23296104_1	ENSMUSE00001301119	137	197	137	197	137	197	137	197	137	197
4	11_23261841_23296104_1	ENSMUSE00001262068	197	213	197	213	197	213	197	213	197	213
4	11_23261841_23296104_1	ENSMUSE00001215797	214	253	214	253	214	253	214	253	214	253
4	11_23261841_23296104_1	ENSMUSE00001211825	254	296	254	296	254	296	254	296	254	296
4	11_23261841_23296104_1	ENSMUSE00001240962	297	349	297	349	297	349	297	349	297	349
4	11_23261841_23296104_1	ENSMUSE00001281949	350	415	350	415	350	415	350	415	350	415
4	11_23261841_23296104_1	ENSMUSE00000386981	416	462	416	462	416	462	416	461	416	462
4	11_23261841_23296104_1	ENSMUSE00000103135	462	522	462	522	462	522	461	522	462	522
4	11_23261841_23296104_1	ENSMUSE00000103142	523	575	523	575	523	575	523	575	523	575
4	11_23261841_23296104_1	ENSMUSE00000103129	575	629	575	629	575	629	575	629	575	629
4	11_23261841_23296104_1	ENSMUSE00000103125	630	674	630	674	630	674	630	674	630	674
4	11_23261841_23296104_1	ENSMUSE00000103139	675	736	675	736	675	736	675	736	675	736
4	11_23261841_23296104_1	ENSMUSE00001371776	736	771	736	771	736	771	736	771	736	771
4	11_23261841_23296104_1	ENSMUSE00000103169	772	836	772	836	772	836	772	835	772	836
4	11_23261841_23296104_1	ENSMUSE00000103133	837	893	837	893	837	893	836	893	837	893
4	11_23261841_23296104_1	ENSMUSE00000103146	893	938	893	938	893	938	893	938	893	938
4	11_23261841_23296104_1	ENSMUSE00000103158	938	991	938	991	938	991	938	991	938	991
4	11_23261841_23296104_1	ENSMUSE00000271950	991	1023	991	1023	991	1023	991	1023	991	1023
4	11_23261841_23296104_1	ENSMUSE00000662857	1024	1071	1024	1071	1024	1071	1024	1071	1024	1071
