uniprot_isoform	location_id	ENSEMBL ID	uniprot_start	uniprot_end	3os5A_start	3os5A_end	3m59A_start	3m59A_end	3m58A_start	3m58A_end	3m57A_start	3m57A_end	3m56A_start	3m56A_end	3m55A_start	3m55A_end	3m54A_start	3m54A_end	3m53A_start	3m53A_end	3cbmA_start	3cbmA_end	3cboA_start	3cboA_end	1o9sB_start	1o9sB_end	1o9sA_start	1o9sA_end	5yltA_start	5yltA_end	1h3iA_start	1h3iA_end	1h3iB_start	1h3iB_end	5eg2A_start	5eg2A_end	4e47A_start	4e47A_end	4e47C_start	4e47C_end	4e47B_start	4e47B_end	4e47D_start	4e47D_end	4j83A_start	4j83A_end	3vv0A_start	3vv0A_end	4jlgA_start	4jlgA_end	4jlgB_start	4jlgB_end	1mufA_start	1mufA_end	4j7iA_start	4j7iA_end	3vuzA_start	3vuzA_end	1mt6A_start	1mt6A_end	2f69A_start	2f69A_end	4j7fA_start	4j7fA_end	3m5aA_start	3m5aA_end	4j8oA_start	4j8oA_end	3cbpA_start	3cbpA_end	1n6cA_start	1n6cA_end	4jdsD_start	4jdsD_end	4jdsA_start	4jdsA_end	4jdsC_start	4jdsC_end	4jdsB_start	4jdsB_end	1n6aA_start	1n6aA_end	5ayfA_start	5ayfA_end	1xqhA_start	1xqhA_end
1	4_139556137_139511666_-1	ENSE00001831410	1	14	-	-	-	-	-	-	-	-	-	-	-	-	-	-	-	-	-	-	-	-	-	-	-	-	-	-	-	-	-	-	-	-	-	-	-	-	-	-	-	-	-	-	-	-	-	-	-	-	-	-	-	-	-	-	-	-	-	-	-	-	-	-	-	-	-	-	-	-	-	-	-	-	-	-	-	-	-	-	-	-	-	-
1	4_139556137_139511666_-1	ENSE00003569499	14	57	-	-	-	-	-	-	-	-	-	-	-	-	-	-	-	-	-	-	-	-	-	-	-	-	-	-	-	57	-	57	-	-	-	-	-	-	-	-	-	-	-	-	-	-	-	-	-	-	-	-	-	-	-	-	-	-	-	-	-	-	-	-	-	-	-	-	-	-	-	-	-	-	-	-	-	-	-	-	-	-	-	-
1	4_139556137_139511666_-1	ENSE00001643989	57	124	-	124	-	124	-	124	-	124	-	124	-	124	-	124	-	124	-	124	-	124	-	124	-	124	-	124	57	124	57	124	-	124	-	124	-	124	-	124	-	124	-	124	-	124	-	124	-	124	-	124	-	124	-	124	-	124	-	124	-	124	-	124	-	124	-	124	-	124	-	124	-	124	-	124	-	124	-	124	-	124	-	124
1	4_139556137_139511666_-1	ENSE00001671090	125	188	125	188	125	188	125	188	125	188	125	188	125	188	125	188	125	188	125	188	125	188	125	188	125	188	125	188	125	188	125	188	125	188	125	188	125	188	125	188	125	188	125	188	125	188	128	188	125	188	125	188	125	188	125	188	125	188	125	188	125	188	125	188	125	188	125	188	125	188	125	188	125	188	125	188	125	188	125	188	125	188	125	188
1	4_139556137_139511666_-1	ENSE00001802218	188	215	188	215	188	215	188	215	188	215	188	215	188	215	188	215	188	215	188	215	188	215	188	215	188	215	188	215	188	215	188	215	188	215	188	215	188	215	188	215	188	215	188	215	188	215	188	215	188	215	188	215	188	215	188	215	188	215	188	215	188	215	188	215	188	215	188	215	188	215	188	215	188	215	188	215	188	215	188	215	188	215	188	215
1	4_139556137_139511666_-1	ENSE00001663487	215	254	215	254	215	254	215	254	215	254	215	254	215	254	215	254	215	254	215	254	215	254	215	254	215	254	215	254	215	254	215	254	215	254	215	254	215	254	215	254	215	254	215	254	215	254	215	254	215	254	215	254	215	254	215	254	215	254	215	254	215	254	215	254	215	254	215	254	215	254	215	254	215	254	215	254	215	254	215	254	215	254	215	254
1	4_139556137_139511666_-1	ENSE00003674982	255	307	255	307	255	307	255	307	255	307	255	306	255	307	255	307	255	307	255	307	255	307	255	307	255	307	255	307	255	307	255	307	255	307	255	307	255	307	255	307	255	307	255	307	255	307	255	307	255	307	255	307	255	307	255	307	255	307	255	307	255	307	255	307	255	307	255	307	255	307	255	307	255	307	255	307	255	307	255	307	255	307	255	307
1	4_139556137_139511666_-1	ENSE00001192306	307	366	307	366	307	366	307	366	307	366	306	366	307	366	307	366	307	366	307	366	307	366	307	366	307	366	307	366	307	-	307	-	307	366	307	366	307	366	307	366	307	366	307	366	307	366	307	366	307	366	307	-	307	366	307	366	307	-	307	366	307	366	307	366	307	366	307	366	307	366	307	366	307	366	307	366	307	366	307	366	307	366	307	366
