uniprot_isoform	location_id	ENSEMBL ID	uniprot_start	uniprot_end	1ldkA_start	1ldkA_end	1ldkB_start	1ldkB_end	1ldjA_start	1ldjA_end	4f52C_start	4f52C_end	4f52A_start	4f52A_end	3rtrA_start	3rtrA_end	3rtrC_start	3rtrC_end	3rtrE_start	3rtrE_end	3rtrG_start	3rtrG_end	1u6gA_start	1u6gA_end	3tduD_start	3tduD_end	3tduC_start	3tduC_end	3tdzD_start	3tdzD_end	4p5oA_start	4p5oA_end
1	7_148730123_148800579_1	ENSE00000909624	1	47	-	47	-	-	-	47	-	-	-	-	-	-	-	-	-	-	-	-	1	47	-	-	-	-	-	-	-	-
1	7_148730123_148800579_1	ENSE00000872301	47	105	47	105	-	-	47	105	-	-	-	-	-	-	-	-	-	-	-	-	47	105	-	-	-	-	-	-	-	-
1	7_148730123_148800579_1	ENSE00000729482	106	161	106	161	-	-	106	161	-	-	-	-	-	-	-	-	-	-	-	-	106	161	-	-	-	-	-	-	-	-
1	7_148730123_148800579_1	ENSE00000909625	162	178	162	178	-	-	162	178	-	-	-	-	-	-	-	-	-	-	-	-	162	178	-	-	-	-	-	-	-	-
1	7_148730123_148800579_1	ENSE00000466125	179	209	179	209	-	-	179	209	-	-	-	-	-	-	-	-	-	-	-	-	179	209	-	-	-	-	-	-	-	-
1	7_148730123_148800579_1	ENSE00000729503	209	263	209	263	-	-	209	263	-	-	-	-	-	-	-	-	-	-	-	-	209	262	-	-	-	-	-	-	-	-
1	7_148730123_148800579_1	ENSE00000909626	264	318	264	318	-	-	264	318	-	-	-	-	-	-	-	-	-	-	-	-	263	317	-	-	-	-	-	-	-	-
1	7_148730123_148800579_1	ENSE00000909627	318	361	318	361	-	-	318	361	-	-	-	-	-	-	-	-	-	-	-	-	317	360	-	-	-	-	-	-	-	-
1	7_148730123_148800579_1	ENSE00000909628	362	397	362	397	-	-	362	397	-	-	-	-	-	-	-	-	-	-	-	-	361	396	-	-	-	-	-	-	-	-
1	7_148730123_148800579_1	ENSE00000909629	398	433	398	-	-	433	398	433	-	433	-	433	-	433	-	433	-	433	-	433	397	432	-	-	-	-	-	-	-	433
1	7_148730123_148800579_1	ENSE00000909630	433	449	-	-	433	449	433	449	433	449	433	449	433	449	433	449	433	449	433	449	432	448	-	-	-	-	-	-	433	449
1	7_148730123_148800579_1	ENSE00000909631	450	493	-	-	450	493	450	493	450	493	450	493	450	493	450	493	450	493	450	493	449	492	-	-	-	-	-	-	450	493
1	7_148730123_148800579_1	ENSE00000909632	494	533	-	-	494	533	494	533	494	533	494	533	494	533	494	533	494	533	494	533	493	532	-	-	-	-	-	-	494	533
1	7_148730123_148800579_1	ENSE00000909633	533	558	-	-	533	558	533	558	533	558	533	558	533	558	533	558	533	558	533	558	532	557	-	-	-	-	-	-	533	558
1	7_148730123_148800579_1	ENSE00000909634	559	602	-	-	559	602	559	602	559	602	559	602	559	602	559	602	559	602	559	602	558	601	-	-	-	-	-	-	559	602
1	7_148730123_148800579_1	ENSE00000909635	603	633	-	-	603	633	603	633	603	633	603	633	603	633	603	633	603	633	603	633	602	632	-	-	-	-	-	-	603	633
1	7_148730123_148800579_1	ENSE00000909636	634	649	-	-	634	649	634	649	634	649	634	649	634	649	634	649	634	649	634	649	633	648	-	-	-	-	-	-	634	649
1	7_148730123_148800579_1	ENSE00000909637	650	677	-	-	650	677	650	677	650	677	650	677	650	677	650	677	650	677	650	677	649	676	-	-	-	-	-	-	650	677
1	7_148730123_148800579_1	ENSE00002526381	677	712	-	-	677	712	677	712	677	-	677	-	677	712	677	712	677	712	677	712	676	711	-	712	-	712	-	712	677	712
1	7_148730123_148800579_1	ENSE00002461187	713	750	-	-	713	750	713	750	-	-	-	-	713	750	713	750	713	750	713	750	712	749	713	750	713	750	713	750	713	750
1	7_148730123_148800579_1	ENSE00001577935	751	776	-	-	751	776	751	776	-	-	-	-	751	776	751	776	751	776	754	776	750	775	751	776	751	776	751	776	751	776
2	7_148730123_148800579_1	ENSE00000909624	1	47	-	47	-	-	-	47	-	-	-	-	-	-	-	-	-	-	-	-	1	47	-	-	-	-	-	-	-	-
2	7_148730123_148800579_1	ENSE00000872301	47	105	47	105	-	-	47	105	-	-	-	-	-	-	-	-	-	-	-	-	47	105	-	-	-	-	-	-	-	-
2	7_148730123_148800579_1	ENSE00000729482	106	161	106	161	-	-	106	161	-	-	-	-	-	-	-	-	-	-	-	-	106	161	-	-	-	-	-	-	-	-
2	7_148730123_148800579_1	ENSE00000909625	162	178	162	178	-	-	162	178	-	-	-	-	-	-	-	-	-	-	-	-	162	178	-	-	-	-	-	-	-	-
2	7_148730123_148800579_1	ENSE00000466125	179	209	179	209	-	-	179	209	-	-	-	-	-	-	-	-	-	-	-	-	179	209	-	-	-	-	-	-	-	-
2	7_148730123_148800579_1	ENSE00000729503	209	263	209	263	-	-	209	263	-	-	-	-	-	-	-	-	-	-	-	-	209	262	-	-	-	-	-	-	-	-
2	7_148730123_148800579_1	ENSE00000909626	264	318	264	318	-	-	264	318	-	-	-	-	-	-	-	-	-	-	-	-	263	317	-	-	-	-	-	-	-	-
2	7_148730123_148800579_1	ENSE00000909627	318	361	318	361	-	-	318	361	-	-	-	-	-	-	-	-	-	-	-	-	317	360	-	-	-	-	-	-	-	-
2	7_148730123_148800579_1	ENSE00000909628	362	397	362	397	-	-	362	397	-	-	-	-	-	-	-	-	-	-	-	-	361	396	-	-	-	-	-	-	-	-
2	7_148730123_148800579_1	ENSE00000909629	398	433	398	-	-	433	398	433	-	433	-	433	-	433	-	433	-	433	-	433	397	432	-	-	-	-	-	-	-	433
2	7_148730123_148800579_1	ENSE00000909630	433	449	-	-	433	449	433	449	433	449	433	449	433	449	433	449	433	449	433	449	432	448	-	-	-	-	-	-	433	449
2	7_148730123_148800579_1	ENSE00000909631	450	493	-	-	450	493	450	493	450	493	450	493	450	493	450	493	450	493	450	493	449	492	-	-	-	-	-	-	450	493
2	7_148730123_148800579_1	ENSE00000909632	494	533	-	-	494	533	494	533	494	533	494	533	494	533	494	533	494	533	494	533	493	532	-	-	-	-	-	-	494	533
2	7_148730123_148800579_1	ENSE00000909633	533	558	-	-	533	558	533	558	533	558	533	558	533	558	533	558	533	558	533	558	532	557	-	-	-	-	-	-	533	558
2	7_148730123_148800579_1	ENSE00000909634	559	602	-	-	559	602	559	602	559	602	559	602	559	602	559	602	559	602	559	602	558	601	-	-	-	-	-	-	559	602
2	7_148730123_148800579_1	ENSE00000909635	603	633	-	-	603	633	603	633	603	633	603	633	603	633	603	633	603	633	603	633	602	632	-	-	-	-	-	-	603	633
2	7_148730123_148800579_1	ENSE00000909636	634	649	-	-	634	649	634	649	634	649	634	649	634	649	634	649	634	649	634	649	633	648	-	-	-	-	-	-	634	649
2	7_148730123_148800579_1	ENSE00000909637	650	677	-	-	650	677	650	677	650	677	650	677	650	677	650	677	650	677	650	677	649	676	-	-	-	-	-	-	650	677
2	7_148730123_148800579_1	ENSE00002526381	677	712	-	-	677	712	677	712	677	-	677	-	677	712	677	712	677	712	677	712	676	711	-	712	-	712	-	712	677	712
2	7_148730123_148800579_1	ENSE00002461187	713	750	-	-	713	750	713	750	-	-	-	-	713	750	713	750	713	750	713	750	712	749	713	750	713	750	713	750	713	750
2	7_148730123_148800579_1	ENSE00003377541	751	776	-	-	751	776	751	776	-	-	-	-	751	776	751	776	751	776	754	776	750	775	751	776	751	776	751	776	751	776
3	7_148730123_148800579_1	ENSE00000909624	1	47	-	47	-	-	-	47	-	-	-	-	-	-	-	-	-	-	-	-	1	47	-	-	-	-	-	-	-	-
3	7_148730123_148800579_1	ENSE00000872301	47	105	47	105	-	-	47	105	-	-	-	-	-	-	-	-	-	-	-	-	47	105	-	-	-	-	-	-	-	-
3	7_148730123_148800579_1	ENSE00000729482	106	161	106	161	-	-	106	161	-	-	-	-	-	-	-	-	-	-	-	-	106	161	-	-	-	-	-	-	-	-
3	7_148730123_148800579_1	ENSE00000909625	162	178	162	178	-	-	162	178	-	-	-	-	-	-	-	-	-	-	-	-	162	178	-	-	-	-	-	-	-	-
3	7_148730123_148800579_1	ENSE00000466125	179	209	179	209	-	-	179	209	-	-	-	-	-	-	-	-	-	-	-	-	179	209	-	-	-	-	-	-	-	-
3	7_148730123_148800579_1	ENSE00000729503	209	263	209	263	-	-	209	263	-	-	-	-	-	-	-	-	-	-	-	-	209	262	-	-	-	-	-	-	-	-
3	7_148730123_148800579_1	ENSE00000909626	264	318	264	318	-	-	264	318	-	-	-	-	-	-	-	-	-	-	-	-	263	317	-	-	-	-	-	-	-	-
3	7_148730123_148800579_1	ENSE00000909627	318	361	318	361	-	-	318	361	-	-	-	-	-	-	-	-	-	-	-	-	317	360	-	-	-	-	-	-	-	-
3	7_148730123_148800579_1	ENSE00000909628	362	397	362	397	-	-	362	397	-	-	-	-	-	-	-	-	-	-	-	-	361	396	-	-	-	-	-	-	-	-
3	7_148730123_148800579_1	ENSE00000909629	398	433	398	-	-	433	398	433	-	433	-	433	-	433	-	433	-	433	-	433	397	432	-	-	-	-	-	-	-	433
3	7_148730123_148800579_1	ENSE00000909630	433	449	-	-	433	449	433	449	433	449	433	449	433	449	433	449	433	449	433	449	432	448	-	-	-	-	-	-	433	449
3	7_148730123_148800579_1	ENSE00000909631	450	493	-	-	450	493	450	493	450	493	450	493	450	493	450	493	450	493	450	493	449	492	-	-	-	-	-	-	450	493
3	7_148730123_148800579_1	ENSE00000909632	494	533	-	-	494	533	494	533	494	533	494	533	494	533	494	533	494	533	494	533	493	532	-	-	-	-	-	-	494	533
3	7_148730123_148800579_1	ENSE00000909633	533	558	-	-	533	558	533	558	533	558	533	558	533	558	533	558	533	558	533	558	532	557	-	-	-	-	-	-	533	558
3	7_148730123_148800579_1	ENSE00000909634	559	602	-	-	559	602	559	602	559	602	559	602	559	602	559	602	559	602	559	602	558	601	-	-	-	-	-	-	559	602
3	7_148730123_148800579_1	ENSE00000909635	603	633	-	-	603	633	603	633	603	633	603	633	603	633	603	633	603	633	603	633	602	632	-	-	-	-	-	-	603	633
3	7_148730123_148800579_1	ENSE00000909636	634	649	-	-	634	649	634	649	634	649	634	649	634	649	634	649	634	649	634	649	633	648	-	-	-	-	-	-	634	649
3	7_148730123_148800579_1	ENSE00000909637	650	677	-	-	650	677	650	677	650	677	650	677	650	677	650	677	650	677	650	677	649	676	-	-	-	-	-	-	650	677
3	7_148730123_148800579_1	ENSE00002526381	677	712	-	-	677	712	677	712	677	-	677	-	677	712	677	712	677	712	677	712	676	711	-	712	-	712	-	712	677	712
3	7_148730123_148800579_1	ENSE00002461187	713	750	-	-	713	750	713	750	-	-	-	-	713	750	713	750	713	750	713	750	712	749	713	750	713	750	713	750	713	750
3	7_148730123_148800579_1	ENSE00003450823	751	776	-	-	751	776	751	776	-	-	-	-	751	776	751	776	751	776	754	776	750	775	751	776	751	776	751	776	751	776
