uniprot_isoform	location_id	ENSEMBL ID	uniprot_start	uniprot_end	4c0dA_start	4c0dA_end	5fu6D_start	5fu6D_end	5fu6A_start	5fu6A_end	4ct6A_start	4ct6A_end	5anrA_start	5anrA_end	4ct4A_start	4ct4A_end	4ct4C_start	4ct4C_end	4cqoC_start	4cqoC_end	4cqoA_start	4cqoA_end	4ct7A_start	4ct7A_end	5fu7A_start	5fu7A_end	5fu7E_start	5fu7E_end	4j8sA_start	4j8sA_end	4gmjA_start	4gmjA_end	4gmjC_start	4gmjC_end	4gmjE_start	4gmjE_end	5onaA_start	5onaA_end	5onaD_start	5onaD_end	4cruA_start	4cruA_end	4gmlA_start	4gmlA_end	4gmlC_start	4gmlC_end	4gmlB_start	4gmlB_end	4gmlE_start	4gmlE_end	4gmlD_start	4gmlD_end	4gmlF_start	4gmlF_end	4crwA_start	4crwA_end	4crvA_start	4crvA_end
1	16_58599337_58520961_-1	ENSE00002719835	1	34	-	-	-	-	-	-	-	-	-	-	-	-	-	-	-	-	-	-	-	-	-	-	-	-	-	-	-	-	-	-	-	-	-	-	-	-	-	-	-	-	-	-	-	-	-	-	-	-	-	-	-	-	-	-
1	16_58599337_58520961_-1	ENSE00001775315	35	70	-	-	-	-	-	-	-	-	-	-	-	-	-	-	-	-	-	-	-	-	-	-	-	-	-	-	-	-	-	-	-	-	-	-	-	-	-	-	-	-	-	-	-	-	-	-	-	-	-	-	-	-	-	-
1	16_58599337_58520961_-1	ENSE00001632878	71	103	-	-	-	-	-	-	-	-	-	-	-	-	-	-	-	-	-	-	-	-	-	-	-	-	-	-	-	-	-	-	-	-	-	-	-	-	-	-	-	-	-	-	-	-	-	-	-	-	-	-	-	-	-	-
1	16_58599337_58520961_-1	ENSE00001628119	104	126	-	-	-	-	-	-	-	-	-	-	-	-	-	-	-	-	-	-	-	-	-	-	-	-	-	-	-	-	-	-	-	-	-	-	-	-	-	-	-	-	-	-	-	-	-	-	-	-	-	-	-	-	-	-
1	16_58599337_58520961_-1	ENSE00001764145	127	145	-	-	-	-	-	-	-	-	-	-	-	-	-	-	-	-	-	-	-	-	-	-	-	-	-	-	-	-	-	-	-	-	-	-	-	-	-	-	-	-	-	-	-	-	-	-	-	-	-	-	-	-	-	-
1	16_58599337_58520961_-1	ENSE00001782694	145	213	-	-	-	-	-	-	-	-	-	-	-	-	-	-	-	-	-	-	-	-	-	-	-	-	-	-	-	-	-	-	-	-	-	-	-	-	-	-	-	-	-	-	-	-	-	-	-	-	-	-	-	-	-	-
1	16_58599337_58520961_-1	ENSE00001700821	213	269	-	-	-	-	-	-	-	-	-	-	-	-	-	-	-	-	-	-	-	-	-	-	-	-	-	-	-	-	-	-	-	-	-	-	-	-	-	-	-	-	-	-	-	-	-	-	-	-	-	-	-	-	-	-
1	16_58599337_58520961_-1	ENSE00001697515	269	311	-	-	-	-	-	-	-	-	-	-	-	-	-	-	-	-	-	-	-	-	-	-	-	-	-	-	-	-	-	-	-	-	-	-	-	-	-	-	-	-	-	-	-	-	-	-	-	-	-	-	-	-	-	-
1	16_58599337_58520961_-1	ENSE00001602293	312	348	-	-	-	-	-	-	-	-	-	-	-	-	-	-	-	-	-	-	-	-	-	-	-	-	-	-	-	-	-	-	-	-	-	-	-	-	-	-	-	-	-	-	-	-	-	-	-	-	-	-	-	-	-	-
1	16_58599337_58520961_-1	ENSE00001636717	349	405	-	-	-	-	-	-	-	-	-	-	-	-	-	-	-	-	-	-	-	-	-	-	-	-	-	-	-	-	-	-	-	-	-	-	-	-	-	-	-	-	-	-	-	-	-	-	-	-	-	-	-	-	-	-
1	16_58599337_58520961_-1	ENSE00001622849	406	448	-	-	-	-	-	-	-	-	-	-	-	-	-	-	-	-	-	-	-	-	-	-	-	-	-	-	-	-	-	-	-	-	-	-	-	-	-	-	-	-	-	-	-	-	-	-	-	-	-	-	-	-	-	-
1	16_58599337_58520961_-1	ENSE00001769368	448	528	-	-	-	-	-	-	-	-	-	-	-	-	-	-	-	-	-	-	-	-	-	-	-	-	-	-	-	-	-	-	-	-	-	-	-	-	-	-	-	-	-	-	-	-	-	-	-	-	-	-	-	-	-	-
1	16_58599337_58520961_-1	ENSE00001658140	529	568	-	-	-	-	-	-	-	-	-	-	-	-	-	-	-	-	-	-	-	-	-	-	-	-	-	-	-	-	-	-	-	-	-	-	-	-	-	-	-	-	-	-	-	-	-	-	-	-	-	-	-	-	-	-
1	16_58599337_58520961_-1	ENSE00003594949	569	609	-	-	-	-	-	-	-	-	-	-	-	-	-	-	-	-	-	-	-	-	-	-	-	-	-	-	-	-	-	-	-	-	-	-	-	-	-	-	-	-	-	-	-	-	-	-	-	-	-	-	-	-	-	-
1	16_58599337_58520961_-1	ENSE00001748964	610	660	-	-	-	-	-	-	-	-	-	-	-	-	-	-	-	-	-	-	-	-	-	-	-	-	-	-	-	-	-	-	-	-	-	-	-	-	-	-	-	-	-	-	-	-	-	-	-	-	-	-	-	-	-	-
1	16_58599337_58520961_-1	ENSE00001760333	660	710	-	-	-	-	-	-	-	-	-	-	-	-	-	-	-	-	-	-	-	-	-	-	-	-	-	-	-	-	-	-	-	-	-	-	-	-	-	-	-	-	-	-	-	-	-	-	-	-	-	-	-	-	-	-
1	16_58599337_58520961_-1	ENSE00001632482	711	778	-	-	-	-	-	-	-	-	-	-	-	-	-	-	-	-	-	-	-	-	-	-	-	-	-	-	-	-	-	-	-	-	-	-	-	-	-	-	-	-	-	-	-	-	-	-	-	-	-	-	-	-	-	-
1	16_58599337_58520961_-1	ENSE00001799281	778	827	-	-	-	-	-	-	-	-	-	-	-	-	-	-	-	-	-	-	-	-	-	-	-	-	-	-	-	-	-	-	-	-	-	-	-	-	-	-	-	-	-	-	-	-	-	-	-	-	-	-	-	-	-	-
1	16_58599337_58520961_-1	ENSE00003790565	827	868	-	-	-	-	-	-	-	-	-	-	-	-	-	-	-	-	-	-	-	-	-	-	-	-	-	858	-	-	-	-	-	-	-	-	-	-	-	-	-	-	-	-	-	-	-	-	-	-	-	-	-	-	-	-
1	16_58599337_58520961_-1	ENSE00003513446	869	964	-	-	-	-	-	-	-	-	-	-	-	-	-	-	-	-	-	-	-	-	-	-	-	-	859	954	-	-	-	-	-	-	-	-	-	-	-	-	-	-	-	-	-	-	-	-	-	-	-	-	-	-	-	-
1	16_58599337_58520961_-1	ENSE00001598351	964	990	-	-	-	-	-	-	-	-	-	-	-	-	-	-	-	-	-	-	-	-	-	-	-	-	954	980	-	-	-	-	-	-	-	-	-	-	-	-	-	-	-	-	-	-	-	-	-	-	-	-	-	-	-	-
1	16_58599337_58520961_-1	ENSE00001662924	991	1067	-	-	-	-	-	-	-	-	-	1062	-	1062	-	1062	-	-	-	-	-	-	-	-	-	-	981	-	-	-	-	-	-	-	-	-	-	-	-	-	-	-	-	-	-	-	-	-	-	-	-	-	-	-	-	-
1	16_58599337_58520961_-1	ENSE00003512089	1068	1114	-	-	-	-	-	-	-	-	1063	1109	1063	1109	1063	1109	-	-	-	-	-	-	-	-	-	-	-	-	-	1114	-	1114	-	1114	-	-	-	-	-	-	-	1114	-	1114	-	1114	-	1114	-	1114	-	1114	-	1114	-	-
1	16_58599337_58520961_-1	ENSE00001634833	1115	1174	-	-	-	-	-	-	-	-	1110	1169	1110	1169	1110	1169	-	-	-	-	-	-	-	-	-	-	-	-	1115	1174	1115	1174	1115	1174	-	-	-	-	-	-	1115	1174	1115	1174	1115	1174	1115	1174	1115	1174	1115	1174	1115	1174	-	-
1	16_58599337_58520961_-1	ENSE00001675588	1175	1213	-	-	-	-	-	-	-	-	1170	1208	1170	1208	1170	1208	-	-	-	-	-	-	-	-	-	-	-	-	1175	1213	1178	1213	1175	1213	-	-	-	-	-	-	1175	1213	1175	1213	1175	1213	1175	1213	1175	1213	1175	1213	1175	1213	-	-
1	16_58599337_58520961_-1	ENSE00001770039	1214	1250	-	-	-	-	-	-	-	-	1209	1245	1209	1244	1209	1245	-	-	-	-	-	-	-	-	-	-	-	-	1214	1250	1214	1250	1214	1250	-	-	-	-	-	-	1214	1250	1214	1250	1214	1250	1214	1250	1214	1250	1214	1250	1214	1250	-	-
1	16_58599337_58520961_-1	ENSE00001663046	1251	1276	-	-	-	-	-	-	-	-	1246	1271	1246	1271	1246	1271	-	-	-	-	-	-	-	-	-	-	-	-	1251	1276	1251	1276	1251	1276	-	-	-	-	-	-	1251	1276	1251	1276	1251	1276	1251	1276	1251	1276	1251	1276	1251	1276	-	-
1	16_58599337_58520961_-1	ENSE00001654150	1277	1336	-	-	-	-	-	-	-	-	1272	-	1272	-	1272	-	-	-	-	-	-	-	-	-	-	-	-	-	1277	-	1277	-	1277	-	-	-	-	-	-	-	1277	-	1277	-	1277	-	1277	-	1277	-	1277	-	1277	-	-	-
1	16_58599337_58520961_-1	ENSE00001602076	1336	1379	-	-	-	-	-	-	-	1379	-	-	-	-	-	-	-	-	-	-	-	1379	-	-	-	-	-	-	-	-	-	-	-	-	-	1379	-	1379	-	1379	-	-	-	-	-	-	-	-	-	-	-	-	-	-	-	1379
1	16_58599337_58520961_-1	ENSE00003784078	1380	1478	-	-	-	-	-	-	1380	1478	-	-	-	-	-	-	-	-	-	-	1380	1478	-	-	-	-	-	-	-	-	-	-	-	-	1380	1478	1380	1478	1380	1478	-	-	-	-	-	-	-	-	-	-	-	-	-	-	1380	1478
1	16_58599337_58520961_-1	ENSE00003477453	1479	1525	-	-	-	-	-	-	1479	1525	-	-	-	-	-	-	-	-	-	-	1479	1525	-	-	-	-	-	-	-	-	-	-	-	-	1479	1525	1479	1525	1479	1525	-	-	-	-	-	-	-	-	-	-	-	-	-	-	1479	1525
1	16_58599337_58520961_-1	ENSE00001663070	1526	1560	-	-	-	-	-	-	1526	1560	-	-	-	-	-	-	-	-	-	-	1526	1560	-	-	-	-	-	-	-	-	-	-	-	-	1526	1560	1526	1560	1526	1560	-	-	-	-	-	-	-	-	-	-	-	-	-	-	1526	1560
1	16_58599337_58520961_-1	ENSE00001617083	1561	1600	-	1600	-	-	-	-	1561	-	-	-	-	-	-	-	-	-	-	-	1561	-	-	-	-	-	-	-	-	-	-	-	-	-	1561	-	1561	-	1561	1600	-	-	-	-	-	-	-	-	-	-	-	-	-	-	1561	1600
1	16_58599337_58520961_-1	ENSE00001634130	1601	1664	1601	1664	-	-	-	-	-	-	-	-	-	-	-	-	-	-	-	-	-	-	-	-	-	-	-	-	-	-	-	-	-	-	-	-	-	-	1601	-	-	-	-	-	-	-	-	-	-	-	-	-	-	-	1601	-
1	16_58599337_58520961_-1	ENSE00003545087	1665	1712	1665	1712	-	-	-	-	-	-	-	-	-	-	-	-	-	-	-	-	-	-	-	-	-	-	-	-	-	-	-	-	-	-	-	-	-	-	-	-	-	-	-	-	-	-	-	-	-	-	-	-	-	-	-	-
1	16_58599337_58520961_-1	ENSE00003694120	1712	1748	1712	1748	-	-	-	-	-	-	-	-	-	-	-	-	-	-	-	-	-	-	-	-	-	-	-	-	-	-	-	-	-	-	-	-	-	-	-	-	-	-	-	-	-	-	-	-	-	-	-	-	-	-	-	-
1	16_58599337_58520961_-1	ENSE00001691499	1749	1805	1749	1805	-	-	-	-	-	-	-	-	-	-	-	-	-	-	-	-	-	-	-	-	-	-	-	-	-	-	-	-	-	-	-	-	-	-	-	-	-	-	-	-	-	-	-	-	-	-	-	-	-	-	-	-
1	16_58599337_58520961_-1	ENSE00001599392	1805	1882	1805	1882	-	1882	-	1882	-	-	-	-	-	-	-	-	-	1882	-	1882	-	-	-	1882	-	1882	-	-	-	-	-	-	-	-	-	-	-	-	-	-	-	-	-	-	-	-	-	-	-	-	-	-	-	-	-	-
1	16_58599337_58520961_-1	ENSE00001716391	1883	1965	1883	1965	1883	1965	1883	1965	-	-	-	-	-	-	-	-	1883	1965	1883	1965	-	-	1883	1965	1883	1965	-	-	-	-	-	-	-	-	-	-	-	-	-	-	-	-	-	-	-	-	-	-	-	-	-	-	-	-	-	-
1	16_58599337_58520961_-1	ENSE00001645392	1966	2020	1966	2020	1966	2020	1966	2020	-	-	-	-	-	-	-	-	1966	2020	1966	2020	-	-	1966	2020	1966	2020	-	-	-	-	-	-	-	-	-	-	-	-	-	-	-	-	-	-	-	-	-	-	-	-	-	-	-	-	-	-
1	16_58599337_58520961_-1	ENSE00003789675	2020	2059	2020	2059	2020	2059	2020	2059	-	-	-	-	-	-	-	-	2020	2059	2020	2059	-	-	2020	2059	2020	2059	-	-	-	-	-	-	-	-	-	-	-	-	-	-	-	-	-	-	-	-	-	-	-	-	-	-	-	-	-	-
1	16_58599337_58520961_-1	ENSE00003678982	2060	2093	2060	2093	2060	2093	2060	2093	-	-	-	-	-	-	-	-	2060	2093	2060	2093	-	-	2060	2093	2060	2093	-	-	-	-	-	-	-	-	-	-	-	-	-	-	-	-	-	-	-	-	-	-	-	-	-	-	-	-	-	-
1	16_58599337_58520961_-1	ENSE00003557115	2094	2151	2094	2151	2094	2151	2094	2151	-	-	-	-	-	-	-	-	2094	2151	2094	2151	-	-	2094	2151	2094	2151	-	-	-	-	-	-	-	-	-	-	-	-	-	-	-	-	-	-	-	-	-	-	-	-	-	-	-	-	-	-
1	16_58599337_58520961_-1	ENSE00003674550	2152	2201	2152	2201	2152	2201	2152	2201	-	-	-	-	-	-	-	-	2152	2201	2152	2201	-	-	2152	2201	2152	2201	-	-	-	-	-	-	-	-	-	-	-	-	-	-	-	-	-	-	-	-	-	-	-	-	-	-	-	-	-	-
1	16_58599337_58520961_-1	ENSE00003535253	2202	2262	2202	2262	2202	2262	2202	2262	-	-	-	-	-	-	-	-	2202	2262	2202	2262	-	-	2202	2262	2202	2262	-	-	-	-	-	-	-	-	-	-	-	-	-	-	-	-	-	-	-	-	-	-	-	-	-	-	-	-	-	-
1	16_58599337_58520961_-1	ENSE00003663698	2262	2306	2262	2306	2262	2306	2262	2306	-	-	-	-	-	-	-	-	2262	2306	2262	2306	-	-	2262	2306	2262	2306	-	-	-	-	-	-	-	-	-	-	-	-	-	-	-	-	-	-	-	-	-	-	-	-	-	-	-	-	-	-
1	16_58599337_58520961_-1	ENSE00003739396	2306	2351	2306	2351	2306	2351	2306	2351	-	-	-	-	-	-	-	-	2306	2351	2306	2351	-	-	2306	2351	2306	2351	-	-	-	-	-	-	-	-	-	-	-	-	-	-	-	-	-	-	-	-	-	-	-	-	-	-	-	-	-	-
1	16_58599337_58520961_-1	ENSE00001891750	2351	2376	2351	-	2351	-	2351	-	-	-	-	-	-	-	-	-	2351	-	2351	-	-	-	2351	-	2351	-	-	-	-	-	-	-	-	-	-	-	-	-	-	-	-	-	-	-	-	-	-	-	-	-	-	-	-	-	-	-
