P17427	1ky7A	1qtsA	1qtpA	1b9kA	1w80A	2vj0A	2jkrA	2jkrA	2jktA	2jktA	1kyuA	1kyfA	1kydA	3hs8A	1ky6A
1,MET	-	-	-	-	-	-	1,MET	1,MET	1,MET	1,MET	-	-	-	-	-
2,PRO	-	-	-	-	-	-	2,PRO	2,PRO	2,PRO	2,PRO	-	-	-	-	-
3,ALA	-	-	-	-	-	-	3,ALA	3,ALA	3,ALA	3,ALA	-	-	-	-	-
4,VAL	-	-	-	-	-	-	4,VAL	4,VAL	4,VAL	4,VAL	-	-	-	-	-
5,SER	-	-	-	-	-	-	5,SER	5,SER	5,SER	5,SER	-	-	-	-	-
6,LYS	-	-	-	-	-	-	6,LYS	6,LYS	6,LYS	6,LYS	-	-	-	-	-
7,GLY	-	-	-	-	-	-	7,GLY	7,GLY	7,GLY	7,GLY	-	-	-	-	-
8,ASP	-	-	-	-	-	-	8,ASP	8,ASP	8,ASP	8,ASP	-	-	-	-	-
9,GLY	-	-	-	-	-	-	9,GLY	9,GLY	9,GLY	9,GLY	-	-	-	-	-
10,MET	-	-	-	-	-	-	10,MET	10,MET	10,MET	10,MET	-	-	-	-	-
11,ARG	-	-	-	-	-	-	11,ARG	11,ARG	11,ARG	11,ARG	-	-	-	-	-
12,GLY	-	-	-	-	-	-	12,GLY	12,GLY	12,GLY	12,GLY	-	-	-	-	-
13,LEU	-	-	-	-	-	-	13,LEU	13,LEU	13,LEU	13,LEU	-	-	-	-	-
14,ALA	-	-	-	-	-	-	14,ALA	14,ALA	14,ALA	14,ALA	-	-	-	-	-
15,VAL	-	-	-	-	-	-	15,VAL	15,VAL	15,VAL	15,VAL	-	-	-	-	-
16,PHE	-	-	-	-	-	-	16,PHE	16,PHE	16,PHE	16,PHE	-	-	-	-	-
17,ILE	-	-	-	-	-	-	17,ILE	17,ILE	17,ILE	17,ILE	-	-	-	-	-
18,SER	-	-	-	-	-	-	18,SER	18,SER	18,SER	18,SER	-	-	-	-	-
19,ASP	-	-	-	-	-	-	19,ASP	19,ASP	19,ASP	19,ASP	-	-	-	-	-
20,ILE	-	-	-	-	-	-	20,ILE	20,ILE	20,ILE	20,ILE	-	-	-	-	-
21,ARG	-	-	-	-	-	-	21,ARG	21,ARG	21,ARG	21,ARG	-	-	-	-	-
22,ASN	-	-	-	-	-	-	22,ASN	22,ASN	22,ASN	22,ASN	-	-	-	-	-
23,CYS	-	-	-	-	-	-	23,CYS	23,CYS	23,CYS	23,CYS	-	-	-	-	-
24,LYS	-	-	-	-	-	-	24,LYS	24,LYS	24,LYS	24,LYS	-	-	-	-	-
25,SER	-	-	-	-	-	-	25,SER	25,SER	25,SER	25,SER	-	-	-	-	-
26,LYS	-	-	-	-	-	-	26,LYS	26,LYS	26,LYS	26,LYS	-	-	-	-	-
27,GLU	-	-	-	-	-	-	27,GLU	27,GLU	27,GLU	27,GLU	-	-	-	-	-
28,ALA	-	-	-	-	-	-	28,ALA	28,ALA	28,ALA	28,ALA	-	-	-	-	-
29,GLU	-	-	-	-	-	-	29,GLU	29,GLU	29,GLU	29,GLU	-	-	-	-	-
30,ILE	-	-	-	-	-	-	30,ILE	30,ILE	30,ILE	30,ILE	-	-	-	-	-
31,LYS	-	-	-	-	-	-	31,LYS	31,LYS	31,LYS	31,LYS	-	-	-	-	-
32,ARG	-	-	-	-	-	-	32,ARG	32,ARG	32,ARG	32,ARG	-	-	-	-	-
33,ILE	-	-	-	-	-	-	33,ILE	33,ILE	33,ILE	33,ILE	-	-	-	-	-
34,ASN	-	-	-	-	-	-	34,ASN	34,ASN	34,ASN	34,ASN	-	-	-	-	-
35,LYS	-	-	-	-	-	-	35,LYS	35,LYS	35,LYS	35,LYS	-	-	-	-	-
36,GLU	-	-	-	-	-	-	36,GLU	36,GLU	36,GLU	36,GLU	-	-	-	-	-
37,LEU	-	-	-	-	-	-	37,LEU	37,LEU	37,LEU	37,LEU	-	-	-	-	-
38,ALA	-	-	-	-	-	-	38,ALA	38,ALA	38,ALA	38,ALA	-	-	-	-	-
39,ASN	-	-	-	-	-	-	39,ASN	39,ASN	39,ASN	39,ASN	-	-	-	-	-
40,ILE	-	-	-	-	-	-	40,ILE	40,ILE	40,ILE	40,ILE	-	-	-	-	-
41,ARG	-	-	-	-	-	-	41,ARG	41,ARG	41,ARG	41,ARG	-	-	-	-	-
42,SER	-	-	-	-	-	-	42,SER	42,SER	42,SER	42,SER	-	-	-	-	-
43,LYS	-	-	-	-	-	-	43,LYS	43,LYS	43,LYS	43,LYS	-	-	-	-	-
44,PHE	-	-	-	-	-	-	44,PHE	44,PHE	44,PHE	44,PHE	-	-	-	-	-
45,LYS	-	-	-	-	-	-	45,LYS	45,LYS	45,LYS	45,LYS	-	-	-	-	-
46,GLY	-	-	-	-	-	-	46,GLY	46,GLY	46,GLY	46,GLY	-	-	-	-	-
47,ASP	-	-	-	-	-	-	47,ASP	47,ASP	47,ASP	47,ASP	-	-	-	-	-
48,LYS	-	-	-	-	-	-	48,LYS	48,LYS	48,LYS	48,LYS	-	-	-	-	-
49,ALA	-	-	-	-	-	-	49,ALA	49,ALA	49,ALA	49,ALA	-	-	-	-	-
50,LEU	-	-	-	-	-	-	50,LEU	50,LEU	50,LEU	50,LEU	-	-	-	-	-
51,ASP	-	-	-	-	-	-	51,ASP	51,ASP	51,ASP	51,ASP	-	-	-	-	-
52,GLY	-	-	-	-	-	-	52,GLY	52,GLY	52,GLY	52,GLY	-	-	-	-	-
53,TYR	-	-	-	-	-	-	53,TYR	53,TYR	53,TYR	53,TYR	-	-	-	-	-
54,SER	-	-	-	-	-	-	54,SER	54,SER	54,SER	54,SER	-	-	-	-	-
55,LYS	-	-	-	-	-	-	55,LYS	55,LYS	55,LYS	55,LYS	-	-	-	-	-
56,LYS	-	-	-	-	-	-	56,LYS	56,LYS	56,LYS	56,LYS	-	-	-	-	-
57,LYS	-	-	-	-	-	-	57,LYS	57,LYS	57,LYS	57,LYS	-	-	-	-	-
58,TYR	-	-	-	-	-	-	58,TYR	58,TYR	58,TYR	58,TYR	-	-	-	-	-
59,VAL	-	-	-	-	-	-	59,VAL	59,VAL	59,VAL	59,VAL	-	-	-	-	-
60,CYS	-	-	-	-	-	-	60,CYS	60,CYS	60,CYS	60,CYS	-	-	-	-	-
61,LYS	-	-	-	-	-	-	61,LYS	61,LYS	61,LYS	61,LYS	-	-	-	-	-
62,LEU	-	-	-	-	-	-	62,LEU	62,LEU	62,LEU	62,LEU	-	-	-	-	-
63,LEU	-	-	-	-	-	-	63,LEU	63,LEU	63,LEU	63,LEU	-	-	-	-	-
64,PHE	-	-	-	-	-	-	64,PHE	64,PHE	64,PHE	64,PHE	-	-	-	-	-
65,ILE	-	-	-	-	-	-	65,ILE	65,ILE	65,ILE	65,ILE	-	-	-	-	-
66,PHE	-	-	-	-	-	-	66,PHE	66,PHE	66,PHE	66,PHE	-	-	-	-	-
67,LEU	-	-	-	-	-	-	67,LEU	67,LEU	67,LEU	67,LEU	-	-	-	-	-
68,LEU	-	-	-	-	-	-	68,LEU	68,LEU	68,LEU	68,LEU	-	-	-	-	-
69,GLY	-	-	-	-	-	-	69,GLY	69,GLY	69,GLY	69,GLY	-	-	-	-	-
70,HIS	-	-	-	-	-	-	70,HIS	70,HIS	70,HIS	70,HIS	-	-	-	-	-
71,ASP	-	-	-	-	-	-	71,ASP	71,ASP	71,ASP	71,ASP	-	-	-	-	-
72,ILE	-	-	-	-	-	-	72,ILE	72,ILE	72,ILE	72,ILE	-	-	-	-	-
73,ASP	-	-	-	-	-	-	73,ASP	73,ASP	73,ASP	73,ASP	-	-	-	-	-
74,PHE	-	-	-	-	-	-	74,PHE	74,PHE	74,PHE	74,PHE	-	-	-	-	-
75,GLY	-	-	-	-	-	-	75,GLY	75,GLY	75,GLY	75,GLY	-	-	-	-	-
76,HIS	-	-	-	-	-	-	76,HIS	76,HIS	76,HIS	76,HIS	-	-	-	-	-
77,MET	-	-	-	-	-	-	77,MET	77,MET	77,MET	77,MET	-	-	-	-	-
78,GLU	-	-	-	-	-	-	78,GLU	78,GLU	78,GLU	78,GLU	-	-	-	-	-
79,ALA	-	-	-	-	-	-	79,ALA	79,ALA	79,ALA	79,ALA	-	-	-	-	-
80,VAL	-	-	-	-	-	-	80,VAL	80,VAL	80,VAL	80,VAL	-	-	-	-	-
81,ASN	-	-	-	-	-	-	81,ASN	81,ASN	81,ASN	81,ASN	-	-	-	-	-
82,LEU	-	-	-	-	-	-	82,LEU	82,LEU	82,LEU	82,LEU	-	-	-	-	-
83,LEU	-	-	-	-	-	-	83,LEU	83,LEU	83,LEU	83,LEU	-	-	-	-	-
84,SER	-	-	-	-	-	-	84,SER	84,SER	84,SER	84,SER	-	-	-	-	-
85,SER	-	-	-	-	-	-	85,SER	85,SER	85,SER	85,SER	-	-	-	-	-
86,ASN	-	-	-	-	-	-	86,ASN	86,ASN	86,ASN	86,ASN	-	-	-	-	-
87,ARG	-	-	-	-	-	-	87,ARG	87,ARG	87,ARG	87,ARG	-	-	-	-	-
88,TYR	-	-	-	-	-	-	88,TYR	88,TYR	88,TYR	88,TYR	-	-	-	-	-
89,THR	-	-	-	-	-	-	89,THR	89,THR	89,THR	89,THR	-	-	-	-	-
90,GLU	-	-	-	-	-	-	90,GLU	90,GLU	90,GLU	90,GLU	-	-	-	-	-
91,LYS	-	-	-	-	-	-	91,LYS	91,LYS	91,LYS	91,LYS	-	-	-	-	-
92,GLN	-	-	-	-	-	-	92,GLN	92,GLN	92,GLN	92,GLN	-	-	-	-	-
93,ILE	-	-	-	-	-	-	93,ILE	93,ILE	93,ILE	93,ILE	-	-	-	-	-
94,GLY	-	-	-	-	-	-	94,GLY	94,GLY	94,GLY	94,GLY	-	-	-	-	-
95,TYR	-	-	-	-	-	-	95,TYR	95,TYR	95,TYR	95,TYR	-	-	-	-	-
96,LEU	-	-	-	-	-	-	96,LEU	96,LEU	96,LEU	96,LEU	-	-	-	-	-
97,PHE	-	-	-	-	-	-	97,PHE	97,PHE	97,PHE	97,PHE	-	-	-	-	-
98,ILE	-	-	-	-	-	-	98,ILE	98,ILE	98,ILE	98,ILE	-	-	-	-	-
99,SER	-	-	-	-	-	-	99,SER	99,SER	99,SER	99,SER	-	-	-	-	-
100,VAL	-	-	-	-	-	-	100,VAL	100,VAL	100,VAL	100,VAL	-	-	-	-	-
101,LEU	-	-	-	-	-	-	101,LEU	101,LEU	101,LEU	101,LEU	-	-	-	-	-
102,VAL	-	-	-	-	-	-	102,VAL	102,VAL	102,VAL	102,VAL	-	-	-	-	-
103,ASN	-	-	-	-	-	-	103,ASN	103,ASN	103,ASN	103,ASN	-	-	-	-	-
104,SER	-	-	-	-	-	-	104,SER	104,SER	104,SER	104,SER	-	-	-	-	-
105,ASN	-	-	-	-	-	-	105,ASN	105,ASN	105,ASN	105,ASN	-	-	-	-	-
106,SER	-	-	-	-	-	-	106,SER	106,SER	106,SER	106,SER	-	-	-	-	-
107,GLU	-	-	-	-	-	-	107,GLU	107,GLU	107,GLU	107,GLU	-	-	-	-	-
108,LEU	-	-	-	-	-	-	108,LEU	108,LEU	108,LEU	108,LEU	-	-	-	-	-
109,ILE	-	-	-	-	-	-	109,ILE	109,ILE	109,ILE	109,ILE	-	-	-	-	-
110,ARG	-	-	-	-	-	-	110,ARG	110,ARG	110,ARG	110,ARG	-	-	-	-	-
111,LEU	-	-	-	-	-	-	111,LEU	111,LEU	111,LEU	111,LEU	-	-	-	-	-
112,ILE	-	-	-	-	-	-	112,ILE	112,ILE	112,ILE	112,ILE	-	-	-	-	-
113,ASN	-	-	-	-	-	-	113,ASN	113,ASN	113,ASN	113,ASN	-	-	-	-	-
114,ASN	-	-	-	-	-	-	114,ASN	114,ASN	114,ASN	114,ASN	-	-	-	-	-
115,ALA	-	-	-	-	-	-	115,ALA	115,ALA	115,ALA	115,ALA	-	-	-	-	-
116,ILE	-	-	-	-	-	-	116,ILE	116,ILE	116,ILE	116,ILE	-	-	-	-	-
117,LYS	-	-	-	-	-	-	117,LYS	117,LYS	117,LYS	117,LYS	-	-	-	-	-
118,ASN	-	-	-	-	-	-	118,ASN	118,ASN	118,ASN	118,ASN	-	-	-	-	-
119,ASP	-	-	-	-	-	-	119,ASP	119,ASP	119,ASP	119,ASP	-	-	-	-	-
120,LEU	-	-	-	-	-	-	120,LEU	120,LEU	120,LEU	120,LEU	-	-	-	-	-
121,ALA	-	-	-	-	-	-	121,ALA	121,ALA	121,ALA	121,ALA	-	-	-	-	-
122,SER	-	-	-	-	-	-	122,SER	122,SER	122,SER	122,SER	-	-	-	-	-
123,ARG	-	-	-	-	-	-	123,ARG	123,ARG	123,ARG	123,ARG	-	-	-	-	-
124,ASN	-	-	-	-	-	-	124,ASN	124,ASN	124,ASN	124,ASN	-	-	-	-	-
125,PRO	-	-	-	-	-	-	125,PRO	125,PRO	125,PRO	125,PRO	-	-	-	-	-
126,THR	-	-	-	-	-	-	126,THR	126,THR	126,THR	126,THR	-	-	-	-	-
127,PHE	-	-	-	-	-	-	127,PHE	127,PHE	127,PHE	127,PHE	-	-	-	-	-
128,MET	-	-	-	-	-	-	128,MET	128,MET	128,MET	128,MET	-	-	-	-	-
129,GLY	-	-	-	-	-	-	129,GLY	129,GLY	129,GLY	129,GLY	-	-	-	-	-
130,LEU	-	-	-	-	-	-	130,LEU	130,LEU	130,LEU	130,LEU	-	-	-	-	-
131,ALA	-	-	-	-	-	-	131,ALA	131,ALA	131,ALA	131,ALA	-	-	-	-	-
132,LEU	-	-	-	-	-	-	132,LEU	132,LEU	132,LEU	132,LEU	-	-	-	-	-
133,HIS	-	-	-	-	-	-	133,HIS	133,HIS	133,HIS	133,HIS	-	-	-	-	-
134,CYS	-	-	-	-	-	-	134,CYS	134,CYS	134,CYS	134,CYS	-	-	-	-	-
135,ILE	-	-	-	-	-	-	135,ILE	135,ILE	135,ILE	135,ILE	-	-	-	-	-
136,ALA	-	-	-	-	-	-	136,ALA	136,ALA	136,ALA	136,ALA	-	-	-	-	-
137,ASN	-	-	-	-	-	-	137,ASN	137,ASN	137,ASN	137,ASN	-	-	-	-	-
138,VAL	-	-	-	-	-	-	138,VAL	138,VAL	138,VAL	138,VAL	-	-	-	-	-
139,GLY	-	-	-	-	-	-	139,GLY	139,GLY	139,GLY	139,GLY	-	-	-	-	-
140,SER	-	-	-	-	-	-	140,SER	140,SER	140,SER	140,SER	-	-	-	-	-
141,ARG	-	-	-	-	-	-	141,ARG	141,ARG	141,ARG	141,ARG	-	-	-	-	-
142,GLU	-	-	-	-	-	-	142,GLU	142,GLU	142,GLU	142,GLU	-	-	-	-	-
143,MET	-	-	-	-	-	-	143,MET	143,MET	143,MET	143,MET	-	-	-	-	-
144,ALA	-	-	-	-	-	-	144,ALA	144,ALA	144,ALA	144,ALA	-	-	-	-	-
145,GLU	-	-	-	-	-	-	145,GLU	145,GLU	145,GLU	145,GLU	-	-	-	-	-
146,ALA	-	-	-	-	-	-	146,ALA	146,ALA	146,ALA	146,ALA	-	-	-	-	-
147,PHE	-	-	-	-	-	-	147,PHE	147,PHE	147,PHE	147,PHE	-	-	-	-	-
148,ALA	-	-	-	-	-	-	148,ALA	148,ALA	148,ALA	148,ALA	-	-	-	-	-
149,GLY	-	-	-	-	-	-	149,GLY	149,GLY	149,GLY	149,GLY	-	-	-	-	-
150,GLU	-	-	-	-	-	-	150,GLU	150,GLU	150,GLU	150,GLU	-	-	-	-	-
151,ILE	-	-	-	-	-	-	151,ILE	151,ILE	151,ILE	151,ILE	-	-	-	-	-
152,PRO	-	-	-	-	-	-	152,PRO	152,PRO	152,PRO	152,PRO	-	-	-	-	-
153,LYS	-	-	-	-	-	-	153,LYS	153,LYS	153,LYS	153,LYS	-	-	-	-	-
154,ILE	-	-	-	-	-	-	154,ILE	154,ILE	154,ILE	154,ILE	-	-	-	-	-
155,LEU	-	-	-	-	-	-	155,LEU	155,LEU	155,LEU	155,LEU	-	-	-	-	-
156,VAL	-	-	-	-	-	-	156,VAL	156,VAL	156,VAL	156,VAL	-	-	-	-	-
157,ALA	-	-	-	-	-	-	157,ALA	157,ALA	157,ALA	157,ALA	-	-	-	-	-
158,GLY	-	-	-	-	-	-	158,GLY	158,GLY	158,GLY	158,GLY	-	-	-	-	-
159,ASP	-	-	-	-	-	-	159,ASP	159,ASP	159,ASP	159,ASP	-	-	-	-	-
160,THR	-	-	-	-	-	-	160,THR	160,THR	160,THR	160,THR	-	-	-	-	-
161,MET	-	-	-	-	-	-	161,MET	161,MET	161,MET	161,MET	-	-	-	-	-
162,ASP	-	-	-	-	-	-	162,ASP	162,ASP	162,ASP	162,ASP	-	-	-	-	-
163,SER	-	-	-	-	-	-	163,SER	163,SER	163,SER	163,SER	-	-	-	-	-
164,VAL	-	-	-	-	-	-	164,VAL	164,VAL	164,VAL	164,VAL	-	-	-	-	-
165,LYS	-	-	-	-	-	-	165,LYS	165,LYS	165,LYS	165,LYS	-	-	-	-	-
166,GLN	-	-	-	-	-	-	166,GLN	166,GLN	166,GLN	166,GLN	-	-	-	-	-
167,SER	-	-	-	-	-	-	167,SER	167,SER	167,SER	167,SER	-	-	-	-	-
168,ALA	-	-	-	-	-	-	168,ALA	168,ALA	168,ALA	168,ALA	-	-	-	-	-
169,ALA	-	-	-	-	-	-	169,ALA	169,ALA	169,ALA	169,ALA	-	-	-	-	-
170,LEU	-	-	-	-	-	-	170,LEU	170,LEU	170,LEU	170,LEU	-	-	-	-	-
171,CYS	-	-	-	-	-	-	171,CYS	171,CYS	171,CYS	171,CYS	-	-	-	-	-
172,LEU	-	-	-	-	-	-	172,LEU	172,LEU	172,LEU	172,LEU	-	-	-	-	-
173,LEU	-	-	-	-	-	-	173,LEU	173,LEU	173,LEU	173,LEU	-	-	-	-	-
174,ARG	-	-	-	-	-	-	174,ARG	174,ARG	174,ARG	174,ARG	-	-	-	-	-
175,LEU	-	-	-	-	-	-	175,LEU	175,LEU	175,LEU	175,LEU	-	-	-	-	-
176,TYR	-	-	-	-	-	-	176,TYR	176,TYR	176,TYR	176,TYR	-	-	-	-	-
177,ARG	-	-	-	-	-	-	177,ARG	177,ARG	177,ARG	177,ARG	-	-	-	-	-
178,THR	-	-	-	-	-	-	178,THR	178,THR	178,THR	178,THR	-	-	-	-	-
179,SER	-	-	-	-	-	-	179,SER	179,SER	179,SER	179,SER	-	-	-	-	-
180,PRO	-	-	-	-	-	-	180,PRO	180,PRO	180,PRO	180,PRO	-	-	-	-	-
181,ASP	-	-	-	-	-	-	181,ASP	181,ASP	181,ASP	181,ASP	-	-	-	-	-
182,LEU	-	-	-	-	-	-	182,LEU	182,LEU	182,LEU	182,LEU	-	-	-	-	-
183,VAL	-	-	-	-	-	-	183,VAL	183,VAL	183,VAL	183,VAL	-	-	-	-	-
184,PRO	-	-	-	-	-	-	184,PRO	184,PRO	184,PRO	184,PRO	-	-	-	-	-
185,MET	-	-	-	-	-	-	185,MET	185,MET	185,MET	185,MET	-	-	-	-	-
186,GLY	-	-	-	-	-	-	186,GLY	186,GLY	186,GLY	186,GLY	-	-	-	-	-
187,ASP	-	-	-	-	-	-	187,ASP	187,ASP	187,ASP	187,ASP	-	-	-	-	-
188,TRP	-	-	-	-	-	-	188,TRP	188,TRP	188,TRP	188,TRP	-	-	-	-	-
189,THR	-	-	-	-	-	-	189,THR	189,THR	189,THR	189,THR	-	-	-	-	-
190,SER	-	-	-	-	-	-	190,SER	190,SER	190,SER	190,SER	-	-	-	-	-
191,ARG	-	-	-	-	-	-	191,ARG	191,ARG	191,ARG	191,ARG	-	-	-	-	-
192,VAL	-	-	-	-	-	-	192,VAL	192,VAL	192,VAL	192,VAL	-	-	-	-	-
193,VAL	-	-	-	-	-	-	193,VAL	193,VAL	193,VAL	193,VAL	-	-	-	-	-
194,HIS	-	-	-	-	-	-	194,HIS	194,HIS	194,HIS	194,HIS	-	-	-	-	-
195,LEU	-	-	-	-	-	-	195,LEU	195,LEU	195,LEU	195,LEU	-	-	-	-	-
196,LEU	-	-	-	-	-	-	196,LEU	196,LEU	196,LEU	196,LEU	-	-	-	-	-
197,ASN	-	-	-	-	-	-	197,ASN	197,ASN	197,ASN	197,ASN	-	-	-	-	-
198,ASP	-	-	-	-	-	-	198,ASP	198,ASP	198,ASP	198,ASP	-	-	-	-	-
199,GLN	-	-	-	-	-	-	199,GLN	199,GLN	199,GLN	199,GLN	-	-	-	-	-
200,HIS	-	-	-	-	-	-	200,HIS	200,HIS	200,HIS	200,HIS	-	-	-	-	-
201,LEU	-	-	-	-	-	-	201,LEU	201,LEU	201,LEU	201,LEU	-	-	-	-	-
202,GLY	-	-	-	-	-	-	202,GLY	202,GLY	202,GLY	202,GLY	-	-	-	-	-
203,VAL	-	-	-	-	-	-	203,VAL	203,VAL	203,VAL	203,VAL	-	-	-	-	-
204,VAL	-	-	-	-	-	-	204,VAL	204,VAL	204,VAL	204,VAL	-	-	-	-	-
205,THR	-	-	-	-	-	-	205,THR	205,THR	205,THR	205,THR	-	-	-	-	-
206,ALA	-	-	-	-	-	-	206,ALA	206,ALA	206,ALA	206,ALA	-	-	-	-	-
207,ALA	-	-	-	-	-	-	207,ALA	207,ALA	207,ALA	207,ALA	-	-	-	-	-
208,THR	-	-	-	-	-	-	208,THR	208,THR	208,THR	208,THR	-	-	-	-	-
209,SER	-	-	-	-	-	-	209,SER	209,SER	209,SER	209,SER	-	-	-	-	-
210,LEU	-	-	-	-	-	-	210,LEU	210,LEU	210,LEU	210,LEU	-	-	-	-	-
211,ILE	-	-	-	-	-	-	211,ILE	211,ILE	211,ILE	211,ILE	-	-	-	-	-
212,THR	-	-	-	-	-	-	212,THR	212,THR	212,THR	212,THR	-	-	-	-	-
213,THR	-	-	-	-	-	-	213,THR	213,THR	213,THR	213,THR	-	-	-	-	-
214,LEU	-	-	-	-	-	-	214,LEU	214,LEU	214,LEU	214,LEU	-	-	-	-	-
215,ALA	-	-	-	-	-	-	215,ALA	215,ALA	215,ALA	215,ALA	-	-	-	-	-
216,GLN	-	-	-	-	-	-	216,GLN	216,GLN	216,GLN	216,GLN	-	-	-	-	-
217,LYS	-	-	-	-	-	-	217,LYS	217,LYS	217,LYS	217,LYS	-	-	-	-	-
218,ASN	-	-	-	-	-	-	218,ASN	218,ASN	218,ASN	218,ASN	-	-	-	-	-
219,PRO	-	-	-	-	-	-	219,PRO	219,PRO	219,PRO	219,PRO	-	-	-	-	-
220,GLU	-	-	-	-	-	-	220,GLU	220,GLU	220,GLU	220,GLU	-	-	-	-	-
221,GLU	-	-	-	-	-	-	221,GLU	221,GLU	221,GLU	221,GLU	-	-	-	-	-
222,PHE	-	-	-	-	-	-	222,PHE	222,PHE	222,PHE	222,PHE	-	-	-	-	-
223,LYS	-	-	-	-	-	-	223,LYS	223,LYS	223,LYS	223,LYS	-	-	-	-	-
224,THR	-	-	-	-	-	-	224,THR	224,THR	224,THR	224,THR	-	-	-	-	-
225,SER	-	-	-	-	-	-	225,SER	225,SER	225,SER	225,SER	-	-	-	-	-
226,VAL	-	-	-	-	-	-	226,VAL	226,VAL	226,VAL	226,VAL	-	-	-	-	-
227,SER	-	-	-	-	-	-	227,SER	227,SER	227,SER	227,SER	-	-	-	-	-
228,LEU	-	-	-	-	-	-	228,LEU	228,LEU	228,LEU	228,LEU	-	-	-	-	-
229,ALA	-	-	-	-	-	-	229,ALA	229,ALA	229,ALA	229,ALA	-	-	-	-	-
230,VAL	-	-	-	-	-	-	230,VAL	230,VAL	230,VAL	230,VAL	-	-	-	-	-
231,SER	-	-	-	-	-	-	231,SER	231,SER	231,SER	231,SER	-	-	-	-	-
232,ARG	-	-	-	-	-	-	232,ARG	232,ARG	232,ARG	232,ARG	-	-	-	-	-
233,LEU	-	-	-	-	-	-	233,LEU	233,LEU	233,LEU	233,LEU	-	-	-	-	-
234,SER	-	-	-	-	-	-	234,SER	234,SER	234,SER	234,SER	-	-	-	-	-
235,ARG	-	-	-	-	-	-	235,ARG	235,ARG	235,ARG	235,ARG	-	-	-	-	-
236,ILE	-	-	-	-	-	-	236,ILE	236,ILE	236,ILE	236,ILE	-	-	-	-	-
237,VAL	-	-	-	-	-	-	237,VAL	237,VAL	237,VAL	237,VAL	-	-	-	-	-
238,THR	-	-	-	-	-	-	238,THR	238,THR	238,THR	238,THR	-	-	-	-	-
239,SER	-	-	-	-	-	-	239,SER	239,SER	239,SER	239,SER	-	-	-	-	-
240,ALA	-	-	-	-	-	-	240,ALA	240,ALA	240,ALA	240,ALA	-	-	-	-	-
241,SER	-	-	-	-	-	-	241,SER	241,SER	241,SER	241,SER	-	-	-	-	-
242,THR	-	-	-	-	-	-	242,THR	242,THR	242,THR	242,THR	-	-	-	-	-
243,ASP	-	-	-	-	-	-	243,ASP	243,ASP	243,ASP	243,ASP	-	-	-	-	-
244,LEU	-	-	-	-	-	-	244,LEU	244,LEU	244,LEU	244,LEU	-	-	-	-	-
245,GLN	-	-	-	-	-	-	245,GLN	245,GLN	245,GLN	245,GLN	-	-	-	-	-
246,ASP	-	-	-	-	-	-	246,ASP	246,ASP	246,ASP	246,ASP	-	-	-	-	-
247,TYR	-	-	-	-	-	-	247,TYR	247,TYR	247,TYR	247,TYR	-	-	-	-	-
248,THR	-	-	-	-	-	-	248,THR	248,THR	248,THR	248,THR	-	-	-	-	-
249,TYR	-	-	-	-	-	-	249,TYR	249,TYR	249,TYR	249,TYR	-	-	-	-	-
250,TYR	-	-	-	-	-	-	250,TYR	250,TYR	250,TYR	250,TYR	-	-	-	-	-
251,PHE	-	-	-	-	-	-	251,PHE	251,PHE	251,PHE	251,PHE	-	-	-	-	-
252,VAL	-	-	-	-	-	-	252,VAL	252,VAL	252,VAL	252,VAL	-	-	-	-	-
253,PRO	-	-	-	-	-	-	253,PRO	253,PRO	253,PRO	253,PRO	-	-	-	-	-
254,ALA	-	-	-	-	-	-	254,ALA	254,ALA	254,ALA	254,ALA	-	-	-	-	-
255,PRO	-	-	-	-	-	-	255,PRO	255,PRO	255,PRO	255,PRO	-	-	-	-	-
256,TRP	-	-	-	-	-	-	256,TRP	256,TRP	256,TRP	256,TRP	-	-	-	-	-
257,LEU	-	-	-	-	-	-	257,LEU	257,LEU	257,LEU	257,LEU	-	-	-	-	-
258,SER	-	-	-	-	-	-	258,SER	258,SER	258,SER	258,SER	-	-	-	-	-
259,VAL	-	-	-	-	-	-	259,VAL	259,VAL	259,VAL	259,VAL	-	-	-	-	-
260,LYS	-	-	-	-	-	-	260,LYS	260,LYS	260,LYS	260,LYS	-	-	-	-	-
261,LEU	-	-	-	-	-	-	261,LEU	261,LEU	261,LEU	261,LEU	-	-	-	-	-
262,LEU	-	-	-	-	-	-	262,LEU	262,LEU	262,LEU	262,LEU	-	-	-	-	-
263,ARG	-	-	-	-	-	-	263,ARG	263,ARG	263,ARG	263,ARG	-	-	-	-	-
264,LEU	-	-	-	-	-	-	264,LEU	264,LEU	264,LEU	264,LEU	-	-	-	-	-
265,LEU	-	-	-	-	-	-	265,LEU	265,LEU	265,LEU	265,LEU	-	-	-	-	-
266,GLN	-	-	-	-	-	-	266,GLN	266,GLN	266,GLN	266,GLN	-	-	-	-	-
267,CYS	-	-	-	-	-	-	267,CYS	267,CYS	267,CYS	267,CYS	-	-	-	-	-
268,TYR	-	-	-	-	-	-	268,TYR	268,TYR	268,TYR	268,TYR	-	-	-	-	-
269,PRO	-	-	-	-	-	-	269,PRO	269,PRO	269,PRO	269,PRO	-	-	-	-	-
270,PRO	-	-	-	-	-	-	270,PRO	270,PRO	270,PRO	270,PRO	-	-	-	-	-
271,PRO	-	-	-	-	-	-	271,PRO	271,PRO	271,PRO	271,PRO	-	-	-	-	-
272,ASP	-	-	-	-	-	-	273,ASP	273,ASP	273,ASP	273,ASP	-	-	-	-	-
273,PRO	-	-	-	-	-	-	274,PRO	274,PRO	274,PRO	274,PRO	-	-	-	-	-
274,ALA	-	-	-	-	-	-	275,ALA	275,ALA	275,ALA	275,ALA	-	-	-	-	-
275,VAL	-	-	-	-	-	-	276,VAL	276,VAL	276,VAL	276,VAL	-	-	-	-	-
276,ARG	-	-	-	-	-	-	277,ARG	277,ARG	277,ARG	277,ARG	-	-	-	-	-
277,GLY	-	-	-	-	-	-	278,GLY	278,GLY	278,GLY	278,GLY	-	-	-	-	-
278,ARG	-	-	-	-	-	-	279,ARG	279,ARG	279,ARG	279,ARG	-	-	-	-	-
279,LEU	-	-	-	-	-	-	280,LEU	280,LEU	280,LEU	280,LEU	-	-	-	-	-
280,THR	-	-	-	-	-	-	281,THR	281,THR	281,THR	281,THR	-	-	-	-	-
281,GLU	-	-	-	-	-	-	282,GLU	282,GLU	282,GLU	282,GLU	-	-	-	-	-
282,CYS	-	-	-	-	-	-	283,CYS	283,CYS	283,CYS	283,CYS	-	-	-	-	-
283,LEU	-	-	-	-	-	-	284,LEU	284,LEU	284,LEU	284,LEU	-	-	-	-	-
284,GLU	-	-	-	-	-	-	285,GLU	285,GLU	285,GLU	285,GLU	-	-	-	-	-
285,THR	-	-	-	-	-	-	286,THR	286,THR	286,THR	286,THR	-	-	-	-	-
286,ILE	-	-	-	-	-	-	287,ILE	287,ILE	287,ILE	287,ILE	-	-	-	-	-
287,LEU	-	-	-	-	-	-	288,LEU	288,LEU	288,LEU	288,LEU	-	-	-	-	-
288,ASN	-	-	-	-	-	-	289,ASN	289,ASN	289,ASN	289,ASN	-	-	-	-	-
289,LYS	-	-	-	-	-	-	290,LYS	290,LYS	290,LYS	290,LYS	-	-	-	-	-
290,ALA	-	-	-	-	-	-	291,ALA	291,ALA	291,ALA	291,ALA	-	-	-	-	-
291,GLN	-	-	-	-	-	-	292,GLN	292,GLN	292,GLN	292,GLN	-	-	-	-	-
292,GLU	-	-	-	-	-	-	293,GLU	293,GLU	293,GLU	293,GLU	-	-	-	-	-
293,PRO	-	-	-	-	-	-	294,PRO	294,PRO	294,PRO	294,PRO	-	-	-	-	-
294,PRO	-	-	-	-	-	-	295,PRO	295,PRO	295,PRO	295,PRO	-	-	-	-	-
295,LYS	-	-	-	-	-	-	296,LYS	296,LYS	296,LYS	296,LYS	-	-	-	-	-
296,SER	-	-	-	-	-	-	297,SER	297,SER	297,SER	297,SER	-	-	-	-	-
297,LYS	-	-	-	-	-	-	298,LYS	298,LYS	298,LYS	298,LYS	-	-	-	-	-
298,LYS	-	-	-	-	-	-	299,LYS	299,LYS	299,LYS	299,LYS	-	-	-	-	-
299,VAL	-	-	-	-	-	-	300,VAL	300,VAL	300,VAL	300,VAL	-	-	-	-	-
300,GLN	-	-	-	-	-	-	301,GLN	301,GLN	301,GLN	301,GLN	-	-	-	-	-
301,HIS	-	-	-	-	-	-	302,HIS	302,HIS	302,HIS	302,HIS	-	-	-	-	-
302,SER	-	-	-	-	-	-	303,SER	303,SER	303,SER	303,SER	-	-	-	-	-
303,ASN	-	-	-	-	-	-	304,ASN	304,ASN	304,ASN	304,ASN	-	-	-	-	-
304,ALA	-	-	-	-	-	-	305,ALA	305,ALA	305,ALA	305,ALA	-	-	-	-	-
305,LYS	-	-	-	-	-	-	306,LYS	306,LYS	306,LYS	306,LYS	-	-	-	-	-
306,ASN	-	-	-	-	-	-	307,ASN	307,ASN	307,ASN	307,ASN	-	-	-	-	-
307,ALA	-	-	-	-	-	-	308,ALA	308,ALA	308,ALA	308,ALA	-	-	-	-	-
308,VAL	-	-	-	-	-	-	309,VAL	309,VAL	309,VAL	309,VAL	-	-	-	-	-
309,LEU	-	-	-	-	-	-	310,LEU	310,LEU	310,LEU	310,LEU	-	-	-	-	-
310,PHE	-	-	-	-	-	-	311,PHE	311,PHE	311,PHE	311,PHE	-	-	-	-	-
311,GLU	-	-	-	-	-	-	312,GLU	312,GLU	312,GLU	312,GLU	-	-	-	-	-
312,ALA	-	-	-	-	-	-	313,ALA	313,ALA	313,ALA	313,ALA	-	-	-	-	-
313,ILE	-	-	-	-	-	-	314,ILE	314,ILE	314,ILE	314,ILE	-	-	-	-	-
314,SER	-	-	-	-	-	-	315,SER	315,SER	315,SER	315,SER	-	-	-	-	-
315,LEU	-	-	-	-	-	-	316,LEU	316,LEU	316,LEU	316,LEU	-	-	-	-	-
316,ILE	-	-	-	-	-	-	317,ILE	317,ILE	317,ILE	317,ILE	-	-	-	-	-
317,ILE	-	-	-	-	-	-	318,ILE	318,ILE	318,ILE	318,ILE	-	-	-	-	-
318,HIS	-	-	-	-	-	-	319,HIS	319,HIS	319,HIS	319,HIS	-	-	-	-	-
319,HIS	-	-	-	-	-	-	320,HIS	320,HIS	320,HIS	320,HIS	-	-	-	-	-
320,ASP	-	-	-	-	-	-	321,ASP	321,ASP	321,ASP	321,ASP	-	-	-	-	-
321,SER	-	-	-	-	-	-	322,SER	322,SER	322,SER	322,SER	-	-	-	-	-
322,GLU	-	-	-	-	-	-	323,GLU	323,GLU	323,GLU	323,GLU	-	-	-	-	-
323,PRO	-	-	-	-	-	-	324,PRO	324,PRO	324,PRO	324,PRO	-	-	-	-	-
324,ASN	-	-	-	-	-	-	325,ASN	325,ASN	325,ASN	325,ASN	-	-	-	-	-
325,LEU	-	-	-	-	-	-	326,LEU	326,LEU	326,LEU	326,LEU	-	-	-	-	-
326,LEU	-	-	-	-	-	-	327,LEU	327,LEU	327,LEU	327,LEU	-	-	-	-	-
327,VAL	-	-	-	-	-	-	328,VAL	328,VAL	328,VAL	328,VAL	-	-	-	-	-
328,ARG	-	-	-	-	-	-	329,ARG	329,ARG	329,ARG	329,ARG	-	-	-	-	-
329,ALA	-	-	-	-	-	-	330,ALA	330,ALA	330,ALA	330,ALA	-	-	-	-	-
330,CYS	-	-	-	-	-	-	331,CYS	331,CYS	331,CYS	331,CYS	-	-	-	-	-
331,ASN	-	-	-	-	-	-	332,ASN	332,ASN	332,ASN	332,ASN	-	-	-	-	-
332,GLN	-	-	-	-	-	-	333,GLN	333,GLN	333,GLN	333,GLN	-	-	-	-	-
333,LEU	-	-	-	-	-	-	334,LEU	334,LEU	334,LEU	334,LEU	-	-	-	-	-
334,GLY	-	-	-	-	-	-	335,GLY	335,GLY	335,GLY	335,GLY	-	-	-	-	-
335,GLN	-	-	-	-	-	-	336,GLN	336,GLN	336,GLN	336,GLN	-	-	-	-	-
336,PHE	-	-	-	-	-	-	337,PHE	337,PHE	337,PHE	337,PHE	-	-	-	-	-
337,LEU	-	-	-	-	-	-	338,LEU	338,LEU	338,LEU	338,LEU	-	-	-	-	-
338,GLN	-	-	-	-	-	-	339,GLN	339,GLN	339,GLN	339,GLN	-	-	-	-	-
339,HIS	-	-	-	-	-	-	340,HIS	340,HIS	340,HIS	340,HIS	-	-	-	-	-
340,ARG	-	-	-	-	-	-	341,ARG	341,ARG	341,ARG	341,ARG	-	-	-	-	-
341,GLU	-	-	-	-	-	-	342,GLU	342,GLU	342,GLU	342,GLU	-	-	-	-	-
342,THR	-	-	-	-	-	-	343,THR	343,THR	343,THR	343,THR	-	-	-	-	-
343,ASN	-	-	-	-	-	-	344,ASN	344,ASN	344,ASN	344,ASN	-	-	-	-	-
344,LEU	-	-	-	-	-	-	345,LEU	345,LEU	345,LEU	345,LEU	-	-	-	-	-
345,ARG	-	-	-	-	-	-	346,ARG	346,ARG	346,ARG	346,ARG	-	-	-	-	-
346,TYR	-	-	-	-	-	-	347,TYR	347,TYR	347,TYR	347,TYR	-	-	-	-	-
347,LEU	-	-	-	-	-	-	348,LEU	348,LEU	348,LEU	348,LEU	-	-	-	-	-
348,ALA	-	-	-	-	-	-	349,ALA	349,ALA	349,ALA	349,ALA	-	-	-	-	-
349,LEU	-	-	-	-	-	-	350,LEU	350,LEU	350,LEU	350,LEU	-	-	-	-	-
350,GLU	-	-	-	-	-	-	351,GLU	351,GLU	351,GLU	351,GLU	-	-	-	-	-
351,SER	-	-	-	-	-	-	352,SER	352,SER	352,SER	352,SER	-	-	-	-	-
352,MET	-	-	-	-	-	-	353,MET	353,MET	353,MET	353,MET	-	-	-	-	-
353,CYS	-	-	-	-	-	-	354,CYS	354,CYS	354,CYS	354,CYS	-	-	-	-	-
354,THR	-	-	-	-	-	-	355,THR	355,THR	355,THR	355,THR	-	-	-	-	-
355,LEU	-	-	-	-	-	-	356,LEU	356,LEU	356,LEU	356,LEU	-	-	-	-	-
356,ALA	-	-	-	-	-	-	357,ALA	357,ALA	357,ALA	357,ALA	-	-	-	-	-
357,SER	-	-	-	-	-	-	358,SER	358,SER	358,SER	358,SER	-	-	-	-	-
358,SER	-	-	-	-	-	-	359,SER	359,SER	359,SER	359,SER	-	-	-	-	-
359,GLU	-	-	-	-	-	-	360,GLU	360,GLU	360,GLU	360,GLU	-	-	-	-	-
360,PHE	-	-	-	-	-	-	361,PHE	361,PHE	361,PHE	361,PHE	-	-	-	-	-
361,SER	-	-	-	-	-	-	362,SER	362,SER	362,SER	362,SER	-	-	-	-	-
362,HIS	-	-	-	-	-	-	363,HIS	363,HIS	363,HIS	363,HIS	-	-	-	-	-
363,GLU	-	-	-	-	-	-	364,GLU	364,GLU	364,GLU	364,GLU	-	-	-	-	-
364,ALA	-	-	-	-	-	-	365,ALA	365,ALA	365,ALA	365,ALA	-	-	-	-	-
365,VAL	-	-	-	-	-	-	366,VAL	366,VAL	366,VAL	366,VAL	-	-	-	-	-
366,LYS	-	-	-	-	-	-	367,LYS	367,LYS	367,LYS	367,LYS	-	-	-	-	-
367,THR	-	-	-	-	-	-	368,THR	368,THR	368,THR	368,THR	-	-	-	-	-
368,HIS	-	-	-	-	-	-	369,HIS	369,HIS	369,HIS	369,HIS	-	-	-	-	-
369,ILE	-	-	-	-	-	-	370,ILE	370,ILE	370,ILE	370,ILE	-	-	-	-	-
370,GLU	-	-	-	-	-	-	371,GLU	371,GLU	371,GLU	371,GLU	-	-	-	-	-
371,THR	-	-	-	-	-	-	372,THR	372,THR	372,THR	372,THR	-	-	-	-	-
372,VAL	-	-	-	-	-	-	373,VAL	373,VAL	373,VAL	373,VAL	-	-	-	-	-
373,ILE	-	-	-	-	-	-	374,ILE	374,ILE	374,ILE	374,ILE	-	-	-	-	-
374,ASN	-	-	-	-	-	-	375,ASN	375,ASN	375,ASN	375,ASN	-	-	-	-	-
375,ALA	-	-	-	-	-	-	376,ALA	376,ALA	376,ALA	376,ALA	-	-	-	-	-
376,LEU	-	-	-	-	-	-	377,LEU	377,LEU	377,LEU	377,LEU	-	-	-	-	-
377,LYS	-	-	-	-	-	-	378,LYS	378,LYS	378,LYS	378,LYS	-	-	-	-	-
378,THR	-	-	-	-	-	-	379,THR	379,THR	379,THR	379,THR	-	-	-	-	-
379,GLU	-	-	-	-	-	-	380,GLU	380,GLU	380,GLU	380,GLU	-	-	-	-	-
380,ARG	-	-	-	-	-	-	381,ARG	381,ARG	381,ARG	381,ARG	-	-	-	-	-
381,ASP	-	-	-	-	-	-	382,ASP	382,ASP	382,ASP	382,ASP	-	-	-	-	-
382,VAL	-	-	-	-	-	-	383,VAL	383,VAL	383,VAL	383,VAL	-	-	-	-	-
383,SER	-	-	-	-	-	-	384,SER	384,SER	384,SER	384,SER	-	-	-	-	-
384,VAL	-	-	-	-	-	-	385,VAL	385,VAL	385,VAL	385,VAL	-	-	-	-	-
385,ARG	-	-	-	-	-	-	386,ARG	386,ARG	386,ARG	386,ARG	-	-	-	-	-
386,GLN	-	-	-	-	-	-	387,GLN	387,GLN	387,GLN	387,GLN	-	-	-	-	-
387,ARG	-	-	-	-	-	-	388,ARG	388,ARG	388,ARG	388,ARG	-	-	-	-	-
388,ALA	-	-	-	-	-	-	389,ALA	389,ALA	389,ALA	389,ALA	-	-	-	-	-
389,VAL	-	-	-	-	-	-	390,VAL	390,VAL	390,VAL	390,VAL	-	-	-	-	-
390,ASP	-	-	-	-	-	-	391,ASP	391,ASP	391,ASP	391,ASP	-	-	-	-	-
391,LEU	-	-	-	-	-	-	392,LEU	392,LEU	392,LEU	392,LEU	-	-	-	-	-
392,LEU	-	-	-	-	-	-	393,LEU	393,LEU	393,LEU	393,LEU	-	-	-	-	-
393,TYR	-	-	-	-	-	-	394,TYR	394,TYR	394,TYR	394,TYR	-	-	-	-	-
394,ALA	-	-	-	-	-	-	395,ALA	395,ALA	395,ALA	395,ALA	-	-	-	-	-
395,MET	-	-	-	-	-	-	396,MET	396,MET	396,MET	396,MET	-	-	-	-	-
396,CYS	-	-	-	-	-	-	397,CYS	397,CYS	397,CYS	397,CYS	-	-	-	-	-
397,ASP	-	-	-	-	-	-	398,ASP	398,ASP	398,ASP	398,ASP	-	-	-	-	-
398,ARG	-	-	-	-	-	-	399,ARG	399,ARG	399,ARG	399,ARG	-	-	-	-	-
399,SER	-	-	-	-	-	-	400,SER	400,SER	400,SER	400,SER	-	-	-	-	-
400,ASN	-	-	-	-	-	-	401,ASN	401,ASN	401,ASN	401,ASN	-	-	-	-	-
401,ALA	-	-	-	-	-	-	402,ALA	402,ALA	402,ALA	402,ALA	-	-	-	-	-
402,GLN	-	-	-	-	-	-	403,GLN	403,GLN	403,GLN	403,GLN	-	-	-	-	-
403,GLN	-	-	-	-	-	-	404,GLN	404,GLN	404,GLN	404,GLN	-	-	-	-	-
404,ILE	-	-	-	-	-	-	405,ILE	405,ILE	405,ILE	405,ILE	-	-	-	-	-
405,VAL	-	-	-	-	-	-	406,VAL	406,VAL	406,VAL	406,VAL	-	-	-	-	-
406,ALA	-	-	-	-	-	-	407,ALA	407,ALA	407,ALA	407,ALA	-	-	-	-	-
407,GLU	-	-	-	-	-	-	408,GLU	408,GLU	408,GLU	408,GLU	-	-	-	-	-
408,MET	-	-	-	-	-	-	409,MET	409,MET	409,MET	409,MET	-	-	-	-	-
409,LEU	-	-	-	-	-	-	410,LEU	410,LEU	410,LEU	410,LEU	-	-	-	-	-
410,SER	-	-	-	-	-	-	411,SER	411,SER	411,SER	411,SER	-	-	-	-	-
411,TYR	-	-	-	-	-	-	412,TYR	412,TYR	412,TYR	412,TYR	-	-	-	-	-
412,LEU	-	-	-	-	-	-	413,LEU	413,LEU	413,LEU	413,LEU	-	-	-	-	-
413,GLU	-	-	-	-	-	-	414,GLU	414,GLU	414,GLU	414,GLU	-	-	-	-	-
414,THR	-	-	-	-	-	-	415,THR	415,THR	415,THR	415,THR	-	-	-	-	-
415,ALA	-	-	-	-	-	-	416,ALA	416,ALA	416,ALA	416,ALA	-	-	-	-	-
416,ASP	-	-	-	-	-	-	417,ASP	417,ASP	417,ASP	417,ASP	-	-	-	-	-
417,TYR	-	-	-	-	-	-	418,TYR	418,TYR	418,TYR	418,TYR	-	-	-	-	-
418,SER	-	-	-	-	-	-	419,SER	419,SER	419,SER	419,SER	-	-	-	-	-
419,ILE	-	-	-	-	-	-	420,ILE	420,ILE	420,ILE	420,ILE	-	-	-	-	-
420,ARG	-	-	-	-	-	-	421,ARG	421,ARG	421,ARG	421,ARG	-	-	-	-	-
421,GLU	-	-	-	-	-	-	422,GLU	422,GLU	422,GLU	422,GLU	-	-	-	-	-
422,GLU	-	-	-	-	-	-	423,GLU	423,GLU	423,GLU	423,GLU	-	-	-	-	-
423,ILE	-	-	-	-	-	-	424,ILE	424,ILE	424,ILE	424,ILE	-	-	-	-	-
424,VAL	-	-	-	-	-	-	425,VAL	425,VAL	425,VAL	425,VAL	-	-	-	-	-
425,LEU	-	-	-	-	-	-	426,LEU	426,LEU	426,LEU	426,LEU	-	-	-	-	-
426,LYS	-	-	-	-	-	-	427,LYS	427,LYS	427,LYS	427,LYS	-	-	-	-	-
427,VAL	-	-	-	-	-	-	428,VAL	428,VAL	428,VAL	428,VAL	-	-	-	-	-
428,ALA	-	-	-	-	-	-	429,ALA	429,ALA	429,ALA	429,ALA	-	-	-	-	-
429,ILE	-	-	-	-	-	-	430,ILE	430,ILE	430,ILE	430,ILE	-	-	-	-	-
430,LEU	-	-	-	-	-	-	431,LEU	431,LEU	431,LEU	431,LEU	-	-	-	-	-
431,ALA	-	-	-	-	-	-	432,ALA	432,ALA	432,ALA	432,ALA	-	-	-	-	-
432,GLU	-	-	-	-	-	-	433,GLU	433,GLU	433,GLU	433,GLU	-	-	-	-	-
433,LYS	-	-	-	-	-	-	434,LYS	434,LYS	434,LYS	434,LYS	-	-	-	-	-
434,TYR	-	-	-	-	-	-	435,TYR	435,TYR	435,TYR	435,TYR	-	-	-	-	-
435,ALA	-	-	-	-	-	-	436,ALA	436,ALA	436,ALA	436,ALA	-	-	-	-	-
436,VAL	-	-	-	-	-	-	437,VAL	437,VAL	437,VAL	437,VAL	-	-	-	-	-
437,ASP	-	-	-	-	-	-	438,ASP	438,ASP	438,ASP	438,ASP	-	-	-	-	-
438,TYR	-	-	-	-	-	-	439,TYR	439,TYR	439,TYR	439,TYR	-	-	-	-	-
439,THR	-	-	-	-	-	-	440,THR	440,THR	440,THR	440,THR	-	-	-	-	-
440,TRP	-	-	-	-	-	-	441,TRP	441,TRP	441,TRP	441,TRP	-	-	-	-	-
441,TYR	-	-	-	-	-	-	442,TYR	442,TYR	442,TYR	442,TYR	-	-	-	-	-
442,VAL	-	-	-	-	-	-	443,VAL	443,VAL	443,VAL	443,VAL	-	-	-	-	-
443,ASP	-	-	-	-	-	-	444,ASP	444,ASP	444,ASP	444,ASP	-	-	-	-	-
444,THR	-	-	-	-	-	-	445,THR	445,THR	445,THR	445,THR	-	-	-	-	-
445,ILE	-	-	-	-	-	-	446,ILE	446,ILE	446,ILE	446,ILE	-	-	-	-	-
446,LEU	-	-	-	-	-	-	447,LEU	447,LEU	447,LEU	447,LEU	-	-	-	-	-
447,ASN	-	-	-	-	-	-	448,ASN	448,ASN	448,ASN	448,ASN	-	-	-	-	-
448,LEU	-	-	-	-	-	-	449,LEU	449,LEU	449,LEU	449,LEU	-	-	-	-	-
449,ILE	-	-	-	-	-	-	450,ILE	450,ILE	450,ILE	450,ILE	-	-	-	-	-
450,ARG	-	-	-	-	-	-	451,ARG	451,ARG	451,ARG	451,ARG	-	-	-	-	-
451,ILE	-	-	-	-	-	-	452,ILE	452,ILE	452,ILE	452,ILE	-	-	-	-	-
452,ALA	-	-	-	-	-	-	453,ALA	453,ALA	453,ALA	453,ALA	-	-	-	-	-
453,GLY	-	-	-	-	-	-	454,GLY	454,GLY	454,GLY	454,GLY	-	-	-	-	-
454,ASP	-	-	-	-	-	-	455,ASP	455,ASP	455,ASP	455,ASP	-	-	-	-	-
455,TYR	-	-	-	-	-	-	456,TYR	456,TYR	456,TYR	456,TYR	-	-	-	-	-
456,VAL	-	-	-	-	-	-	457,VAL	457,VAL	457,VAL	457,VAL	-	-	-	-	-
457,SER	-	-	-	-	-	-	458,SER	458,SER	458,SER	458,SER	-	-	-	-	-
458,GLU	-	-	-	-	-	-	459,GLU	459,GLU	459,GLU	459,GLU	-	-	-	-	-
459,GLU	-	-	-	-	-	-	460,GLU	460,GLU	460,GLU	460,GLU	-	-	-	-	-
460,VAL	-	-	-	-	-	-	461,VAL	461,VAL	461,VAL	461,VAL	-	-	-	-	-
461,TRP	-	-	-	-	-	-	462,TRP	462,TRP	462,TRP	462,TRP	-	-	-	-	-
462,TYR	-	-	-	-	-	-	463,TYR	463,TYR	463,TYR	463,TYR	-	-	-	-	-
463,ARG	-	-	-	-	-	-	464,ARG	464,ARG	464,ARG	464,ARG	-	-	-	-	-
464,VAL	-	-	-	-	-	-	465,VAL	465,VAL	465,VAL	465,VAL	-	-	-	-	-
465,ILE	-	-	-	-	-	-	466,ILE	466,ILE	466,ILE	466,ILE	-	-	-	-	-
466,GLN	-	-	-	-	-	-	467,GLN	467,GLN	467,GLN	467,GLN	-	-	-	-	-
467,ILE	-	-	-	-	-	-	468,ILE	468,ILE	468,ILE	468,ILE	-	-	-	-	-
468,VAL	-	-	-	-	-	-	469,VAL	469,VAL	469,VAL	469,VAL	-	-	-	-	-
469,ILE	-	-	-	-	-	-	470,ILE	470,ILE	470,ILE	470,ILE	-	-	-	-	-
470,ASN	-	-	-	-	-	-	471,ASN	471,ASN	471,ASN	471,ASN	-	-	-	-	-
471,ARG	-	-	-	-	-	-	472,ARG	472,ARG	472,ARG	472,ARG	-	-	-	-	-
472,ASP	-	-	-	-	-	-	473,ASP	473,ASP	473,ASP	473,ASP	-	-	-	-	-
473,ASP	-	-	-	-	-	-	474,ASP	474,ASP	474,ASP	474,ASP	-	-	-	-	-
474,VAL	-	-	-	-	-	-	475,VAL	475,VAL	475,VAL	475,VAL	-	-	-	-	-
475,GLN	-	-	-	-	-	-	476,GLN	476,GLN	476,GLN	476,GLN	-	-	-	-	-
476,GLY	-	-	-	-	-	-	477,GLY	477,GLY	477,GLY	477,GLY	-	-	-	-	-
477,TYR	-	-	-	-	-	-	478,TYR	478,TYR	478,TYR	478,TYR	-	-	-	-	-
478,ALA	-	-	-	-	-	-	479,ALA	479,ALA	479,ALA	479,ALA	-	-	-	-	-
479,ALA	-	-	-	-	-	-	480,ALA	480,ALA	480,ALA	480,ALA	-	-	-	-	-
480,LYS	-	-	-	-	-	-	481,LYS	481,LYS	481,LYS	481,LYS	-	-	-	-	-
481,THR	-	-	-	-	-	-	482,THR	482,THR	482,THR	482,THR	-	-	-	-	-
482,VAL	-	-	-	-	-	-	483,VAL	483,VAL	483,VAL	483,VAL	-	-	-	-	-
483,PHE	-	-	-	-	-	-	484,PHE	484,PHE	484,PHE	484,PHE	-	-	-	-	-
484,GLU	-	-	-	-	-	-	485,GLU	485,GLU	485,GLU	485,GLU	-	-	-	-	-
485,ALA	-	-	-	-	-	-	486,ALA	486,ALA	486,ALA	486,ALA	-	-	-	-	-
486,LEU	-	-	-	-	-	-	487,LEU	487,LEU	487,LEU	487,LEU	-	-	-	-	-
487,GLN	-	-	-	-	-	-	488,GLN	488,GLN	488,GLN	488,GLN	-	-	-	-	-
488,ALA	-	-	-	-	-	-	489,ALA	489,ALA	489,ALA	489,ALA	-	-	-	-	-
489,PRO	-	-	-	-	-	-	490,PRO	490,PRO	490,PRO	490,PRO	-	-	-	-	-
490,ALA	-	-	-	-	-	-	491,ALA	491,ALA	491,ALA	491,ALA	-	-	-	-	-
491,CYS	-	-	-	-	-	-	492,CYS	492,CYS	492,CYS	492,CYS	-	-	-	-	-
492,HIS	-	-	-	-	-	-	493,HIS	493,HIS	493,HIS	493,HIS	-	-	-	-	-
493,GLU	-	-	-	-	-	-	494,GLU	494,GLU	494,GLU	494,GLU	-	-	-	-	-
494,ASN	-	-	-	-	-	-	495,ASN	495,ASN	495,ASN	495,ASN	-	-	-	-	-
495,LEU	-	-	-	-	-	-	496,LEU	496,LEU	496,LEU	496,LEU	-	-	-	-	-
496,VAL	-	-	-	-	-	-	497,VAL	497,VAL	497,VAL	497,VAL	-	-	-	-	-
497,LYS	-	-	-	-	-	-	498,LYS	498,LYS	498,LYS	498,LYS	-	-	-	-	-
498,VAL	-	-	-	-	-	-	499,VAL	499,VAL	499,VAL	499,VAL	-	-	-	-	-
499,GLY	-	-	-	-	-	-	500,GLY	500,GLY	500,GLY	500,GLY	-	-	-	-	-
500,GLY	-	-	-	-	-	-	501,GLY	501,GLY	501,GLY	501,GLY	-	-	-	-	-
501,TYR	-	-	-	-	-	-	502,TYR	502,TYR	502,TYR	502,TYR	-	-	-	-	-
502,ILE	-	-	-	-	-	-	503,ILE	503,ILE	503,ILE	503,ILE	-	-	-	-	-
503,LEU	-	-	-	-	-	-	504,LEU	504,LEU	504,LEU	504,LEU	-	-	-	-	-
504,GLY	-	-	-	-	-	-	505,GLY	505,GLY	505,GLY	505,GLY	-	-	-	-	-
505,GLU	-	-	-	-	-	-	506,GLU	506,GLU	506,GLU	506,GLU	-	-	-	-	-
506,PHE	-	-	-	-	-	-	507,PHE	507,PHE	507,PHE	507,PHE	-	-	-	-	-
507,GLY	-	-	-	-	-	-	508,GLY	508,GLY	508,GLY	508,GLY	-	-	-	-	-
508,ASN	-	-	-	-	-	-	509,ASN	509,ASN	509,ASN	509,ASN	-	-	-	-	-
509,LEU	-	-	-	-	-	-	510,LEU	510,LEU	510,LEU	510,LEU	-	-	-	-	-
510,ILE	-	-	-	-	-	-	511,ILE	511,ILE	511,ILE	511,ILE	-	-	-	-	-
511,ALA	-	-	-	-	-	-	512,ALA	512,ALA	512,ALA	512,ALA	-	-	-	-	-
512,GLY	-	-	-	-	-	-	513,GLY	513,GLY	513,GLY	513,GLY	-	-	-	-	-
513,ASP	-	-	-	-	-	-	514,ASP	514,ASP	514,ASP	514,ASP	-	-	-	-	-
514,PRO	-	-	-	-	-	-	515,PRO	515,PRO	515,PRO	515,PRO	-	-	-	-	-
515,ARG	-	-	-	-	-	-	516,ARG	516,ARG	516,ARG	516,ARG	-	-	-	-	-
516,SER	-	-	-	-	-	-	517,SER	517,SER	517,SER	517,SER	-	-	-	-	-
517,SER	-	-	-	-	-	-	518,SER	518,SER	518,SER	518,SER	-	-	-	-	-
518,PRO	-	-	-	-	-	-	519,PRO	519,PRO	519,PRO	519,PRO	-	-	-	-	-
519,LEU	-	-	-	-	-	-	520,LEU	520,LEU	520,LEU	520,LEU	-	-	-	-	-
520,ILE	-	-	-	-	-	-	521,ILE	521,ILE	521,ILE	521,ILE	-	-	-	-	-
521,GLN	-	-	-	-	-	-	522,GLN	522,GLN	522,GLN	522,GLN	-	-	-	-	-
522,PHE	-	-	-	-	-	-	523,PHE	523,PHE	523,PHE	523,PHE	-	-	-	-	-
523,ASN	-	-	-	-	-	-	524,ASN	524,ASN	524,ASN	524,ASN	-	-	-	-	-
524,LEU	-	-	-	-	-	-	525,LEU	525,LEU	525,LEU	525,LEU	-	-	-	-	-
525,LEU	-	-	-	-	-	-	526,LEU	526,LEU	526,LEU	526,LEU	-	-	-	-	-
526,HIS	-	-	-	-	-	-	527,HIS	527,HIS	527,HIS	527,HIS	-	-	-	-	-
527,SER	-	-	-	-	-	-	528,SER	528,SER	528,SER	528,SER	-	-	-	-	-
528,LYS	-	-	-	-	-	-	529,LYS	529,LYS	529,LYS	529,LYS	-	-	-	-	-
529,PHE	-	-	-	-	-	-	530,PHE	530,PHE	530,PHE	530,PHE	-	-	-	-	-
530,HIS	-	-	-	-	-	-	531,HIS	531,HIS	531,HIS	531,HIS	-	-	-	-	-
531,LEU	-	-	-	-	-	-	532,LEU	532,LEU	532,LEU	532,LEU	-	-	-	-	-
532,CYS	-	-	-	-	-	-	533,CYS	533,CYS	533,CYS	533,CYS	-	-	-	-	-
533,SER	-	-	-	-	-	-	534,SER	534,SER	534,SER	534,SER	-	-	-	-	-
534,VAL	-	-	-	-	-	-	535,VAL	535,VAL	535,VAL	535,VAL	-	-	-	-	-
535,PRO	-	-	-	-	-	-	536,PRO	536,PRO	536,PRO	536,PRO	-	-	-	-	-
536,THR	-	-	-	-	-	-	537,THR	537,THR	537,THR	537,THR	-	-	-	-	-
537,ARG	-	-	-	-	-	-	538,ARG	538,ARG	538,ARG	538,ARG	-	-	-	-	-
538,ALA	-	-	-	-	-	-	539,ALA	539,ALA	539,ALA	539,ALA	-	-	-	-	-
539,LEU	-	-	-	-	-	-	540,LEU	540,LEU	540,LEU	540,LEU	-	-	-	-	-
540,LEU	-	-	-	-	-	-	541,LEU	541,LEU	541,LEU	541,LEU	-	-	-	-	-
541,LEU	-	-	-	-	-	-	542,LEU	542,LEU	542,LEU	542,LEU	-	-	-	-	-
542,SER	-	-	-	-	-	-	543,SER	543,SER	543,SER	543,SER	-	-	-	-	-
543,THR	-	-	-	-	-	-	544,THR	544,THR	544,THR	544,THR	-	-	-	-	-
544,TYR	-	-	-	-	-	-	545,TYR	545,TYR	545,TYR	545,TYR	-	-	-	-	-
545,ILE	-	-	-	-	-	-	546,ILE	546,ILE	546,ILE	546,ILE	-	-	-	-	-
546,LYS	-	-	-	-	-	-	547,LYS	547,LYS	547,LYS	547,LYS	-	-	-	-	-
547,PHE	-	-	-	-	-	-	548,PHE	548,PHE	548,PHE	548,PHE	-	-	-	-	-
548,VAL	-	-	-	-	-	-	549,VAL	549,VAL	549,VAL	549,VAL	-	-	-	-	-
549,ASN	-	-	-	-	-	-	550,ASN	550,ASN	550,ASN	550,ASN	-	-	-	-	-
550,LEU	-	-	-	-	-	-	551,LEU	551,LEU	551,LEU	551,LEU	-	-	-	-	-
551,PHE	-	-	-	-	-	-	552,PHE	552,PHE	552,PHE	552,PHE	-	-	-	-	-
552,PRO	-	-	-	-	-	-	553,PRO	553,PRO	553,PRO	553,PRO	-	-	-	-	-
553,GLU	-	-	-	-	-	-	554,GLU	554,GLU	554,GLU	554,GLU	-	-	-	-	-
554,VAL	-	-	-	-	-	-	555,VAL	555,VAL	555,VAL	555,VAL	-	-	-	-	-
555,LYS	-	-	-	-	-	-	556,LYS	556,LYS	556,LYS	556,LYS	-	-	-	-	-
556,ALA	-	-	-	-	-	-	557,ALA	557,ALA	557,ALA	557,ALA	-	-	-	-	-
557,THR	-	-	-	-	-	-	558,THR	558,THR	558,THR	558,THR	-	-	-	-	-
558,ILE	-	-	-	-	-	-	559,ILE	559,ILE	559,ILE	559,ILE	-	-	-	-	-
559,GLN	-	-	-	-	-	-	560,GLN	560,GLN	560,GLN	560,GLN	-	-	-	-	-
560,ASP	-	-	-	-	-	-	561,ASP	561,ASP	561,ASP	561,ASP	-	-	-	-	-
561,VAL	-	-	-	-	-	-	562,VAL	562,VAL	562,VAL	562,VAL	-	-	-	-	-
562,LEU	-	-	-	-	-	-	563,LEU	563,LEU	563,LEU	563,LEU	-	-	-	-	-
563,ARG	-	-	-	-	-	-	564,ARG	564,ARG	564,ARG	564,ARG	-	-	-	-	-
564,SER	-	-	-	-	-	-	565,SER	565,SER	565,SER	565,SER	-	-	-	-	-
565,ASP	-	-	-	-	-	-	566,ASP	566,ASP	566,ASP	566,ASP	-	-	-	-	-
566,SER	-	-	-	-	-	-	567,SER	567,SER	567,SER	567,SER	-	-	-	-	-
567,GLN	-	-	-	-	-	-	568,GLN	568,GLN	568,GLN	568,GLN	-	-	-	-	-
568,LEU	-	-	-	-	-	-	569,LEU	569,LEU	569,LEU	569,LEU	-	-	-	-	-
569,LYS	-	-	-	-	-	-	570,LYS	570,LYS	570,LYS	570,LYS	-	-	-	-	-
570,ASN	-	-	-	-	-	-	571,ASN	571,ASN	571,ASN	571,ASN	-	-	-	-	-
571,ALA	-	-	-	-	-	-	572,ALA	572,ALA	572,ALA	572,ALA	-	-	-	-	-
572,ASP	-	-	-	-	-	-	573,ASP	573,ASP	573,ASP	573,ASP	-	-	-	-	-
573,VAL	-	-	-	-	-	-	574,VAL	574,VAL	574,VAL	574,VAL	-	-	-	-	-
574,GLU	-	-	-	-	-	-	575,GLU	575,GLU	575,GLU	575,GLU	-	-	-	-	-
575,LEU	-	-	-	-	-	-	576,LEU	576,LEU	576,LEU	576,LEU	-	-	-	-	-
576,GLN	-	-	-	-	-	-	577,GLN	577,GLN	577,GLN	577,GLN	-	-	-	-	-
577,GLN	-	-	-	-	-	-	578,GLN	578,GLN	578,GLN	578,GLN	-	-	-	-	-
578,ARG	-	-	-	-	-	-	579,ARG	579,ARG	579,ARG	579,ARG	-	-	-	-	-
579,ALA	-	-	-	-	-	-	580,ALA	580,ALA	580,ALA	580,ALA	-	-	-	-	-
580,VAL	-	-	-	-	-	-	581,VAL	581,VAL	581,VAL	581,VAL	-	-	-	-	-
581,GLU	-	-	-	-	-	-	582,GLU	582,GLU	582,GLU	582,GLU	-	-	-	-	-
582,TYR	-	-	-	-	-	-	583,TYR	583,TYR	583,TYR	583,TYR	-	-	-	-	-
583,LEU	-	-	-	-	-	-	584,LEU	584,LEU	584,LEU	584,LEU	-	-	-	-	-
584,ARG	-	-	-	-	-	-	585,ARG	585,ARG	585,ARG	585,ARG	-	-	-	-	-
585,LEU	-	-	-	-	-	-	586,LEU	586,LEU	586,LEU	586,LEU	-	-	-	-	-
586,SER	-	-	-	-	-	-	587,SER	587,SER	587,SER	587,SER	-	-	-	-	-
587,THR	-	-	-	-	-	-	588,THR	588,THR	588,THR	588,THR	-	-	-	-	-
588,VAL	-	-	-	-	-	-	589,VAL	589,VAL	589,VAL	589,VAL	-	-	-	-	-
589,ALA	-	-	-	-	-	-	590,ALA	590,ALA	590,ALA	590,ALA	-	-	-	-	-
590,SER	-	-	-	-	-	-	591,SER	591,SER	591,SER	591,SER	-	-	-	-	-
591,THR	-	-	-	-	-	-	592,THR	592,THR	592,THR	592,THR	-	-	-	-	-
592,ASP	-	-	-	-	-	-	593,ASP	593,ASP	593,ASP	593,ASP	-	-	-	-	-
593,ILE	-	-	-	-	-	-	594,ILE	594,ILE	594,ILE	594,ILE	-	-	-	-	-
594,LEU	-	-	-	-	-	-	595,LEU	595,LEU	595,LEU	595,LEU	-	-	-	-	-
595,ALA	-	-	-	-	-	-	596,ALA	596,ALA	596,ALA	596,ALA	-	-	-	-	-
596,THR	-	-	-	-	-	-	597,THR	597,THR	597,THR	597,THR	-	-	-	-	-
597,VAL	-	-	-	-	-	-	598,VAL	598,VAL	598,VAL	598,VAL	-	-	-	-	-
598,LEU	-	-	-	-	-	-	599,LEU	599,LEU	599,LEU	599,LEU	-	-	-	-	-
599,GLU	-	-	-	-	-	-	600,GLU	600,GLU	600,GLU	600,GLU	-	-	-	-	-
600,GLU	-	-	-	-	-	-	601,GLU	601,GLU	601,GLU	601,GLU	-	-	-	-	-
601,MET	-	-	-	-	-	-	602,MET	602,MET	602,MET	602,MET	-	-	-	-	-
602,PRO	-	-	-	-	-	-	603,PRO	603,PRO	603,PRO	603,PRO	-	-	-	-	-
603,PRO	-	-	-	-	-	-	604,PRO	604,PRO	604,PRO	604,PRO	-	-	-	-	-
604,PHE	-	-	-	-	-	-	605,PHE	605,PHE	605,PHE	605,PHE	-	-	-	-	-
605,PRO	-	-	-	-	-	-	606,PRO	606,PRO	606,PRO	606,PRO	-	-	-	-	-
606,GLU	-	-	-	-	-	-	607,GLU	607,GLU	607,GLU	607,GLU	-	-	-	-	-
607,ARG	-	-	-	-	-	-	608,ARG	608,ARG	608,ARG	608,ARG	-	-	-	-	-
608,GLU	-	-	-	-	-	-	609,GLU	609,GLU	609,GLU	609,GLU	-	-	-	-	-
609,SER	-	-	-	-	-	-	610,SER	610,SER	610,SER	610,SER	-	-	-	-	-
610,SER	-	-	-	-	-	-	611,SER	611,SER	611,SER	611,SER	-	-	-	-	-
611,ILE	-	-	-	-	-	-	612,ILE	612,ILE	612,ILE	612,ILE	-	-	-	-	-
612,LEU	-	-	-	-	-	-	613,LEU	613,LEU	613,LEU	613,LEU	-	-	-	-	-
613,ALA	-	-	-	-	-	-	614,ALA	614,ALA	614,ALA	614,ALA	-	-	-	-	-
614,LYS	-	-	-	-	-	-	615,LYS	615,LYS	615,LYS	615,LYS	-	-	-	-	-
615,LEU	-	-	-	-	-	-	616,LEU	616,LEU	616,LEU	616,LEU	-	-	-	-	-
616,LYS	-	-	-	-	-	-	617,LYS	617,LYS	617,LYS	617,LYS	-	-	-	-	-
617,LYS	-	-	-	-	-	-	618,LYS	618,LYS	618,LYS	618,LYS	-	-	-	-	-
618,LYS	-	-	-	-	-	-	619,LYS	619,LYS	619,LYS	619,LYS	-	-	-	-	-
619,LYS	-	-	-	-	-	-	620,LYS	620,LYS	620,LYS	620,LYS	-	-	-	-	-
620,GLY	-	-	-	-	-	-	621,GLY	621,GLY	621,GLY	621,GLY	-	-	-	-	-
621,PRO	-	-	-	-	-	-	622,GLY	622,GLY	622,GLY	622,GLY	-	-	-	-	-
622,SER	-	-	-	-	-	-	623,SER	623,SER	623,SER	623,SER	-	-	-	-	-
623,THR	-	-	-	-	-	-	-	-	-	-	-	-	-	-	-
624,VAL	-	-	-	-	-	-	-	-	-	-	-	-	-	-	-
625,THR	-	-	-	-	-	-	-	-	-	-	-	-	-	-	-
626,ASP	-	-	-	-	-	-	-	-	-	-	-	-	-	-	-
627,LEU	-	-	-	-	-	-	-	-	-	-	-	-	-	-	-
628,GLU	-	-	-	-	-	-	-	-	-	-	-	-	-	-	-
629,GLU	-	-	-	-	-	-	-	-	-	-	-	-	-	-	-
630,THR	-	-	-	-	-	-	-	-	-	-	-	-	-	-	-
631,LYS	-	-	-	-	-	-	-	-	-	-	-	-	-	-	-
632,ARG	-	-	-	-	-	-	-	-	-	-	-	-	-	-	-
633,GLU	-	-	-	-	-	-	-	-	-	-	-	-	-	-	-
634,ARG	-	-	-	-	-	-	-	-	-	-	-	-	-	-	-
635,SER	-	-	-	-	-	-	-	-	-	-	-	-	-	-	-
636,ILE	-	-	-	-	-	-	-	-	-	-	-	-	-	-	-
637,ASP	-	-	-	-	-	-	-	-	-	-	-	-	-	-	-
638,VAL	-	-	-	-	-	-	-	-	-	-	-	-	-	-	-
639,ASN	-	-	-	-	-	-	-	-	-	-	-	-	-	-	-
640,GLY	-	-	-	-	-	-	-	-	-	-	-	-	-	-	-
641,GLY	-	-	-	-	-	-	-	-	-	-	-	-	-	-	-
642,PRO	-	-	-	-	-	-	-	-	-	-	-	-	-	-	-
643,GLU	-	-	-	-	-	-	-	-	-	-	-	-	-	-	-
644,PRO	-	-	-	-	-	-	-	-	-	-	-	-	-	-	-
645,VAL	-	-	-	-	-	-	-	-	-	-	-	-	-	-	-
646,PRO	-	-	-	-	-	-	-	-	-	-	-	-	-	-	-
647,ALA	-	-	-	-	-	-	-	-	-	-	-	-	-	-	-
648,SER	-	-	-	-	-	-	-	-	-	-	-	-	-	-	-
649,THR	-	-	-	-	-	-	-	-	-	-	-	-	-	-	-
650,SER	-	-	-	-	-	-	-	-	-	-	-	-	-	-	-
651,ALA	-	-	-	-	-	-	-	-	-	-	-	-	-	-	-
652,ALA	-	-	-	-	-	-	-	-	-	-	-	-	-	-	-
653,SER	-	-	-	-	-	-	-	-	-	-	-	-	-	-	-
654,THR	-	-	-	-	-	-	-	-	-	-	-	-	-	-	-
655,PRO	-	-	-	-	-	-	-	-	-	-	-	-	-	-	-
656,SER	-	-	-	-	-	-	-	-	-	-	-	-	-	-	-
657,PRO	-	-	-	-	-	-	-	-	-	-	-	-	-	-	-
658,SER	-	-	-	-	-	-	-	-	-	-	-	-	-	-	-
659,ALA	-	-	-	-	-	-	-	-	-	-	-	-	-	-	-
660,ASP	-	-	-	-	-	-	-	-	-	-	-	-	-	-	-
661,LEU	-	-	-	-	-	-	-	-	-	-	-	-	-	-	-
662,LEU	-	-	-	-	-	-	-	-	-	-	-	-	-	-	-
663,GLY	-	-	-	-	-	-	-	-	-	-	-	-	-	-	-
664,LEU	-	-	-	-	-	-	-	-	-	-	-	-	-	-	-
665,GLY	-	-	-	-	-	-	-	-	-	-	-	-	-	-	-
666,ALA	-	-	-	-	-	-	-	-	-	-	-	-	-	-	-
667,VAL	-	-	-	-	-	-	-	-	-	-	-	-	-	-	-
668,PRO	-	-	-	-	-	-	-	-	-	-	-	-	-	-	-
669,PRO	-	-	-	-	-	-	-	-	-	-	-	-	-	-	-
670,ALA	-	-	-	-	-	-	-	-	-	-	-	-	-	-	-
671,PRO	-	-	-	-	-	-	-	-	-	-	-	-	-	-	-
672,THR	-	-	-	-	-	-	-	-	-	-	-	-	-	-	-
673,GLY	-	-	-	-	-	-	-	-	-	-	-	-	-	-	-
674,PRO	-	-	-	-	-	-	-	-	-	-	-	-	-	-	-
675,PRO	-	-	-	-	-	-	-	-	-	-	-	-	-	-	-
676,PRO	-	-	-	-	-	-	-	-	-	-	-	-	-	-	-
677,SER	-	-	-	-	-	-	-	-	-	-	-	-	-	-	-
678,SER	-	-	-	-	-	-	-	-	-	-	-	-	-	-	-
679,GLY	-	-	-	-	-	-	-	-	-	-	-	-	-	-	-
680,GLY	-	-	-	-	-	-	-	-	-	-	-	-	-	-	-
681,GLY	-	-	-	-	-	-	-	-	-	-	-	-	-	-	-
682,LEU	-	-	-	-	-	-	-	-	-	-	-	-	-	-	-
683,LEU	-	-	-	-	-	-	-	-	-	-	-	-	-	-	-
684,VAL	-	-	-	-	-	-	-	-	-	-	-	-	-	-	-
685,ASP	-	-	-	-	-	-	-	-	-	-	-	-	-	-	-
686,VAL	-	-	-	-	-	-	-	-	-	-	-	-	-	-	-
687,PHE	-	-	-	-	-	-	-	-	-	-	-	-	-	-	-
688,SER	-	-	-	-	-	-	-	-	-	-	-	-	-	-	-
689,ASP	-	-	-	-	-	-	-	-	-	-	-	-	-	-	-
690,SER	-	-	-	-	690,SER	690,SER	-	-	-	-	-	-	-	-	-
691,ALA	-	-	-	-	691,PRO	691,PRO	-	-	-	-	-	-	-	-	-
692,SER	-	692,GLY	692,GLY	-	692,GLY	692,GLY	-	-	-	-	-	-	-	-	-
693,ALA	-	693,SER	693,SER	-	693,ILE	693,ILE	-	-	-	-	-	-	-	-	-
694,VAL	-	694,PRO	694,PRO	-	694,LEU	694,LEU	-	-	-	-	-	-	-	-	-
695,ALA	-	695,GLY	695,GLY	-	695,ALA	695,ALA	-	-	-	-	-	-	-	-	-
696,PRO	-	696,ILE	696,ILE	-	696,PRO	696,PRO	-	-	-	-	-	-	-	-	-
697,LEU	-	697,ARG	697,ARG	-	697,LEU	697,LEU	-	-	-	-	-	-	-	-	-
698,ALA	-	698,LEU	698,LEU	-	698,ALA	698,ALA	-	-	-	-	-	-	-	-	-
699,PRO	-	699,GLY	699,GLY	-	699,PRO	699,PRO	-	-	-	-	-	-	-	-	-
700,GLY	-	700,SER	700,SER	-	700,GLY	700,GLY	-	-	-	-	-	-	-	-	-
701,SER	701,SER	701,SER	701,SER	701,SER	701,SER	701,SER	-	-	-	-	701,SER	701,SER	701,SER	-	701,SER
702,GLU	702,GLU	702,GLU	702,GLU	702,GLU	702,GLU	702,GLU	-	-	-	-	702,GLU	702,GLU	702,GLU	702,GLU	702,GLU
703,ASP	703,ASP	703,ASP	703,ASP	703,ASP	703,ASP	703,ASP	-	-	-	-	703,ASP	703,ASP	703,ASP	703,ASP	703,ASP
704,ASN	704,ASN	704,ASN	704,ASN	704,ASN	704,ASN	704,ASN	-	-	-	-	704,ASN	704,ASN	704,ASN	704,ASN	704,ASN
705,PHE	705,PHE	705,PHE	705,PHE	705,PHE	705,PHE	705,PHE	-	-	-	-	705,PHE	705,PHE	705,PHE	705,PHE	705,PHE
706,ALA	706,ALA	706,ALA	706,ALA	706,ALA	706,ALA	706,ALA	-	-	-	-	706,ALA	706,ALA	706,ALA	706,ALA	706,ALA
707,ARG	707,ARG	707,ARG	707,ARG	707,ARG	707,ARG	707,ARG	-	-	-	-	707,ARG	707,ARG	707,ARG	707,ARG	707,ARG
708,PHE	708,PHE	708,PHE	708,PHE	708,PHE	708,PHE	708,PHE	-	-	-	-	708,PHE	708,PHE	708,PHE	708,PHE	708,PHE
709,VAL	709,VAL	709,VAL	709,VAL	709,VAL	709,VAL	709,VAL	-	-	-	-	709,VAL	709,VAL	709,VAL	709,VAL	709,VAL
710,CYS	710,CYS	710,CYS	710,CYS	710,CYS	710,CYS	710,CYS	-	-	-	-	710,CYS	710,CYS	710,CYS	710,CYS	710,CYS
711,LYS	711,LYS	711,LYS	711,LYS	711,LYS	711,LYS	711,LYS	-	-	-	-	711,LYS	711,LYS	711,LYS	711,LYS	711,LYS
712,ASN	712,ASN	712,ASN	712,ASN	712,ASN	712,ASN	712,ASN	-	-	-	-	712,ASN	712,ASN	712,ASN	712,ASN	712,ASN
713,ASN	713,ASN	713,ASN	713,ASN	713,ASN	713,ASN	713,ASN	-	-	-	-	713,ASN	713,ASN	713,ASN	713,ASN	713,ASN
714,GLY	714,GLY	714,GLY	714,GLY	714,GLY	714,GLY	714,GLY	-	-	-	-	714,GLY	714,GLY	714,GLY	714,GLY	714,GLY
715,VAL	715,VAL	715,VAL	715,VAL	715,VAL	715,VAL	715,VAL	-	-	-	-	715,VAL	715,VAL	715,VAL	715,VAL	715,VAL
716,LEU	716,LEU	716,LEU	716,LEU	716,LEU	716,LEU	716,LEU	-	-	-	-	716,LEU	716,LEU	716,LEU	716,LEU	716,LEU
717,PHE	717,PHE	717,PHE	717,PHE	717,PHE	717,PHE	717,PHE	-	-	-	-	717,PHE	717,PHE	717,PHE	717,PHE	717,PHE
718,GLU	718,GLU	718,GLU	718,GLU	718,GLU	718,GLU	718,GLU	-	-	-	-	718,GLU	718,GLU	718,GLU	718,GLU	718,GLU
719,ASN	719,ASN	719,ASN	719,ASN	719,ASN	719,ASN	719,ASN	-	-	-	-	719,ASN	719,ASN	719,ASN	719,ASN	719,ASN
720,GLN	720,GLN	720,GLN	720,GLN	720,GLN	720,GLN	720,GLN	-	-	-	-	720,GLN	720,GLN	720,GLN	720,GLN	720,GLN
721,LEU	721,LEU	721,LEU	721,LEU	721,LEU	721,LEU	721,LEU	-	-	-	-	721,LEU	721,LEU	721,LEU	721,LEU	721,LEU
722,LEU	722,LEU	722,LEU	722,LEU	722,LEU	722,LEU	722,LEU	-	-	-	-	722,LEU	722,LEU	722,LEU	722,LEU	722,LEU
723,GLN	723,GLN	723,GLN	723,GLN	723,GLN	723,GLN	723,GLN	-	-	-	-	723,GLN	723,GLN	723,GLN	723,GLN	723,GLN
724,ILE	724,ILE	724,ILE	724,ILE	724,ILE	724,ILE	724,ILE	-	-	-	-	724,ILE	724,ILE	724,ILE	724,ILE	724,ILE
725,GLY	725,GLY	725,GLY	725,GLY	725,GLY	725,GLY	725,GLY	-	-	-	-	725,GLY	725,GLY	725,GLY	725,GLY	725,GLY
726,LEU	726,LEU	726,LEU	726,LEU	726,LEU	726,LEU	726,LEU	-	-	-	-	726,LEU	726,LEU	726,LEU	726,LEU	726,LEU
727,LYS	727,LYS	727,LYS	727,LYS	727,LYS	727,LYS	727,LYS	-	-	-	-	727,LYS	727,LYS	727,LYS	727,LYS	727,LYS
728,SER	728,SER	728,SER	728,SER	728,SER	728,SER	728,SER	-	-	-	-	728,SER	728,SER	728,SER	728,SER	728,SER
729,GLU	729,GLU	729,GLU	729,GLU	729,GLU	729,GLU	729,GLU	-	-	-	-	729,GLU	729,GLU	729,GLU	729,GLU	729,GLU
730,PHE	730,PHE	730,PHE	730,PHE	730,PHE	730,PHE	730,PHE	-	-	-	-	730,PHE	730,PHE	730,PHE	730,PHE	730,PHE
731,ARG	731,ARG	731,ARG	731,ARG	731,ARG	731,ARG	731,ARG	-	-	-	-	731,ARG	731,ARG	731,ARG	731,ARG	731,ARG
732,GLN	732,GLN	732,GLN	732,GLN	732,GLN	732,GLN	732,GLN	-	-	-	-	732,GLN	732,GLN	732,GLN	732,GLN	732,GLN
733,ASN	733,ASN	733,ASN	733,ASN	733,ASN	733,ASN	733,ASN	-	-	-	-	733,ASN	733,ASN	733,ASN	733,ASN	733,ASN
734,LEU	734,LEU	734,LEU	734,LEU	734,LEU	734,LEU	734,LEU	-	-	-	-	734,LEU	734,LEU	734,LEU	734,LEU	734,LEU
735,GLY	735,GLY	735,GLY	735,GLY	735,GLY	735,GLY	735,GLY	-	-	-	-	735,GLY	735,GLY	735,GLY	735,GLY	735,GLY
736,ARG	736,ARG	736,ARG	736,ARG	736,ARG	736,ARG	736,ARG	-	-	-	-	736,ARG	736,ARG	736,ARG	736,ARG	736,ARG
737,MET	737,MET	737,MET	737,MSE	737,MET	737,MET	737,MET	-	-	-	-	737,MET	737,MET	737,MET	737,MET	737,MET
738,PHE	738,PHE	738,PHE	738,PHE	738,PHE	738,PHE	738,PHE	-	-	-	-	738,PHE	738,PHE	738,PHE	738,PHE	738,PHE
739,ILE	739,ILE	739,ILE	739,ILE	739,ILE	739,ILE	739,ILE	-	-	-	-	739,ILE	739,ILE	739,ILE	739,ILE	739,ILE
740,PHE	740,PHE	740,PHE	740,PHE	740,PHE	740,PHE	740,PHE	-	-	-	-	740,PHE	740,PHE	740,PHE	740,PHE	740,PHE
741,TYR	741,TYR	741,TYR	741,TYR	741,TYR	741,TYR	741,TYR	-	-	-	-	741,TYR	741,TYR	741,TYR	741,TYR	741,TYR
742,GLY	742,GLY	742,GLY	742,GLY	742,GLY	742,GLY	742,GLY	-	-	-	-	742,GLY	742,GLY	742,GLY	742,GLY	742,GLY
743,ASN	743,ASN	743,ASN	743,ASN	743,ASN	743,ASN	743,ASN	-	-	-	-	743,ASN	743,ASN	743,ASN	743,ASN	743,ASN
744,LYS	744,LYS	744,LYS	744,LYS	744,LYS	744,LYS	744,LYS	-	-	-	-	744,LYS	744,LYS	744,LYS	744,LYS	744,LYS
745,THR	745,THR	745,THR	745,THR	745,THR	745,THR	745,THR	-	-	-	-	745,THR	745,THR	745,THR	745,THR	745,THR
746,SER	746,SER	746,SER	746,SER	746,SER	746,SER	746,SER	-	-	-	-	746,SER	746,SER	746,SER	746,SER	746,SER
747,THR	747,THR	747,THR	747,THR	747,THR	747,THR	747,THR	-	-	-	-	747,THR	747,THR	747,THR	747,THR	747,THR
748,GLN	748,GLN	748,GLN	748,GLN	748,GLN	748,GLN	748,GLN	-	-	-	-	748,GLN	748,GLN	748,GLN	748,GLN	748,GLN
749,PHE	749,PHE	749,PHE	749,PHE	749,PHE	749,PHE	749,PHE	-	-	-	-	749,PHE	749,PHE	749,PHE	749,PHE	749,PHE
750,LEU	750,LEU	750,LEU	750,LEU	750,LEU	750,LEU	750,LEU	-	-	-	-	750,LEU	750,LEU	750,LEU	750,LEU	750,LEU
751,ASN	751,ASN	751,ASN	751,ASN	751,ASN	751,ASN	751,ASN	-	-	-	-	751,ASN	751,ASN	751,ASN	751,ASN	751,ASN
752,PHE	752,PHE	752,PHE	752,PHE	752,PHE	752,PHE	752,PHE	-	-	-	-	752,PHE	752,PHE	752,PHE	752,PHE	752,PHE
753,THR	753,THR	753,THR	753,THR	753,THR	753,THR	753,THR	-	-	-	-	753,THR	753,THR	753,THR	753,THR	753,THR
754,PRO	754,PRO	754,PRO	754,PRO	754,PRO	754,PRO	754,PRO	-	-	-	-	754,PRO	754,PRO	754,PRO	754,PRO	754,PRO
755,THR	755,THR	755,THR	755,THR	755,THR	755,THR	755,THR	-	-	-	-	755,THR	755,THR	755,THR	755,THR	755,THR
756,LEU	756,LEU	756,LEU	756,LEU	756,LEU	756,LEU	756,LEU	-	-	-	-	756,LEU	756,LEU	756,LEU	756,LEU	756,LEU
757,ILE	757,ILE	757,ILE	757,ILE	757,ILE	757,ILE	757,ILE	-	-	-	-	757,ILE	757,ILE	757,ILE	757,ILE	757,ILE
758,CYS	758,CYS	758,CYS	758,CYS	758,CYS	758,CYS	758,CYS	-	-	-	-	758,CYS	758,CYS	758,CYS	758,CYS	758,CYS
759,ALA	759,ALA	759,ALA	759,ALA	759,ALA	759,ALA	759,ALA	-	-	-	-	759,ALA	759,ALA	759,ALA	759,ALA	759,ALA
760,ASP	760,ASP	760,ASP	760,ASP	760,ASP	760,ASP	760,ASP	-	-	-	-	760,ASP	760,ASP	760,ASP	760,ASP	760,ASP
761,ASP	761,ASP	761,ASP	761,ASP	761,ASP	761,ASP	761,ASP	-	-	-	-	761,ASP	761,ASP	761,ASP	761,ASP	761,ASP
762,LEU	762,LEU	762,LEU	762,LEU	762,LEU	762,LEU	762,LEU	-	-	-	-	762,LEU	762,LEU	762,LEU	762,LEU	762,LEU
763,GLN	763,GLN	763,GLN	763,GLN	763,GLN	763,GLN	763,GLN	-	-	-	-	763,GLN	763,GLN	763,GLN	763,GLN	763,GLN
764,THR	764,THR	764,THR	764,THR	764,THR	764,THR	764,THR	-	-	-	-	764,THR	764,THR	764,THR	764,THR	764,THR
765,ASN	765,ASN	765,ASN	765,ASN	765,ASN	765,ASN	765,ASN	-	-	-	-	765,ASN	765,ASN	765,ASN	765,ASN	765,ASN
766,LEU	766,LEU	766,LEU	766,LEU	766,LEU	766,LEU	766,LEU	-	-	-	-	766,LEU	766,LEU	766,LEU	766,LEU	766,LEU
767,ASN	767,ASN	767,ASN	767,ASN	767,ASN	767,ASN	767,ASN	-	-	-	-	767,ASN	767,ASN	767,ASN	767,ASN	767,ASN
768,LEU	768,LEU	768,LEU	768,LEU	768,LEU	768,LEU	768,LEU	-	-	-	-	768,LEU	768,LEU	768,LEU	768,LEU	768,LEU
769,GLN	769,GLN	769,GLN	769,GLN	769,GLN	769,GLN	769,GLN	-	-	-	-	769,GLN	769,GLN	769,GLN	769,GLN	769,GLN
770,THR	770,THR	770,THR	770,THR	770,THR	770,THR	770,THR	-	-	-	-	770,THR	770,THR	770,THR	770,THR	770,THR
771,LYS	771,LYS	771,LYS	771,LYS	771,LYS	771,LYS	771,LYS	-	-	-	-	771,LYS	771,LYS	771,LYS	771,LYS	771,LYS
772,PRO	772,PRO	772,PRO	772,PRO	772,PRO	772,PRO	772,PRO	-	-	-	-	772,PRO	772,PRO	772,PRO	772,PRO	772,PRO
773,VAL	773,VAL	773,VAL	773,VAL	773,VAL	773,VAL	773,VAL	-	-	-	-	773,VAL	773,VAL	773,VAL	773,VAL	773,VAL
774,ASP	774,ASP	774,ASP	774,ASP	774,ASP	774,ASP	774,ASP	-	-	-	-	774,ASP	774,ASP	774,ASP	774,ASP	774,ASP
775,PRO	775,PRO	775,PRO	775,PRO	775,PRO	775,PRO	775,PRO	-	-	-	-	775,PRO	775,PRO	775,PRO	775,PRO	775,PRO
776,THR	776,THR	776,THR	776,THR	776,THR	776,THR	776,THR	-	-	-	-	776,THR	776,THR	776,THR	776,THR	776,THR
777,VAL	777,VAL	777,VAL	777,VAL	777,VAL	777,VAL	777,VAL	-	-	-	-	777,VAL	777,VAL	777,VAL	777,VAL	777,VAL
778,ASP	778,ASP	778,ASP	778,ASP	778,ASP	778,ASP	778,ASP	-	-	-	-	778,ASP	778,ASP	778,ASP	778,ASP	778,ASP
779,GLY	779,GLY	779,GLY	779,GLY	779,GLY	779,GLY	779,GLY	-	-	-	-	779,GLY	779,GLY	779,GLY	779,GLY	779,GLY
780,GLY	780,GLY	780,GLY	780,GLY	780,GLY	780,GLY	780,GLY	-	-	-	-	780,GLY	780,GLY	780,GLY	780,GLY	780,GLY
781,ALA	781,ALA	781,ALA	781,ALA	781,ALA	781,ALA	781,ALA	-	-	-	-	781,ALA	781,ALA	781,ALA	781,ALA	781,ALA
782,GLN	782,GLN	782,GLN	782,GLN	782,GLN	782,GLN	782,GLN	-	-	-	-	782,GLN	782,GLN	782,GLN	782,GLN	782,GLN
783,VAL	783,VAL	783,VAL	783,VAL	783,VAL	783,VAL	783,VAL	-	-	-	-	783,VAL	783,VAL	783,VAL	783,VAL	783,VAL
784,GLN	784,GLN	784,GLN	784,GLN	784,GLN	784,GLN	784,GLN	-	-	-	-	784,GLN	784,GLN	784,GLN	784,GLN	784,GLN
785,GLN	785,GLN	785,GLN	785,GLN	785,GLN	785,GLN	785,GLN	-	-	-	-	785,GLN	785,GLN	785,GLN	785,GLN	785,GLN
786,VAL	786,VAL	786,VAL	786,VAL	786,VAL	786,VAL	786,VAL	-	-	-	-	786,VAL	786,VAL	786,VAL	786,VAL	786,VAL
787,VAL	787,VAL	787,VAL	787,VAL	787,ILE	787,ILE	787,ILE	-	-	-	-	787,VAL	787,VAL	787,VAL	787,VAL	787,VAL
788,ASN	788,ASN	788,ASN	788,ASN	788,ASN	788,ASN	788,ASN	-	-	-	-	788,ASN	788,ASN	788,ASN	788,ASN	788,ASN
789,ILE	789,ILE	789,ILE	789,ILE	789,ILE	789,ILE	789,ILE	-	-	-	-	789,ILE	789,ILE	789,ILE	789,ILE	789,ILE
790,GLU	790,GLU	790,GLU	790,GLU	790,GLU	790,GLU	790,GLU	-	-	-	-	790,GLU	790,GLU	790,GLU	790,GLU	790,GLU
791,CYS	791,CYS	791,CYS	791,CYS	791,CYS	791,CYS	791,CYS	-	-	-	-	791,CYS	791,CYS	791,CYS	791,CYS	791,CYS
792,ILE	792,ILE	792,ILE	792,ILE	792,ILE	792,ILE	792,ILE	-	-	-	-	792,ILE	792,ILE	792,ILE	792,ILE	792,ILE
793,SER	793,SER	793,SER	793,SER	793,SER	793,SER	793,SER	-	-	-	-	793,SER	793,SER	793,SER	793,SER	793,SER
794,ASP	794,ASP	794,ASP	794,ASP	794,ASP	794,ASP	794,ASP	-	-	-	-	794,ASP	794,ASP	794,ASP	794,ASP	794,ASP
795,PHE	795,PHE	795,PHE	795,PHE	795,PHE	795,PHE	795,PHE	-	-	-	-	795,PHE	795,PHE	795,PHE	795,PHE	795,PHE
796,THR	796,THR	796,THR	796,THR	796,THR	796,THR	796,THR	-	-	-	-	796,THR	796,THR	796,THR	796,THR	796,THR
797,GLU	797,GLU	797,GLU	797,GLU	797,GLU	797,GLU	797,GLU	-	-	-	-	797,GLU	797,GLU	797,GLU	797,GLU	797,GLU
798,ALA	798,ALA	798,ALA	798,ALA	798,ALA	798,ALA	798,ALA	-	-	-	-	798,ALA	798,ALA	798,ALA	798,ALA	798,ALA
799,PRO	799,PRO	799,PRO	799,PRO	799,PRO	799,PRO	799,PRO	-	-	-	-	799,PRO	799,PRO	799,PRO	799,PRO	799,PRO
800,VAL	800,VAL	800,VAL	800,VAL	800,VAL	800,VAL	800,VAL	-	-	-	-	800,VAL	800,VAL	800,VAL	800,VAL	800,VAL
801,LEU	801,LEU	801,LEU	801,LEU	801,LEU	801,LEU	801,LEU	-	-	-	-	801,LEU	801,LEU	801,LEU	801,LEU	801,LEU
802,ASN	802,ASN	802,ASN	802,ASN	802,ASN	802,ASN	802,ASN	-	-	-	-	802,ASN	802,ASN	802,ASN	802,ASN	802,ASN
803,ILE	803,ILE	803,ILE	803,ILE	803,ILE	803,ILE	803,ILE	-	-	-	-	803,ILE	803,ILE	803,ILE	803,ILE	803,ILE
804,GLN	804,GLN	804,GLN	804,GLN	804,GLN	804,GLN	804,GLN	-	-	-	-	804,GLN	804,GLN	804,GLN	804,GLN	804,GLN
805,PHE	805,PHE	805,PHE	805,PHE	805,PHE	805,PHE	805,PHE	-	-	-	-	805,PHE	805,PHE	805,PHE	805,PHE	805,PHE
806,ARG	806,ARG	806,ARG	806,ARG	806,ARG	806,ARG	806,ARG	-	-	-	-	806,ARG	806,ARG	806,ARG	806,ARG	806,ARG
807,TYR	807,TYR	807,TYR	807,TYR	807,TYR	807,TYR	807,TYR	-	-	-	-	807,TYR	807,TYR	807,TYR	807,TYR	807,TYR
808,GLY	808,GLY	808,GLY	808,GLY	808,GLY	808,GLY	808,GLY	-	-	-	-	808,GLY	808,GLY	808,GLY	808,GLY	808,GLY
809,GLY	809,GLY	809,GLY	809,GLY	809,GLY	809,GLY	809,GLY	-	-	-	-	809,GLY	809,GLY	809,GLY	809,GLY	809,GLY
810,THR	810,THR	810,THR	810,THR	810,THR	810,THR	810,THR	-	-	-	-	810,THR	810,THR	810,THR	810,THR	810,THR
811,PHE	811,PHE	811,PHE	811,PHE	811,PHE	811,PHE	811,PHE	-	-	-	-	811,PHE	811,PHE	811,PHE	811,PHE	811,PHE
812,GLN	812,GLN	812,GLN	812,GLN	812,GLN	812,GLN	812,GLN	-	-	-	-	812,GLN	812,GLN	812,GLN	812,GLN	812,GLN
813,ASN	813,ASN	813,ASN	813,ASN	813,ASN	813,ASN	813,ASN	-	-	-	-	813,ASN	813,ASN	813,ASN	813,ASN	813,ASN
814,VAL	814,VAL	814,VAL	814,VAL	814,VAL	814,VAL	814,VAL	-	-	-	-	814,VAL	814,VAL	814,VAL	814,VAL	814,VAL
815,SER	815,SER	815,SER	815,SER	815,SER	815,SER	815,SER	-	-	-	-	815,SER	815,SER	815,SER	815,SER	815,SER
816,VAL	816,VAL	816,VAL	816,VAL	816,VAL	816,VAL	816,VAL	-	-	-	-	816,VAL	816,VAL	816,VAL	816,VAL	816,VAL
817,LYS	817,LYS	817,LYS	817,LYS	817,LYS	817,LYS	817,LYS	-	-	-	-	817,LYS	817,LYS	817,LYS	817,LYS	817,LYS
818,LEU	818,LEU	818,LEU	818,LEU	818,LEU	818,LEU	818,LEU	-	-	-	-	818,LEU	818,LEU	818,LEU	818,LEU	818,LEU
819,PRO	819,PRO	819,PRO	819,PRO	819,PRO	819,PRO	819,PRO	-	-	-	-	819,PRO	819,PRO	819,PRO	819,PRO	819,PRO
820,ILE	820,ILE	820,ILE	820,ILE	820,ILE	820,ILE	820,ILE	-	-	-	-	820,ILE	820,ILE	820,ILE	820,ILE	820,ILE
821,THR	821,THR	821,THR	821,THR	821,THR	821,THR	821,THR	-	-	-	-	821,THR	821,THR	821,THR	821,THR	821,THR
822,LEU	822,LEU	822,LEU	822,LEU	822,LEU	822,LEU	822,LEU	-	-	-	-	822,LEU	822,LEU	822,LEU	822,LEU	822,LEU
823,ASN	823,ASN	823,ASN	823,ASN	823,ASN	823,ASN	823,ASN	-	-	-	-	823,ASN	823,ASN	823,ASN	823,ASN	823,ASN
824,LYS	824,LYS	824,LYS	824,LYS	824,LYS	824,LYS	824,LYS	-	-	-	-	824,LYS	824,LYS	824,LYS	824,LYS	824,LYS
825,PHE	825,PHE	825,PHE	825,PHE	825,PHE	825,PHE	825,PHE	-	-	-	-	825,PHE	825,PHE	825,PHE	825,PHE	825,PHE
826,PHE	826,PHE	826,PHE	826,PHE	826,PHE	826,PHE	826,PHE	-	-	-	-	826,PHE	826,PHE	826,PHE	826,PHE	826,PHE
827,GLN	827,GLN	827,GLN	827,GLN	827,GLN	827,GLN	827,GLN	-	-	-	-	827,GLN	827,GLN	827,GLN	827,GLN	827,GLN
828,PRO	828,PRO	828,PRO	828,PRO	828,PRO	828,PRO	828,PRO	-	-	-	-	828,PRO	828,PRO	828,PRO	828,PRO	828,PRO
829,THR	829,THR	829,THR	829,THR	829,THR	829,THR	829,THR	-	-	-	-	829,THR	829,THR	829,THR	829,THR	829,THR
830,GLU	830,GLU	830,GLU	830,GLU	830,GLU	830,GLU	830,GLU	-	-	-	-	830,GLU	830,GLU	830,GLU	830,GLU	830,GLU
831,MET	831,MET	831,MET	831,MSE	831,MET	831,MET	831,MET	-	-	-	-	831,MET	831,MET	831,MET	831,MET	831,MET
832,ALA	832,ALA	832,ALA	832,ALA	832,ALA	832,ALA	832,ALA	-	-	-	-	832,ALA	832,ALA	832,ALA	832,ALA	832,ALA
833,SER	833,SER	833,SER	833,SER	833,SER	833,SER	833,SER	-	-	-	-	833,SER	833,SER	833,SER	833,SER	833,SER
834,GLN	834,GLN	834,GLN	834,GLN	834,GLN	834,GLN	834,GLN	-	-	-	-	834,GLN	834,GLN	834,GLN	834,GLN	834,GLN
835,ASP	835,ASP	835,ASP	835,ASP	835,ASP	835,ASP	835,ASP	-	-	-	-	835,ASP	835,ASP	835,ASP	835,ASP	835,ASP
836,PHE	836,PHE	836,PHE	836,PHE	836,PHE	836,PHE	836,PHE	-	-	-	-	836,PHE	836,PHE	836,PHE	836,PHE	836,PHE
837,PHE	837,PHE	837,PHE	837,PHE	837,PHE	837,PHE	837,PHE	-	-	-	-	837,PHE	837,PHE	837,PHE	837,PHE	837,PHE
838,GLN	838,GLN	838,GLN	838,GLN	838,GLN	838,GLN	838,GLN	-	-	-	-	838,GLN	838,GLN	838,GLN	838,GLN	838,GLN
839,ARG	839,ARG	839,ARG	839,ARG	839,ARG	839,ARG	839,ARG	-	-	-	-	839,ARG	839,ARG	839,ARG	839,ARG	839,ARG
840,TRP	840,TRP	840,TRP	840,TRP	840,TRP	840,TRP	840,TRP	-	-	-	-	840,TRP	840,TRP	840,TRP	840,TRP	840,TRP
841,LYS	841,LYS	841,LYS	841,LYS	841,LYS	841,LYS	841,LYS	-	-	-	-	841,LYS	841,LYS	841,LYS	841,LYS	841,LYS
842,GLN	842,GLN	842,GLN	842,GLN	842,GLN	842,GLN	842,GLN	-	-	-	-	842,GLN	842,GLN	842,GLN	842,GLN	842,GLN
843,LEU	843,LEU	843,LEU	843,LEU	843,LEU	843,LEU	843,LEU	-	-	-	-	843,LEU	843,LEU	843,LEU	843,LEU	843,LEU
844,SER	844,SER	844,SER	844,SER	844,SER	844,SER	844,SER	-	-	-	-	844,SER	844,SER	844,SER	844,SER	844,SER
845,ASN	845,ASN	845,ASN	845,ASN	845,ASN	845,ASN	845,ASN	-	-	-	-	845,ASN	845,ASN	845,ASN	845,ASN	845,ASN
846,PRO	846,PRO	846,PRO	846,PRO	846,PRO	846,PRO	846,PRO	-	-	-	-	846,PRO	846,PRO	846,PRO	846,PRO	846,PRO
847,GLN	847,GLN	847,GLN	847,GLN	847,GLN	847,GLN	847,GLN	-	-	-	-	847,GLN	847,GLN	847,GLN	847,GLN	847,GLN
848,GLN	848,GLN	848,GLN	848,GLN	848,GLN	848,GLN	848,GLN	-	-	-	-	848,GLN	848,GLN	848,GLN	848,GLN	848,GLN
849,GLU	849,GLU	849,GLU	849,GLU	849,GLU	849,GLU	849,GLU	-	-	-	-	849,GLU	849,GLU	849,GLU	849,GLU	849,GLU
850,VAL	850,VAL	850,VAL	850,VAL	850,VAL	850,VAL	850,VAL	-	-	-	-	850,VAL	850,VAL	850,VAL	850,VAL	850,VAL
851,GLN	851,GLN	851,GLN	851,GLN	851,GLN	851,GLN	851,GLN	-	-	-	-	851,GLN	851,GLN	851,GLN	851,GLN	851,GLN
852,ASN	852,ASN	852,ASN	852,ASN	852,ASN	852,ASN	852,ASN	-	-	-	-	852,ASN	852,ASN	852,ASN	852,ASN	852,ASN
853,ILE	853,ILE	853,ILE	853,ILE	853,ILE	853,ILE	853,ILE	-	-	-	-	853,ILE	853,ILE	853,ILE	853,ILE	853,ILE
854,PHE	854,PHE	854,PHE	854,PHE	854,PHE	854,PHE	854,PHE	-	-	-	-	854,PHE	854,PHE	854,PHE	854,PHE	854,PHE
855,LYS	855,LYS	855,LYS	855,LYS	855,LYS	855,LYS	855,LYS	-	-	-	-	855,LYS	855,LYS	855,LYS	855,LYS	855,LYS
856,ALA	856,ALA	856,ALA	856,ALA	856,ALA	856,ALA	856,ALA	-	-	-	-	856,ALA	856,ALA	856,ALA	856,ALA	856,ALA
857,LYS	857,LYS	857,LYS	857,LYS	857,LYS	857,LYS	857,LYS	-	-	-	-	857,LYS	857,LYS	857,LYS	857,LYS	857,LYS
858,HIS	858,HIS	858,HIS	858,HIS	858,HIS	858,HIS	858,HIS	-	-	-	-	858,HIS	858,HIS	858,HIS	858,HIS	858,HIS
859,PRO	859,PRO	859,PRO	859,PRO	859,PRO	859,PRO	859,PRO	-	-	-	-	859,PRO	859,PRO	859,PRO	859,PRO	859,PRO
860,MET	860,MET	860,MET	860,MSE	860,MET	860,MET	860,MET	-	-	-	-	860,MET	860,MET	860,MET	860,MET	860,MET
861,ASP	861,ASP	861,ASP	861,ASP	861,ASP	861,ASP	861,ASP	-	-	-	-	861,ASP	861,ASP	861,ASP	861,ASP	861,ASP
862,THR	862,THR	862,THR	862,THR	862,THR	862,THR	862,THR	-	-	-	-	862,THR	862,THR	862,THR	862,THR	862,THR
863,GLU	863,GLU	863,GLU	863,GLU	863,GLU	863,GLU	863,GLU	-	-	-	-	863,GLU	863,GLU	863,GLU	863,GLU	863,GLU
864,ILE	864,ILE	864,ILE	864,ILE	864,ILE	864,ILE	864,ILE	-	-	-	-	864,ILE	864,ILE	864,ILE	864,ILE	864,ILE
865,THR	865,THR	865,THR	865,THR	865,THR	865,THR	865,THR	-	-	-	-	865,THR	865,THR	865,THR	865,THR	865,THR
866,LYS	866,LYS	866,LYS	866,LYS	866,LYS	866,LYS	866,LYS	-	-	-	-	866,LYS	866,LYS	866,LYS	866,LYS	866,LYS
867,ALA	867,ALA	867,ALA	867,ALA	867,ALA	867,ALA	867,ALA	-	-	-	-	867,ALA	867,ALA	867,ALA	867,ALA	867,ALA
868,LYS	868,LYS	868,LYS	868,LYS	868,LYS	868,LYS	868,LYS	-	-	-	-	868,LYS	868,LYS	868,LYS	868,LYS	868,LYS
869,ILE	869,ILE	869,ILE	869,ILE	869,ILE	869,ILE	869,ILE	-	-	-	-	869,ILE	869,ILE	869,ILE	869,ILE	869,ILE
870,ILE	870,ILE	870,ILE	870,ILE	870,ILE	870,ILE	870,ILE	-	-	-	-	870,ILE	870,ILE	870,ILE	870,ILE	870,ILE
871,GLY	871,GLY	871,GLY	871,GLY	871,GLY	871,GLY	871,GLY	-	-	-	-	871,GLY	871,GLY	871,GLY	871,GLY	871,GLY
872,PHE	872,PHE	872,PHE	872,PHE	872,PHE	872,PHE	872,PHE	-	-	-	-	872,PHE	872,PHE	872,PHE	872,PHE	872,PHE
873,GLY	873,GLY	873,GLY	873,GLY	873,GLY	873,GLY	873,GLY	-	-	-	-	873,GLY	873,GLY	873,GLY	873,GLY	873,GLY
874,SER	874,SER	874,SER	874,SER	874,SER	874,SER	874,SER	-	-	-	-	874,SER	874,SER	874,SER	874,SER	874,SER
875,ALA	875,ALA	875,ALA	875,ALA	875,ALA	875,ALA	875,ALA	-	-	-	-	875,ALA	875,ALA	875,ALA	875,ALA	875,ALA
876,LEU	876,LEU	876,LEU	876,LEU	876,LEU	876,LEU	876,LEU	-	-	-	-	876,LEU	876,LEU	876,LEU	876,LEU	876,LEU
877,LEU	877,LEU	877,LEU	877,LEU	877,LEU	877,LEU	877,LEU	-	-	-	-	877,LEU	877,LEU	877,LEU	877,LEU	877,LEU
878,GLU	878,GLU	878,GLU	878,GLU	878,GLU	878,GLU	878,GLU	-	-	-	-	878,GLU	878,GLU	878,GLU	878,GLU	878,GLU
879,GLU	879,GLU	879,GLU	879,GLU	879,GLU	879,GLU	879,GLU	-	-	-	-	879,GLU	879,GLU	879,GLU	879,GLU	879,GLU
880,VAL	880,VAL	880,VAL	880,VAL	880,VAL	880,VAL	880,VAL	-	-	-	-	880,VAL	880,VAL	880,VAL	880,VAL	880,VAL
881,ASP	881,ASP	881,ASP	881,ASP	881,ASP	881,ASP	881,ASP	-	-	-	-	881,ASP	881,ASP	881,ASP	881,ASP	881,ASP
882,PRO	882,PRO	882,PRO	882,PRO	882,PRO	882,PRO	882,PRO	-	-	-	-	882,PRO	882,PRO	882,PRO	882,PRO	882,PRO
883,ASN	883,ASN	883,ASN	883,ASN	883,ASN	883,ASN	883,ASN	-	-	-	-	883,ASN	883,ASN	883,ASN	883,ASN	883,ASN
884,PRO	884,PRO	884,PRO	884,PRO	884,PRO	884,PRO	884,PRO	-	-	-	-	884,PRO	884,PRO	884,PRO	884,PRO	884,PRO
885,ALA	885,ALA	885,ALA	885,ALA	885,ALA	885,ALA	885,ALA	-	-	-	-	885,ALA	885,ALA	885,ALA	885,ALA	885,ALA
886,ASN	886,ASN	886,ASN	886,ASN	886,ASN	886,ASN	886,ASN	-	-	-	-	886,ASN	886,ASN	886,ASN	886,ASN	886,ASN
887,PHE	887,PHE	887,PHE	887,PHE	887,PHE	887,PHE	887,PHE	-	-	-	-	887,PHE	887,PHE	887,PHE	887,PHE	887,PHE
888,VAL	888,VAL	888,VAL	888,VAL	888,VAL	888,VAL	888,VAL	-	-	-	-	888,VAL	888,VAL	888,VAL	888,VAL	888,VAL
889,GLY	889,GLY	889,GLY	889,GLY	889,GLY	889,GLY	889,GLY	-	-	-	-	889,GLY	889,GLY	889,GLY	889,GLY	889,GLY
890,ALA	890,ALA	890,ALA	890,ALA	890,ALA	890,ALA	890,ALA	-	-	-	-	890,ALA	890,ALA	890,ALA	890,ALA	890,ALA
891,GLY	891,GLY	891,GLY	891,GLY	891,GLY	891,GLY	891,GLY	-	-	-	-	891,GLY	891,GLY	891,GLY	891,GLY	891,GLY
892,ILE	892,ILE	892,ILE	892,ILE	892,ILE	892,ILE	892,ILE	-	-	-	-	892,ILE	892,ILE	892,ILE	892,ILE	892,ILE
893,ILE	893,ILE	893,ILE	893,ILE	893,ILE	893,ILE	893,ILE	-	-	-	-	893,ILE	893,ILE	893,ILE	893,ILE	893,ILE
894,HIS	894,HIS	894,HIS	894,HIS	894,HIS	894,HIS	894,HIS	-	-	-	-	894,HIS	894,HIS	894,HIS	894,HIS	894,HIS
895,THR	895,THR	895,THR	895,THR	895,THR	895,THR	895,THR	-	-	-	-	895,THR	895,THR	895,THR	895,THR	895,THR
896,LYS	896,LYS	896,LYS	896,LYS	896,LYS	896,LYS	896,LYS	-	-	-	-	896,LYS	896,LYS	896,LYS	896,LYS	896,LYS
897,THR	897,THR	897,THR	897,THR	897,THR	897,THR	897,THR	-	-	-	-	897,THR	897,THR	897,THR	897,THR	897,THR
898,THR	898,THR	898,THR	898,THR	898,THR	898,THR	898,THR	-	-	-	-	898,THR	898,THR	898,THR	898,THR	898,THR
899,GLN	899,GLN	899,GLN	899,GLN	899,GLN	899,GLN	899,GLN	-	-	-	-	899,GLN	899,GLN	899,GLN	899,GLN	899,GLN
900,ILE	900,ILE	900,ILE	900,ILE	900,ILE	900,ILE	900,ILE	-	-	-	-	900,ILE	900,ILE	900,ILE	900,ILE	900,ILE
901,GLY	901,GLY	901,GLY	901,GLY	901,GLY	901,GLY	901,GLY	-	-	-	-	901,GLY	901,GLY	901,GLY	901,GLY	904,LEU
902,CYS	902,CYS	902,CYS	902,CYS	902,CYS	902,CYS	902,CYS	-	-	-	-	902,CYS	902,CYS	902,CYS	902,CYS	901,GLY
903,LEU	903,LEU	903,LEU	903,LEU	903,LEU	903,LEU	903,LEU	-	-	-	-	903,LEU	903,LEU	903,LEU	903,LEU	902,CYS
904,LEU	904,LEU	904,LEU	904,LEU	904,LEU	904,LEU	904,LEU	-	-	-	-	904,LEU	904,LEU	904,LEU	904,LEU	903,LEU
905,ARG	905,ARG	905,ARG	905,ARG	905,ARG	905,ARG	905,ARG	-	-	-	-	905,ARG	905,ARG	905,ARG	905,ARG	905,ARG
906,LEU	906,LEU	906,LEU	906,LEU	906,LEU	906,LEU	906,LEU	-	-	-	-	906,LEU	906,LEU	906,LEU	906,LEU	906,LEU
907,GLU	907,GLU	907,GLU	907,GLU	907,GLU	907,GLU	907,GLU	-	-	-	-	907,GLU	907,GLU	907,GLU	907,GLU	907,GLU
908,PRO	908,PRO	908,PRO	908,PRO	908,PRO	908,PRO	908,PRO	-	-	-	-	908,PRO	908,PRO	908,PRO	908,PRO	908,PRO
909,ASN	909,ASN	909,ASN	909,ASN	909,ASN	909,ASN	909,ASN	-	-	-	-	909,ASN	909,ASN	909,ASN	909,ASN	909,ASN
910,LEU	910,LEU	910,LEU	910,LEU	910,LEU	910,LEU	910,LEU	-	-	-	-	910,LEU	910,LEU	910,LEU	910,LEU	910,LEU
911,GLN	911,GLN	911,GLN	911,GLN	911,GLN	911,GLN	911,GLN	-	-	-	-	911,GLN	911,GLN	911,GLN	911,GLN	911,GLN
912,ALA	912,ALA	912,ALA	912,ALA	912,ALA	912,ALA	912,ALA	-	-	-	-	912,ALA	912,ALA	912,ALA	912,ALA	912,ALA
913,GLN	913,GLN	913,GLN	913,GLN	913,GLN	913,GLN	913,GLN	-	-	-	-	913,GLN	913,GLN	913,GLN	913,GLN	913,GLN
914,MET	914,MET	914,MET	914,MSE	914,MET	914,MET	914,MET	-	-	-	-	914,MET	914,MET	914,MET	914,MET	914,MET
915,TYR	915,TYR	915,TYR	915,TYR	915,TYR	915,TYR	915,TYR	-	-	-	-	915,TYR	915,TYR	915,TYR	915,TYR	915,TYR
916,ARG	916,ARG	916,ARG	916,ARG	916,ARG	916,ARG	916,ARG	-	-	-	-	916,ARG	916,ARG	916,ARG	916,ARG	916,ARG
917,LEU	917,LEU	917,LEU	917,LEU	917,LEU	917,LEU	917,LEU	-	-	-	-	917,LEU	917,LEU	917,LEU	917,LEU	917,LEU
918,THR	918,THR	918,THR	918,THR	918,THR	918,THR	918,THR	-	-	-	-	918,THR	918,THR	918,THR	918,THR	918,THR
919,LEU	919,LEU	919,LEU	919,LEU	919,LEU	919,LEU	919,LEU	-	-	-	-	919,LEU	919,LEU	919,LEU	919,LEU	919,LEU
920,ARG	920,ARG	920,ARG	920,ARG	920,ARG	920,ARG	920,ARG	-	-	-	-	920,ARG	920,ARG	920,ARG	920,ARG	920,ARG
921,THR	921,THR	921,THR	921,THR	921,THR	921,THR	921,THR	-	-	-	-	921,THR	921,THR	921,THR	921,THR	921,THR
922,SER	922,SER	922,SER	922,SER	922,SER	922,SER	922,SER	-	-	-	-	922,SER	922,SER	922,SER	922,SER	922,SER
923,LYS	923,LYS	923,LYS	923,LYS	923,LYS	923,LYS	923,LYS	-	-	-	-	923,LYS	923,LYS	923,LYS	923,LYS	923,LYS
924,ASP	924,ASP	924,ASP	924,ASP	924,ASP	924,ASP	924,ASP	-	-	-	-	924,ASP	924,ASP	924,ASP	924,ASP	924,ASP
925,THR	925,THR	925,THR	925,THR	925,THR	925,THR	925,THR	-	-	-	-	925,THR	925,THR	925,THR	925,THR	925,THR
926,VAL	926,VAL	926,VAL	926,VAL	926,VAL	926,VAL	926,VAL	-	-	-	-	926,VAL	926,VAL	926,VAL	926,VAL	926,VAL
927,SER	927,SER	927,SER	927,SER	927,SER	927,SER	927,SER	-	-	-	-	927,SER	927,SER	927,SER	927,SER	927,SER
928,GLN	928,GLN	928,GLN	928,GLN	928,GLN	928,GLN	928,GLN	-	-	-	-	928,GLN	928,GLN	928,GLN	928,GLN	928,GLN
929,ARG	929,ARG	929,ARG	929,ARG	929,ARG	929,ARG	929,ARG	-	-	-	-	929,ARG	929,ARG	929,ARG	929,ARG	929,ARG
930,LEU	930,LEU	930,LEU	930,LEU	930,LEU	930,LEU	930,LEU	-	-	-	-	930,LEU	930,LEU	930,LEU	930,LEU	930,LEU
931,CYS	931,CYS	931,CYS	931,CYS	931,CYS	931,CYS	931,CYS	-	-	-	-	931,CYS	931,CYS	931,CYS	931,CYS	931,CYS
932,GLU	932,GLU	932,GLU	932,GLU	932,GLU	932,GLU	932,GLU	-	-	-	-	932,GLU	932,GLU	932,GLU	932,GLU	932,GLU
933,LEU	933,LEU	933,LEU	933,LEU	933,LEU	933,LEU	933,LEU	-	-	-	-	933,LEU	933,LEU	933,LEU	933,LEU	933,LEU
934,LEU	934,LEU	934,LEU	934,LEU	934,LEU	934,LEU	934,LEU	-	-	-	-	934,LEU	934,LEU	934,LEU	934,LEU	934,LEU
935,SER	935,SER	935,SER	935,SER	935,SER	935,SER	935,SER	-	-	-	-	935,SER	935,SER	935,SER	935,SER	935,SER
936,GLU	936,GLU	936,GLU	936,GLU	936,GLU	936,GLU	936,GLU	-	-	-	-	936,GLU	936,GLU	936,GLU	936,GLU	936,GLU
937,GLN	937,GLN	937,GLN	937,GLN	937,GLN	937,GLN	937,GLN	-	-	-	-	937,GLN	937,GLN	937,GLN	937,GLN	937,GLN
938,PHE	938,PHE	938,PHE	938,PHE	938,PHE	938,PHE	938,PHE	-	-	-	-	938,PHE	938,PHE	938,PHE	938,PHE	938,PHE
