uniprot_isoform	location_id	ENSEMBL ID	uniprot_start	uniprot_end	3u9wA_start	3u9wA_end	3fu0A_start	3fu0A_end	3b7sA_start	3b7sA_end	5ni2A_start	5ni2A_end	4ms6A_start	4ms6A_end	4rsyA_start	4rsyA_end	4mktA_start	4mktA_end	1sqmA_start	1sqmA_end	5ni6A_start	5ni6A_end	3fheA_start	3fheA_end	5fwqA_start	5fwqA_end	3b7tA_start	3b7tA_end	3chrA_start	3chrA_end	3ftzA_start	3ftzA_end	3chpA_start	3chpA_end	3chqA_start	3chqA_end	3ftwA_start	3ftwA_end	3fu5A_start	3fu5A_end	3ftuA_start	3ftuA_end	3ftsA_start	3ftsA_end	3fu3A_start	3fu3A_end	1gw6A_start	1gw6A_end	3ftvA_start	3ftvA_end	5ni4A_start	5ni4A_end	5ni4C_start	5ni4C_end	5ni4B_start	5ni4B_end	2r59A_start	2r59A_end	5aenA_start	5aenA_end	3choA_start	3choA_end	4r7lA_start	4r7lA_end	4dprA_start	4dprA_end	3fh8A_start	3fh8A_end	5bppA_start	5bppA_end	5niaA_start	5niaA_end	3fh7A_start	3fh7A_end	1hs6A_start	1hs6A_end	3fh5A_start	3fh5A_end	5nieA_start	5nieA_end	5nieC_start	5nieC_end	5nieB_start	5nieB_end	5nidA_start	5nidA_end	6endA_start	6endA_end	4rvbA_start	4rvbA_end	5n3wA_start	5n3wA_end	4l2lA_start	4l2lA_end	6encA_start	6encA_end	6enbA_start	6enbA_end	3chsA_start	3chsA_end	2vj8A_start	2vj8A_end	3ftyA_start	3ftyA_end	3ftxA_start	3ftxA_end	1h19A_start	1h19A_end	3fulA_start	3fulA_end	3fumA_start	3fumA_end	3funA_start	3funA_end	3fuhA_start	3fuhA_end	3fuiA_start	3fuiA_end	3fujA_start	3fujA_end	3fukA_start	3fukA_end	3fudA_start	3fudA_end	3fueA_start	3fueA_end	3fufA_start	3fufA_end	3fu6A_start	3fu6A_end
1	12_96035519_96000992_-1	ENSE00002370169	1	53	-	1052	0	52	-	52	-	52	0	52	0	52	0	52	-	52	-	52	0	52	0	52	-	52	-	52	0	52	-	52	-	52	0	52	0	52	0	52	0	52	0	52	-	52	0	52	-	52	-	52	-	52	-	52	-	52	-	52	0	52	0	52	0	52	0	52	-	52	0	52	0	52	0	52	-	52	-	52	-	52	-	52	-	52	0	52	0	52	0	52	-	52	-	52	-	52	0	52	0	52	0	52	0	52	0	52	0	52	0	52	0	52	0	52	0	52	0	52	0	52	0	52	0	52	0	52
1	12_96035519_96000992_-1	ENSE00003685086	54	97	1053	1096	53	96	53	96	53	96	53	96	53	96	53	96	53	96	53	96	53	96	53	96	53	96	53	96	53	96	56	96	53	96	53	96	53	96	53	96	53	96	53	96	53	96	53	96	53	96	53	96	53	96	53	96	53	96	53	96	53	96	53	96	53	96	53	96	53	96	53	96	53	96	53	96	53	96	53	96	53	96	53	96	53	96	53	96	53	96	53	96	53	96	53	96	53	96	53	96	53	96	53	96	53	96	53	96	53	96	53	96	53	96	53	96	53	96	53	96	53	96	53	96	53	96	53	96
1	12_96035519_96000992_-1	ENSE00003472107	97	137	1096	1136	96	136	96	136	96	136	96	136	96	136	96	136	96	136	96	136	96	136	96	136	96	136	96	136	96	136	96	136	96	136	96	136	96	136	96	136	96	136	96	136	96	136	96	136	96	136	96	136	96	136	96	136	96	136	96	136	96	136	96	136	96	136	96	136	96	136	96	136	96	136	96	135	96	136	96	136	96	136	96	136	96	136	96	136	96	136	96	136	96	136	96	136	96	136	96	136	96	136	96	136	96	136	96	136	96	136	96	136	96	136	96	136	96	136	96	136	96	136	96	135	96	136	96	136
1	12_96035519_96000992_-1	ENSE00003654590	138	160	1137	1159	137	159	137	159	137	159	137	159	137	159	137	159	137	159	137	159	137	159	137	159	137	159	137	159	137	159	137	159	137	159	137	159	137	159	137	159	137	159	137	159	137	159	137	159	137	159	137	159	137	159	137	159	137	159	137	159	137	159	137	159	137	159	137	159	137	159	137	159	137	159	136	159	137	159	137	159	137	159	137	159	137	159	137	159	137	159	137	159	137	159	137	159	137	159	137	159	137	159	137	159	137	159	137	159	137	159	137	159	137	159	137	159	137	159	137	159	137	159	136	159	137	159	137	159
1	12_96035519_96000992_-1	ENSE00003645699	161	195	1160	1194	160	194	160	194	160	194	160	194	160	194	160	194	160	194	160	194	160	194	160	194	160	194	160	194	160	194	160	194	160	194	160	194	160	194	160	194	160	194	160	194	160	194	160	194	160	194	160	194	160	194	160	194	160	194	163	194	160	194	160	194	160	194	160	194	160	194	160	194	160	194	160	194	160	194	160	194	160	194	160	194	160	194	160	194	160	194	160	194	160	194	160	194	160	194	160	194	160	194	160	194	160	194	160	194	160	194	160	194	160	194	160	194	160	194	160	194	160	194	160	194	160	194	160	194
1	12_96035519_96000992_-1	ENSE00003633243	196	213	1195	1212	195	212	195	212	195	212	195	212	195	212	195	212	195	212	195	212	195	212	195	212	195	212	195	212	195	212	195	212	195	212	195	212	195	212	195	212	195	212	195	212	195	212	195	212	195	212	195	212	195	212	195	212	195	212	195	212	195	212	195	212	195	212	195	212	195	212	195	212	195	212	195	212	195	212	195	212	195	212	195	212	195	212	195	212	195	212	195	212	195	212	195	212	195	212	195	212	195	212	195	212	195	212	195	212	195	212	195	212	195	212	195	212	195	212	195	212	195	212	195	212	195	212	195	212
1	12_96035519_96000992_-1	ENSE00003644438	213	237	1212	1236	212	236	212	236	212	236	212	236	212	236	212	236	212	236	212	236	212	236	212	236	212	236	212	236	212	236	212	236	212	236	212	236	212	236	212	236	212	236	212	236	212	236	212	236	212	236	212	236	212	236	212	236	212	236	212	236	212	236	212	236	212	236	212	236	212	236	212	236	212	236	212	236	212	236	212	236	212	236	212	236	212	236	212	236	212	236	212	236	212	236	212	236	212	236	212	236	212	236	212	236	212	236	212	236	212	236	212	236	212	236	212	236	212	236	212	236	212	236	212	236	212	236	212	236
1	12_96035519_96000992_-1	ENSE00003665975	238	284	1237	1283	237	283	237	283	237	283	237	283	237	283	237	283	237	283	237	283	237	283	237	283	237	283	237	283	237	283	237	283	237	283	237	283	237	283	237	283	237	283	237	283	237	283	237	283	237	283	237	283	237	283	237	283	237	283	237	283	237	283	237	283	237	283	237	283	237	283	237	283	237	283	237	282	237	283	237	283	237	283	237	283	237	283	237	283	237	283	237	283	237	283	237	283	237	283	237	283	237	283	237	283	237	283	237	283	237	283	237	283	237	283	237	283	237	283	237	283	237	283	237	283	237	283	237	283
1	12_96035519_96000992_-1	ENSE00003522157	285	292	1284	1291	284	291	284	291	284	291	284	291	284	291	284	291	284	291	284	291	284	291	284	291	284	291	284	291	284	291	284	291	284	291	284	291	284	291	284	291	284	291	284	291	284	291	284	291	284	291	284	291	284	291	284	291	284	291	284	291	284	291	284	291	284	291	284	291	284	291	284	291	284	291	283	291	284	291	284	291	287	291	284	291	284	291	284	291	284	291	284	291	284	291	284	291	284	291	284	291	284	291	284	291	284	291	284	291	284	291	284	291	284	291	284	291	284	291	284	291	284	291	284	291	284	291	284	291
1	12_96035519_96000992_-1	ENSE00003669358	293	316	1292	1315	292	315	292	315	292	315	292	315	292	315	292	315	292	315	292	315	292	315	292	315	292	315	292	315	292	315	292	315	292	315	292	315	292	315	292	315	292	315	292	315	292	315	292	315	292	315	292	315	292	315	292	315	292	315	292	315	292	315	292	315	292	315	292	315	292	315	292	315	292	315	292	315	292	315	292	315	292	315	292	315	292	315	292	315	292	315	292	315	292	315	292	315	292	315	292	315	292	315	292	315	292	315	292	315	292	315	292	315	292	315	292	315	292	315	292	315	292	315	292	315	292	315	292	315
1	12_96035519_96000992_-1	ENSE00003489965	316	353	1315	1352	315	352	315	352	315	352	315	352	315	352	315	352	315	352	315	352	315	352	315	352	315	352	315	352	315	352	315	352	315	352	315	352	315	352	315	352	315	352	315	352	315	352	315	352	315	352	315	352	315	352	315	352	315	352	315	352	315	352	315	352	315	352	315	352	315	352	315	352	315	352	315	352	315	352	315	352	315	352	315	352	315	352	315	352	315	352	315	352	315	352	315	352	315	352	315	352	315	352	315	352	315	352	315	352	315	352	315	352	315	352	315	352	315	352	315	352	315	352	315	352	315	352	315	352
1	12_96035519_96000992_-1	ENSE00003678583	354	402	1353	1401	353	401	353	401	353	401	353	401	353	401	353	401	353	401	353	401	353	401	353	401	353	401	353	401	353	401	353	401	353	401	353	401	353	401	353	401	353	401	353	401	353	401	353	401	353	401	353	401	353	401	353	401	353	401	353	401	353	401	353	401	353	401	353	401	353	401	353	401	353	401	353	401	353	401	353	401	353	401	353	401	353	401	353	401	353	401	353	401	353	401	353	404	353	401	353	401	353	401	353	401	353	401	353	401	353	401	353	401	353	400	353	401	353	401	353	401	353	401	353	401	353	401	353	401
1	12_96035519_96000992_-1	ENSE00003577329	402	436	1401	1435	401	435	401	435	401	435	401	435	401	435	401	435	401	435	401	435	401	435	401	435	401	435	401	435	401	435	401	435	401	435	401	435	401	435	401	435	401	435	401	435	401	435	401	435	401	435	401	435	401	435	401	435	401	435	401	435	401	435	401	435	401	435	401	435	401	435	401	435	401	435	401	435	401	435	401	435	401	435	401	435	401	435	401	435	401	435	401	435	401	435	404	435	401	435	401	435	401	435	401	435	401	435	401	435	401	435	401	435	400	435	401	435	401	435	401	435	401	435	401	435	401	435	401	435
1	12_96035519_96000992_-1	ENSE00003518654	437	460	1436	1459	436	459	436	459	436	459	436	459	436	459	436	459	436	459	436	459	436	459	436	459	436	459	436	459	436	459	436	459	436	459	436	459	436	459	436	459	436	459	436	459	436	459	436	459	436	459	436	459	436	459	436	459	436	459	436	459	436	459	436	459	436	459	436	459	436	459	436	459	436	459	436	459	436	459	436	459	436	459	436	459	436	459	436	459	436	459	436	459	436	459	436	459	436	459	436	459	436	459	436	459	436	459	436	459	436	459	436	459	436	459	436	459	436	459	436	459	436	459	436	459	436	459	436	459
1	12_96035519_96000992_-1	ENSE00003689835	460	478	1459	1477	459	477	459	477	459	477	459	477	459	477	459	477	459	477	459	477	459	477	459	477	459	477	459	477	459	477	459	477	459	477	459	477	459	477	459	477	459	477	459	477	459	477	459	477	459	477	459	477	459	477	459	477	459	477	459	477	459	477	459	477	459	477	459	477	459	477	459	477	459	477	459	477	459	477	459	477	459	477	459	477	459	477	459	477	459	477	459	477	459	477	459	477	459	477	459	477	459	477	459	477	459	477	459	477	459	477	459	477	459	477	459	477	459	477	459	477	459	477	459	477	459	477	459	477
1	12_96035519_96000992_-1	ENSE00003525601	479	510	1478	1509	478	509	478	509	478	509	478	509	478	509	478	509	478	509	478	509	478	509	478	509	478	509	478	509	478	509	478	509	478	509	478	509	478	512	478	509	478	509	478	509	478	509	478	509	478	509	478	509	478	509	478	509	478	509	478	509	478	509	478	509	478	509	478	509	478	509	478	509	478	509	478	509	478	509	478	509	478	509	478	509	478	509	478	509	478	509	478	509	478	509	478	509	478	509	478	509	478	509	478	509	478	509	478	509	478	509	478	509	478	509	478	509	478	509	478	509	478	509	478	509	478	509	478	509
1	12_96035519_96000992_-1	ENSE00003669758	511	538	1510	1537	510	540	510	537	510	537	510	537	510	537	510	537	510	537	510	537	510	537	510	537	510	537	510	537	510	537	510	537	510	537	510	537	509	537	510	537	510	537	510	537	510	537	510	537	510	537	510	537	510	537	510	537	510	537	510	537	510	537	510	537	510	537	510	537	510	537	510	537	510	537	510	537	510	537	510	537	510	537	510	537	510	537	510	537	510	537	510	537	510	537	510	537	510	537	510	537	510	537	510	537	510	537	510	537	510	537	510	537	510	537	510	537	510	537	510	537	510	537	510	537	510	537	510	537
1	12_96035519_96000992_-1	ENSE00003576347	538	573	1537	1572	540	572	537	572	537	572	537	572	537	572	537	572	537	572	537	572	537	572	537	572	537	572	537	572	537	572	537	572	537	572	537	572	537	572	537	572	537	572	537	572	537	572	537	572	537	572	537	572	537	572	537	571	537	572	537	572	537	572	537	572	537	575	537	572	537	572	537	572	537	572	537	572	537	572	537	572	537	572	537	572	537	572	537	572	537	572	537	572	537	572	537	572	537	572	537	572	537	572	537	572	537	572	537	572	537	572	537	572	537	572	537	572	537	572	537	572	537	572	537	572	537	572	537	572
1	12_96035519_96000992_-1	ENSE00002379270	573	611	1572	1610	572	610	572	610	572	610	572	610	572	610	572	610	572	610	572	610	572	610	572	610	572	610	572	610	572	610	572	610	572	610	572	610	572	610	572	610	572	610	572	610	572	610	572	610	572	610	572	610	572	610	571	610	572	610	572	610	572	610	572	610	575	610	572	610	572	610	572	610	572	610	572	610	572	610	572	610	572	610	572	610	572	610	572	610	572	610	572	610	572	610	572	610	572	610	572	610	572	610	572	610	572	610	572	610	572	610	572	610	572	610	572	610	572	610	572	610	572	610	572	610	572	610	572	610
