uniprot_isoform	location_id	ENSEMBL ID	uniprot_start	uniprot_end	4rjfA_start	4rjfA_end	4rjfC_start	4rjfC_end	4rjfE_start	4rjfE_end	5mloC_start	5mloC_end	5mloA_start	5mloA_end	5mloE_start	5mloE_end	6cbiA_start	6cbiA_end	6cbiC_start	6cbiC_end	6cbiB_start	6cbiB_end	6cbiE_start	6cbiE_end	6cbiD_start	6cbiD_end	6cbiF_start	6cbiF_end	6qcgA_start	6qcgA_end	6qcgC_start	6qcgC_end	6qcgB_start	6qcgB_end	6qcgE_start	6qcgE_end	6qcgD_start	6qcgD_end	6qcgF_start	6qcgF_end	6hvoA_start	6hvoA_end	6hvoC_start	6hvoC_end	6hvoB_start	6hvoB_end	3ja9B_start	3ja9B_end	3ja9A_start	3ja9A_end	3ja9C_start	3ja9C_end	5ycoA_start	5ycoA_end	5ycoC_start	5ycoC_end	5ycoB_start	5ycoB_end	5ycoD_start	5ycoD_end	6k3aA_start	6k3aA_end	6k3aC_start	6k3aC_end	6k3aE_start	6k3aE_end	6gwsA_start	6gwsA_end	6gwsC_start	6gwsC_end	6gwsB_start	6gwsB_end	6fcmA_start	6fcmA_end	6fcmC_start	6fcmC_end	6fcnA_start	6fcnA_end	6fcnC_start	6fcnC_end	5e0vA_start	5e0vA_end	5e0vB_start	5e0vB_end	5e0tA_start	5e0tA_end	5e0tC_start	5e0tC_end	5e0tB_start	5e0tB_end	5e0uA_start	5e0uA_end	5e0uC_start	5e0uC_end	5e0uB_start	5e0uB_end	1axcA_start	1axcA_end	1axcC_start	1axcC_end	1axcE_start	1axcE_end	5mlwC_start	5mlwC_end	5mlwA_start	5mlwA_end	5mlwE_start	5mlwE_end	4ztdA_start	4ztdA_end	4ztdC_start	4ztdC_end	4ztdB_start	4ztdB_end	6qc0C_start	6qc0C_end	6qc0A_start	6qc0A_end	1u76A_start	1u76A_end	1u76C_start	1u76C_end	1u76E_start	1u76E_end	5momA_start	5momA_end	5momC_start	5momC_end	5momB_start	5momB_end	6gisA_start	6gisA_end	6gisC_start	6gisC_end	6gisB_start	6gisB_end	3tblA_start	3tblA_end	3tblB_start	3tblB_end	3tblC_start	3tblC_end	3vkxA_start	3vkxA_end	5mavA_start	5mavA_end	5mavC_start	5mavC_end	5mavB_start	5mavB_end	5mavE_start	5mavE_end	5mavD_start	5mavD_end	5mavF_start	5mavF_end	1w60A_start	1w60A_end	1w60B_start	1w60B_end	5iy4C_start	5iy4C_end	5iy4E_start	5iy4E_end	5iy4A_start	5iy4A_end	6ehtA_start	6ehtA_end	6ehtC_start	6ehtC_end	6ehtB_start	6ehtB_end	1u7bA_start	1u7bA_end	1vymA_start	1vymA_end	1vymC_start	1vymC_end	1vymB_start	1vymB_end	1vyjI_start	1vyjI_end	1vyjA_start	1vyjA_end	1vyjC_start	1vyjC_end	1vyjE_start	1vyjE_end	1vyjG_start	1vyjG_end	1vyjK_start	1vyjK_end	4d2gA_start	4d2gA_end	4d2gC_start	4d2gC_end	4d2gB_start	4d2gB_end	3wgwA_start	3wgwA_end	3wgwB_start	3wgwB_end	2zvlA_start	2zvlA_end	2zvlC_start	2zvlC_end	2zvlE_start	2zvlE_end	2zvkA_start	2zvkA_end	2zvkC_start	2zvkC_end	3p87A_start	3p87A_end	3p87C_start	3p87C_end	3p87E_start	3p87E_end	2zvmA_start	2zvmA_end	2zvmC_start	2zvmC_end
1	20_5119798_5115286_-1	ENSE00001479898	1	74	1	74	1	74	1	74	1	74	1	74	1	74	1	74	1	74	1	74	1	74	1	74	1	74	1	74	1	74	1	74	1	74	2	74	1	74	1	74	1	74	1	74	1	74	1	74	1	74	1	74	1	74	1	74	1	74	1	74	1	74	1	74	1	74	1	74	1	74	1	74	1	74	1	74	1	74	1	74	1	74	1	74	1	74	1	74	1	74	1	74	1	74	1	74	1	74	1	74	1	74	1	74	1	74	-	74	-	74	-	74	1	74	1	74	1	74	1	74	1	74	1	74	1	74	1	74	1	74	1	74	1	74	1	74	1	74	1	74	1	74	1	74	1	74	1	74	1	74	1	74	1	74	1	74	1	74	1	74	1	74	1	74	1	74	1	74	1	74	1	74	1	74	1	74	1	74	1	74	1	74	1	74	1	74	1	74	1	74	1	74	1	74	1	74	1	74	1	74	1	74	1	74	1	73	1	74	1	74	1	74	1	74	1	74	1	74	1	74
1	20_5119798_5115286_-1	ENSE00001747465	74	107	74	107	74	107	74	107	74	107	74	107	74	107	74	107	74	107	74	107	74	107	74	107	74	107	74	107	74	107	74	107	74	107	74	107	74	107	74	107	74	107	74	107	74	107	74	107	74	107	74	107	74	107	74	107	74	107	74	107	74	107	74	107	74	107	74	107	74	107	74	107	74	107	74	107	74	107	74	107	74	107	74	107	74	107	74	107	74	107	74	107	74	107	74	107	74	107	74	107	74	107	74	106	74	107	74	107	74	107	74	107	74	107	74	107	74	107	74	107	74	107	74	107	74	107	74	107	74	107	74	107	74	107	74	107	74	107	74	107	74	107	74	107	74	107	74	107	74	107	74	107	74	107	74	107	74	107	74	107	74	107	74	107	74	107	74	107	74	107	74	107	74	107	74	107	74	107	74	107	74	107	74	107	74	106	74	107	74	107	74	107	74	107	74	107	74	107	74	107	74	107	74	107	73	107	74	107	74	107	74	107	74	110	74	107	74	107	74	107
1	20_5119798_5115286_-1	ENSE00001693283	107	129	107	129	107	129	107	129	107	129	107	129	107	129	107	129	107	129	107	129	107	129	107	129	107	129	107	129	107	129	107	129	107	129	107	129	107	129	107	129	107	129	107	129	107	129	107	129	107	129	107	129	107	129	107	129	107	129	107	129	107	129	107	129	107	129	107	129	107	129	107	129	107	129	107	129	107	129	107	129	107	129	107	129	107	129	107	129	107	129	107	129	107	129	107	129	107	129	107	129	107	129	106	129	107	129	107	129	107	129	107	129	107	129	107	129	107	129	107	129	107	129	107	129	107	129	107	129	107	129	107	129	107	129	107	129	107	129	107	129	107	129	107	129	107	129	107	129	107	129	107	129	107	129	107	129	107	129	107	129	107	129	107	129	107	129	107	129	107	129	107	129	107	129	107	129	107	129	107	129	107	129	107	129	106	129	107	129	107	129	107	129	107	129	107	129	107	129	107	129	107	129	107	129	107	129	107	129	107	129	107	129	110	129	107	129	107	129	107	129
1	20_5119798_5115286_-1	ENSE00000906721	130	194	130	194	130	194	130	194	130	194	130	194	130	194	130	194	130	194	130	194	130	194	130	194	130	194	130	194	130	194	130	194	130	194	130	194	130	194	130	194	130	194	130	194	130	194	130	194	130	194	130	194	130	194	130	194	130	194	130	194	130	194	130	194	130	194	130	194	130	194	130	194	130	194	130	194	130	194	130	194	130	194	130	194	130	194	130	194	130	194	130	194	130	194	130	194	130	194	133	194	130	194	130	194	130	194	130	194	130	194	130	194	130	194	130	194	130	194	130	194	130	194	130	194	130	194	130	194	130	194	130	194	130	194	130	194	130	194	130	194	130	194	130	194	130	194	130	194	130	194	130	194	130	194	130	194	130	194	130	194	130	194	130	194	130	194	130	194	130	194	130	194	130	194	130	194	130	194	130	194	130	194	130	194	130	194	130	194	130	194	130	194	130	194	130	194	130	194	130	194	130	194	130	194	130	194	130	194	130	194	130	194	130	194	130	194	130	194	130	194
1	20_5119798_5115286_-1	ENSE00000906720	195	236	195	236	195	236	195	236	195	236	195	236	195	236	195	236	195	236	195	236	195	236	195	236	195	236	195	236	195	236	195	236	195	236	195	236	195	236	195	236	195	236	195	236	195	236	195	236	195	236	195	236	195	236	195	236	195	236	195	236	195	236	195	236	195	236	195	236	195	236	195	236	195	236	195	236	195	236	195	236	195	236	195	236	195	236	195	236	195	236	195	236	195	236	195	236	195	236	195	236	195	236	195	236	195	236	195	236	195	236	195	236	195	236	195	236	195	236	195	236	195	236	195	236	195	236	195	236	195	236	195	236	195	236	195	236	195	236	195	236	195	236	195	236	195	236	195	236	195	236	195	236	195	236	195	236	195	236	195	236	195	236	195	236	195	236	195	236	195	236	195	236	195	236	195	236	195	236	195	236	195	236	195	236	195	236	195	236	195	236	195	236	195	236	195	236	195	236	195	236	195	236	195	236	195	236	195	236	195	236	195	236	195	236	195	236	195	236	195	236
1	20_5119798_5115286_-1	ENSE00000906719	236	261	236	261	236	261	236	261	236	261	236	261	236	261	236	261	236	261	236	261	236	261	236	261	236	261	236	261	236	261	236	261	236	261	236	261	236	261	236	261	236	261	236	261	236	261	236	261	236	261	236	261	236	261	236	261	236	261	236	261	236	261	236	261	236	261	236	261	236	261	236	261	236	261	236	261	236	261	236	261	236	261	236	261	236	261	236	261	236	261	236	261	236	261	236	261	236	261	236	261	236	261	236	261	236	261	236	-	236	-	236	-	236	261	236	261	236	261	236	261	236	261	236	-	236	-	236	-	236	261	236	261	236	261	236	261	236	261	236	261	236	261	236	261	236	261	236	261	236	261	236	261	236	261	236	261	236	261	236	261	236	261	236	261	236	-	236	-	236	-	236	261	236	261	236	261	236	261	236	261	236	261	236	261	236	261	236	261	236	261	236	261	236	261	236	261	236	261	236	261	236	261	236	261	236	261	236	261	236	261	236	261	236	261	236	261	236	261	236	261
2	20_5119798_5115286_-1	ENSE00001480145	1	74	1	74	1	74	1	74	1	74	1	74	1	74	1	74	1	74	1	74	1	74	1	74	1	74	1	74	1	74	1	74	1	74	2	74	1	74	1	74	1	74	1	74	1	74	1	74	1	74	1	74	1	74	1	74	1	74	1	74	1	74	1	74	1	74	1	74	1	74	1	74	1	74	1	74	1	74	1	74	1	74	1	74	1	74	1	74	1	74	1	74	1	74	1	74	1	74	1	74	1	74	1	74	1	74	-	74	-	74	-	74	1	74	1	74	1	74	1	74	1	74	1	74	1	74	1	74	1	74	1	74	1	74	1	74	1	74	1	74	1	74	1	74	1	74	1	74	1	74	1	74	1	74	1	74	1	74	1	74	1	74	1	74	1	74	1	74	1	74	1	74	1	74	1	74	1	74	1	74	1	74	1	74	1	74	1	74	1	74	1	74	1	74	1	74	1	74	1	74	1	74	1	74	1	73	1	74	1	74	1	74	1	74	1	74	1	74	1	74
2	20_5119798_5115286_-1	ENSE00001747465	74	107	74	107	74	107	74	107	74	107	74	107	74	107	74	107	74	107	74	107	74	107	74	107	74	107	74	107	74	107	74	107	74	107	74	107	74	107	74	107	74	107	74	107	74	107	74	107	74	107	74	107	74	107	74	107	74	107	74	107	74	107	74	107	74	107	74	107	74	107	74	107	74	107	74	107	74	107	74	107	74	107	74	107	74	107	74	107	74	107	74	107	74	107	74	107	74	107	74	107	74	107	74	106	74	107	74	107	74	107	74	107	74	107	74	107	74	107	74	107	74	107	74	107	74	107	74	107	74	107	74	107	74	107	74	107	74	107	74	107	74	107	74	107	74	107	74	107	74	107	74	107	74	107	74	107	74	107	74	107	74	107	74	107	74	107	74	107	74	107	74	107	74	107	74	107	74	107	74	107	74	107	74	107	74	106	74	107	74	107	74	107	74	107	74	107	74	107	74	107	74	107	74	107	73	107	74	107	74	107	74	107	74	110	74	107	74	107	74	107
2	20_5119798_5115286_-1	ENSE00001693283	107	129	107	129	107	129	107	129	107	129	107	129	107	129	107	129	107	129	107	129	107	129	107	129	107	129	107	129	107	129	107	129	107	129	107	129	107	129	107	129	107	129	107	129	107	129	107	129	107	129	107	129	107	129	107	129	107	129	107	129	107	129	107	129	107	129	107	129	107	129	107	129	107	129	107	129	107	129	107	129	107	129	107	129	107	129	107	129	107	129	107	129	107	129	107	129	107	129	107	129	107	129	106	129	107	129	107	129	107	129	107	129	107	129	107	129	107	129	107	129	107	129	107	129	107	129	107	129	107	129	107	129	107	129	107	129	107	129	107	129	107	129	107	129	107	129	107	129	107	129	107	129	107	129	107	129	107	129	107	129	107	129	107	129	107	129	107	129	107	129	107	129	107	129	107	129	107	129	107	129	107	129	107	129	106	129	107	129	107	129	107	129	107	129	107	129	107	129	107	129	107	129	107	129	107	129	107	129	107	129	107	129	110	129	107	129	107	129	107	129
2	20_5119798_5115286_-1	ENSE00000906721	130	194	130	194	130	194	130	194	130	194	130	194	130	194	130	194	130	194	130	194	130	194	130	194	130	194	130	194	130	194	130	194	130	194	130	194	130	194	130	194	130	194	130	194	130	194	130	194	130	194	130	194	130	194	130	194	130	194	130	194	130	194	130	194	130	194	130	194	130	194	130	194	130	194	130	194	130	194	130	194	130	194	130	194	130	194	130	194	130	194	130	194	130	194	130	194	130	194	133	194	130	194	130	194	130	194	130	194	130	194	130	194	130	194	130	194	130	194	130	194	130	194	130	194	130	194	130	194	130	194	130	194	130	194	130	194	130	194	130	194	130	194	130	194	130	194	130	194	130	194	130	194	130	194	130	194	130	194	130	194	130	194	130	194	130	194	130	194	130	194	130	194	130	194	130	194	130	194	130	194	130	194	130	194	130	194	130	194	130	194	130	194	130	194	130	194	130	194	130	194	130	194	130	194	130	194	130	194	130	194	130	194	130	194	130	194	130	194	130	194
2	20_5119798_5115286_-1	ENSE00000906720	195	236	195	236	195	236	195	236	195	236	195	236	195	236	195	236	195	236	195	236	195	236	195	236	195	236	195	236	195	236	195	236	195	236	195	236	195	236	195	236	195	236	195	236	195	236	195	236	195	236	195	236	195	236	195	236	195	236	195	236	195	236	195	236	195	236	195	236	195	236	195	236	195	236	195	236	195	236	195	236	195	236	195	236	195	236	195	236	195	236	195	236	195	236	195	236	195	236	195	236	195	236	195	236	195	236	195	236	195	236	195	236	195	236	195	236	195	236	195	236	195	236	195	236	195	236	195	236	195	236	195	236	195	236	195	236	195	236	195	236	195	236	195	236	195	236	195	236	195	236	195	236	195	236	195	236	195	236	195	236	195	236	195	236	195	236	195	236	195	236	195	236	195	236	195	236	195	236	195	236	195	236	195	236	195	236	195	236	195	236	195	236	195	236	195	236	195	236	195	236	195	236	195	236	195	236	195	236	195	236	195	236	195	236	195	236	195	236	195	236
2	20_5119798_5115286_-1	ENSE00000906719	236	261	236	261	236	261	236	261	236	261	236	261	236	261	236	261	236	261	236	261	236	261	236	261	236	261	236	261	236	261	236	261	236	261	236	261	236	261	236	261	236	261	236	261	236	261	236	261	236	261	236	261	236	261	236	261	236	261	236	261	236	261	236	261	236	261	236	261	236	261	236	261	236	261	236	261	236	261	236	261	236	261	236	261	236	261	236	261	236	261	236	261	236	261	236	261	236	261	236	261	236	261	236	261	236	261	236	-	236	-	236	-	236	261	236	261	236	261	236	261	236	261	236	-	236	-	236	-	236	261	236	261	236	261	236	261	236	261	236	261	236	261	236	261	236	261	236	261	236	261	236	261	236	261	236	261	236	261	236	261	236	261	236	261	236	-	236	-	236	-	236	261	236	261	236	261	236	261	236	261	236	261	236	261	236	261	236	261	236	261	236	261	236	261	236	261	236	261	236	261	236	261	236	261	236	261	236	261	236	261	236	261	236	261	236	261	236	261	236	261
