uniprot_isoform	location_id	ENSEMBL ID	uniprot_start	uniprot_end	3iegA_start	3iegA_end	3iegB_start	3iegB_end
1	14_118938089_118978181_1	ENSMUSE00000338504	1	28	-	-	-	-
1	14_118938089_118978181_1	ENSMUSE00000233230	28	65	-	65	-	65
1	14_118938089_118978181_1	ENSMUSE00000123844	65	106	65	106	65	106
1	14_118938089_118978181_1	ENSMUSE00000123847	107	131	107	131	107	131
1	14_118938089_118978181_1	ENSMUSE00000123839	132	182	132	182	132	182
1	14_118938089_118978181_1	ENSMUSE00000123838	183	243	183	243	183	243
1	14_118938089_118978181_1	ENSMUSE00000123841	243	283	243	283	243	283
1	14_118938089_118978181_1	ENSMUSE00000123842	283	318	283	318	283	318
1	14_118938089_118978181_1	ENSMUSE00000233178	319	359	319	359	319	359
1	14_118938089_118978181_1	ENSMUSE00000123846	359	403	359	-	359	-
1	14_118938089_118978181_1	ENSMUSE00000123843	403	453	-	-	-	-
1	14_118938089_118978181_1	ENSMUSE00000646844	453	504	-	-	-	-
