uniprot_isoform	location_id	ENSEMBL ID	uniprot_start	uniprot_end	6qh7B_start	6qh7B_end	6qh6B_start	6qh6B_end	6qh5B_start	6qh5B_end	2jkrB_start	2jkrB_end	2jktB_start	2jktB_end	2iv8A_start	2iv8A_end	2xa7B_start	2xa7B_end	4uqiB_start	4uqiB_end	1e42A_start	1e42A_end	1e42B_start	1e42B_end	2g30A_start	2g30A_end	2iv9A_start	2iv9A_end	2iv9B_start	2iv9B_end	2vglB_start	2vglB_end	5m5rC_start	5m5rC_end
1	17_35594031_35723696_1	ENSE00003460066	1	13	1	13	1	13	1	13	1	13	1	13	-	-	1	13	1	13	-	-	-	-	-	-	-	-	-	-	1	13	-	-
1	17_35594031_35723696_1	ENSE00003560733	13	48	13	48	13	48	13	48	13	48	13	48	-	-	13	48	13	48	-	-	-	-	-	-	-	-	-	-	13	48	-	-
1	17_35594031_35723696_1	ENSE00003546540	48	93	48	93	48	93	48	93	48	93	48	93	-	-	48	93	48	93	-	-	-	-	-	-	-	-	-	-	48	93	-	-
1	17_35594031_35723696_1	ENSE00003720451	94	175	94	175	94	175	94	175	94	175	94	175	-	-	94	175	94	175	-	-	-	-	-	-	-	-	-	-	94	175	-	-
1	17_35594031_35723696_1	ENSE00003733683	176	239	176	239	176	239	176	239	176	239	176	239	-	-	176	239	176	239	-	-	-	-	-	-	-	-	-	-	176	239	-	-
1	17_35594031_35723696_1	ENSE00003733572	239	313	239	313	239	313	239	313	239	313	239	313	-	-	239	313	239	312	-	-	-	-	-	-	-	-	-	-	239	313	-	-
1	17_35594031_35723696_1	ENSE00003714999	313	353	313	353	313	353	313	353	313	353	313	353	-	-	313	353	312	353	-	-	-	-	-	-	-	-	-	-	313	353	-	-
1	17_35594031_35723696_1	ENSE00003570401	354	385	354	385	354	385	354	385	354	385	354	385	-	-	354	385	354	385	-	-	-	-	-	-	-	-	-	-	354	385	-	-
1	17_35594031_35723696_1	ENSE00003480207	386	424	386	424	386	424	386	424	386	424	386	424	-	-	386	424	386	424	-	-	-	-	-	-	-	-	-	-	386	424	-	-
1	17_35594031_35723696_1	ENSE00003470519	424	479	424	479	424	479	424	479	424	479	424	479	-	-	424	479	424	479	-	-	-	-	-	-	-	-	-	-	424	479	-	-
1	17_35594031_35723696_1	ENSE00003617746	480	512	480	512	480	512	480	512	480	512	480	512	-	-	480	512	480	512	-	-	-	-	-	-	-	-	-	-	480	512	-	-
1	17_35594031_35723696_1	ENSE00003712929	513	599	513	-	513	-	513	-	513	-	513	-	-	-	513	-	513	599	-	-	-	-	-	-	-	-	-	-	513	-	-	-
1	17_35594031_35723696_1	ENSE00003787704	599	663	-	-	-	-	-	-	-	-	-	-	-	-	-	-	599	-	-	-	-	-	-	-	-	-	-	-	-	-	-	-
1	17_35594031_35723696_1	ENSE00003737805	664	712	-	-	-	-	-	-	-	-	-	-	-	712	-	-	-	-	-	711	-	712	-	712	-	712	-	712	-	-	-	-
1	17_35594031_35723696_1	ENSE00003742048	713	761	-	-	-	-	-	-	-	-	-	-	713	761	-	-	-	-	712	761	713	761	713	761	713	761	713	761	-	-	-	-
1	17_35594031_35723696_1	ENSE00003725874	761	804	-	-	-	-	-	-	-	-	-	-	761	804	-	-	-	-	761	804	761	804	761	804	761	804	761	804	-	-	-	-
1	17_35594031_35723696_1	ENSE00003719631	805	833	-	-	-	-	-	-	-	-	-	-	805	833	-	-	-	-	805	833	805	833	805	833	805	833	805	833	-	-	-	-
1	17_35594031_35723696_1	ENSE00003725039	833	862	-	-	-	-	-	-	-	-	-	-	833	862	-	-	-	-	833	862	833	862	833	862	833	862	833	862	-	-	-	-
1	17_35594031_35723696_1	ENSE00003753532	862	913	-	-	-	-	-	-	-	-	-	-	862	913	-	-	-	-	862	913	862	913	862	913	862	913	862	913	-	-	-	-
1	17_35594031_35723696_1	ENSE00003718057	914	937	-	-	-	-	-	-	-	-	-	-	914	937	-	-	-	-	914	937	914	937	914	937	914	937	914	937	-	-	-	-
