uniprot_isoform	location_id	ENSEMBL ID	uniprot_start	uniprot_end	4ae2A_start	4ae2A_end	4ae2C_start	4ae2C_end	4ae2B_start	4ae2B_end	4ak3A_start	4ak3A_end	4gyxA_start	4gyxA_end	4gyxC_start	4gyxC_end	4gyxB_start	4gyxB_end	2v53C_start	2v53C_end	2v53B_start	2v53B_end	2v53D_start	2v53D_end	6fzvA_start	6fzvA_end	6fzvC_start	6fzvC_end	6fzvB_start	6fzvB_end	6fzwB_start	6fzwB_end	6fzwC_start	6fzwC_end	6fzwA_start	6fzwA_end	4aejA_start	4aejA_end	4aejC_start	4aejC_end	4aejB_start	4aejB_end	3dmwA_start	3dmwA_end	3dmwC_start	3dmwC_end	3dmwB_start	3dmwB_end
1	2_188974490_189011771_1	ENSE00001948260	1	27	-	-	-	-	-	-	-	-	-	-	-	-	-	-	-	-	-	-	-	-	-	-	-	-	-	-	-	-	-	-	-	-	-	-	-	-	-	-	-	-	-	-	-	-
1	2_188974490_189011771_1	ENSE00001130174	27	94	-	-	-	-	-	-	-	-	-	-	-	-	-	-	-	-	-	-	-	-	-	-	-	-	-	-	-	-	-	-	-	-	-	-	-	-	-	-	-	-	-	-	-	-
1	2_188974490_189011771_1	ENSE00001130170	95	111	-	-	-	-	-	-	-	-	-	-	-	-	-	-	-	-	-	-	-	-	-	-	-	-	-	-	-	-	-	-	-	-	-	-	-	-	-	-	-	-	-	-	-	-
1	2_188974490_189011771_1	ENSE00001130167	112	149	-	-	-	-	-	-	-	-	-	-	-	-	-	-	-	-	-	-	-	-	-	-	-	-	-	-	-	-	-	-	-	-	-	-	-	-	-	-	-	-	-	-	-	-
1	2_188974490_189011771_1	ENSE00001130161	150	176	-	-	-	-	-	-	-	-	-	-	-	-	-	-	-	-	-	-	-	-	-	-	-	-	-	-	-	-	-	-	-	-	-	-	-	-	-	-	-	-	-	-	-	-
1	2_188974490_189011771_1	ENSE00001130157	177	194	-	-	-	-	-	-	-	-	-	-	-	-	-	-	-	-	-	-	-	-	-	-	-	-	-	-	-	-	-	-	-	-	-	-	-	-	-	-	-	-	-	-	-	-
1	2_188974490_189011771_1	ENSE00001419814	195	212	-	-	-	-	-	-	-	-	-	-	-	-	-	-	-	-	-	-	-	-	-	-	-	-	-	-	-	-	-	-	-	-	-	-	-	-	-	-	-	-	-	-	-	-
1	2_188974490_189011771_1	ENSE00001423427	213	230	-	-	-	-	-	-	-	-	-	-	-	-	-	-	-	-	-	-	-	-	-	-	-	-	-	-	-	-	-	-	-	-	-	-	-	-	-	-	-	-	-	-	-	-
1	2_188974490_189011771_1	ENSE00001130149	231	248	-	-	-	-	-	-	-	-	-	-	-	-	-	-	-	-	-	-	-	-	-	-	-	-	-	-	-	-	-	-	-	-	-	-	-	-	-	-	-	-	-	-	-	-
1	2_188974490_189011771_1	ENSE00001130145	249	266	-	-	-	-	-	-	-	-	-	-	-	-	-	-	-	-	-	-	-	-	-	-	-	-	-	-	-	-	-	-	-	-	-	-	-	-	-	-	-	-	-	-	-	-
1	2_188974490_189011771_1	ENSE00001130144	267	284	-	-	-	-	-	-	-	-	-	-	-	-	-	-	-	-	-	-	-	-	-	-	-	-	-	-	-	-	-	-	-	-	-	-	-	-	-	-	-	-	-	-	-	-
1	2_188974490_189011771_1	ENSE00001424552	285	299	-	-	-	-	-	-	-	-	-	-	-	-	-	-	-	-	-	-	-	-	-	-	-	-	-	-	-	-	-	-	-	-	-	-	-	-	-	-	-	-	-	-	-	-
1	2_188974490_189011771_1	ENSE00001405059	300	317	-	-	-	-	-	-	-	-	-	-	-	-	-	-	-	-	-	-	-	-	-	-	-	-	-	-	-	-	-	-	-	-	-	-	-	-	-	-	-	-	-	-	-	-
1	2_188974490_189011771_1	ENSE00001407878	318	332	-	-	-	-	-	-	-	-	-	-	-	-	-	-	-	-	-	-	-	-	-	-	-	-	-	-	-	-	-	-	-	-	-	-	-	-	-	-	-	-	-	-	-	-
1	2_188974490_189011771_1	ENSE00001130125	333	350	-	-	-	-	-	-	-	-	-	-	-	-	-	-	-	-	-	-	-	-	-	-	-	-	-	-	-	-	-	-	-	-	-	-	-	-	-	-	-	-	-	-	-	-
1	2_188974490_189011771_1	ENSE00001130118	351	383	-	-	-	-	-	-	-	-	-	-	-	-	-	-	-	-	-	-	-	-	-	-	-	-	-	-	-	-	-	-	-	-	-	-	-	-	-	-	-	-	-	-	-	-
1	2_188974490_189011771_1	ENSE00001130112	384	398	-	-	-	-	-	-	-	-	-	-	-	-	-	-	-	-	-	-	-	-	-	-	-	-	-	-	-	-	-	-	-	-	-	-	-	-	-	-	-	-	-	-	-	-
1	2_188974490_189011771_1	ENSE00001130107	399	431	-	-	-	-	-	-	-	-	-	-	-	-	-	-	-	-	-	-	-	-	-	-	-	-	-	-	-	-	-	-	-	-	-	-	-	-	-	-	-	-	-	-	-	-
1	2_188974490_189011771_1	ENSE00001130103	432	449	-	-	-	-	-	-	-	-	-	-	-	-	-	-	-	-	-	-	-	-	-	-	-	-	-	-	-	-	-	-	-	-	-	-	-	-	-	-	-	-	-	-	-	-
1	2_188974490_189011771_1	ENSE00001130099	450	485	-	-	-	-	-	-	-	-	-	-	-	-	-	-	-	-	-	-	-	-	-	-	-	-	-	-	-	-	-	-	-	-	-	-	-	-	-	-	-	-	-	-	-	-
1	2_188974490_189011771_1	ENSE00001130094	486	503	-	-	-	-	-	-	-	-	-	-	-	-	-	-	-	-	-	-	-	-	-	-	-	-	-	-	-	-	-	-	-	-	-	-	-	-	-	-	-	-	-	-	-	-
1	2_188974490_189011771_1	ENSE00001130091	504	536	-	-	-	-	-	-	-	-	-	-	-	-	-	-	-	-	-	-	-	-	-	-	-	-	-	-	-	-	-	-	-	-	-	-	-	-	-	-	-	-	-	-	-	-
1	2_188974490_189011771_1	ENSE00001130085	537	554	-	-	-	-	-	-	-	-	-	-	-	-	-	-	-	3	-	3	-	3	-	-	-	-	-	-	-	-	-	-	-	-	-	-	-	-	-	-	-	-	-	-	-	-
1	2_188974490_189011771_1	ENSE00001130079	555	587	-	-	-	-	-	-	-	-	-	-	-	-	-	-	4	30	4	30	4	30	-	-	-	-	-	-	-	-	-	-	-	-	-	-	-	-	-	-	-	-	-	-	-	-
1	2_188974490_189011771_1	ENSE00001130075	588	605	-	-	-	-	-	-	-	-	-	-	-	-	-	-	31	-	31	-	31	-	-	-	-	-	-	-	-	-	-	-	-	-	-	-	-	-	-	-	-	-	-	-	-	-
1	2_188974490_189011771_1	ENSE00002491797	606	623	-	-	-	-	-	-	-	-	-	-	-	-	-	-	-	-	-	-	-	-	-	-	-	-	-	-	-	-	-	-	-	-	-	-	-	-	-	-	-	-	-	-	-	-
1	2_188974490_189011771_1	ENSE00001130064	624	641	-	-	-	-	-	-	-	-	-	-	-	-	-	-	-	-	-	-	-	-	-	-	-	-	-	-	-	-	-	-	-	-	-	-	-	-	-	-	-	-	-	-	-	-
1	2_188974490_189011771_1	ENSE00001130057	642	659	-	-	-	-	-	-	-	-	-	-	-	-	-	-	-	-	-	-	-	-	-	-	-	-	-	-	-	-	-	-	-	-	-	-	-	-	-	-	-	-	-	-	-	-
1	2_188974490_189011771_1	ENSE00001130050	660	674	-	-	-	-	-	-	-	-	-	-	-	-	-	-	-	-	-	-	-	-	-	-	-	-	-	-	-	-	-	-	-	-	-	-	-	-	-	-	-	-	-	-	-	-
1	2_188974490_189011771_1	ENSE00001130041	675	707	-	-	-	-	-	-	-	-	-	-	-	-	-	-	-	-	-	-	-	-	-	-	-	-	-	-	-	-	-	-	-	-	-	-	-	-	-	-	-	-	-	-	-	-
1	2_188974490_189011771_1	ENSE00001130036	708	743	-	-	-	-	-	-	-	-	-	-	-	-	-	-	-	-	-	-	-	-	-	-	-	-	-	-	-	-	-	-	-	-	-	-	-	-	-	-	-	-	-	-	-	-
1	2_188974490_189011771_1	ENSE00001130031	744	761	-	-	-	-	-	-	-	-	-	-	-	-	-	-	-	-	-	-	-	-	-	-	-	-	-	-	-	-	-	-	-	-	-	-	-	-	-	-	-	-	-	-	-	-
1	2_188974490_189011771_1	ENSE00001130027	762	779	-	-	-	-	-	-	-	-	-	-	-	-	-	-	-	-	-	-	-	-	-	-	-	-	-	-	-	-	-	-	-	-	-	-	-	-	-	-	-	-	-	-	-	-
1	2_188974490_189011771_1	ENSE00001130021	780	797	-	-	-	-	-	-	-	-	-	-	-	-	-	-	-	-	-	-	-	-	-	-	-	-	-	-	-	-	-	-	-	-	-	-	-	-	-	-	-	-	-	-	-	-
1	2_188974490_189011771_1	ENSE00001130016	798	815	-	-	-	-	-	-	-	-	-	-	-	-	-	-	-	-	-	-	-	-	-	-	-	-	-	-	-	-	-	-	-	-	-	-	-	-	-	-	-	-	-	-	-	-
1	2_188974490_189011771_1	ENSE00001130010	816	851	-	-	-	-	-	-	-	-	-	-	-	-	-	-	-	-	-	-	-	-	-	-	-	-	-	-	-	-	-	-	-	-	-	-	-	-	-	-	-	-	-	-	-	-
1	2_188974490_189011771_1	ENSE00001130000	852	869	-	-	-	-	-	-	-	-	-	-	-	-	-	-	-	-	-	-	-	-	-	-	-	-	-	-	-	-	-	-	-	-	-	-	-	-	-	-	-	-	-	-	-	-
1	2_188974490_189011771_1	ENSE00001129994	870	887	-	-	-	-	-	-	-	-	-	-	-	-	-	-	-	-	-	-	-	-	-	-	-	-	-	-	-	-	-	-	-	-	-	-	-	-	-	-	-	-	-	-	-	-
1	2_188974490_189011771_1	ENSE00001129987	888	941	-	-	-	-	-	-	-	-	-	-	-	-	-	-	-	-	-	-	-	-	-	-	-	-	-	-	-	-	-	-	-	-	-	-	-	-	-	-	-	-	-	-	-	-
1	2_188974490_189011771_1	ENSE00001129983	942	977	-	-	-	-	-	-	-	-	-	-	-	-	-	-	-	-	-	-	-	-	-	-	-	-	-	-	-	-	-	-	-	-	-	-	-	-	-	-	-	-	-	-	-	-
1	2_188974490_189011771_1	ENSE00001129978	978	1013	-	-	-	-	-	-	-	-	-	-	-	-	-	-	-	-	-	-	-	-	-	-	-	-	-	-	-	-	-	-	-	-	-	-	-	-	-	-	-	-	-	-	-	-
1	2_188974490_189011771_1	ENSE00001129975	1014	1031	-	-	-	-	-	-	-	-	-	-	-	-	-	-	-	-	-	-	-	-	-	-	-	-	-	-	-	-	-	-	-	-	-	-	-	-	-	-	-	-	-	-	-	-
1	2_188974490_189011771_1	ENSE00001129968	1032	1067	-	-	-	-	-	-	-	-	-	-	-	-	-	-	-	-	-	-	-	-	-	-	-	-	-	-	-	-	-	-	-	-	-	-	-	-	-	-	-	-	-	-	-	-
1	2_188974490_189011771_1	ENSE00001129962	1068	1085	-	-	-	-	-	-	-	-	-	-	-	-	-	-	-	-	-	-	-	-	-	-	-	-	-	-	-	-	-	-	-	-	-	-	-	-	-	-	-	-	-	-	-	-
1	2_188974490_189011771_1	ENSE00001129953	1086	1121	-	-	-	-	-	-	-	-	-	-	-	-	-	-	-	-	-	-	-	-	-	-	-	-	-	-	-	-	-	-	-	-	-	-	-	-	-	-	-	-	-	-	-	-
1	2_188974490_189011771_1	ENSE00001129947	1122	1139	-	-	-	-	-	-	-	-	-	-	-	-	-	-	-	-	-	-	-	-	-	-	-	-	-	-	-	-	-	-	-	-	-	-	-	-	-	-	-	-	-	-	-	-
1	2_188974490_189011771_1	ENSE00001129940	1140	1175	-	-	-	-	-	-	-	-	-	-	-	-	-	-	-	-	-	-	-	-	-	-	-	-	-	-	-	-	-	-	-	-	-	-	-	-	-	-	-	18	-	18	-	18
1	2_188974490_189011771_1	ENSE00001326979	1176	1275	-	54	-	54	-	54	-	54	-	-	-	-	-	-	-	-	-	-	-	-	-	54	-	54	-	54	-	54	-	54	-	54	-	54	-	54	-	54	19	-	19	-	19	-
1	2_188974490_189011771_1	ENSE00001129930	1275	1337	54	116	54	116	54	116	54	116	-	-	-	-	-	-	-	-	-	-	-	-	54	116	54	116	54	116	54	116	54	116	54	116	54	116	54	116	54	116	-	-	-	-	-	-
1	2_188974490_189011771_1	ENSE00001129924	1338	1418	117	197	117	197	117	197	117	197	-	-	-	-	-	-	-	-	-	-	-	-	117	197	117	197	117	197	117	197	117	197	117	197	117	197	117	197	117	197	-	-	-	-	-	-
1	2_188974490_189011771_1	ENSE00001238012	1419	1466	198	245	198	245	198	245	198	245	-	-	-	-	-	-	-	-	-	-	-	-	198	245	198	245	198	245	198	245	198	245	198	245	198	245	198	245	198	245	-	-	-	-	-	-
