uniprot_isoform	location_id	ENSEMBL ID	uniprot_start	uniprot_end	3ii7A_start	3ii7A_end
1	7_23106027_23174295_1	ENSE00001873314	1	40	-	-
1	7_23106027_23174295_1	ENSE00003650994	41	75	-	-
1	7_23106027_23174295_1	ENSE00003556714	75	106	-	-
1	7_23106027_23174295_1	ENSE00003479914	106	148	-	-
1	7_23106027_23174295_1	ENSE00003582882	148	206	-	-
1	7_23106027_23174295_1	ENSE00003634833	207	265	-	-
1	7_23106027_23174295_1	ENSE00003550309	265	312	-	312
1	7_23106027_23174295_1	ENSE00003659705	313	393	313	393
1	7_23106027_23174295_1	ENSE00003688228	393	460	393	460
1	7_23106027_23174295_1	ENSE00003606599	460	493	460	493
1	7_23106027_23174295_1	ENSE00000976499	493	586	493	586
