Q28104	3mkrA
1,MET	-
2,ALA	-
3,PRO	-
4,PRO	-
5,ALA	-
6,PRO	-
7,GLY	-
8,PRO	-
9,ALA	-
10,SER	-
11,GLY	-
12,GLY	-
13,SER	-
14,GLY	-
15,GLU	-
16,VAL	-
17,ASP	17,ASP
18,GLU	18,GLU
19,LEU	19,LEU
20,PHE	20,PHE
21,ASP	21,ASP
22,VAL	22,VAL
23,LYS	23,LYS
24,ASN	24,ASN
25,ALA	25,ALA
26,PHE	26,PHE
27,TYR	27,TYR
28,ILE	28,ILE
29,GLY	29,GLY
30,SER	30,SER
31,TYR	31,TYR
32,GLN	32,GLN
33,GLN	33,GLN
34,CYS	34,CYS
35,ILE	35,ILE
36,ASN	36,ASN
37,GLU	37,GLU
38,ALA	38,ALA
39,GLN	39,GLN
40,ARG	40,ARG
41,VAL	41,VAL
42,LYS	42,LYS
43,PRO	43,PRO
44,SER	44,SER
45,SER	45,SER
46,PRO	46,PRO
47,GLU	47,GLU
48,ARG	48,ARG
49,ASP	49,ASP
50,VAL	50,VAL
51,GLU	51,GLU
52,ARG	52,ARG
53,ASP	53,ASP
54,VAL	54,VAL
55,PHE	55,PHE
56,LEU	56,LEU
57,TYR	57,TYR
58,ARG	58,ARG
59,ALA	59,ALA
60,TYR	60,TYR
61,LEU	61,LEU
62,ALA	62,ALA
63,GLN	63,GLN
64,ARG	64,ARG
65,LYS	65,LYS
66,TYR	66,TYR
67,GLY	67,GLY
68,VAL	68,VAL
69,VAL	69,VAL
70,LEU	70,LEU
71,ASP	71,ASP
72,GLU	72,GLU
73,ILE	73,ILE
74,LYS	74,LYS
75,PRO	75,PRO
76,SER	76,SER
77,SER	77,SER
78,ALA	78,ALA
79,PRO	79,PRO
80,GLU	80,GLU
81,LEU	81,LEU
82,GLN	82,GLN
83,ALA	83,ALA
84,VAL	84,VAL
85,ARG	85,ARG
86,MET	86,MET
87,PHE	87,PHE
88,ALA	88,ALA
89,GLU	89,GLU
90,TYR	90,TYR
91,LEU	91,LEU
92,ALA	92,ALA
93,SER	93,SER
94,ASP	94,HIS
95,SER	95,SER
96,ARG	96,ARG
97,ARG	97,ARG
98,ASP	98,ASP
99,ALA	99,ALA
100,ILE	100,ILE
101,VAL	101,VAL
102,ALA	102,ALA
103,GLU	103,GLU
104,LEU	104,LEU
105,ASP	105,ASP
106,ARG	106,ARG
107,GLU	107,GLU
108,MET	108,MET
109,SER	109,SER
110,ARG	110,ARG
111,SER	111,SER
112,VAL	112,VAL
113,ASP	113,ASP
114,VAL	114,VAL
115,THR	115,THR
116,ASN	116,ASN
117,THR	117,THR
118,THR	118,THR
119,PHE	119,PHE
120,LEU	120,LEU
121,LEU	121,LEU
122,MET	122,MET
123,ALA	123,ALA
124,ALA	124,ALA
125,SER	125,SER
126,ILE	126,ILE
127,TYR	127,TYR
128,PHE	128,PHE
129,TYR	129,TYR
130,ASP	130,ASP
131,GLN	131,GLN
132,ASN	132,ASN
133,PRO	133,PRO
134,ASP	134,ASP
135,ALA	135,ALA
136,ALA	136,ALA
137,LEU	137,LEU
138,ARG	138,ARG
139,THR	139,THR
140,LEU	140,LEU
141,HIS	141,HIS
142,GLN	142,GLN
143,GLY	143,GLY
144,ASP	144,ASP
145,SER	145,SER
146,LEU	146,LEU
147,GLU	147,GLU
148,CYS	148,CYS
149,MET	149,MET
150,ALA	150,ALA
151,MET	151,MET
152,THR	152,THR
153,VAL	153,VAL
154,GLN	154,GLN
155,ILE	155,ILE
156,LEU	156,LEU
157,LEU	157,LEU
158,LYS	158,LYS
159,LEU	159,LEU
160,ASP	160,ASP
161,ARG	161,ARG
162,LEU	162,LEU
163,ASP	163,ASP
164,LEU	164,LEU
165,ALA	165,ALA
166,ARG	166,ARG
167,LYS	167,LYS
168,GLU	168,GLU
169,LEU	169,LEU
170,LYS	170,LYS
171,LYS	171,LYS
172,MET	172,MET
173,GLN	173,GLN
174,ASP	174,ASP
175,GLN	175,GLN
176,ASP	176,ASP
177,GLU	177,GLU
178,ASP	178,ASP
179,ALA	179,ALA
180,THR	180,THR
181,LEU	181,LEU
182,THR	182,THR
183,GLN	183,GLN
184,LEU	184,LEU
185,ALA	185,ALA
186,THR	186,THR
187,ALA	187,ALA
188,TRP	188,TRP
189,VAL	189,VAL
190,SER	190,SER
191,LEU	191,LEU
192,ALA	192,ALA
193,ALA	193,ALA
194,GLY	194,GLY
195,GLY	195,GLY
196,GLU	196,GLU
197,LYS	197,LYS
198,LEU	198,LEU
199,GLN	199,GLN
200,ASP	200,ASP
201,ALA	201,ALA
202,TYR	202,TYR
203,TYR	203,TYR
204,ILE	204,ILE
205,PHE	205,PHE
206,GLN	206,GLN
207,GLU	207,GLU
208,MET	208,MET
209,ALA	209,ALA
210,ASP	210,ASP
211,LYS	211,LYS
212,CYS	212,CYS
213,SER	213,SER
214,PRO	214,PRO
215,THR	215,THR
216,LEU	216,LEU
217,LEU	217,LEU
218,LEU	218,LEU
219,LEU	219,LEU
220,ASN	220,ASN
221,GLY	221,GLY
222,GLN	222,GLN
223,ALA	223,ALA
224,ALA	224,ALA
225,CYS	225,CYS
226,HIS	226,HIS
227,MET	227,MET
228,ALA	228,ALA
229,GLN	229,GLN
230,GLY	230,GLY
231,ARG	231,ARG
232,TRP	232,TRP
233,GLU	233,GLU
234,ALA	234,ALA
235,ALA	235,ALA
236,GLU	236,GLU
237,GLY	237,GLY
238,VAL	238,VAL
239,LEU	239,LEU
240,GLN	240,GLN
241,GLU	241,GLU
242,ALA	242,ALA
243,LEU	243,LEU
244,ASP	244,ASP
245,LYS	245,LYS
246,ASP	246,ASP
247,SER	247,SER
248,GLY	248,GLY
249,HIS	249,HIS
250,PRO	250,PRO
251,GLU	251,GLU
252,THR	252,THR
253,LEU	253,LEU
254,ILE	254,ILE
255,ASN	255,ASN
256,LEU	256,LEU
257,VAL	257,VAL
258,VAL	258,VAL
259,LEU	259,LEU
260,SER	260,SER
261,GLN	261,GLN
262,HIS	262,HIS
263,LEU	263,LEU
264,GLY	264,GLY
265,LYS	265,LYS
266,PRO	266,PRO
267,PRO	267,PRO
268,GLU	268,GLU
269,VAL	269,VAL
270,THR	270,THR
271,ASN	271,ASN
272,ARG	272,ARG
273,TYR	273,TYR
274,LEU	274,LEU
275,SER	275,SER
276,GLN	276,GLN
277,LEU	277,LEU
278,LYS	278,LYS
279,ASP	279,ASP
280,ALA	280,ALA
281,HIS	281,HIS
282,ARG	282,ARG
283,SER	283,SER
284,HIS	284,HIS
285,PRO	285,PRO
286,PHE	286,PHE
287,ILE	287,ILE
288,LYS	288,LYS
289,GLU	289,GLU
290,TYR	290,TYR
291,ARG	291,ARG
292,ALA	292,ALA
293,LYS	293,LYS
294,GLU	294,GLU
295,ASN	295,ASN
296,ASP	296,ASP
297,PHE	297,PHE
298,ASP	298,ASP
299,ARG	299,ARG
300,LEU	300,LEU
301,VAL	301,VAL
302,LEU	302,LEU
303,GLN	303,GLN
304,TYR	304,TYR
305,ALA	305,ALA
306,PRO	306,PRO
307,SER	307,SER
308,ALA	-
