Q01705	3p3nB	2rqzA	2rr2A	1ympA	1ympB	2rr0A	3p3pB	5ky9B	5ky8B	5ky0B	5ky4B	2qc9B	2qc9A
1,MET	-	-	-	-	-	-	-	-	-	-	-	-	-
2,PRO	-	-	-	-	-	-	-	-	-	-	-	-	-
3,ARG	-	-	-	-	-	-	-	-	-	-	-	-	-
4,LEU	-	-	-	-	-	-	-	-	-	-	-	-	-
5,LEU	-	-	-	-	-	-	-	-	-	-	-	-	-
6,THR	-	-	-	-	-	-	-	-	-	-	-	-	-
7,PRO	-	-	-	-	-	-	-	-	-	-	-	-	-
8,LEU	-	-	-	-	-	-	-	-	-	-	-	-	-
9,LEU	-	-	-	-	-	-	-	-	-	-	-	-	-
10,CYS	-	-	-	-	-	-	-	-	-	-	-	-	-
11,LEU	-	-	-	-	-	-	-	-	-	-	-	-	-
12,THR	-	-	-	-	-	-	-	-	-	-	-	-	-
13,LEU	-	-	-	-	-	-	-	-	-	-	-	-	-
14,LEU	-	-	-	-	-	-	-	-	-	-	-	-	-
15,PRO	-	-	-	-	-	-	-	-	-	-	-	-	-
16,ALA	-	-	-	-	-	-	-	-	-	-	-	-	-
17,LEU	-	-	-	-	-	-	-	-	-	-	-	-	-
18,ALA	-	-	-	-	-	-	-	-	-	-	-	-	-
19,ALA	-	-	-	-	-	-	-	-	-	-	-	-	-
20,ARG	-	-	-	-	-	-	-	-	-	-	-	-	-
21,GLY	-	-	-	-	-	-	-	-	-	-	-	-	-
22,LEU	-	-	-	-	-	-	-	-	-	-	-	-	-
23,ARG	-	-	-	-	-	-	-	-	-	-	-	-	-
24,CYS	-	-	-	-	-	-	-	-	-	-	-	-	-
25,SER	-	-	-	-	-	-	-	-	-	-	-	-	-
26,GLN	-	-	-	-	-	-	-	-	-	-	-	-	-
27,PRO	-	-	-	-	-	-	-	-	-	-	-	-	-
28,SER	-	-	-	-	-	-	-	-	-	-	-	-	-
29,GLY	-	-	-	-	-	-	-	-	-	-	-	-	-
30,THR	-	-	-	-	-	-	-	-	-	-	-	-	-
31,CYS	-	-	-	-	-	-	-	-	-	-	-	-	-
32,LEU	-	-	-	-	-	-	-	-	-	-	-	-	-
33,ASN	-	-	-	-	-	-	-	-	-	-	-	-	-
34,GLY	-	-	-	-	-	-	-	-	-	-	-	-	-
35,GLY	-	-	-	-	-	-	-	-	-	-	-	-	-
36,ARG	-	-	-	-	-	-	-	-	-	-	-	-	-
37,CYS	-	-	-	-	-	-	-	-	-	-	-	-	-
38,GLU	-	-	-	-	-	-	-	-	-	-	-	-	-
39,VAL	-	-	-	-	-	-	-	-	-	-	-	-	-
40,ALA	-	-	-	-	-	-	-	-	-	-	-	-	-
41,ASN	-	-	-	-	-	-	-	-	-	-	-	-	-
42,GLY	-	-	-	-	-	-	-	-	-	-	-	-	-
43,THR	-	-	-	-	-	-	-	-	-	-	-	-	-
44,GLU	-	-	-	-	-	-	-	-	-	-	-	-	-
45,ALA	-	-	-	-	-	-	-	-	-	-	-	-	-
46,CYS	-	-	-	-	-	-	-	-	-	-	-	-	-
47,VAL	-	-	-	-	-	-	-	-	-	-	-	-	-
48,CYS	-	-	-	-	-	-	-	-	-	-	-	-	-
49,SER	-	-	-	-	-	-	-	-	-	-	-	-	-
50,GLY	-	-	-	-	-	-	-	-	-	-	-	-	-
51,ALA	-	-	-	-	-	-	-	-	-	-	-	-	-
52,PHE	-	-	-	-	-	-	-	-	-	-	-	-	-
53,VAL	-	-	-	-	-	-	-	-	-	-	-	-	-
54,GLY	-	-	-	-	-	-	-	-	-	-	-	-	-
55,GLN	-	-	-	-	-	-	-	-	-	-	-	-	-
56,ARG	-	-	-	-	-	-	-	-	-	-	-	-	-
57,CYS	-	-	-	-	-	-	-	-	-	-	-	-	-
58,GLN	-	-	-	-	-	-	-	-	-	-	-	-	-
59,ASP	-	-	-	-	-	-	-	-	-	-	-	-	-
60,SER	-	-	-	-	-	-	-	-	-	-	-	-	-
61,ASN	-	-	-	-	-	-	-	-	-	-	-	-	-
62,PRO	-	-	-	-	-	-	-	-	-	-	-	-	-
63,CYS	-	-	-	-	-	-	-	-	-	-	-	-	-
64,LEU	-	-	-	-	-	-	-	-	-	-	-	-	-
65,SER	-	-	-	-	-	-	-	-	-	-	-	-	-
66,THR	-	-	-	-	-	-	-	-	-	-	-	-	-
67,PRO	-	-	-	-	-	-	-	-	-	-	-	-	-
68,CYS	-	-	-	-	-	-	-	-	-	-	-	-	-
69,LYS	-	-	-	-	-	-	-	-	-	-	-	-	-
70,ASN	-	-	-	-	-	-	-	-	-	-	-	-	-
71,ALA	-	-	-	-	-	-	-	-	-	-	-	-	-
72,GLY	-	-	-	-	-	-	-	-	-	-	-	-	-
73,THR	-	-	-	-	-	-	-	-	-	-	-	-	-
74,CYS	-	-	-	-	-	-	-	-	-	-	-	-	-
75,HIS	-	-	-	-	-	-	-	-	-	-	-	-	-
76,VAL	-	-	-	-	-	-	-	-	-	-	-	-	-
77,VAL	-	-	-	-	-	-	-	-	-	-	-	-	-
78,ASP	-	-	-	-	-	-	-	-	-	-	-	-	-
79,HIS	-	-	-	-	-	-	-	-	-	-	-	-	-
80,GLY	-	-	-	-	-	-	-	-	-	-	-	-	-
81,GLY	-	-	-	-	-	-	-	-	-	-	-	-	-
82,THR	-	-	-	-	-	-	-	-	-	-	-	-	-
83,VAL	-	-	-	-	-	-	-	-	-	-	-	-	-
84,ASP	-	-	-	-	-	-	-	-	-	-	-	-	-
85,TYR	-	-	-	-	-	-	-	-	-	-	-	-	-
86,ALA	-	-	-	-	-	-	-	-	-	-	-	-	-
87,CYS	-	-	-	-	-	-	-	-	-	-	-	-	-
88,SER	-	-	-	-	-	-	-	-	-	-	-	-	-
89,CYS	-	-	-	-	-	-	-	-	-	-	-	-	-
90,PRO	-	-	-	-	-	-	-	-	-	-	-	-	-
91,LEU	-	-	-	-	-	-	-	-	-	-	-	-	-
92,GLY	-	-	-	-	-	-	-	-	-	-	-	-	-
93,PHE	-	-	-	-	-	-	-	-	-	-	-	-	-
94,SER	-	-	-	-	-	-	-	-	-	-	-	-	-
95,GLY	-	-	-	-	-	-	-	-	-	-	-	-	-
96,PRO	-	-	-	-	-	-	-	-	-	-	-	-	-
97,LEU	-	-	-	-	-	-	-	-	-	-	-	-	-
98,CYS	-	-	-	-	-	-	-	-	-	-	-	-	-
99,LEU	-	-	-	-	-	-	-	-	-	-	-	-	-
100,THR	-	-	-	-	-	-	-	-	-	-	-	-	-
101,PRO	-	-	-	-	-	-	-	-	-	-	-	-	-
102,LEU	-	-	-	-	-	-	-	-	-	-	-	-	-
103,ASP	-	-	-	-	-	-	-	-	-	-	-	-	-
104,ASN	-	-	-	-	-	-	-	-	-	-	-	-	-
105,ALA	-	-	-	-	-	-	-	-	-	-	-	-	-
106,CYS	-	-	-	-	-	-	-	-	-	-	-	-	-
107,LEU	-	-	-	-	-	-	-	-	-	-	-	-	-
108,ALA	-	-	-	-	-	-	-	-	-	-	-	-	-
109,ASN	-	-	-	-	-	-	-	-	-	-	-	-	-
110,PRO	-	-	-	-	-	-	-	-	-	-	-	-	-
111,CYS	-	-	-	-	-	-	-	-	-	-	-	-	-
112,ARG	-	-	-	-	-	-	-	-	-	-	-	-	-
113,ASN	-	-	-	-	-	-	-	-	-	-	-	-	-
114,GLY	-	-	-	-	-	-	-	-	-	-	-	-	-
115,GLY	-	-	-	-	-	-	-	-	-	-	-	-	-
116,THR	-	-	-	-	-	-	-	-	-	-	-	-	-
117,CYS	-	-	-	-	-	-	-	-	-	-	-	-	-
118,ASP	-	-	-	-	-	-	-	-	-	-	-	-	-
119,LEU	-	-	-	-	-	-	-	-	-	-	-	-	-
120,LEU	-	-	-	-	-	-	-	-	-	-	-	-	-
121,THR	-	-	-	-	-	-	-	-	-	-	-	-	-
122,LEU	-	-	-	-	-	-	-	-	-	-	-	-	-
123,THR	-	-	-	-	-	-	-	-	-	-	-	-	-
124,GLU	-	-	-	-	-	-	-	-	-	-	-	-	-
125,TYR	-	-	-	-	-	-	-	-	-	-	-	-	-
126,LYS	-	-	-	-	-	-	-	-	-	-	-	-	-
127,CYS	-	-	-	-	-	-	-	-	-	-	-	-	-
128,ARG	-	-	-	-	-	-	-	-	-	-	-	-	-
129,CYS	-	-	-	-	-	-	-	-	-	-	-	-	-
130,PRO	-	-	-	-	-	-	-	-	-	-	-	-	-
131,PRO	-	-	-	-	-	-	-	-	-	-	-	-	-
132,GLY	-	-	-	-	-	-	-	-	-	-	-	-	-
133,TRP	-	-	-	-	-	-	-	-	-	-	-	-	-
134,SER	-	-	-	-	-	-	-	-	-	-	-	-	-
135,GLY	-	-	-	-	-	-	-	-	-	-	-	-	-
136,LYS	-	-	-	-	-	-	-	-	-	-	-	-	-
137,SER	-	-	-	-	-	-	-	-	-	-	-	-	-
138,CYS	-	-	-	-	-	-	-	-	-	-	-	-	-
139,GLN	-	-	-	-	-	-	-	-	-	-	-	-	-
140,GLN	-	-	-	-	-	-	-	-	-	-	-	-	-
141,ALA	-	-	-	-	-	-	-	-	-	-	-	-	-
142,ASP	-	-	-	-	-	-	-	-	-	-	-	-	-
143,PRO	-	-	-	-	-	-	-	-	-	-	-	-	-
144,CYS	-	-	-	-	-	-	-	-	-	-	-	-	-
145,ALA	-	-	-	-	-	-	-	-	-	-	-	-	-
146,SER	-	-	-	-	-	-	-	-	-	-	-	-	-
147,ASN	-	-	-	-	-	-	-	-	-	-	-	-	-
148,PRO	-	-	-	-	-	-	-	-	-	-	-	-	-
149,CYS	-	-	-	-	-	-	-	-	-	-	-	-	-
150,ALA	-	-	-	-	-	-	-	-	-	-	-	-	-
151,ASN	-	-	-	-	-	-	-	-	-	-	-	-	-
152,GLY	-	-	-	-	-	-	-	-	-	-	-	-	-
153,GLY	-	-	-	-	-	-	-	-	-	-	-	-	-
154,GLN	-	-	-	-	-	-	-	-	-	-	-	-	-
155,CYS	-	-	-	-	-	-	-	-	-	-	-	-	-
156,LEU	-	-	-	-	-	-	-	-	-	-	-	-	-
157,PRO	-	-	-	-	-	-	-	-	-	-	-	-	-
158,PHE	-	-	-	-	-	-	-	-	-	-	-	-	-
159,GLU	-	-	-	-	-	-	-	-	-	-	-	-	-
160,SER	-	-	-	-	-	-	-	-	-	-	-	-	-
161,SER	-	-	-	-	-	-	-	-	-	-	-	-	-
162,TYR	-	-	-	-	-	-	-	-	-	-	-	-	-
163,ILE	-	-	-	-	-	-	-	-	-	-	-	-	-
164,CYS	-	-	-	-	-	-	-	-	-	-	-	-	-
165,ARG	-	-	-	-	-	-	-	-	-	-	-	-	-
166,CYS	-	-	-	-	-	-	-	-	-	-	-	-	-
167,PRO	-	-	-	-	-	-	-	-	-	-	-	-	-
168,PRO	-	-	-	-	-	-	-	-	-	-	-	-	-
169,GLY	-	-	-	-	-	-	-	-	-	-	-	-	-
170,PHE	-	-	-	-	-	-	-	-	-	-	-	-	-
171,HIS	-	-	-	-	-	-	-	-	-	-	-	-	-
172,GLY	-	-	-	-	-	-	-	-	-	-	-	-	-
173,PRO	-	-	-	-	-	-	-	-	-	-	-	-	-
174,THR	-	-	-	-	-	-	-	-	-	-	-	-	-
175,CYS	-	-	-	-	-	-	-	-	-	-	-	-	-
176,ARG	-	-	-	-	-	-	-	-	-	-	-	-	-
177,GLN	-	-	-	-	-	-	-	-	-	-	-	-	-
178,ASP	-	-	-	-	-	-	-	-	-	-	-	-	-
179,VAL	-	-	-	-	-	-	-	-	-	-	-	-	-
180,ASN	-	-	-	-	-	-	-	-	-	-	-	-	-
181,GLU	-	-	-	-	-	-	-	-	-	-	-	-	-
182,CYS	-	-	-	-	-	-	-	-	-	-	-	-	-
183,SER	-	-	-	-	-	-	-	-	-	-	-	-	-
184,GLN	-	-	-	-	-	-	-	-	-	-	-	-	-
185,ASN	-	-	-	-	-	-	-	-	-	-	-	-	-
186,PRO	-	-	-	-	-	-	-	-	-	-	-	-	-
187,GLY	-	-	-	-	-	-	-	-	-	-	-	-	-
188,LEU	-	-	-	-	-	-	-	-	-	-	-	-	-
189,CYS	-	-	-	-	-	-	-	-	-	-	-	-	-
190,ARG	-	-	-	-	-	-	-	-	-	-	-	-	-
191,HIS	-	-	-	-	-	-	-	-	-	-	-	-	-
192,GLY	-	-	-	-	-	-	-	-	-	-	-	-	-
193,GLY	-	-	-	-	-	-	-	-	-	-	-	-	-
194,THR	-	-	-	-	-	-	-	-	-	-	-	-	-
195,CYS	-	-	-	-	-	-	-	-	-	-	-	-	-
196,HIS	-	-	-	-	-	-	-	-	-	-	-	-	-
197,ASN	-	-	-	-	-	-	-	-	-	-	-	-	-
198,GLU	-	-	-	-	-	-	-	-	-	-	-	-	-
199,ILE	-	-	-	-	-	-	-	-	-	-	-	-	-
200,GLY	-	-	-	-	-	-	-	-	-	-	-	-	-
201,SER	-	-	-	-	-	-	-	-	-	-	-	-	-
202,TYR	-	-	-	-	-	-	-	-	-	-	-	-	-
203,ARG	-	-	-	-	-	-	-	-	-	-	-	-	-
204,CYS	-	-	-	-	-	-	-	-	-	-	-	-	-
205,ALA	-	-	-	-	-	-	-	-	-	-	-	-	-
206,CYS	-	-	-	-	-	-	-	-	-	-	-	-	-
207,ARG	-	-	-	-	-	-	-	-	-	-	-	-	-
208,ALA	-	-	-	-	-	-	-	-	-	-	-	-	-
209,THR	-	-	-	-	-	-	-	-	-	-	-	-	-
210,HIS	-	-	-	-	-	-	-	-	-	-	-	-	-
211,THR	-	-	-	-	-	-	-	-	-	-	-	-	-
212,GLY	-	-	-	-	-	-	-	-	-	-	-	-	-
213,PRO	-	-	-	-	-	-	-	-	-	-	-	-	-
214,HIS	-	-	-	-	-	-	-	-	-	-	-	-	-
215,CYS	-	-	-	-	-	-	-	-	-	-	-	-	-
216,GLU	-	-	-	-	-	-	-	-	-	-	-	-	-
217,LEU	-	-	-	-	-	-	-	-	-	-	-	-	-
218,PRO	-	-	-	-	-	-	-	-	-	-	-	-	-
219,TYR	-	-	-	-	-	-	-	-	-	-	-	-	-
220,VAL	-	-	-	-	-	-	-	-	-	-	-	-	-
221,PRO	-	-	-	-	-	-	-	-	-	-	-	-	-
222,CYS	-	-	-	-	-	-	-	-	-	-	-	-	-
223,SER	-	-	-	-	-	-	-	-	-	-	-	-	-
224,PRO	-	-	-	-	-	-	-	-	-	-	-	-	-
225,SER	-	-	-	-	-	-	-	-	-	-	-	-	-
226,PRO	-	-	-	-	-	-	-	-	-	-	-	-	-
227,CYS	-	-	-	-	-	-	-	-	-	-	-	-	-
228,GLN	-	-	-	-	-	-	-	-	-	-	-	-	-
229,ASN	-	-	-	-	-	-	-	-	-	-	-	-	-
230,GLY	-	-	-	-	-	-	-	-	-	-	-	-	-
231,GLY	-	-	-	-	-	-	-	-	-	-	-	-	-
232,THR	-	-	-	-	-	-	-	-	-	-	-	-	-
233,CYS	-	-	-	-	-	-	-	-	-	-	-	-	-
234,ARG	-	-	-	-	-	-	-	-	-	-	-	-	-
235,PRO	-	-	-	-	-	-	-	-	-	-	-	-	-
236,THR	-	-	-	-	-	-	-	-	-	-	-	-	-
237,GLY	-	-	-	-	-	-	-	-	-	-	-	-	-
238,ASP	-	-	-	-	-	-	-	-	-	-	-	-	-
239,THR	-	-	-	-	-	-	-	-	-	-	-	-	-
240,THR	-	-	-	-	-	-	-	-	-	-	-	-	-
241,HIS	-	-	-	-	-	-	-	-	-	-	-	-	-
242,GLU	-	-	-	-	-	-	-	-	-	-	-	-	-
243,CYS	-	-	-	-	-	-	-	-	-	-	-	-	-
244,ALA	-	-	-	-	-	-	-	-	-	-	-	-	-
245,CYS	-	-	-	-	-	-	-	-	-	-	-	-	-
246,LEU	-	-	-	-	-	-	-	-	-	-	-	-	-
247,PRO	-	-	-	-	-	-	-	-	-	-	-	-	-
248,GLY	-	-	-	-	-	-	-	-	-	-	-	-	-
249,PHE	-	-	-	-	-	-	-	-	-	-	-	-	-
250,ALA	-	-	-	-	-	-	-	-	-	-	-	-	-
251,GLY	-	-	-	-	-	-	-	-	-	-	-	-	-
252,GLN	-	-	-	-	-	-	-	-	-	-	-	-	-
253,ASN	-	-	-	-	-	-	-	-	-	-	-	-	-
254,CYS	-	-	-	-	-	-	-	-	-	-	-	-	-
255,GLU	-	-	-	-	-	-	-	-	-	-	-	-	-
256,GLU	-	-	-	-	-	-	-	-	-	-	-	-	-
257,ASN	-	-	-	-	-	-	-	-	-	-	-	-	-
258,VAL	-	-	-	-	-	-	-	-	-	-	-	-	-
259,ASP	-	-	-	-	-	-	-	-	-	-	-	-	-
260,ASP	-	-	-	-	-	-	-	-	-	-	-	-	-
261,CYS	-	-	-	-	-	-	-	-	-	-	-	-	-
262,PRO	-	-	-	-	-	-	-	-	-	-	-	-	-
263,GLY	-	-	-	-	-	-	-	-	-	-	-	-	-
264,ASN	-	-	-	-	-	-	-	-	-	-	-	-	-
265,ASN	-	-	-	-	-	-	-	-	-	-	-	-	-
266,CYS	-	-	-	-	-	-	-	-	-	-	-	-	-
267,LYS	-	-	-	-	-	-	-	-	-	-	-	-	-
268,ASN	-	-	-	-	-	-	-	-	-	-	-	-	-
269,GLY	-	-	-	-	-	-	-	-	-	-	-	-	-
270,GLY	-	-	-	-	-	-	-	-	-	-	-	-	-
271,ALA	-	-	-	-	-	-	-	-	-	-	-	-	-
272,CYS	-	-	-	-	-	-	-	-	-	-	-	-	-
273,VAL	-	-	-	-	-	-	-	-	-	-	-	-	-
274,ASP	-	-	-	-	-	-	-	-	-	-	-	-	-
275,GLY	-	-	-	-	-	-	-	-	-	-	-	-	-
276,VAL	-	-	-	-	-	-	-	-	-	-	-	-	-
277,ASN	-	-	-	-	-	-	-	-	-	-	-	-	-
278,THR	-	-	-	-	-	-	-	-	-	-	-	-	-
279,TYR	-	-	-	-	-	-	-	-	-	-	-	-	-
280,ASN	-	-	-	-	-	-	-	-	-	-	-	-	-
281,CYS	-	-	-	-	-	-	-	-	-	-	-	-	-
282,ARG	-	-	-	-	-	-	-	-	-	-	-	-	-
283,CYS	-	-	-	-	-	-	-	-	-	-	-	-	-
284,PRO	-	-	-	-	-	-	-	-	-	-	-	-	-
285,PRO	-	-	-	-	-	-	-	-	-	-	-	-	-
286,GLU	-	-	-	-	-	-	-	-	-	-	-	-	-
287,TRP	-	-	-	-	-	-	-	-	-	-	-	-	-
288,THR	-	-	-	-	-	-	-	-	-	-	-	-	-
289,GLY	-	-	-	-	-	-	-	-	-	-	-	-	-
290,GLN	-	-	-	-	-	-	-	-	-	-	-	-	-
291,TYR	-	-	-	-	-	-	-	-	-	-	-	-	-
292,CYS	-	-	-	-	-	-	-	-	-	-	-	-	-
293,THR	-	-	-	-	-	-	-	-	-	-	-	-	-
294,GLU	-	-	-	-	-	-	-	-	-	-	-	-	-
295,ASP	-	-	-	-	-	-	-	-	-	-	-	-	-
296,VAL	-	-	-	-	-	-	-	-	-	-	-	-	-
297,ASP	-	-	-	-	-	-	-	-	-	-	-	-	-
298,GLU	-	-	-	-	-	-	-	-	-	-	-	-	-
299,CYS	-	-	-	-	-	-	-	-	-	-	-	-	-
300,GLN	-	-	-	-	-	-	-	-	-	-	-	-	-
301,LEU	-	-	-	-	-	-	-	-	-	-	-	-	-
302,MET	-	-	-	-	-	-	-	-	-	-	-	-	-
303,PRO	-	-	-	-	-	-	-	-	-	-	-	-	-
304,ASN	-	-	-	-	-	-	-	-	-	-	-	-	-
305,ALA	-	-	-	-	-	-	-	-	-	-	-	-	-
306,CYS	-	-	-	-	-	-	-	-	-	-	-	-	-
307,GLN	-	-	-	-	-	-	-	-	-	-	-	-	-
308,ASN	-	-	-	-	-	-	-	-	-	-	-	-	-
309,GLY	-	-	-	-	-	-	-	-	-	-	-	-	-
310,GLY	-	-	-	-	-	-	-	-	-	-	-	-	-
311,THR	-	-	-	-	-	-	-	-	-	-	-	-	-
312,CYS	-	-	-	-	-	-	-	-	-	-	-	-	-
313,HIS	-	-	-	-	-	-	-	-	-	-	-	-	-
314,ASN	-	-	-	-	-	-	-	-	-	-	-	-	-
315,THR	-	-	-	-	-	-	-	-	-	-	-	-	-
316,HIS	-	-	-	-	-	-	-	-	-	-	-	-	-
317,GLY	-	-	-	-	-	-	-	-	-	-	-	-	-
318,GLY	-	-	-	-	-	-	-	-	-	-	-	-	-
319,TYR	-	-	-	-	-	-	-	-	-	-	-	-	-
320,ASN	-	-	-	-	-	-	-	-	-	-	-	-	-
321,CYS	-	-	-	-	-	-	-	-	-	-	-	-	-
322,VAL	-	-	-	-	-	-	-	-	-	-	-	-	-
323,CYS	-	-	-	-	-	-	-	-	-	-	-	-	-
324,VAL	-	-	-	-	-	-	-	-	-	-	-	-	-
325,ASN	-	-	-	-	-	-	-	-	-	-	-	-	-
326,GLY	-	-	-	-	-	-	-	-	-	-	-	-	-
327,TRP	-	-	-	-	-	-	-	-	-	-	-	-	-
328,THR	-	-	-	-	-	-	-	-	-	-	-	-	-
329,GLY	-	-	-	-	-	-	-	-	-	-	-	-	-
330,GLU	-	-	-	-	-	-	-	-	-	-	-	-	-
331,ASP	-	-	-	-	-	-	-	-	-	-	-	-	-
332,CYS	-	-	-	-	-	-	-	-	-	-	-	-	-
333,SER	-	-	-	-	-	-	-	-	-	-	-	-	-
334,GLU	-	-	-	-	-	-	-	-	-	-	-	-	-
335,ASN	-	-	-	-	-	-	-	-	-	-	-	-	-
336,ILE	-	-	-	-	-	-	-	-	-	-	-	-	-
337,ASP	-	-	-	-	-	-	-	-	-	-	-	-	-
338,ASP	-	-	-	-	-	-	-	-	-	-	-	-	-
339,CYS	-	-	-	-	-	-	-	-	-	-	-	-	-
340,ALA	-	-	-	-	-	-	-	-	-	-	-	-	-
341,SER	-	-	-	-	-	-	-	-	-	-	-	-	-
342,ALA	-	-	-	-	-	-	-	-	-	-	-	-	-
343,ALA	-	-	-	-	-	-	-	-	-	-	-	-	-
344,CYS	-	-	-	-	-	-	-	-	-	-	-	-	-
345,PHE	-	-	-	-	-	-	-	-	-	-	-	-	-
346,GLN	-	-	-	-	-	-	-	-	-	-	-	-	-
347,GLY	-	-	-	-	-	-	-	-	-	-	-	-	-
348,ALA	-	-	-	-	-	-	-	-	-	-	-	-	-
349,THR	-	-	-	-	-	-	-	-	-	-	-	-	-
350,CYS	-	-	-	-	-	-	-	-	-	-	-	-	-
351,HIS	-	-	-	-	-	-	-	-	-	-	-	-	-
352,ASP	-	-	-	-	-	-	-	-	-	-	-	-	-
353,ARG	-	-	-	-	-	-	-	-	-	-	-	-	-
354,VAL	-	-	-	-	-	-	-	-	-	-	-	-	-
355,ALA	-	-	-	-	-	-	-	-	-	-	-	-	-
356,SER	-	-	-	-	-	-	-	-	-	-	-	-	-
357,PHE	-	-	-	-	-	-	-	-	-	-	-	-	-
358,TYR	-	-	-	-	-	-	-	-	-	-	-	-	-
359,CYS	-	-	-	-	-	-	-	-	-	-	-	-	-
360,GLU	-	-	-	-	-	-	-	-	-	-	-	-	-
361,CYS	-	-	-	-	-	-	-	-	-	-	-	-	-
362,PRO	-	-	-	-	-	-	-	-	-	-	-	-	-
363,HIS	-	-	-	-	-	-	-	-	-	-	-	-	-
364,GLY	-	-	-	-	-	-	-	-	-	-	-	-	-
365,ARG	-	-	-	-	-	-	-	-	-	-	-	-	-
366,THR	-	-	-	-	-	-	-	-	-	-	-	-	-
367,GLY	-	-	-	-	-	-	-	-	-	-	-	-	-
368,LEU	-	-	-	-	-	-	-	-	-	-	-	-	-
369,LEU	-	-	-	-	-	-	-	-	-	-	-	-	-
370,CYS	-	-	-	-	-	-	-	-	-	-	-	-	-
371,HIS	-	-	-	-	-	-	-	-	-	-	-	-	-
372,LEU	-	-	-	-	-	-	-	-	-	-	-	-	-
373,ASN	-	-	-	-	-	-	-	-	-	-	-	-	-
374,ASP	-	-	-	-	-	-	-	-	-	-	-	-	-
375,ALA	-	-	-	-	-	-	-	-	-	-	-	-	-
376,CYS	-	-	-	-	-	-	-	-	-	-	-	-	-
377,ILE	-	-	-	-	-	-	-	-	-	-	-	-	-
378,SER	-	-	-	-	-	-	-	-	-	-	-	-	-
379,ASN	-	-	-	-	-	-	-	-	-	-	-	-	-
380,PRO	-	-	-	-	-	-	-	-	-	-	-	-	-
381,CYS	-	-	-	-	-	-	-	-	-	-	-	-	-
382,ASN	-	-	-	-	-	-	-	-	-	-	-	-	-
383,GLU	-	-	-	-	-	-	-	-	-	-	-	-	-
384,GLY	-	-	-	-	-	-	-	-	-	-	-	-	-
385,SER	-	-	-	-	-	-	-	-	-	-	-	-	-
386,ASN	-	-	-	-	-	-	-	-	-	-	-	-	-
387,CYS	-	-	-	-	-	-	-	-	-	-	-	-	-
388,ASP	-	-	-	-	-	-	-	-	-	-	-	-	-
389,THR	-	-	-	-	-	-	-	-	-	-	-	-	-
390,ASN	-	-	-	-	-	-	-	-	-	-	-	-	-
391,PRO	-	-	-	-	-	-	-	-	-	-	-	-	-
392,VAL	-	-	-	-	-	-	-	-	-	-	-	-	-
393,ASN	-	-	-	-	-	-	-	-	-	-	-	-	-
394,GLY	-	-	-	-	-	-	-	-	-	-	-	-	-
395,LYS	-	-	-	-	-	-	-	-	-	-	-	-	-
396,ALA	-	-	-	-	-	-	-	-	-	-	-	-	-
397,ILE	-	-	-	-	-	-	-	-	-	-	-	-	-
398,CYS	-	-	-	-	-	-	-	-	-	-	-	-	-
399,THR	-	-	-	-	-	-	-	-	-	-	-	-	-
400,CYS	-	-	-	-	-	-	-	-	-	-	-	-	-
401,PRO	-	-	-	-	-	-	-	-	-	-	-	-	-
402,SER	-	-	-	-	-	-	-	-	-	-	-	-	-
403,GLY	-	-	-	-	-	-	-	-	-	-	-	-	-
404,TYR	-	-	-	-	-	-	-	-	-	-	-	-	-
405,THR	-	-	-	-	-	-	-	-	-	-	-	-	-
406,GLY	-	-	-	-	-	-	-	-	-	-	-	-	-
407,PRO	-	-	-	-	-	-	-	-	-	-	-	-	-
408,ALA	-	-	-	-	-	-	-	-	-	-	-	-	-
409,CYS	-	-	-	-	-	-	-	-	-	-	-	-	-
410,SER	-	-	-	-	-	-	-	-	-	-	-	-	-
411,GLN	-	-	-	-	-	-	-	-	-	-	-	-	-
412,ASP	-	-	-	-	-	-	-	-	-	-	-	-	-
413,VAL	-	-	-	-	-	-	-	-	-	-	-	-	-
414,ASP	-	-	-	-	-	-	-	-	-	-	-	-	-
415,GLU	-	-	-	-	-	-	-	-	-	-	-	-	-
416,CYS	-	-	-	-	-	-	-	-	-	-	-	-	-
417,ALA	-	-	-	-	-	-	-	-	-	-	-	-	-
418,LEU	-	-	-	-	-	-	-	-	-	-	-	-	-
419,GLY	-	-	-	-	-	-	-	-	-	-	-	-	-
420,ALA	-	-	-	-	-	-	-	-	-	-	-	-	-
421,ASN	-	-	-	-	-	-	-	-	-	-	-	-	-
422,PRO	-	-	-	-	-	-	-	-	-	-	-	-	-
423,CYS	-	-	-	-	-	-	-	-	-	-	-	-	-
424,GLU	-	-	-	-	-	-	-	-	-	-	-	-	-
425,HIS	-	-	-	-	-	-	-	-	-	-	-	-	-
426,ALA	-	-	-	-	-	-	-	-	-	-	-	-	-
427,GLY	-	-	-	-	-	-	-	-	-	-	-	-	-
428,LYS	-	-	-	-	-	-	-	-	-	-	-	-	-
429,CYS	-	-	-	-	-	-	-	-	-	-	-	-	-
430,LEU	-	-	-	-	-	-	-	-	-	-	-	-	-
431,ASN	-	-	-	-	-	-	-	-	-	-	-	-	-
432,THR	-	-	-	-	-	-	-	-	-	-	-	-	-
433,LEU	-	-	-	-	-	-	-	-	-	-	-	-	-
434,GLY	-	-	-	-	-	-	-	-	-	-	-	-	-
435,SER	-	-	-	-	-	-	-	-	-	-	-	-	-
436,PHE	-	-	-	-	-	-	-	-	-	-	-	-	-
437,GLU	-	-	-	-	-	-	-	-	-	-	-	-	-
438,CYS	-	-	-	-	-	-	-	-	-	-	-	-	-
439,GLN	-	-	-	-	-	-	-	-	-	-	-	-	-
440,CYS	-	-	-	-	-	-	-	-	-	-	-	-	-
441,LEU	-	-	-	-	-	-	-	-	-	-	-	-	-
442,GLN	-	-	-	-	-	-	-	-	-	-	-	-	-
443,GLY	-	-	-	-	-	-	-	-	-	-	-	-	-
444,TYR	-	-	-	-	-	-	-	-	-	-	-	-	-
445,THR	-	-	-	-	-	-	-	-	-	-	-	-	-
446,GLY	-	-	-	-	-	-	-	-	-	-	-	-	-
447,PRO	-	-	-	-	-	-	-	-	-	-	-	-	-
448,ARG	-	-	-	-	-	-	-	-	-	-	-	-	-
449,CYS	-	-	-	-	-	-	-	-	-	-	-	-	-
450,GLU	-	-	-	-	-	-	-	-	-	-	-	-	-
451,ILE	-	-	-	-	-	-	-	-	-	-	-	-	-
452,ASP	-	1,ASP	1,ASP	-	-	1,ASP	-	452,ASP	452,ASP	452,ASP	-	-	-
453,VAL	-	3,ASN	3,ASN	-	-	38,ILE	-	453,VAL	453,VAL	453,VAL	-	-	-
454,ASN	-	4,GLU	4,GLU	-	-	3,ASN	-	454,ASN	454,ASN	454,ASN	-	-	-
455,GLU	-	5,CYS	5,CYS	-	-	4,GLU	-	455,GLU	455,GLU	455,GLU	-	-	-
456,CYS	-	6,ILE	6,ILE	-	-	5,CYS	-	456,CYS	456,CYS	456,CYS	-	-	-
457,ILE	-	7,SER	7,SER	-	-	6,ILE	-	457,ILE	457,ILE	457,ILE	-	-	-
458,SER	-	8,ASN	8,ASN	-	-	7,SER	-	458,SER	458,SER	458,SER	-	-	-
459,ASN	-	9,PRO	9,PRO	-	-	8,ASN	-	459,ASN	459,ASN	459,ASN	-	-	-
460,PRO	-	10,CYS	10,CYS	-	-	9,PRO	-	460,PRO	460,PRO	460,PRO	-	-	-
461,CYS	-	11,GLN	11,GLN	-	-	10,CYS	-	461,CYS	461,CYS	461,CYS	-	-	-
462,GLN	-	12,ASN	12,ASN	-	-	11,GLN	-	462,GLN	462,GLN	462,GLN	-	-	-
463,ASN	-	13,ASP	13,ASP	-	-	12,ASN	-	463,ASN	463,ASN	463,ASN	-	-	-
464,ASP	-	14,ALA	14,ALA	-	-	13,ASP	-	464,GLY	464,GLY	464,GLY	-	-	-
465,ALA	-	15,THR	15,THR	-	-	14,ALA	-	465,GLY	465,ALA	465,ALA	-	-	-
466,THR	-	16,CYS	16,CYS	-	-	15,THR	-	466,THR	466,THR	466,THR	-	-	-
467,CYS	-	17,LEU	17,LEU	-	-	16,CYS	-	467,CYS	467,CYS	467,CYS	-	-	-
468,LEU	-	18,ASP	18,ASP	-	-	17,LEU	-	468,LEU	468,LEU	468,LEU	-	-	-
469,ASP	-	19,GLN	19,GLN	-	-	18,ASP	-	469,ASP	469,ASP	469,ASP	-	-	-
470,GLN	-	20,ILE	20,ILE	-	-	19,GLN	-	470,GLN	470,GLN	470,GLN	-	-	-
471,ILE	-	21,GLY	21,GLY	-	-	20,ILE	-	471,ILE	471,ILE	471,ILE	-	-	-
472,GLY	-	22,GLU	22,GLU	-	-	21,GLY	-	472,GLY	472,GLY	472,GLY	-	-	-
473,GLU	-	23,PHE	23,PHE	-	-	22,GLU	-	473,GLU	473,GLU	473,GLU	-	-	-
474,PHE	-	24,GLN	24,GLN	-	-	23,PHE	-	474,PHE	474,PHE	474,PHE	-	-	-
475,GLN	-	25,CYS	25,CYS	-	-	24,GLN	-	475,GLN	475,GLN	475,GLN	-	-	-
476,CYS	-	26,ILE	26,ILE	-	-	25,CYS	-	476,CYS	476,CYS	476,CYS	-	-	-
477,ILE	-	27,CYS	27,CYS	-	-	26,ILE	-	477,ILE	477,ILE	477,ILE	-	-	-
478,CYS	-	28,MET	28,MET	-	-	27,CYS	-	478,CYS	478,CYS	478,CYS	-	-	-
479,MET	-	29,PRO	29,PRO	-	-	28,MET	-	479,MET	479,MET	479,MET	-	-	-
480,PRO	-	30,GLY	30,GLY	-	-	29,PRO	-	480,PRO	480,PRO	480,PRO	-	-	-
481,GLY	-	31,TYR	31,TYR	-	-	30,GLY	-	481,GLY	481,GLY	481,GLY	-	-	-
482,TYR	-	32,GLU	32,GLU	-	-	31,TYR	-	482,TYR	482,TYR	482,TYR	-	-	-
483,GLU	-	33,GLY	33,GLY	-	-	32,GLU	-	483,GLU	483,GLU	483,GLU	-	-	-
484,GLY	-	34,VAL	34,VAL	-	-	33,GLY	-	484,GLY	484,GLY	484,GLY	-	-	-
485,VAL	-	35,TYR	35,TYR	-	-	34,VAL	-	485,VAL	485,VAL	485,VAL	-	-	-
486,TYR	-	36,CYS	36,CYS	-	-	35,TYR	-	486,TYR	486,TYR	486,TYR	-	-	-
487,CYS	-	37,GLU	37,GLU	-	-	36,CYS	-	487,CYS	487,CYS	487,CYS	-	-	-
488,GLU	-	38,ILE	38,ILE	-	-	37,GLU	-	488,GLU	488,GLU	488,GLU	-	-	-
489,ILE	-	2,VAL	2,VAL	-	-	2,VAL	-	489,ILE	489,ILE	489,ILE	-	-	-
490,ASN	-	-	-	-	-	-	-	490,ASN	490,ASN	490,ASN	-	-	-
491,THR	-	-	-	-	-	-	-	491,THR	491,THR	491,THR	-	-	-
492,ASP	-	-	-	-	-	-	-	-	-	-	-	-	-
493,GLU	-	-	-	-	-	-	-	-	-	-	-	-	-
494,CYS	-	-	-	-	-	-	-	-	-	-	-	-	-
495,ALA	-	-	-	-	-	-	-	-	-	-	-	-	-
496,SER	-	-	-	-	-	-	-	-	-	-	-	-	-
497,SER	-	-	-	-	-	-	-	-	-	-	-	-	-
498,PRO	-	-	-	-	-	-	-	-	-	-	-	-	-
499,CYS	-	-	-	-	-	-	-	-	-	-	-	-	-
500,LEU	-	-	-	-	-	-	-	-	-	-	-	-	-
501,HIS	-	-	-	-	-	-	-	-	-	-	-	-	-
502,ASN	-	-	-	-	-	-	-	-	-	-	-	-	-
503,GLY	-	-	-	-	-	-	-	-	-	-	-	-	-
504,HIS	-	-	-	-	-	-	-	-	-	-	-	-	-
505,CYS	-	-	-	-	-	-	-	-	-	-	-	-	-
506,MET	-	-	-	-	-	-	-	-	-	-	-	-	-
507,ASP	-	-	-	-	-	-	-	-	-	-	-	-	-
508,LYS	-	-	-	-	-	-	-	-	-	-	-	-	-
509,ILE	-	-	-	-	-	-	-	-	-	-	-	-	-
510,ASN	-	-	-	-	-	-	-	-	-	-	-	-	-
511,GLU	-	-	-	-	-	-	-	-	-	-	-	-	-
512,PHE	-	-	-	-	-	-	-	-	-	-	-	-	-
513,GLN	-	-	-	-	-	-	-	-	-	-	-	-	-
514,CYS	-	-	-	-	-	-	-	-	-	-	-	-	-
515,GLN	-	-	-	-	-	-	-	-	-	-	-	-	-
516,CYS	-	-	-	-	-	-	-	-	-	-	-	-	-
517,PRO	-	-	-	-	-	-	-	-	-	-	-	-	-
518,LYS	-	-	-	-	-	-	-	-	-	-	-	-	-
519,GLY	-	-	-	-	-	-	-	-	-	-	-	-	-
520,PHE	-	-	-	-	-	-	-	-	-	-	-	-	-
521,ASN	-	-	-	-	-	-	-	-	-	-	-	-	-
522,GLY	-	-	-	-	-	-	-	-	-	-	-	-	-
523,HIS	-	-	-	-	-	-	-	-	-	-	-	-	-
524,LEU	-	-	-	-	-	-	-	-	-	-	-	-	-
525,CYS	-	-	-	-	-	-	-	-	-	-	-	-	-
526,GLN	-	-	-	-	-	-	-	-	-	-	-	-	-
527,TYR	-	-	-	-	-	-	-	-	-	-	-	-	-
528,ASP	-	-	-	-	-	-	-	-	-	-	-	-	-
529,VAL	-	-	-	-	-	-	-	-	-	-	-	-	-
530,ASP	-	-	-	-	-	-	-	-	-	-	-	-	-
531,GLU	-	-	-	-	-	-	-	-	-	-	-	-	-
532,CYS	-	-	-	-	-	-	-	-	-	-	-	-	-
533,ALA	-	-	-	-	-	-	-	-	-	-	-	-	-
534,SER	-	-	-	-	-	-	-	-	-	-	-	-	-
535,THR	-	-	-	-	-	-	-	-	-	-	-	-	-
536,PRO	-	-	-	-	-	-	-	-	-	-	-	-	-
537,CYS	-	-	-	-	-	-	-	-	-	-	-	-	-
538,LYS	-	-	-	-	-	-	-	-	-	-	-	-	-
539,ASN	-	-	-	-	-	-	-	-	-	-	-	-	-
540,GLY	-	-	-	-	-	-	-	-	-	-	-	-	-
541,ALA	-	-	-	-	-	-	-	-	-	-	-	-	-
542,LYS	-	-	-	-	-	-	-	-	-	-	-	-	-
543,CYS	-	-	-	-	-	-	-	-	-	-	-	-	-
544,LEU	-	-	-	-	-	-	-	-	-	-	-	-	-
545,ASP	-	-	-	-	-	-	-	-	-	-	-	-	-
546,GLY	-	-	-	-	-	-	-	-	-	-	-	-	-
547,PRO	-	-	-	-	-	-	-	-	-	-	-	-	-
548,ASN	-	-	-	-	-	-	-	-	-	-	-	-	-
549,THR	-	-	-	-	-	-	-	-	-	-	-	-	-
550,TYR	-	-	-	-	-	-	-	-	-	-	-	-	-
551,THR	-	-	-	-	-	-	-	-	-	-	-	-	-
552,CYS	-	-	-	-	-	-	-	-	-	-	-	-	-
553,VAL	-	-	-	-	-	-	-	-	-	-	-	-	-
554,CYS	-	-	-	-	-	-	-	-	-	-	-	-	-
555,THR	-	-	-	-	-	-	-	-	-	-	-	-	-
556,GLU	-	-	-	-	-	-	-	-	-	-	-	-	-
557,GLY	-	-	-	-	-	-	-	-	-	-	-	-	-
558,TYR	-	-	-	-	-	-	-	-	-	-	-	-	-
559,THR	-	-	-	-	-	-	-	-	-	-	-	-	-
560,GLY	-	-	-	-	-	-	-	-	-	-	-	-	-
561,THR	-	-	-	-	-	-	-	-	-	-	-	-	-
562,HIS	-	-	-	-	-	-	-	-	-	-	-	-	-
563,CYS	-	-	-	-	-	-	-	-	-	-	-	-	-
564,GLU	-	-	-	-	-	-	-	-	-	-	-	-	-
565,VAL	-	-	-	-	-	-	-	-	-	-	-	-	-
566,ASP	-	-	-	-	-	-	-	-	-	-	-	-	-
567,ILE	-	-	-	-	-	-	-	-	-	-	-	-	-
568,ASP	-	-	-	-	-	-	-	-	-	-	-	-	-
569,GLU	-	-	-	-	-	-	-	-	-	-	-	-	-
570,CYS	-	-	-	-	-	-	-	-	-	-	-	-	-
571,ASP	-	-	-	-	-	-	-	-	-	-	-	-	-
572,PRO	-	-	-	-	-	-	-	-	-	-	-	-	-
573,ASP	-	-	-	-	-	-	-	-	-	-	-	-	-
574,PRO	-	-	-	-	-	-	-	-	-	-	-	-	-
575,CYS	-	-	-	-	-	-	-	-	-	-	-	-	-
576,HIS	-	-	-	-	-	-	-	-	-	-	-	-	-
577,TYR	-	-	-	-	-	-	-	-	-	-	-	-	-
578,GLY	-	-	-	-	-	-	-	-	-	-	-	-	-
579,SER	-	-	-	-	-	-	-	-	-	-	-	-	-
580,CYS	-	-	-	-	-	-	-	-	-	-	-	-	-
581,LYS	-	-	-	-	-	-	-	-	-	-	-	-	-
582,ASP	-	-	-	-	-	-	-	-	-	-	-	-	-
583,GLY	-	-	-	-	-	-	-	-	-	-	-	-	-
584,VAL	-	-	-	-	-	-	-	-	-	-	-	-	-
585,ALA	-	-	-	-	-	-	-	-	-	-	-	-	-
586,THR	-	-	-	-	-	-	-	-	-	-	-	-	-
587,PHE	-	-	-	-	-	-	-	-	-	-	-	-	-
588,THR	-	-	-	-	-	-	-	-	-	-	-	-	-
589,CYS	-	-	-	-	-	-	-	-	-	-	-	-	-
590,LEU	-	-	-	-	-	-	-	-	-	-	-	-	-
591,CYS	-	-	-	-	-	-	-	-	-	-	-	-	-
592,GLN	-	-	-	-	-	-	-	-	-	-	-	-	-
593,PRO	-	-	-	-	-	-	-	-	-	-	-	-	-
594,GLY	-	-	-	-	-	-	-	-	-	-	-	-	-
595,TYR	-	-	-	-	-	-	-	-	-	-	-	-	-
596,THR	-	-	-	-	-	-	-	-	-	-	-	-	-
597,GLY	-	-	-	-	-	-	-	-	-	-	-	-	-
598,HIS	-	-	-	-	-	-	-	-	-	-	-	-	-
599,HIS	-	-	-	-	-	-	-	-	-	-	-	-	-
600,CYS	-	-	-	-	-	-	-	-	-	-	-	-	-
601,GLU	-	-	-	-	-	-	-	-	-	-	-	-	-
602,THR	-	-	-	-	-	-	-	-	-	-	-	-	-
603,ASN	-	-	-	-	-	-	-	-	-	-	-	-	-
604,ILE	-	-	-	-	-	-	-	-	-	-	-	-	-
605,ASN	-	-	-	-	-	-	-	-	-	-	-	-	-
606,GLU	-	-	-	-	-	-	-	-	-	-	-	-	-
607,CYS	-	-	-	-	-	-	-	-	-	-	-	-	-
608,HIS	-	-	-	-	-	-	-	-	-	-	-	-	-
609,SER	-	-	-	-	-	-	-	-	-	-	-	-	-
610,GLN	-	-	-	-	-	-	-	-	-	-	-	-	-
611,PRO	-	-	-	-	-	-	-	-	-	-	-	-	-
612,CYS	-	-	-	-	-	-	-	-	-	-	-	-	-
613,ARG	-	-	-	-	-	-	-	-	-	-	-	-	-
614,HIS	-	-	-	-	-	-	-	-	-	-	-	-	-
615,GLY	-	-	-	-	-	-	-	-	-	-	-	-	-
616,GLY	-	-	-	-	-	-	-	-	-	-	-	-	-
617,THR	-	-	-	-	-	-	-	-	-	-	-	-	-
618,CYS	-	-	-	-	-	-	-	-	-	-	-	-	-
619,GLN	-	-	-	-	-	-	-	-	-	-	-	-	-
620,ASP	-	-	-	-	-	-	-	-	-	-	-	-	-
621,ARG	-	-	-	-	-	-	-	-	-	-	-	-	-
622,ASP	-	-	-	-	-	-	-	-	-	-	-	-	-
623,ASN	-	-	-	-	-	-	-	-	-	-	-	-	-
624,SER	-	-	-	-	-	-	-	-	-	-	-	-	-
625,TYR	-	-	-	-	-	-	-	-	-	-	-	-	-
626,LEU	-	-	-	-	-	-	-	-	-	-	-	-	-
627,CYS	-	-	-	-	-	-	-	-	-	-	-	-	-
628,LEU	-	-	-	-	-	-	-	-	-	-	-	-	-
629,CYS	-	-	-	-	-	-	-	-	-	-	-	-	-
630,LEU	-	-	-	-	-	-	-	-	-	-	-	-	-
631,LYS	-	-	-	-	-	-	-	-	-	-	-	-	-
632,GLY	-	-	-	-	-	-	-	-	-	-	-	-	-
633,THR	-	-	-	-	-	-	-	-	-	-	-	-	-
634,THR	-	-	-	-	-	-	-	-	-	-	-	-	-
635,GLY	-	-	-	-	-	-	-	-	-	-	-	-	-
636,PRO	-	-	-	-	-	-	-	-	-	-	-	-	-
637,ASN	-	-	-	-	-	-	-	-	-	-	-	-	-
638,CYS	-	-	-	-	-	-	-	-	-	-	-	-	-
639,GLU	-	-	-	-	-	-	-	-	-	-	-	-	-
640,ILE	-	-	-	-	-	-	-	-	-	-	-	-	-
641,ASN	-	-	-	-	-	-	-	-	-	-	-	-	-
642,LEU	-	-	-	-	-	-	-	-	-	-	-	-	-
643,ASP	-	-	-	-	-	-	-	-	-	-	-	-	-
644,ASP	-	-	-	-	-	-	-	-	-	-	-	-	-
645,CYS	-	-	-	-	-	-	-	-	-	-	-	-	-
646,ALA	-	-	-	-	-	-	-	-	-	-	-	-	-
647,SER	-	-	-	-	-	-	-	-	-	-	-	-	-
648,ASN	-	-	-	-	-	-	-	-	-	-	-	-	-
649,PRO	-	-	-	-	-	-	-	-	-	-	-	-	-
650,CYS	-	-	-	-	-	-	-	-	-	-	-	-	-
651,ASP	-	-	-	-	-	-	-	-	-	-	-	-	-
652,SER	-	-	-	-	-	-	-	-	-	-	-	-	-
653,GLY	-	-	-	-	-	-	-	-	-	-	-	-	-
654,THR	-	-	-	-	-	-	-	-	-	-	-	-	-
655,CYS	-	-	-	-	-	-	-	-	-	-	-	-	-
656,LEU	-	-	-	-	-	-	-	-	-	-	-	-	-
657,ASP	-	-	-	-	-	-	-	-	-	-	-	-	-
658,LYS	-	-	-	-	-	-	-	-	-	-	-	-	-
659,ILE	-	-	-	-	-	-	-	-	-	-	-	-	-
660,ASP	-	-	-	-	-	-	-	-	-	-	-	-	-
661,GLY	-	-	-	-	-	-	-	-	-	-	-	-	-
662,TYR	-	-	-	-	-	-	-	-	-	-	-	-	-
663,GLU	-	-	-	-	-	-	-	-	-	-	-	-	-
664,CYS	-	-	-	-	-	-	-	-	-	-	-	-	-
665,ALA	-	-	-	-	-	-	-	-	-	-	-	-	-
666,CYS	-	-	-	-	-	-	-	-	-	-	-	-	-
667,GLU	-	-	-	-	-	-	-	-	-	-	-	-	-
668,PRO	-	-	-	-	-	-	-	-	-	-	-	-	-
669,GLY	-	-	-	-	-	-	-	-	-	-	-	-	-
670,TYR	-	-	-	-	-	-	-	-	-	-	-	-	-
671,THR	-	-	-	-	-	-	-	-	-	-	-	-	-
672,GLY	-	-	-	-	-	-	-	-	-	-	-	-	-
673,SER	-	-	-	-	-	-	-	-	-	-	-	-	-
674,MET	-	-	-	-	-	-	-	-	-	-	-	-	-
675,CYS	-	-	-	-	-	-	-	-	-	-	-	-	-
676,ASN	-	-	-	-	-	-	-	-	-	-	-	-	-
677,VAL	-	-	-	-	-	-	-	-	-	-	-	-	-
678,ASN	-	-	-	-	-	-	-	-	-	-	-	-	-
679,ILE	-	-	-	-	-	-	-	-	-	-	-	-	-
680,ASP	-	-	-	-	-	-	-	-	-	-	-	-	-
681,GLU	-	-	-	-	-	-	-	-	-	-	-	-	-
682,CYS	-	-	-	-	-	-	-	-	-	-	-	-	-
683,ALA	-	-	-	-	-	-	-	-	-	-	-	-	-
684,GLY	-	-	-	-	-	-	-	-	-	-	-	-	-
685,SER	-	-	-	-	-	-	-	-	-	-	-	-	-
686,PRO	-	-	-	-	-	-	-	-	-	-	-	-	-
687,CYS	-	-	-	-	-	-	-	-	-	-	-	-	-
688,HIS	-	-	-	-	-	-	-	-	-	-	-	-	-
689,ASN	-	-	-	-	-	-	-	-	-	-	-	-	-
690,GLY	-	-	-	-	-	-	-	-	-	-	-	-	-
691,GLY	-	-	-	-	-	-	-	-	-	-	-	-	-
692,THR	-	-	-	-	-	-	-	-	-	-	-	-	-
693,CYS	-	-	-	-	-	-	-	-	-	-	-	-	-
694,GLU	-	-	-	-	-	-	-	-	-	-	-	-	-
695,ASP	-	-	-	-	-	-	-	-	-	-	-	-	-
696,GLY	-	-	-	-	-	-	-	-	-	-	-	-	-
697,ILE	-	-	-	-	-	-	-	-	-	-	-	-	-
698,ALA	-	-	-	-	-	-	-	-	-	-	-	-	-
699,GLY	-	-	-	-	-	-	-	-	-	-	-	-	-
700,PHE	-	-	-	-	-	-	-	-	-	-	-	-	-
701,THR	-	-	-	-	-	-	-	-	-	-	-	-	-
702,CYS	-	-	-	-	-	-	-	-	-	-	-	-	-
703,ARG	-	-	-	-	-	-	-	-	-	-	-	-	-
704,CYS	-	-	-	-	-	-	-	-	-	-	-	-	-
705,PRO	-	-	-	-	-	-	-	-	-	-	-	-	-
706,GLU	-	-	-	-	-	-	-	-	-	-	-	-	-
707,GLY	-	-	-	-	-	-	-	-	-	-	-	-	-
708,TYR	-	-	-	-	-	-	-	-	-	-	-	-	-
709,HIS	-	-	-	-	-	-	-	-	-	-	-	-	-
710,ASP	-	-	-	-	-	-	-	-	-	-	-	-	-
711,PRO	-	-	-	-	-	-	-	-	-	-	-	-	-
712,THR	-	-	-	-	-	-	-	-	-	-	-	-	-
713,CYS	-	-	-	-	-	-	-	-	-	-	-	-	-
714,LEU	-	-	-	-	-	-	-	-	-	-	-	-	-
715,SER	-	-	-	-	-	-	-	-	-	-	-	-	-
716,GLU	-	-	-	-	-	-	-	-	-	-	-	-	-
717,VAL	-	-	-	-	-	-	-	-	-	-	-	-	-
718,ASN	-	-	-	-	-	-	-	-	-	-	-	-	-
719,GLU	-	-	-	-	-	-	-	-	-	-	-	-	-
720,CYS	-	-	-	-	-	-	-	-	-	-	-	-	-
721,ASN	-	-	-	-	-	-	-	-	-	-	-	-	-
722,SER	-	-	-	-	-	-	-	-	-	-	-	-	-
723,ASN	-	-	-	-	-	-	-	-	-	-	-	-	-
724,PRO	-	-	-	-	-	-	-	-	-	-	-	-	-
725,CYS	-	-	-	-	-	-	-	-	-	-	-	-	-
726,ILE	-	-	-	-	-	-	-	-	-	-	-	-	-
727,HIS	-	-	-	-	-	-	-	-	-	-	-	-	-
728,GLY	-	-	-	-	-	-	-	-	-	-	-	-	-
729,ALA	-	-	-	-	-	-	-	-	-	-	-	-	-
730,CYS	-	-	-	-	-	-	-	-	-	-	-	-	-
731,ARG	-	-	-	-	-	-	-	-	-	-	-	-	-
732,ASP	-	-	-	-	-	-	-	-	-	-	-	-	-
733,GLY	-	-	-	-	-	-	-	-	-	-	-	-	-
734,LEU	-	-	-	-	-	-	-	-	-	-	-	-	-
735,ASN	-	-	-	-	-	-	-	-	-	-	-	-	-
736,GLY	-	-	-	-	-	-	-	-	-	-	-	-	-
737,TYR	-	-	-	-	-	-	-	-	-	-	-	-	-
738,LYS	-	-	-	-	-	-	-	-	-	-	-	-	-
739,CYS	-	-	-	-	-	-	-	-	-	-	-	-	-
740,ASP	-	-	-	-	-	-	-	-	-	-	-	-	-
741,CYS	-	-	-	-	-	-	-	-	-	-	-	-	-
742,ALA	-	-	-	-	-	-	-	-	-	-	-	-	-
743,PRO	-	-	-	-	-	-	-	-	-	-	-	-	-
744,GLY	-	-	-	-	-	-	-	-	-	-	-	-	-
745,TRP	-	-	-	-	-	-	-	-	-	-	-	-	-
746,SER	-	-	-	-	-	-	-	-	-	-	-	-	-
747,GLY	-	-	-	-	-	-	-	-	-	-	-	-	-
748,THR	-	-	-	-	-	-	-	-	-	-	-	-	-
749,ASN	-	-	-	-	-	-	-	-	-	-	-	-	-
750,CYS	-	-	-	-	-	-	-	-	-	-	-	-	-
751,ASP	-	-	-	-	-	-	-	-	-	-	-	-	-
752,ILE	-	-	-	-	-	-	-	-	-	-	-	-	-
753,ASN	-	-	-	-	-	-	-	-	-	-	-	-	-
754,ASN	-	-	-	-	-	-	-	-	-	-	-	-	-
755,ASN	-	-	-	-	-	-	-	-	-	-	-	-	-
756,GLU	-	-	-	-	-	-	-	-	-	-	-	-	-
757,CYS	-	-	-	-	-	-	-	-	-	-	-	-	-
758,GLU	-	-	-	-	-	-	-	-	-	-	-	-	-
759,SER	-	-	-	-	-	-	-	-	-	-	-	-	-
760,ASN	-	-	-	-	-	-	-	-	-	-	-	-	-
761,PRO	-	-	-	-	-	-	-	-	-	-	-	-	-
762,CYS	-	-	-	-	-	-	-	-	-	-	-	-	-
763,VAL	-	-	-	-	-	-	-	-	-	-	-	-	-
764,ASN	-	-	-	-	-	-	-	-	-	-	-	-	-
765,GLY	-	-	-	-	-	-	-	-	-	-	-	-	-
766,GLY	-	-	-	-	-	-	-	-	-	-	-	-	-
767,THR	-	-	-	-	-	-	-	-	-	-	-	-	-
768,CYS	-	-	-	-	-	-	-	-	-	-	-	-	-
769,LYS	-	-	-	-	-	-	-	-	-	-	-	-	-
770,ASP	-	-	-	-	-	-	-	-	-	-	-	-	-
771,MET	-	-	-	-	-	-	-	-	-	-	-	-	-
772,THR	-	-	-	-	-	-	-	-	-	-	-	-	-
773,SER	-	-	-	-	-	-	-	-	-	-	-	-	-
774,GLY	-	-	-	-	-	-	-	-	-	-	-	-	-
775,TYR	-	-	-	-	-	-	-	-	-	-	-	-	-
776,VAL	-	-	-	-	-	-	-	-	-	-	-	-	-
777,CYS	-	-	-	-	-	-	-	-	-	-	-	-	-
778,THR	-	-	-	-	-	-	-	-	-	-	-	-	-
779,CYS	-	-	-	-	-	-	-	-	-	-	-	-	-
780,ARG	-	-	-	-	-	-	-	-	-	-	-	-	-
781,GLU	-	-	-	-	-	-	-	-	-	-	-	-	-
782,GLY	-	-	-	-	-	-	-	-	-	-	-	-	-
783,PHE	-	-	-	-	-	-	-	-	-	-	-	-	-
784,SER	-	-	-	-	-	-	-	-	-	-	-	-	-
785,GLY	-	-	-	-	-	-	-	-	-	-	-	-	-
786,PRO	-	-	-	-	-	-	-	-	-	-	-	-	-
787,ASN	-	-	-	-	-	-	-	-	-	-	-	-	-
788,CYS	-	-	-	-	-	-	-	-	-	-	-	-	-
789,GLN	-	-	-	-	-	-	-	-	-	-	-	-	-
790,THR	-	-	-	-	-	-	-	-	-	-	-	-	-
791,ASN	-	-	-	-	-	-	-	-	-	-	-	-	-
792,ILE	-	-	-	-	-	-	-	-	-	-	-	-	-
793,ASN	-	-	-	-	-	-	-	-	-	-	-	-	-
794,GLU	-	-	-	-	-	-	-	-	-	-	-	-	-
795,CYS	-	-	-	-	-	-	-	-	-	-	-	-	-
796,ALA	-	-	-	-	-	-	-	-	-	-	-	-	-
797,SER	-	-	-	-	-	-	-	-	-	-	-	-	-
798,ASN	-	-	-	-	-	-	-	-	-	-	-	-	-
799,PRO	-	-	-	-	-	-	-	-	-	-	-	-	-
800,CYS	-	-	-	-	-	-	-	-	-	-	-	-	-
801,LEU	-	-	-	-	-	-	-	-	-	-	-	-	-
802,ASN	-	-	-	-	-	-	-	-	-	-	-	-	-
803,GLN	-	-	-	-	-	-	-	-	-	-	-	-	-
804,GLY	-	-	-	-	-	-	-	-	-	-	-	-	-
805,THR	-	-	-	-	-	-	-	-	-	-	-	-	-
806,CYS	-	-	-	-	-	-	-	-	-	-	-	-	-
807,ILE	-	-	-	-	-	-	-	-	-	-	-	-	-
808,ASP	-	-	-	-	-	-	-	-	-	-	-	-	-
809,ASP	-	-	-	-	-	-	-	-	-	-	-	-	-
810,VAL	-	-	-	-	-	-	-	-	-	-	-	-	-
811,ALA	-	-	-	-	-	-	-	-	-	-	-	-	-
812,GLY	-	-	-	-	-	-	-	-	-	-	-	-	-
813,TYR	-	-	-	-	-	-	-	-	-	-	-	-	-
814,LYS	-	-	-	-	-	-	-	-	-	-	-	-	-
815,CYS	-	-	-	-	-	-	-	-	-	-	-	-	-
816,ASN	-	-	-	-	-	-	-	-	-	-	-	-	-
817,CYS	-	-	-	-	-	-	-	-	-	-	-	-	-
818,PRO	-	-	-	-	-	-	-	-	-	-	-	-	-
819,LEU	-	-	-	-	-	-	-	-	-	-	-	-	-
820,PRO	-	-	-	-	-	-	-	-	-	-	-	-	-
821,TYR	-	-	-	-	-	-	-	-	-	-	-	-	-
822,THR	-	-	-	-	-	-	-	-	-	-	-	-	-
823,GLY	-	-	-	-	-	-	-	-	-	-	-	-	-
824,ALA	-	-	-	-	-	-	-	-	-	-	-	-	-
825,THR	-	-	-	-	-	-	-	-	-	-	-	-	-
826,CYS	-	-	-	-	-	-	-	-	-	-	-	-	-
827,GLU	-	-	-	-	-	-	-	-	-	-	-	-	-
828,VAL	-	-	-	-	-	-	-	-	-	-	-	-	-
829,VAL	-	-	-	-	-	-	-	-	-	-	-	-	-
830,LEU	-	-	-	-	-	-	-	-	-	-	-	-	-
831,ALA	-	-	-	-	-	-	-	-	-	-	-	-	-
832,PRO	-	-	-	-	-	-	-	-	-	-	-	-	-
833,CYS	-	-	-	-	-	-	-	-	-	-	-	-	-
834,ALA	-	-	-	-	-	-	-	-	-	-	-	-	-
835,THR	-	-	-	-	-	-	-	-	-	-	-	-	-
836,SER	-	-	-	-	-	-	-	-	-	-	-	-	-
837,PRO	-	-	-	-	-	-	-	-	-	-	-	-	-
838,CYS	-	-	-	-	-	-	-	-	-	-	-	-	-
839,LYS	-	-	-	-	-	-	-	-	-	-	-	-	-
840,ASN	-	-	-	-	-	-	-	-	-	-	-	-	-
841,SER	-	-	-	-	-	-	-	-	-	-	-	-	-
842,GLY	-	-	-	-	-	-	-	-	-	-	-	-	-
843,VAL	-	-	-	-	-	-	-	-	-	-	-	-	-
844,CYS	-	-	-	-	-	-	-	-	-	-	-	-	-
845,LYS	-	-	-	-	-	-	-	-	-	-	-	-	-
846,GLU	-	-	-	-	-	-	-	-	-	-	-	-	-
847,SER	-	-	-	-	-	-	-	-	-	-	-	-	-
848,GLU	-	-	-	-	-	-	-	-	-	-	-	-	-
849,ASP	-	-	-	-	-	-	-	-	-	-	-	-	-
850,TYR	-	-	-	-	-	-	-	-	-	-	-	-	-
851,GLU	-	-	-	-	-	-	-	-	-	-	-	-	-
852,SER	-	-	-	-	-	-	-	-	-	-	-	-	-
853,PHE	-	-	-	-	-	-	-	-	-	-	-	-	-
854,SER	-	-	-	-	-	-	-	-	-	-	-	-	-
855,CYS	-	-	-	-	-	-	-	-	-	-	-	-	-
856,VAL	-	-	-	-	-	-	-	-	-	-	-	-	-
857,CYS	-	-	-	-	-	-	-	-	-	-	-	-	-
858,PRO	-	-	-	-	-	-	-	-	-	-	-	-	-
859,THR	-	-	-	-	-	-	-	-	-	-	-	-	-
860,GLY	-	-	-	-	-	-	-	-	-	-	-	-	-
861,TRP	-	-	-	-	-	-	-	-	-	-	-	-	-
862,GLN	-	-	-	-	-	-	-	-	-	-	-	-	-
863,GLY	-	-	-	-	-	-	-	-	-	-	-	-	-
864,GLN	-	-	-	-	-	-	-	-	-	-	-	-	-
865,THR	-	-	-	-	-	-	-	-	-	-	-	-	-
866,CYS	-	-	-	-	-	-	-	-	-	-	-	-	-
867,GLU	-	-	-	-	-	-	-	-	-	-	-	-	-
868,VAL	-	-	-	-	-	-	-	-	-	-	-	-	-
869,ASP	-	-	-	-	-	-	-	-	-	-	-	-	-
870,ILE	-	-	-	-	-	-	-	-	-	-	-	-	-
871,ASN	-	-	-	-	-	-	-	-	-	-	-	-	-
872,GLU	-	-	-	-	-	-	-	-	-	-	-	-	-
873,CYS	-	-	-	-	-	-	-	-	-	-	-	-	-
874,VAL	-	-	-	-	-	-	-	-	-	-	-	-	-
875,LYS	-	-	-	-	-	-	-	-	-	-	-	-	-
876,SER	-	-	-	-	-	-	-	-	-	-	-	-	-
877,PRO	-	-	-	-	-	-	-	-	-	-	-	-	-
878,CYS	-	-	-	-	-	-	-	-	-	-	-	-	-
879,ARG	-	-	-	-	-	-	-	-	-	-	-	-	-
880,HIS	-	-	-	-	-	-	-	-	-	-	-	-	-
881,GLY	-	-	-	-	-	-	-	-	-	-	-	-	-
882,ALA	-	-	-	-	-	-	-	-	-	-	-	-	-
883,SER	-	-	-	-	-	-	-	-	-	-	-	-	-
884,CYS	-	-	-	-	-	-	-	-	-	-	-	-	-
885,GLN	-	-	-	-	-	-	-	-	-	-	-	-	-
886,ASN	-	-	-	-	-	-	-	-	-	-	-	-	-
887,THR	-	-	-	-	-	-	-	-	-	-	-	-	-
888,ASN	-	-	-	-	-	-	-	-	-	-	-	-	-
889,GLY	-	-	-	-	-	-	-	-	-	-	-	-	-
890,SER	-	-	-	-	-	-	-	-	-	-	-	-	-
891,TYR	-	-	-	-	-	-	-	-	-	-	-	-	-
892,ARG	-	-	-	-	-	-	-	-	-	-	-	-	-
893,CYS	-	-	-	-	-	-	-	-	-	-	-	-	-
894,LEU	-	-	-	-	-	-	-	-	-	-	-	-	-
895,CYS	-	-	-	-	-	-	-	-	-	-	-	-	-
896,GLN	-	-	-	-	-	-	-	-	-	-	-	-	-
897,ALA	-	-	-	-	-	-	-	-	-	-	-	-	-
898,GLY	-	-	-	-	-	-	-	-	-	-	-	-	-
899,TYR	-	-	-	-	-	-	-	-	-	-	-	-	-
900,THR	-	-	-	-	-	-	-	-	-	-	-	-	-
901,GLY	-	-	-	-	-	-	-	-	-	-	-	-	-
902,ARG	-	-	-	-	-	-	-	-	-	-	-	-	-
903,ASN	-	-	-	-	-	-	-	-	-	-	-	-	-
904,CYS	-	-	-	-	-	-	-	-	-	-	-	-	-
905,GLU	-	-	-	-	-	-	-	-	-	-	-	-	-
906,SER	-	-	-	-	-	-	-	-	-	-	-	-	-
907,ASP	-	-	-	-	-	-	-	-	-	-	-	-	-
908,ILE	-	-	-	-	-	-	-	-	-	-	-	-	-
909,ASP	-	-	-	-	-	-	-	-	-	-	-	-	-
910,ASP	-	-	-	-	-	-	-	-	-	-	-	-	-
911,CYS	-	-	-	-	-	-	-	-	-	-	-	-	-
912,ARG	-	-	-	-	-	-	-	-	-	-	-	-	-
913,PRO	-	-	-	-	-	-	-	-	-	-	-	-	-
914,ASN	-	-	-	-	-	-	-	-	-	-	-	-	-
915,PRO	-	-	-	-	-	-	-	-	-	-	-	-	-
916,CYS	-	-	-	-	-	-	-	-	-	-	-	-	-
917,HIS	-	-	-	-	-	-	-	-	-	-	-	-	-
918,ASN	-	-	-	-	-	-	-	-	-	-	-	-	-
919,GLY	-	-	-	-	-	-	-	-	-	-	-	-	-
920,GLY	-	-	-	-	-	-	-	-	-	-	-	-	-
921,SER	-	-	-	-	-	-	-	-	-	-	-	-	-
922,CYS	-	-	-	-	-	-	-	-	-	-	-	-	-
923,THR	-	-	-	-	-	-	-	-	-	-	-	-	-
924,ASP	-	-	-	-	-	-	-	-	-	-	-	-	-
925,GLY	-	-	-	-	-	-	-	-	-	-	-	-	-
926,ILE	-	-	-	-	-	-	-	-	-	-	-	-	-
927,ASN	-	-	-	-	-	-	-	-	-	-	-	-	-
928,THR	-	-	-	-	-	-	-	-	-	-	-	-	-
929,ALA	-	-	-	-	-	-	-	-	-	-	-	-	-
930,PHE	-	-	-	-	-	-	-	-	-	-	-	-	-
931,CYS	-	-	-	-	-	-	-	-	-	-	-	-	-
932,ASP	-	-	-	-	-	-	-	-	-	-	-	-	-
933,CYS	-	-	-	-	-	-	-	-	-	-	-	-	-
934,LEU	-	-	-	-	-	-	-	-	-	-	-	-	-
935,PRO	-	-	-	-	-	-	-	-	-	-	-	-	-
936,GLY	-	-	-	-	-	-	-	-	-	-	-	-	-
937,PHE	-	-	-	-	-	-	-	-	-	-	-	-	-
938,GLN	-	-	-	-	-	-	-	-	-	-	-	-	-
939,GLY	-	-	-	-	-	-	-	-	-	-	-	-	-
940,ALA	-	-	-	-	-	-	-	-	-	-	-	-	-
941,PHE	-	-	-	-	-	-	-	-	-	-	-	-	-
942,CYS	-	-	-	-	-	-	-	-	-	-	-	-	-
943,GLU	-	-	-	-	-	-	-	-	-	-	-	-	-
944,GLU	-	-	-	-	-	-	-	-	-	-	-	-	-
945,ASP	-	-	-	-	-	-	-	-	-	-	-	-	-
946,ILE	-	-	-	-	-	-	-	-	-	-	-	-	-
947,ASN	-	-	-	-	-	-	-	-	-	-	-	-	-
948,GLU	-	-	-	-	-	-	-	-	-	-	-	-	-
949,CYS	-	-	-	-	-	-	-	-	-	-	-	-	-
950,ALA	-	-	-	-	-	-	-	-	-	-	-	-	-
951,SER	-	-	-	-	-	-	-	-	-	-	-	-	-
952,ASN	-	-	-	-	-	-	-	-	-	-	-	-	-
953,PRO	-	-	-	-	-	-	-	-	-	-	-	-	-
954,CYS	-	-	-	-	-	-	-	-	-	-	-	-	-
955,GLN	-	-	-	-	-	-	-	-	-	-	-	-	-
956,ASN	-	-	-	-	-	-	-	-	-	-	-	-	-
957,GLY	-	-	-	-	-	-	-	-	-	-	-	-	-
958,ALA	-	-	-	-	-	-	-	-	-	-	-	-	-
959,ASN	-	-	-	-	-	-	-	-	-	-	-	-	-
960,CYS	-	-	-	-	-	-	-	-	-	-	-	-	-
961,THR	-	-	-	-	-	-	-	-	-	-	-	-	-
962,ASP	-	-	-	-	-	-	-	-	-	-	-	-	-
963,CYS	-	-	-	-	-	-	-	-	-	-	-	-	-
964,VAL	-	-	-	-	-	-	-	-	-	-	-	-	-
965,ASP	-	-	-	-	-	-	-	-	-	-	-	-	-
966,SER	-	-	-	-	-	-	-	-	-	-	-	-	-
967,TYR	-	-	-	-	-	-	-	-	-	-	-	-	-
968,THR	-	-	-	-	-	-	-	-	-	-	-	-	-
969,CYS	-	-	-	-	-	-	-	-	-	-	-	-	-
970,THR	-	-	-	-	-	-	-	-	-	-	-	-	-
971,CYS	-	-	-	-	-	-	-	-	-	-	-	-	-
972,PRO	-	-	-	-	-	-	-	-	-	-	-	-	-
973,VAL	-	-	-	-	-	-	-	-	-	-	-	-	-
974,GLY	-	-	-	-	-	-	-	-	-	-	-	-	-
975,PHE	-	-	-	-	-	-	-	-	-	-	-	-	-
976,ASN	-	-	-	-	-	-	-	-	-	-	-	-	-
977,GLY	-	-	-	-	-	-	-	-	-	-	-	-	-
978,ILE	-	-	-	-	-	-	-	-	-	-	-	-	-
979,HIS	-	-	-	-	-	-	-	-	-	-	-	-	-
980,CYS	-	-	-	-	-	-	-	-	-	-	-	-	-
981,GLU	-	-	-	-	-	-	-	-	-	-	-	-	-
982,ASN	-	-	-	-	-	-	-	-	-	-	-	-	-
983,ASN	-	-	-	-	-	-	-	-	-	-	965,ASN	-	-
984,THR	-	-	-	-	-	-	-	-	-	-	966,THR	-	-
985,PRO	-	-	-	-	-	-	-	-	-	-	967,PRO	-	-
986,ASP	-	-	-	-	-	-	-	-	-	-	968,ASP	-	-
987,CYS	-	-	-	-	-	-	-	-	-	-	969,CYS	-	-
988,THR	-	-	-	-	-	-	-	-	-	-	970,THR	-	-
989,GLU	-	-	-	-	-	-	-	-	-	-	971,GLU	-	-
990,SER	-	-	-	-	-	-	-	-	-	-	972,SER	-	-
991,SER	-	-	-	-	-	-	-	-	-	-	973,SER	-	-
992,CYS	-	-	-	-	-	-	-	-	-	-	974,CYS	-	-
993,PHE	-	-	-	-	-	-	-	-	-	-	975,PHE	-	-
994,ASN	-	-	-	-	-	-	-	-	-	-	976,ASN	-	-
995,GLY	-	-	-	-	-	-	-	-	-	-	977,GLY	-	-
996,GLY	-	-	-	-	-	-	-	-	-	-	978,GLY	-	-
997,THR	-	-	-	-	-	-	-	-	-	-	979,THR	-	-
998,CYS	-	-	-	-	-	-	-	-	-	-	980,CYS	-	-
999,VAL	-	-	-	-	-	-	-	-	-	-	981,VAL	-	-
1000,ASP	-	-	-	-	-	-	-	-	-	-	982,ASP	-	-
1001,GLY	-	-	-	-	-	-	-	-	-	-	983,GLY	-	-
1002,ILE	-	-	-	-	-	-	-	-	-	-	984,ILE	-	-
1003,ASN	-	-	-	-	-	-	-	-	-	-	985,ASN	-	-
1004,SER	-	-	-	-	-	-	-	-	-	-	986,SER	-	-
1005,PHE	-	-	-	-	-	-	-	-	-	-	987,PHE	-	-
1006,THR	-	-	-	-	-	-	-	-	-	-	988,THR	-	-
1007,CYS	-	-	-	-	-	-	-	-	-	-	989,CYS	-	-
1008,LEU	-	-	-	-	-	-	-	-	-	-	990,LEU	-	-
1009,CYS	-	-	-	-	-	-	-	-	-	-	991,CYS	-	-
1010,PRO	-	-	-	-	-	-	-	-	-	-	992,PRO	-	-
1011,PRO	-	-	-	-	-	-	-	-	-	-	993,PRO	-	-
1012,GLY	-	-	-	-	-	-	-	-	-	-	994,GLY	-	-
1013,PHE	-	-	-	-	-	-	-	-	-	-	995,PHE	-	-
1014,THR	-	-	-	-	-	-	-	-	-	-	996,THR	-	-
1015,GLY	-	-	-	-	-	-	-	-	-	-	997,GLY	-	-
1016,SER	-	-	-	-	-	-	-	-	-	-	998,SER	-	-
1017,TYR	-	-	-	-	-	-	-	-	-	-	999,TYR	-	-
1018,CYS	-	-	-	-	-	-	-	-	-	-	1000,CYS	-	-
1019,GLN	-	-	-	-	-	-	-	-	-	-	1001,GLN	-	-
1020,TYR	-	-	-	-	-	-	-	-	-	-	1002,TYR	-	-
1021,ASP	-	-	-	-	-	-	-	-	-	-	1003,ASP	-	-
1022,VAL	-	-	-	-	-	-	-	-	-	-	1004,VAL	-	-
1023,ASN	-	-	-	-	-	-	-	-	-	-	-	-	-
1024,GLU	-	-	-	-	-	-	-	-	-	-	-	-	-
1025,CYS	-	-	-	-	-	-	-	-	-	-	-	-	-
1026,ASP	-	-	-	-	-	-	-	-	-	-	-	-	-
1027,SER	-	-	-	-	-	-	-	-	-	-	-	-	-
1028,ARG	-	-	-	-	-	-	-	-	-	-	-	-	-
1029,PRO	-	-	-	-	-	-	-	-	-	-	-	-	-
1030,CYS	-	-	-	-	-	-	-	-	-	-	-	-	-
1031,LEU	-	-	-	-	-	-	-	-	-	-	-	-	-
1032,HIS	-	-	-	-	-	-	-	-	-	-	-	-	-
1033,GLY	-	-	-	-	-	-	-	-	-	-	-	-	-
1034,GLY	-	-	-	-	-	-	-	-	-	-	-	-	-
1035,THR	-	-	-	-	-	-	-	-	-	-	-	-	-
1036,CYS	-	-	-	-	-	-	-	-	-	-	-	-	-
1037,GLN	-	-	-	-	-	-	-	-	-	-	-	-	-
1038,ASP	-	-	-	-	-	-	-	-	-	-	-	-	-
1039,SER	-	-	-	-	-	-	-	-	-	-	-	-	-
1040,TYR	-	-	-	-	-	-	-	-	-	-	-	-	-
1041,GLY	-	-	-	-	-	-	-	-	-	-	-	-	-
1042,THR	-	-	-	-	-	-	-	-	-	-	-	-	-
1043,TYR	-	-	-	-	-	-	-	-	-	-	-	-	-
1044,LYS	-	-	-	-	-	-	-	-	-	-	-	-	-
1045,CYS	-	-	-	-	-	-	-	-	-	-	-	-	-
1046,THR	-	-	-	-	-	-	-	-	-	-	-	-	-
1047,CYS	-	-	-	-	-	-	-	-	-	-	-	-	-
1048,PRO	-	-	-	-	-	-	-	-	-	-	-	-	-
1049,GLN	-	-	-	-	-	-	-	-	-	-	-	-	-
1050,GLY	-	-	-	-	-	-	-	-	-	-	-	-	-
1051,TYR	-	-	-	-	-	-	-	-	-	-	-	-	-
1052,THR	-	-	-	-	-	-	-	-	-	-	-	-	-
1053,GLY	-	-	-	-	-	-	-	-	-	-	-	-	-
1054,LEU	-	-	-	-	-	-	-	-	-	-	-	-	-
1055,ASN	-	-	-	-	-	-	-	-	-	-	-	-	-
1056,CYS	-	-	-	-	-	-	-	-	-	-	-	-	-
1057,GLN	-	-	-	-	-	-	-	-	-	-	-	-	-
1058,ASN	-	-	-	-	-	-	-	-	-	-	-	-	-
1059,LEU	-	-	-	-	-	-	-	-	-	-	-	-	-
1060,VAL	-	-	-	-	-	-	-	-	-	-	-	-	-
1061,ARG	-	-	-	-	-	-	-	-	-	-	-	-	-
1062,TRP	-	-	-	-	-	-	-	-	-	-	-	-	-
1063,CYS	-	-	-	-	-	-	-	-	-	-	-	-	-
1064,ASP	-	-	-	-	-	-	-	-	-	-	-	-	-
1065,SER	-	-	-	-	-	-	-	-	-	-	-	-	-
1066,ALA	-	-	-	-	-	-	-	-	-	-	-	-	-
1067,PRO	-	-	-	-	-	-	-	-	-	-	-	-	-
1068,CYS	-	-	-	-	-	-	-	-	-	-	-	-	-
1069,LYS	-	-	-	-	-	-	-	-	-	-	-	-	-
1070,ASN	-	-	-	-	-	-	-	-	-	-	-	-	-
1071,GLY	-	-	-	-	-	-	-	-	-	-	-	-	-
1072,GLY	-	-	-	-	-	-	-	-	-	-	-	-	-
1073,ARG	-	-	-	-	-	-	-	-	-	-	-	-	-
1074,CYS	-	-	-	-	-	-	-	-	-	-	-	-	-
1075,TRP	-	-	-	-	-	-	-	-	-	-	-	-	-
1076,GLN	-	-	-	-	-	-	-	-	-	-	-	-	-
1077,THR	-	-	-	-	-	-	-	-	-	-	-	-	-
1078,ASN	-	-	-	-	-	-	-	-	-	-	-	-	-
1079,THR	-	-	-	-	-	-	-	-	-	-	-	-	-
1080,GLN	-	-	-	-	-	-	-	-	-	-	-	-	-
1081,TYR	-	-	-	-	-	-	-	-	-	-	-	-	-
1082,HIS	-	-	-	-	-	-	-	-	-	-	-	-	-
1083,CYS	-	-	-	-	-	-	-	-	-	-	-	-	-
1084,GLU	-	-	-	-	-	-	-	-	-	-	-	-	-
1085,CYS	-	-	-	-	-	-	-	-	-	-	-	-	-
1086,ARG	-	-	-	-	-	-	-	-	-	-	-	-	-
1087,SER	-	-	-	-	-	-	-	-	-	-	-	-	-
1088,GLY	-	-	-	-	-	-	-	-	-	-	-	-	-
1089,TRP	-	-	-	-	-	-	-	-	-	-	-	-	-
1090,THR	-	-	-	-	-	-	-	-	-	-	-	-	-
1091,GLY	-	-	-	-	-	-	-	-	-	-	-	-	-
1092,VAL	-	-	-	-	-	-	-	-	-	-	-	-	-
1093,ASN	-	-	-	-	-	-	-	-	-	-	-	-	-
1094,CYS	-	-	-	-	-	-	-	-	-	-	-	-	-
1095,ASP	-	-	-	-	-	-	-	-	-	-	-	-	-
1096,VAL	-	-	-	-	-	-	-	-	-	-	-	-	-
1097,LEU	-	-	-	-	-	-	-	-	-	-	-	-	-
1098,SER	-	-	-	-	-	-	-	-	-	-	-	-	-
1099,VAL	-	-	-	-	-	-	-	-	-	-	-	-	-
1100,SER	-	-	-	-	-	-	-	-	-	-	-	-	-
1101,CYS	-	-	-	-	-	-	-	-	-	-	-	-	-
1102,GLU	-	-	-	-	-	-	-	-	-	-	-	-	-
1103,VAL	-	-	-	-	-	-	-	-	-	-	-	-	-
1104,ALA	-	-	-	-	-	-	-	-	-	-	-	-	-
1105,ALA	-	-	-	-	-	-	-	-	-	-	-	-	-
1106,GLN	-	-	-	-	-	-	-	-	-	-	-	-	-
1107,LYS	-	-	-	-	-	-	-	-	-	-	-	-	-
1108,ARG	-	-	-	-	-	-	-	-	-	-	-	-	-
1109,GLY	-	-	-	-	-	-	-	-	-	-	-	-	-
1110,ILE	-	-	-	-	-	-	-	-	-	-	-	-	-
1111,ASP	-	-	-	-	-	-	-	-	-	-	-	-	-
1112,VAL	-	-	-	-	-	-	-	-	-	-	-	-	-
1113,THR	-	-	-	-	-	-	-	-	-	-	-	-	-
1114,LEU	-	-	-	-	-	-	-	-	-	-	-	-	-
1115,LEU	-	-	-	-	-	-	-	-	-	-	-	-	-
1116,CYS	-	-	-	-	-	-	-	-	-	-	-	-	-
1117,GLN	-	-	-	-	-	-	-	-	-	-	-	-	-
1118,HIS	-	-	-	-	-	-	-	-	-	-	-	-	-
1119,GLY	-	-	-	-	-	-	-	-	-	-	-	-	-
1120,GLY	-	-	-	-	-	-	-	-	-	-	-	-	-
1121,LEU	-	-	-	-	-	-	-	-	-	-	-	-	-
1122,CYS	-	-	-	-	-	-	-	-	-	-	-	-	-
1123,VAL	-	-	-	-	-	-	-	-	-	-	-	-	-
1124,ASP	-	-	-	-	-	-	-	-	-	-	-	-	-
1125,GLU	-	-	-	-	-	-	-	-	-	-	-	-	-
1126,GLY	-	-	-	-	-	-	-	-	-	-	-	-	-
1127,ASP	-	-	-	-	-	-	-	-	-	-	-	-	-
1128,LYS	-	-	-	-	-	-	-	-	-	-	-	-	-
1129,HIS	-	-	-	-	-	-	-	-	-	-	-	-	-
1130,TYR	-	-	-	-	-	-	-	-	-	-	-	-	-
1131,CYS	-	-	-	-	-	-	-	-	-	-	-	-	-
1132,HIS	-	-	-	-	-	-	-	-	-	-	-	-	-
1133,CYS	-	-	-	-	-	-	-	-	-	-	-	-	-
1134,GLN	-	-	-	-	-	-	-	-	-	-	-	-	-
1135,ALA	-	-	-	-	-	-	-	-	-	-	-	-	-
1136,GLY	-	-	-	-	-	-	-	-	-	-	-	-	-
1137,TYR	-	-	-	-	-	-	-	-	-	-	-	-	-
1138,THR	-	-	-	-	-	-	-	-	-	-	-	-	-
1139,GLY	-	-	-	-	-	-	-	-	-	-	-	-	-
1140,SER	-	-	-	-	-	-	-	-	-	-	-	-	-
1141,TYR	-	-	-	-	-	-	-	-	-	-	-	-	-
1142,CYS	-	-	-	-	-	-	-	-	-	-	-	-	-
1143,GLU	-	-	-	-	-	-	-	-	-	-	-	-	-
1144,ASP	-	-	-	-	-	-	-	-	-	-	-	-	-
1145,GLU	-	-	-	-	-	-	-	-	-	-	-	-	-
1146,VAL	-	-	-	-	-	-	-	-	-	-	-	-	-
1147,ASP	-	-	-	-	-	-	-	-	-	-	-	-	-
1148,GLU	-	-	-	-	-	-	-	-	-	-	-	-	-
1149,CYS	-	-	-	-	-	-	-	-	-	-	-	-	-
1150,SER	-	-	-	-	-	-	-	-	-	-	-	-	-
1151,PRO	-	-	-	-	-	-	-	-	-	-	-	-	-
1152,ASN	-	-	-	-	-	-	-	-	-	-	-	-	-
1153,PRO	-	-	-	-	-	-	-	-	-	-	-	-	-
1154,CYS	-	-	-	-	-	-	-	-	-	-	-	-	-
1155,GLN	-	-	-	-	-	-	-	-	-	-	-	-	-
1156,ASN	-	-	-	-	-	-	-	-	-	-	-	-	-
1157,GLY	-	-	-	-	-	-	-	-	-	-	-	-	-
1158,ALA	-	-	-	-	-	-	-	-	-	-	-	-	-
1159,THR	-	-	-	-	-	-	-	-	-	-	-	-	-
1160,CYS	-	-	-	-	-	-	-	-	-	-	-	-	-
1161,THR	-	-	-	-	-	-	-	-	-	-	-	-	-
1162,ASP	-	-	-	-	-	-	-	-	-	-	-	-	-
1163,TYR	-	-	-	-	-	-	-	-	-	-	-	-	-
1164,LEU	-	-	-	-	-	-	-	-	-	-	-	-	-
1165,GLY	-	-	-	-	-	-	-	-	-	-	-	-	-
1166,GLY	-	-	-	-	-	-	-	-	-	-	-	-	-
1167,PHE	-	-	-	-	-	-	-	-	-	-	-	-	-
1168,SER	-	-	-	-	-	-	-	-	-	-	-	-	-
1169,CYS	-	-	-	-	-	-	-	-	-	-	-	-	-
1170,LYS	-	-	-	-	-	-	-	-	-	-	-	-	-
1171,CYS	-	-	-	-	-	-	-	-	-	-	-	-	-
1172,VAL	-	-	-	-	-	-	-	-	-	-	-	-	-
1173,ALA	-	-	-	-	-	-	-	-	-	-	-	-	-
1174,GLY	-	-	-	-	-	-	-	-	-	-	-	-	-
1175,TYR	-	-	-	-	-	-	-	-	-	-	-	-	-
1176,HIS	-	-	-	-	-	-	-	-	-	-	-	-	-
1177,GLY	-	-	-	-	-	-	-	-	-	-	-	-	-
1178,SER	-	-	-	-	-	-	-	-	-	-	-	-	-
1179,ASN	-	-	-	-	-	-	-	-	-	-	-	-	-
1180,CYS	-	-	-	-	-	-	-	-	-	-	-	-	-
1181,SER	-	-	-	-	-	-	-	-	-	-	-	-	-
1182,GLU	-	-	-	-	-	-	-	-	-	-	-	-	-
1183,GLU	-	-	-	-	-	-	-	-	-	-	-	-	-
1184,ILE	-	-	-	-	-	-	-	-	-	-	-	-	-
1185,ASN	-	-	-	-	-	-	-	-	-	-	-	-	-
1186,GLU	-	-	-	-	-	-	-	-	-	-	-	-	-
1187,CYS	-	-	-	-	-	-	-	-	-	-	-	-	-
1188,LEU	-	-	-	-	-	-	-	-	-	-	-	-	-
1189,SER	-	-	-	-	-	-	-	-	-	-	-	-	-
1190,GLN	-	-	-	-	-	-	-	-	-	-	-	-	-
1191,PRO	-	-	-	-	-	-	-	-	-	-	-	-	-
1192,CYS	-	-	-	-	-	-	-	-	-	-	-	-	-
1193,GLN	-	-	-	-	-	-	-	-	-	-	-	-	-
1194,ASN	-	-	-	-	-	-	-	-	-	-	-	-	-
1195,GLY	-	-	-	-	-	-	-	-	-	-	-	-	-
1196,GLY	-	-	-	-	-	-	-	-	-	-	-	-	-
1197,THR	-	-	-	-	-	-	-	-	-	-	-	-	-
1198,CYS	-	-	-	-	-	-	-	-	-	-	-	-	-
1199,ILE	-	-	-	-	-	-	-	-	-	-	-	-	-
1200,ASP	-	-	-	-	-	-	-	-	-	-	-	-	-
1201,LEU	-	-	-	-	-	-	-	-	-	-	-	-	-
1202,THR	-	-	-	-	-	-	-	-	-	-	-	-	-
1203,ASN	-	-	-	-	-	-	-	-	-	-	-	-	-
1204,SER	-	-	-	-	-	-	-	-	-	-	-	-	-
1205,TYR	-	-	-	-	-	-	-	-	-	-	-	-	-
1206,LYS	-	-	-	-	-	-	-	-	-	-	-	-	-
1207,CYS	-	-	-	-	-	-	-	-	-	-	-	-	-
1208,SER	-	-	-	-	-	-	-	-	-	-	-	-	-
1209,CYS	-	-	-	-	-	-	-	-	-	-	-	-	-
1210,PRO	-	-	-	-	-	-	-	-	-	-	-	-	-
1211,ARG	-	-	-	-	-	-	-	-	-	-	-	-	-
1212,GLY	-	-	-	-	-	-	-	-	-	-	-	-	-
1213,THR	-	-	-	-	-	-	-	-	-	-	-	-	-
1214,GLN	-	-	-	-	-	-	-	-	-	-	-	-	-
1215,GLY	-	-	-	-	-	-	-	-	-	-	-	-	-
1216,VAL	-	-	-	-	-	-	-	-	-	-	-	-	-
1217,HIS	-	-	-	-	-	-	-	-	-	-	-	-	-
1218,CYS	-	-	-	-	-	-	-	-	-	-	-	-	-
1219,GLU	-	-	-	-	-	-	-	-	-	-	-	-	-
1220,ILE	-	-	-	-	-	-	-	-	-	-	-	-	-
1221,ASN	-	-	-	-	-	-	-	-	-	-	-	-	-
1222,VAL	-	-	-	-	-	-	-	-	-	-	-	-	-
1223,ASP	-	-	-	-	-	-	-	-	-	-	-	-	-
1224,ASP	-	-	-	-	-	-	-	-	-	-	-	-	-
1225,CYS	-	-	-	-	-	-	-	-	-	-	-	-	-
1226,HIS	-	-	-	-	-	-	-	-	-	-	-	-	-
1227,PRO	-	-	-	-	-	-	-	-	-	-	-	-	-
1228,PRO	-	-	-	-	-	-	-	-	-	-	-	-	-
1229,LEU	-	-	-	-	-	-	-	-	-	-	-	-	-
1230,ASP	-	-	-	-	-	-	-	-	-	-	-	-	-
1231,PRO	-	-	-	-	-	-	-	-	-	-	-	-	-
1232,ALA	-	-	-	-	-	-	-	-	-	-	-	-	-
1233,SER	-	-	-	-	-	-	-	-	-	-	-	-	-
1234,ARG	-	-	-	-	-	-	-	-	-	-	-	-	-
1235,SER	-	-	-	-	-	-	-	-	-	-	-	-	-
1236,PRO	-	-	-	-	-	-	-	-	-	-	-	-	-
1237,LYS	-	-	-	-	-	-	-	-	-	-	-	-	-
1238,CYS	-	-	-	-	-	-	-	-	-	-	-	-	-
1239,PHE	-	-	-	-	-	-	-	-	-	-	-	-	-
1240,ASN	-	-	-	-	-	-	-	-	-	-	-	-	-
1241,ASN	-	-	-	-	-	-	-	-	-	-	-	-	-
1242,GLY	-	-	-	-	-	-	-	-	-	-	-	-	-
1243,THR	-	-	-	-	-	-	-	-	-	-	-	-	-
1244,CYS	-	-	-	-	-	-	-	-	-	-	-	-	-
1245,VAL	-	-	-	-	-	-	-	-	-	-	-	-	-
1246,ASP	-	-	-	-	-	-	-	-	-	-	-	-	-
1247,GLN	-	-	-	-	-	-	-	-	-	-	-	-	-
1248,VAL	-	-	-	-	-	-	-	-	-	-	-	-	-
1249,GLY	-	-	-	-	-	-	-	-	-	-	-	-	-
1250,GLY	-	-	-	-	-	-	-	-	-	-	-	-	-
1251,TYR	-	-	-	-	-	-	-	-	-	-	-	-	-
1252,THR	-	-	-	-	-	-	-	-	-	-	-	-	-
1253,CYS	-	-	-	-	-	-	-	-	-	-	-	-	-
1254,THR	-	-	-	-	-	-	-	-	-	-	-	-	-
1255,CYS	-	-	-	-	-	-	-	-	-	-	-	-	-
1256,PRO	-	-	-	-	-	-	-	-	-	-	-	-	-
1257,PRO	-	-	-	-	-	-	-	-	-	-	-	-	-
1258,GLY	-	-	-	-	-	-	-	-	-	-	-	-	-
1259,PHE	-	-	-	-	-	-	-	-	-	-	-	-	-
1260,VAL	-	-	-	-	-	-	-	-	-	-	-	-	-
1261,GLY	-	-	-	-	-	-	-	-	-	-	-	-	-
1262,GLU	-	-	-	-	-	-	-	-	-	-	-	-	-
1263,ARG	-	-	-	-	-	-	-	-	-	-	-	-	-
1264,CYS	-	-	-	-	-	-	-	-	-	-	-	-	-
1265,GLU	-	-	-	-	-	-	-	-	-	-	-	-	-
1266,GLY	-	-	-	-	-	-	-	-	-	-	-	-	-
1267,ASP	-	-	-	-	-	-	-	-	-	-	-	-	-
1268,VAL	-	-	-	-	-	-	-	-	-	-	-	-	-
1269,ASN	-	-	-	-	-	-	-	-	-	-	-	-	-
1270,GLU	-	-	-	-	-	-	-	-	-	-	-	-	-
1271,CYS	-	-	-	-	-	-	-	-	-	-	-	-	-
1272,LEU	-	-	-	-	-	-	-	-	-	-	-	-	-
1273,SER	-	-	-	-	-	-	-	-	-	-	-	-	-
1274,ASN	-	-	-	-	-	-	-	-	-	-	-	-	-
1275,PRO	-	-	-	-	-	-	-	-	-	-	-	-	-
1276,CYS	-	-	-	-	-	-	-	-	-	-	-	-	-
1277,ASP	-	-	-	-	-	-	-	-	-	-	-	-	-
1278,PRO	-	-	-	-	-	-	-	-	-	-	-	-	-
1279,ARG	-	-	-	-	-	-	-	-	-	-	-	-	-
1280,GLY	-	-	-	-	-	-	-	-	-	-	-	-	-
1281,THR	-	-	-	-	-	-	-	-	-	-	-	-	-
1282,GLN	-	-	-	-	-	-	-	-	-	-	-	-	-
1283,ASN	-	-	-	-	-	-	-	-	-	-	-	-	-
1284,CYS	-	-	-	-	-	-	-	-	-	-	-	-	-
1285,VAL	-	-	-	-	-	-	-	-	-	-	-	-	-
1286,GLN	-	-	-	-	-	-	-	-	-	-	-	-	-
1287,ARG	-	-	-	-	-	-	-	-	-	-	-	-	-
1288,VAL	-	-	-	-	-	-	-	-	-	-	-	-	-
1289,ASN	-	-	-	-	-	-	-	-	-	-	-	-	-
1290,ASP	-	-	-	-	-	-	-	-	-	-	-	-	-
1291,PHE	-	-	-	-	-	-	-	-	-	-	-	-	-
1292,HIS	-	-	-	-	-	-	-	-	-	-	-	-	-
1293,CYS	-	-	-	-	-	-	-	-	-	-	-	-	-
1294,GLU	-	-	-	-	-	-	-	-	-	-	-	-	-
1295,CYS	-	-	-	-	-	-	-	-	-	-	-	-	-
1296,ARG	-	-	-	-	-	-	-	-	-	-	-	-	-
1297,ALA	-	-	-	-	-	-	-	-	-	-	-	-	-
1298,GLY	-	-	-	-	-	-	-	-	-	-	-	-	-
1299,HIS	-	-	-	-	-	-	-	-	-	-	-	-	-
1300,THR	-	-	-	-	-	-	-	-	-	-	-	-	-
1301,GLY	-	-	-	-	-	-	-	-	-	-	-	-	-
1302,ARG	-	-	-	-	-	-	-	-	-	-	-	-	-
1303,ARG	-	-	-	-	-	-	-	-	-	-	-	-	-
1304,CYS	-	-	-	-	-	-	-	-	-	-	-	-	-
1305,GLU	-	-	-	-	-	-	-	-	-	-	-	-	-
1306,SER	-	-	-	-	-	-	-	-	-	-	-	-	-
1307,VAL	-	-	-	-	-	-	-	-	-	-	-	-	-
1308,ILE	-	-	-	-	-	-	-	-	-	-	-	-	-
1309,ASN	-	-	-	-	-	-	-	-	-	-	-	-	-
1310,GLY	-	-	-	-	-	-	-	-	-	-	-	-	-
1311,CYS	-	-	-	-	-	-	-	-	-	-	-	-	-
1312,ARG	-	-	-	-	-	-	-	-	-	-	-	-	-
1313,GLY	-	-	-	-	-	-	-	-	-	-	-	-	-
1314,LYS	-	-	-	-	-	-	-	-	-	-	-	-	-
1315,PRO	-	-	-	-	-	-	-	-	-	-	-	-	-
1316,CYS	-	-	-	-	-	-	-	-	-	-	-	-	-
1317,LYS	-	-	-	-	-	-	-	-	-	-	-	-	-
1318,ASN	-	-	-	-	-	-	-	-	-	-	-	-	-
1319,GLY	-	-	-	-	-	-	-	-	-	-	-	-	-
1320,GLY	-	-	-	-	-	-	-	-	-	-	-	-	-
1321,VAL	-	-	-	-	-	-	-	-	-	-	-	-	-
1322,CYS	-	-	-	-	-	-	-	-	-	-	-	-	-
1323,ALA	-	-	-	-	-	-	-	-	-	-	-	-	-
1324,VAL	-	-	-	-	-	-	-	-	-	-	-	-	-
1325,ALA	-	-	-	-	-	-	-	-	-	-	-	-	-
1326,SER	-	-	-	-	-	-	-	-	-	-	-	-	-
1327,ASN	-	-	-	-	-	-	-	-	-	-	-	-	-
1328,THR	-	-	-	-	-	-	-	-	-	-	-	-	-
1329,ALA	-	-	-	-	-	-	-	-	-	-	-	-	-
1330,ARG	-	-	-	-	-	-	-	-	-	-	-	-	-
1331,GLY	-	-	-	-	-	-	-	-	-	-	-	-	-
1332,PHE	-	-	-	-	-	-	-	-	-	-	-	-	-
1333,ILE	-	-	-	-	-	-	-	-	-	-	-	-	-
1334,CYS	-	-	-	-	-	-	-	-	-	-	-	-	-
1335,ARG	-	-	-	-	-	-	-	-	-	-	-	-	-
1336,CYS	-	-	-	-	-	-	-	-	-	-	-	-	-
1337,PRO	-	-	-	-	-	-	-	-	-	-	-	-	-
1338,ALA	-	-	-	-	-	-	-	-	-	-	-	-	-
1339,GLY	-	-	-	-	-	-	-	-	-	-	-	-	-
1340,PHE	-	-	-	-	-	-	-	-	-	-	-	-	-
1341,GLU	-	-	-	-	-	-	-	-	-	-	-	-	-
1342,GLY	-	-	-	-	-	-	-	-	-	-	-	-	-
1343,ALA	-	-	-	-	-	-	-	-	-	-	-	-	-
1344,THR	-	-	-	-	-	-	-	-	-	-	-	-	-
1345,CYS	-	-	-	-	-	-	-	-	-	-	-	-	-
1346,GLU	-	-	-	-	-	-	-	-	-	-	-	-	-
1347,ASN	-	-	-	-	-	-	-	-	-	-	-	-	-
1348,ASP	-	-	-	-	-	-	-	-	-	-	-	-	-
1349,ALA	-	-	-	-	-	-	-	-	-	-	-	-	-
1350,ARG	-	-	-	-	-	-	-	-	-	-	-	-	-
1351,THR	-	-	-	-	-	-	-	-	-	-	-	-	-
1352,CYS	-	-	-	-	-	-	-	-	-	-	-	-	-
1353,GLY	-	-	-	-	-	-	-	-	-	-	-	-	-
1354,SER	-	-	-	-	-	-	-	-	-	-	-	-	-
1355,LEU	-	-	-	-	-	-	-	-	-	-	-	-	-
1356,ARG	-	-	-	-	-	-	-	-	-	-	-	-	-
1357,CYS	-	-	-	-	-	-	-	-	-	-	-	-	-
1358,LEU	-	-	-	-	-	-	-	-	-	-	-	-	-
1359,ASN	-	-	-	-	-	-	-	-	-	-	-	-	-
1360,GLY	-	-	-	-	-	-	-	-	-	-	-	-	-
1361,GLY	-	-	-	-	-	-	-	-	-	-	-	-	-
1362,THR	-	-	-	-	-	-	-	-	-	-	-	-	-
1363,CYS	-	-	-	-	-	-	-	-	-	-	-	-	-
1364,ILE	-	-	-	-	-	-	-	-	-	-	-	-	-
1365,SER	-	-	-	-	-	-	-	-	-	-	-	-	-
1366,GLY	-	-	-	-	-	-	-	-	-	-	-	-	-
1367,PRO	-	-	-	-	-	-	-	-	-	-	-	-	-
1368,ARG	-	-	-	-	-	-	-	-	-	-	-	-	-
1369,SER	-	-	-	-	-	-	-	-	-	-	-	-	-
1370,PRO	-	-	-	-	-	-	-	-	-	-	-	-	-
1371,THR	-	-	-	-	-	-	-	-	-	-	-	-	-
1372,CYS	-	-	-	-	-	-	-	-	-	-	-	-	-
1373,LEU	-	-	-	-	-	-	-	-	-	-	-	-	-
1374,CYS	-	-	-	-	-	-	-	-	-	-	-	-	-
1375,LEU	-	-	-	-	-	-	-	-	-	-	-	-	-
1376,GLY	-	-	-	-	-	-	-	-	-	-	-	-	-
1377,SER	-	-	-	-	-	-	-	-	-	-	-	-	-
1378,PHE	-	-	-	-	-	-	-	-	-	-	-	-	-
1379,THR	-	-	-	-	-	-	-	-	-	-	-	-	-
1380,GLY	-	-	-	-	-	-	-	-	-	-	-	-	-
1381,PRO	-	-	-	-	-	-	-	-	-	-	-	-	-
1382,GLU	-	-	-	-	-	-	-	-	-	-	-	-	-
1383,CYS	-	-	-	-	-	-	-	-	-	-	-	-	-
1384,GLN	-	-	-	-	-	-	-	-	-	-	-	-	-
1385,PHE	-	-	-	-	-	-	-	-	-	-	-	-	-
1386,PRO	-	-	-	-	-	-	-	-	-	-	-	-	-
1387,ALA	-	-	-	-	-	-	-	-	-	-	-	-	-
1388,SER	-	-	-	-	-	-	-	-	-	-	-	-	-
1389,SER	-	-	-	-	-	-	-	-	-	-	-	-	-
1390,PRO	-	-	-	-	-	-	-	-	-	-	-	-	-
1391,CYS	-	-	-	-	-	-	-	-	-	-	-	-	-
1392,VAL	-	-	-	-	-	-	-	-	-	-	-	-	-
1393,GLY	-	-	-	-	-	-	-	-	-	-	-	-	-
1394,SER	-	-	-	-	-	-	-	-	-	-	-	-	-
1395,ASN	-	-	-	-	-	-	-	-	-	-	-	-	-
1396,PRO	-	-	-	-	-	-	-	-	-	-	-	-	-
1397,CYS	-	-	-	-	-	-	-	-	-	-	-	-	-
1398,TYR	-	-	-	-	-	-	-	-	-	-	-	-	-
1399,ASN	-	-	-	-	-	-	-	-	-	-	-	-	-
1400,GLN	-	-	-	-	-	-	-	-	-	-	-	-	-
1401,GLY	-	-	-	-	-	-	-	-	-	-	-	-	-
1402,THR	-	-	-	-	-	-	-	-	-	-	-	-	-
1403,CYS	-	-	-	-	-	-	-	-	-	-	-	-	-
1404,GLU	-	-	-	-	-	-	-	-	-	-	-	-	-
1405,PRO	-	-	-	-	-	-	-	-	-	-	-	-	-
1406,THR	-	-	-	-	-	-	-	-	-	-	-	-	-
1407,SER	-	-	-	-	-	-	-	-	-	-	-	-	-
1408,GLU	-	-	-	-	-	-	-	-	-	-	-	-	-
1409,ASN	-	-	-	-	-	-	-	-	-	-	-	-	-
1410,PRO	-	-	-	-	-	-	-	-	-	-	-	-	-
1411,PHE	-	-	-	-	-	-	-	-	-	-	-	-	-
1412,TYR	-	-	-	-	-	-	-	-	-	-	-	-	-
1413,ARG	-	-	-	-	-	-	-	-	-	-	-	-	-
1414,CYS	-	-	-	-	-	-	-	-	-	-	-	-	-
1415,LEU	-	-	-	-	-	-	-	-	-	-	-	-	-
1416,CYS	-	-	-	-	-	-	-	-	-	-	-	-	-
1417,PRO	-	-	-	-	-	-	-	-	-	-	-	-	-
1418,ALA	-	-	-	-	-	-	-	-	-	-	-	-	-
1419,LYS	-	-	-	-	-	-	-	-	-	-	-	-	-
1420,PHE	-	-	-	-	-	-	-	-	-	-	-	-	-
1421,ASN	-	-	-	-	-	-	-	-	-	-	-	-	-
1422,GLY	-	-	-	-	-	-	-	-	-	-	-	-	-
1423,LEU	-	-	-	-	-	-	-	-	-	-	-	-	-
1424,LEU	-	-	-	-	-	-	-	-	-	-	-	-	-
1425,CYS	-	-	-	-	-	-	-	-	-	-	-	-	-
1426,HIS	-	-	-	-	-	-	-	-	-	-	-	-	-
1427,ILE	-	-	-	-	-	-	-	-	-	-	-	-	-
1428,LEU	-	-	-	-	-	-	-	-	-	-	-	-	-
1429,ASP	-	-	-	-	-	-	-	-	-	-	-	-	-
1430,TYR	-	-	-	-	-	-	-	-	-	-	-	-	-
1431,SER	-	-	-	-	-	-	-	-	-	-	-	-	-
1432,PHE	-	-	-	-	-	-	-	-	-	-	-	-	-
1433,THR	-	-	-	-	-	-	-	-	-	-	-	-	-
1434,GLY	-	-	-	-	-	-	-	-	-	-	-	-	-
1435,GLY	-	-	-	-	-	-	-	-	-	-	-	-	-
1436,ALA	-	-	-	-	-	-	-	-	-	-	-	-	-
1437,GLY	-	-	-	-	-	-	-	-	-	-	-	-	-
1438,ARG	-	-	-	-	-	-	-	-	-	-	-	-	-
1439,ASP	-	-	-	-	-	-	-	-	-	-	-	-	-
1440,ILE	-	-	-	-	-	-	-	-	-	-	-	-	-
1441,PRO	-	-	-	-	-	-	-	-	-	-	-	-	-
1442,PRO	-	-	-	-	-	-	-	-	-	-	-	-	-
1443,PRO	-	-	-	-	-	-	-	-	-	-	-	-	-
1444,GLN	-	-	-	-	-	-	-	-	-	-	-	-	-
1445,ILE	-	-	-	-	-	-	-	-	-	-	-	-	-
1446,GLU	-	-	-	-	-	-	-	-	-	-	-	-	-
1447,GLU	-	-	-	-	-	-	-	-	-	-	-	-	-
1448,ALA	-	-	-	-	-	-	-	-	-	-	-	-	-
1449,CYS	-	-	-	-	-	-	-	-	-	-	-	-	-
1450,GLU	-	-	-	-	-	-	-	-	-	-	-	-	-
1451,LEU	-	-	-	-	-	-	-	-	-	-	-	-	-
1452,PRO	-	-	-	-	-	-	-	-	-	-	-	-	-
1453,GLU	-	-	-	-	-	-	-	-	-	-	-	-	-
1454,CYS	-	-	-	-	-	-	-	-	-	-	-	-	-
1455,GLN	-	-	-	-	-	-	-	-	-	-	-	-	-
1456,VAL	-	-	-	-	-	-	-	-	-	-	-	-	-
1457,ASP	-	-	-	-	-	-	-	-	-	-	-	-	-
1458,ALA	-	-	-	-	-	-	-	-	-	-	-	-	-
1459,GLY	-	-	-	-	-	-	-	-	-	-	-	-	-
1460,ASN	-	-	-	-	-	-	-	-	-	-	-	-	-
1461,LYS	-	-	-	-	-	-	-	-	-	-	-	-	-
1462,VAL	-	-	-	-	-	-	-	-	-	-	-	-	-
1463,CYS	-	-	-	-	-	-	-	-	-	-	-	-	-
1464,ASN	-	-	-	-	-	-	-	-	-	-	-	-	-
1465,LEU	-	-	-	-	-	-	-	-	-	-	-	-	-
1466,GLN	-	-	-	-	-	-	-	-	-	-	-	-	-
1467,CYS	-	-	-	-	-	-	-	-	-	-	-	-	-
1468,ASN	-	-	-	-	-	-	-	-	-	-	-	-	-
1469,ASN	-	-	-	-	-	-	-	-	-	-	-	-	-
1470,HIS	-	-	-	-	-	-	-	-	-	-	-	-	-
1471,ALA	-	-	-	-	-	-	-	-	-	-	-	-	-
1472,CYS	-	-	-	-	-	-	-	-	-	-	-	-	-
1473,GLY	-	-	-	-	-	-	-	-	-	-	-	-	-
1474,TRP	-	-	-	-	-	-	-	-	-	-	-	-	-
1475,ASP	-	-	-	-	-	-	-	-	-	-	-	-	-
1476,GLY	-	-	-	-	-	-	-	-	-	-	-	-	-
1477,GLY	-	-	-	-	-	-	-	-	-	-	-	-	-
1478,ASP	-	-	-	-	-	-	-	-	-	-	-	-	-
1479,CYS	-	-	-	-	-	-	-	-	-	-	-	-	-
1480,SER	-	-	-	-	-	-	-	-	-	-	-	-	-
1481,LEU	-	-	-	-	-	-	-	-	-	-	-	-	-
1482,ASN	-	-	-	-	-	-	-	-	-	-	-	-	-
1483,PHE	-	-	-	-	-	-	-	-	-	-	-	-	-
1484,ASN	-	-	-	-	-	-	-	-	-	-	-	-	-
1485,ASP	-	-	-	-	-	-	-	-	-	-	-	-	-
1486,PRO	-	-	-	-	-	-	-	-	-	-	-	-	-
1487,TRP	-	-	-	-	-	-	-	-	-	-	-	-	-
1488,LYS	-	-	-	-	-	-	-	-	-	-	-	-	-
1489,ASN	-	-	-	-	-	-	-	-	-	-	-	-	-
1490,CYS	-	-	-	-	-	-	-	-	-	-	-	-	-
1491,THR	-	-	-	-	-	-	-	-	-	-	-	-	-
1492,GLN	-	-	-	-	-	-	-	-	-	-	-	-	-
1493,SER	-	-	-	-	-	-	-	-	-	-	-	-	-
1494,LEU	-	-	-	-	-	-	-	-	-	-	-	-	-
1495,GLN	-	-	-	-	-	-	-	-	-	-	-	-	-
1496,CYS	-	-	-	-	-	-	-	-	-	-	-	-	-
1497,TRP	-	-	-	-	-	-	-	-	-	-	-	-	-
1498,LYS	-	-	-	-	-	-	-	-	-	-	-	-	-
1499,TYR	-	-	-	-	-	-	-	-	-	-	-	-	-
1500,PHE	-	-	-	-	-	-	-	-	-	-	-	-	-
1501,SER	-	-	-	-	-	-	-	-	-	-	-	-	-
1502,ASP	-	-	-	-	-	-	-	-	-	-	-	-	-
1503,GLY	-	-	-	-	-	-	-	-	-	-	-	-	-
1504,HIS	-	-	-	-	-	-	-	-	-	-	-	-	-
1505,CYS	-	-	-	-	-	-	-	-	-	-	-	-	-
1506,ASP	-	-	-	-	-	-	-	-	-	-	-	-	-
1507,SER	-	-	-	-	-	-	-	-	-	-	-	-	-
1508,GLN	-	-	-	-	-	-	-	-	-	-	-	-	-
1509,CYS	-	-	-	-	-	-	-	-	-	-	-	-	-
1510,ASN	-	-	-	-	-	-	-	-	-	-	-	-	-
1511,SER	-	-	-	-	-	-	-	-	-	-	-	-	-
1512,ALA	-	-	-	-	-	-	-	-	-	-	-	-	-
1513,GLY	-	-	-	-	-	-	-	-	-	-	-	-	-
1514,CYS	-	-	-	-	-	-	-	-	-	-	-	-	-
1515,LEU	-	-	-	-	-	-	-	-	-	-	-	-	-
1516,PHE	-	-	-	-	-	-	-	-	-	-	-	-	-
1517,ASP	-	-	-	-	-	-	-	-	-	-	-	-	-
1518,GLY	-	-	-	-	-	-	-	-	-	-	-	-	-
1519,PHE	-	-	-	-	-	-	-	-	-	-	-	-	-
1520,ASP	-	-	-	-	-	-	-	-	-	-	-	-	-
1521,CYS	-	-	-	-	-	-	-	-	-	-	-	-	-
1522,GLN	-	-	-	-	-	-	-	-	-	-	-	-	-
1523,LEU	-	-	-	-	-	-	-	-	-	-	-	-	-
1524,THR	-	-	-	-	-	-	-	-	-	-	-	-	-
1525,GLU	-	-	-	-	-	-	-	-	-	-	-	-	-
1526,GLY	-	-	-	-	-	-	-	-	-	-	-	-	-
1527,GLN	-	-	-	-	-	-	-	-	-	-	-	-	-
1528,CYS	-	-	-	-	-	-	-	-	-	-	-	-	-
1529,ASN	-	-	-	-	-	-	-	-	-	-	-	-	-
1530,PRO	-	-	-	-	-	-	-	-	-	-	-	-	-
1531,LEU	-	-	-	-	-	-	-	-	-	-	-	-	-
1532,TYR	-	-	-	-	-	-	-	-	-	-	-	-	-
1533,ASP	-	-	-	-	-	-	-	-	-	-	-	-	-
1534,GLN	-	-	-	-	-	-	-	-	-	-	-	-	-
1535,TYR	-	-	-	-	-	-	-	-	-	-	-	-	-
1536,CYS	-	-	-	-	-	-	-	-	-	-	-	-	-
1537,LYS	-	-	-	-	-	-	-	-	-	-	-	-	-
1538,ASP	-	-	-	-	-	-	-	-	-	-	-	-	-
1539,HIS	-	-	-	-	-	-	-	-	-	-	-	-	-
1540,PHE	-	-	-	-	-	-	-	-	-	-	-	-	-
1541,SER	-	-	-	-	-	-	-	-	-	-	-	-	-
1542,ASP	-	-	-	-	-	-	-	-	-	-	-	-	-
1543,GLY	-	-	-	-	-	-	-	-	-	-	-	-	-
1544,HIS	-	-	-	-	-	-	-	-	-	-	-	-	-
1545,CYS	-	-	-	-	-	-	-	-	-	-	-	-	-
1546,ASP	-	-	-	-	-	-	-	-	-	-	-	-	-
1547,GLN	-	-	-	-	-	-	-	-	-	-	-	-	-
1548,GLY	-	-	-	-	-	-	-	-	-	-	-	-	-
1549,CYS	-	-	-	-	-	-	-	-	-	-	-	-	-
1550,ASN	-	-	-	-	-	-	-	-	-	-	-	-	-
1551,SER	-	-	-	-	-	-	-	-	-	-	-	-	-
1552,ALA	-	-	-	-	-	-	-	-	-	-	-	-	-
1553,GLU	-	-	-	-	-	-	-	-	-	-	-	-	-
1554,CYS	-	-	-	-	-	-	-	-	-	-	-	-	-
1555,GLU	-	-	-	-	-	-	-	-	-	-	-	-	-
1556,TRP	-	-	-	-	-	-	-	-	-	-	-	-	-
1557,ASP	-	-	-	-	-	-	-	-	-	-	-	-	-
1558,GLY	-	-	-	-	-	-	-	-	-	-	-	-	-
1559,LEU	-	-	-	-	-	-	-	-	-	-	-	-	-
1560,ASP	-	-	-	-	-	-	-	-	-	-	-	-	-
1561,CYS	-	-	-	-	-	-	-	-	-	-	-	-	-
1562,ALA	-	-	-	-	-	-	-	-	-	-	-	-	-
1563,GLU	-	-	-	-	-	-	-	-	-	-	-	-	-
1564,HIS	-	-	-	-	-	-	-	-	-	-	-	-	-
1565,VAL	-	-	-	-	-	-	-	-	-	-	-	-	-
1566,PRO	-	-	-	-	-	-	-	-	-	-	-	-	-
1567,GLU	-	-	-	-	-	-	-	-	-	-	-	-	-
1568,ARG	-	-	-	-	-	-	-	-	-	-	-	-	-
1569,LEU	-	-	-	-	-	-	-	-	-	-	-	-	-
1570,ALA	-	-	-	-	-	-	-	-	-	-	-	-	-
1571,ALA	-	-	-	-	-	-	-	-	-	-	-	-	-
1572,GLY	-	-	-	-	-	-	-	-	-	-	-	-	-
1573,THR	-	-	-	-	-	-	-	-	-	-	-	-	-
1574,LEU	-	-	-	-	-	-	-	-	-	-	-	-	-
1575,VAL	-	-	-	-	-	-	-	-	-	-	-	-	-
1576,LEU	-	-	-	-	-	-	-	-	-	-	-	-	-
1577,VAL	-	-	-	-	-	-	-	-	-	-	-	-	-
1578,VAL	-	-	-	-	-	-	-	-	-	-	-	-	-
1579,LEU	-	-	-	-	-	-	-	-	-	-	-	-	-
1580,LEU	-	-	-	-	-	-	-	-	-	-	-	-	-
1581,PRO	-	-	-	-	-	-	-	-	-	-	-	-	-
1582,PRO	-	-	-	-	-	-	-	-	-	-	-	-	-
1583,ASP	-	-	-	-	-	-	-	-	-	-	-	-	-
1584,GLN	-	-	-	-	-	-	-	-	-	-	-	-	-
1585,LEU	-	-	-	-	-	-	-	-	-	-	-	-	-
1586,ARG	-	-	-	-	-	-	-	-	-	-	-	-	-
1587,ASN	-	-	-	-	-	-	-	-	-	-	-	-	-
1588,ASN	-	-	-	-	-	-	-	-	-	-	-	-	-
1589,SER	-	-	-	-	-	-	-	-	-	-	-	-	-
1590,PHE	-	-	-	-	-	-	-	-	-	-	-	-	-
1591,HIS	-	-	-	-	-	-	-	-	-	-	-	-	-
1592,PHE	-	-	-	-	-	-	-	-	-	-	-	-	-
1593,LEU	-	-	-	-	-	-	-	-	-	-	-	-	-
1594,ARG	-	-	-	-	-	-	-	-	-	-	-	-	-
1595,GLU	-	-	-	-	-	-	-	-	-	-	-	-	-
1596,LEU	-	-	-	-	-	-	-	-	-	-	-	-	-
1597,SER	-	-	-	-	-	-	-	-	-	-	-	-	-
1598,HIS	-	-	-	-	-	-	-	-	-	-	-	-	-
1599,VAL	-	-	-	-	-	-	-	-	-	-	-	-	-
1600,LEU	-	-	-	-	-	-	-	-	-	-	-	-	-
1601,HIS	-	-	-	-	-	-	-	-	-	-	-	-	-
1602,THR	-	-	-	-	-	-	-	-	-	-	-	-	-
1603,ASN	-	-	-	-	-	-	-	-	-	-	-	-	-
1604,VAL	-	-	-	-	-	-	-	-	-	-	-	-	-
1605,VAL	-	-	-	-	-	-	-	-	-	-	-	-	-
1606,PHE	-	-	-	-	-	-	-	-	-	-	-	-	-
1607,LYS	-	-	-	-	-	-	-	-	-	-	-	-	-
1608,ARG	-	-	-	-	-	-	-	-	-	-	-	-	-
1609,ASP	-	-	-	-	-	-	-	-	-	-	-	-	-
1610,ALA	-	-	-	-	-	-	-	-	-	-	-	-	-
1611,GLN	-	-	-	-	-	-	-	-	-	-	-	-	-
1612,GLY	-	-	-	-	-	-	-	-	-	-	-	-	-
1613,GLN	-	-	-	-	-	-	-	-	-	-	-	-	-
1614,GLN	-	-	-	-	-	-	-	-	-	-	-	-	-
1615,MET	-	-	-	-	-	-	-	-	-	-	-	-	-
1616,ILE	-	-	-	-	-	-	-	-	-	-	-	-	-
1617,PHE	-	-	-	-	-	-	-	-	-	-	-	-	-
1618,PRO	-	-	-	-	-	-	-	-	-	-	-	-	-
1619,TYR	-	-	-	-	-	-	-	-	-	-	-	-	-
1620,TYR	-	-	-	-	-	-	-	-	-	-	-	-	-
1621,GLY	-	-	-	-	-	-	-	-	-	-	-	-	-
1622,HIS	-	-	-	-	-	-	-	-	-	-	-	-	-
1623,GLU	-	-	-	-	-	-	-	-	-	-	-	-	-
1624,GLU	-	-	-	-	-	-	-	-	-	-	-	-	-
1625,GLU	-	-	-	-	-	-	-	-	-	-	-	-	-
1626,LEU	-	-	-	-	-	-	-	-	-	-	-	-	-
1627,ARG	-	-	-	-	-	-	-	-	-	-	-	-	-
1628,LYS	-	-	-	-	-	-	-	-	-	-	-	-	-
1629,HIS	-	-	-	-	-	-	-	-	-	-	-	-	-
1630,PRO	-	-	-	-	-	-	-	-	-	-	-	-	-
1631,ILE	-	-	-	-	-	-	-	-	-	-	-	-	-
1632,LYS	-	-	-	-	-	-	-	-	-	-	-	-	-
1633,ARG	-	-	-	-	-	-	-	-	-	-	-	-	-
1634,SER	-	-	-	-	-	-	-	-	-	-	-	-	-
1635,THR	-	-	-	-	-	-	-	-	-	-	-	-	-
1636,VAL	-	-	-	-	-	-	-	-	-	-	-	-	-
1637,GLY	-	-	-	-	-	-	-	-	-	-	-	-	-
1638,TRP	-	-	-	-	-	-	-	-	-	-	-	-	-
1639,ALA	-	-	-	-	-	-	-	-	-	-	-	-	-
1640,THR	-	-	-	-	-	-	-	-	-	-	-	-	-
1641,SER	-	-	-	-	-	-	-	-	-	-	-	-	-
1642,SER	-	-	-	-	-	-	-	-	-	-	-	-	-
1643,LEU	-	-	-	-	-	-	-	-	-	-	-	-	-
1644,LEU	-	-	-	-	-	-	-	-	-	-	-	-	-
1645,PRO	-	-	-	-	-	-	-	-	-	-	-	-	-
1646,GLY	-	-	-	-	-	-	-	-	-	-	-	-	-
1647,THR	-	-	-	-	-	-	-	-	-	-	-	-	-
1648,SER	-	-	-	-	-	-	-	-	-	-	-	-	-
1649,GLY	-	-	-	-	-	-	-	-	-	-	-	-	-
1650,GLY	-	-	-	-	-	-	-	-	-	-	-	-	-
1651,ARG	-	-	-	-	-	-	-	-	-	-	-	-	-
1652,GLN	-	-	-	-	-	-	-	-	-	-	-	-	-
1653,ARG	-	-	-	-	-	-	-	-	-	-	-	-	-
1654,ARG	-	-	-	-	-	-	-	-	-	-	-	-	-
1655,GLU	-	-	-	-	-	-	-	-	-	-	-	-	-
1656,LEU	-	-	-	-	-	-	-	-	-	-	-	-	-
1657,ASP	-	-	-	-	-	-	-	-	-	-	-	-	-
1658,PRO	-	-	-	-	-	-	-	-	-	-	-	-	-
1659,MET	-	-	-	-	-	-	-	-	-	-	-	-	-
1660,ASP	-	-	-	-	-	-	-	-	-	-	-	-	-
1661,ILE	-	-	-	-	-	-	-	-	-	-	-	-	-
1662,ARG	-	-	-	-	-	-	-	-	-	-	-	-	-
1663,GLY	-	-	-	-	-	-	-	-	-	-	-	-	-
1664,SER	-	-	-	-	-	-	-	-	-	-	-	-	-
1665,ILE	-	-	-	-	-	-	-	-	-	-	-	-	-
1666,VAL	-	-	-	-	-	-	-	-	-	-	-	-	-
1667,TYR	-	-	-	-	-	-	-	-	-	-	-	-	-
1668,LEU	-	-	-	-	-	-	-	-	-	-	-	-	-
1669,GLU	-	-	-	-	-	-	-	-	-	-	-	-	-
1670,ILE	-	-	-	-	-	-	-	-	-	-	-	-	-
1671,ASP	-	-	-	-	-	-	-	-	-	-	-	-	-
1672,ASN	-	-	-	-	-	-	-	-	-	-	-	-	-
1673,ARG	-	-	-	-	-	-	-	-	-	-	-	-	-
1674,GLN	-	-	-	-	-	-	-	-	-	-	-	-	-
1675,CYS	-	-	-	-	-	-	-	-	-	-	-	-	-
1676,VAL	-	-	-	-	-	-	-	-	-	-	-	-	-
1677,GLN	-	-	-	-	-	-	-	-	-	-	-	-	-
1678,SER	-	-	-	-	-	-	-	-	-	-	-	-	-
1679,SER	-	-	-	-	-	-	-	-	-	-	-	-	-
1680,SER	-	-	-	-	-	-	-	-	-	-	-	-	-
1681,GLN	-	-	-	-	-	-	-	-	-	-	-	-	-
1682,CYS	-	-	-	-	-	-	-	-	-	-	-	-	-
1683,PHE	-	-	-	-	-	-	-	-	-	-	-	-	-
1684,GLN	-	-	-	-	-	-	-	-	-	-	-	-	-
1685,SER	-	-	-	-	-	-	-	-	-	-	-	-	-
1686,ALA	-	-	-	-	-	-	-	-	-	-	-	-	-
1687,THR	-	-	-	-	-	-	-	-	-	-	-	-	-
1688,ASP	-	-	-	-	-	-	-	-	-	-	-	-	-
1689,VAL	-	-	-	-	-	-	-	-	-	-	-	-	-
1690,ALA	-	-	-	-	-	-	-	-	-	-	-	-	-
1691,ALA	-	-	-	-	-	-	-	-	-	-	-	-	-
1692,PHE	-	-	-	-	-	-	-	-	-	-	-	-	-
1693,LEU	-	-	-	-	-	-	-	-	-	-	-	-	-
1694,GLY	-	-	-	-	-	-	-	-	-	-	-	-	-
1695,ALA	-	-	-	-	-	-	-	-	-	-	-	-	-
1696,LEU	-	-	-	-	-	-	-	-	-	-	-	-	-
1697,ALA	-	-	-	-	-	-	-	-	-	-	-	-	-
1698,SER	-	-	-	-	-	-	-	-	-	-	-	-	-
1699,LEU	-	-	-	-	-	-	-	-	-	-	-	-	-
1700,GLY	-	-	-	-	-	-	-	-	-	-	-	-	-
1701,SER	-	-	-	-	-	-	-	-	-	-	-	-	-
1702,LEU	-	-	-	-	-	-	-	-	-	-	-	-	-
1703,ASN	-	-	-	-	-	-	-	-	-	-	-	-	-
1704,ILE	-	-	-	-	-	-	-	-	-	-	-	-	-
1705,PRO	-	-	-	-	-	-	-	-	-	-	-	-	-
1706,TYR	-	-	-	-	-	-	-	-	-	-	-	-	-
1707,LYS	-	-	-	-	-	-	-	-	-	-	-	-	-
1708,ILE	-	-	-	-	-	-	-	-	-	-	-	-	-
1709,GLU	-	-	-	-	-	-	-	-	-	-	-	-	-
1710,ALA	-	-	-	-	-	-	-	-	-	-	-	-	-
1711,VAL	-	-	-	-	-	-	-	-	-	-	-	-	-
1712,LYS	-	-	-	-	-	-	-	-	-	-	-	-	-
1713,SER	-	-	-	-	-	-	-	-	-	-	-	-	-
1714,GLU	-	-	-	-	-	-	-	-	-	-	-	-	-
1715,PRO	-	-	-	-	-	-	-	-	-	-	-	-	-
1716,VAL	-	-	-	-	-	-	-	-	-	-	-	-	-
1717,GLU	-	-	-	-	-	-	-	-	-	-	-	-	-
1718,PRO	-	-	-	-	-	-	-	-	-	-	-	-	-
1719,PRO	-	-	-	-	-	-	-	-	-	-	-	-	-
1720,LEU	-	-	-	-	-	-	-	-	-	-	-	-	-
1721,PRO	-	-	-	-	-	-	-	-	-	-	-	-	-
1722,SER	-	-	-	-	-	-	-	-	-	-	-	-	-
1723,GLN	-	-	-	-	-	-	-	-	-	-	-	-	-
1724,LEU	-	-	-	-	-	-	-	-	-	-	-	-	-
1725,HIS	-	-	-	-	-	-	-	-	-	-	-	-	-
1726,LEU	-	-	-	-	-	-	-	-	-	-	-	-	-
1727,MET	-	-	-	-	-	-	-	-	-	-	-	-	-
1728,TYR	-	-	-	-	-	-	-	-	-	-	-	-	-
1729,VAL	-	-	-	-	-	-	-	-	-	-	-	-	-
1730,ALA	-	-	-	-	-	-	-	-	-	-	-	-	-
1731,ALA	-	-	-	-	-	-	-	-	-	-	-	-	-
1732,ALA	-	-	-	-	-	-	-	-	-	-	-	-	-
1733,ALA	-	-	-	-	-	-	-	-	-	-	-	-	-
1734,PHE	-	-	-	-	-	-	-	-	-	-	-	-	-
1735,VAL	-	-	-	-	-	-	-	-	-	-	-	-	-
1736,LEU	-	-	-	-	-	-	-	-	-	-	-	-	-
1737,LEU	-	-	-	-	-	-	-	-	-	-	-	-	-
1738,PHE	-	-	-	-	-	-	-	-	-	-	-	-	-
1739,PHE	-	-	-	-	-	-	-	-	-	-	-	-	-
1740,VAL	-	-	-	-	-	-	-	-	-	-	-	-	-
1741,GLY	-	-	-	-	-	-	-	-	-	-	-	-	-
1742,CYS	-	-	-	-	-	-	-	-	-	-	-	-	-
1743,GLY	-	-	-	-	-	-	-	-	-	-	-	-	-
1744,VAL	-	-	-	-	-	-	-	-	-	-	-	-	-
1745,LEU	-	-	-	-	-	-	-	-	-	-	-	-	-
1746,LEU	-	-	-	-	-	-	-	-	-	-	-	-	-
1747,SER	-	-	-	-	-	-	-	-	-	-	-	-	-
1748,ARG	-	-	-	-	-	-	-	-	-	-	-	-	-
1749,LYS	-	-	-	-	-	-	-	-	-	-	-	-	-
1750,ARG	-	-	-	-	-	-	-	-	-	-	-	-	-
1751,ARG	-	-	-	-	-	-	-	-	-	-	-	-	-
1752,ARG	-	-	-	-	-	-	-	-	-	-	-	-	-
1753,GLN	-	-	-	-	-	-	-	-	-	-	-	-	-
1754,HIS	-	-	-	-	-	-	-	-	-	-	-	-	-
1755,GLY	-	-	-	-	-	-	-	-	-	-	-	-	-
1756,GLN	-	-	-	-	-	-	-	-	-	-	-	-	-
1757,LEU	-	-	-	-	-	-	-	-	-	-	-	-	-
1758,TRP	-	-	-	-	-	-	-	-	-	-	-	-	-
1759,PHE	-	-	-	-	-	-	-	-	-	-	-	-	-
1760,PRO	-	-	-	-	-	-	-	-	-	-	-	-	-
1761,GLU	-	-	-	-	-	-	-	-	-	-	-	-	-
1762,GLY	-	-	-	-	-	-	-	-	-	-	-	-	-
1763,PHE	-	-	-	-	-	-	-	-	-	-	-	-	-
1764,LYS	-	-	-	-	-	-	-	-	-	-	-	-	-
1765,VAL	-	-	-	-	-	-	-	-	-	-	-	-	-
1766,SER	-	-	-	-	-	-	-	-	-	-	-	-	-
1767,GLU	-	-	-	-	-	-	-	-	-	-	-	-	-
1768,ALA	-	-	-	-	-	-	-	-	-	-	-	-	-
1769,SER	-	-	-	-	-	-	-	-	-	-	-	-	-
1770,LYS	-	-	-	-	-	-	-	-	-	-	-	-	-
1771,LYS	-	-	-	-	-	-	-	-	-	-	-	-	-
1772,LYS	-	-	-	-	-	-	-	-	-	-	-	-	-
1773,ARG	-	-	-	-	-	-	-	-	-	-	-	-	-
1774,ARG	-	-	-	-	-	-	-	-	-	-	-	-	-
1775,GLU	-	-	-	-	-	-	-	-	-	-	-	-	-
1776,PRO	-	-	-	-	-	-	-	-	-	-	-	-	-
1777,LEU	-	-	-	-	-	-	-	-	-	-	-	-	-
1778,GLY	-	-	-	-	-	-	-	-	-	-	-	-	-
1779,GLU	-	-	-	-	-	-	-	-	-	-	-	-	-
1780,ASP	-	-	-	-	-	-	-	-	-	-	-	-	-
1781,SER	-	-	-	-	-	-	-	-	-	-	-	-	-
1782,VAL	-	-	-	-	-	-	-	-	-	-	-	-	-
1783,GLY	-	-	-	-	-	-	-	-	-	-	-	-	-
1784,LEU	-	-	-	-	-	-	-	-	-	-	-	-	-
1785,LYS	-	-	-	-	-	-	-	-	-	-	-	-	-
1786,PRO	-	-	-	-	-	-	-	-	-	-	-	-	-
1787,LEU	-	-	-	-	-	-	-	-	-	-	-	-	-
1788,LYS	-	-	-	-	-	-	-	-	-	-	-	-	-
1789,ASN	-	-	-	-	-	-	-	-	-	-	-	-	-
1790,ALA	-	-	-	-	-	-	-	-	-	-	-	-	-
1791,SER	-	-	-	-	-	-	-	-	-	-	-	-	-
1792,ASP	-	-	-	-	-	-	-	-	-	-	-	-	-
1793,GLY	-	-	-	-	-	-	-	-	-	-	-	-	-
1794,ALA	-	-	-	-	-	-	-	-	-	-	-	-	-
1795,LEU	-	-	-	-	-	-	-	-	-	-	-	-	-
1796,MET	-	-	-	-	-	-	-	-	-	-	-	-	-
1797,ASP	-	-	-	-	-	-	-	-	-	-	-	-	-
1798,ASP	-	-	-	-	-	-	-	-	-	-	-	-	-
1799,ASN	-	-	-	-	-	-	-	-	-	-	-	-	-
1800,GLN	-	-	-	-	-	-	-	-	-	-	-	-	-
1801,ASN	-	-	-	-	-	-	-	-	-	-	-	-	-
1802,GLU	-	-	-	-	-	-	-	-	-	-	-	-	-
1803,TRP	-	-	-	-	-	-	-	-	-	-	-	-	-
1804,GLY	-	-	-	-	-	-	-	-	-	-	-	-	-
1805,ASP	-	-	-	-	-	-	-	-	-	-	-	-	-
1806,GLU	-	-	-	-	-	-	-	-	-	-	-	-	-
1807,ASP	-	-	-	-	-	-	-	-	-	-	-	-	-
1808,LEU	-	-	-	-	-	-	-	-	-	-	-	-	-
1809,GLU	-	-	-	-	-	-	-	-	-	-	-	-	-
1810,THR	-	-	-	-	-	-	-	-	-	-	-	-	-
1811,LYS	-	-	-	-	-	-	-	-	-	-	-	-	-
1812,LYS	-	-	-	-	-	-	-	-	-	-	-	-	-
1813,PHE	-	-	-	-	-	-	-	-	-	-	-	-	-
1814,ARG	-	-	-	-	-	-	-	-	-	-	-	-	-
1815,PHE	-	-	-	-	-	-	-	-	-	-	-	-	-
1816,GLU	-	-	-	-	-	-	-	-	-	-	-	-	-
1817,GLU	-	-	-	-	-	-	-	-	-	-	-	-	-
1818,PRO	-	-	-	-	-	-	-	-	-	-	-	-	-
1819,VAL	-	-	-	-	-	-	-	-	-	-	-	-	-
1820,VAL	-	-	-	-	-	-	-	-	-	-	-	-	-
1821,LEU	-	-	-	-	-	-	-	-	-	-	-	-	-
1822,PRO	-	-	-	-	-	-	-	-	-	-	-	-	-
1823,ASP	-	-	-	-	-	-	-	-	-	-	-	-	-
1824,LEU	-	-	-	-	-	-	-	-	-	-	-	-	-
1825,SER	-	-	-	-	-	-	-	-	-	-	-	-	-
1826,ASP	-	-	-	-	-	-	-	-	-	-	-	-	-
1827,GLN	-	-	-	-	-	-	-	-	-	-	-	-	-
1828,THR	-	-	-	-	-	-	-	-	-	-	-	-	-
1829,ASP	-	-	-	-	-	-	-	-	-	-	-	-	-
1830,HIS	-	-	-	-	-	-	-	-	-	-	-	-	-
1831,ARG	-	-	-	-	-	-	-	-	-	-	-	-	-
1832,GLN	-	-	-	-	-	-	-	-	-	-	-	-	-
1833,TRP	-	-	-	-	-	-	-	-	-	-	-	-	-
1834,THR	-	-	-	-	-	-	-	-	-	-	-	-	-
1835,GLN	-	-	-	-	-	-	-	-	-	-	-	-	-
1836,GLN	-	-	-	-	-	-	-	-	-	-	-	-	-
1837,HIS	-	-	-	-	-	-	-	-	-	-	-	-	-
1838,LEU	-	-	-	-	-	-	-	-	-	-	-	-	-
1839,ASP	-	-	-	-	-	-	-	-	-	-	-	-	-
1840,ALA	-	-	-	-	-	-	-	-	-	-	-	-	-
1841,ALA	-	-	-	-	-	-	-	-	-	-	-	-	-
1842,ASP	-	-	-	-	-	-	-	-	-	-	-	-	-
1843,LEU	-	-	-	-	-	-	-	-	-	-	-	-	-
1844,ARG	-	-	-	-	-	-	-	-	-	-	-	-	-
1845,MET	-	-	-	-	-	-	-	-	-	-	-	-	-
1846,SER	-	-	-	-	-	-	-	-	-	-	-	-	-
1847,ALA	-	-	-	-	-	-	-	-	-	-	-	-	-
1848,MET	-	-	-	-	-	-	-	-	-	-	-	-	-
1849,ALA	-	-	-	-	-	-	-	-	-	-	-	-	-
1850,PRO	-	-	-	-	-	-	-	-	-	-	-	-	-
1851,THR	-	-	-	-	-	-	-	-	-	-	-	-	-
1852,PRO	-	-	-	-	-	-	-	-	-	-	-	-	-
1853,PRO	-	-	-	-	-	-	-	-	-	-	-	-	-
1854,GLN	-	-	-	-	-	-	-	-	-	-	-	-	-
1855,GLY	-	-	-	-	-	-	-	-	-	-	-	-	-
1856,GLU	-	-	-	-	-	-	-	-	-	-	-	-	-
1857,VAL	-	-	-	-	-	-	-	-	-	-	-	-	-
1858,ASP	-	-	-	-	-	-	-	-	-	-	-	-	-
1859,ALA	-	-	-	-	-	-	-	-	-	-	-	-	-
1860,ASP	-	-	-	-	-	-	-	-	-	-	-	-	-
1861,CYS	-	-	-	-	-	-	-	-	-	-	-	-	-
1862,MET	-	-	-	-	-	-	-	-	-	-	-	-	-
1863,ASP	-	-	-	-	-	-	-	-	-	-	-	-	-
1864,VAL	-	-	-	-	-	-	-	-	-	-	-	-	-
1865,ASN	-	-	-	-	-	-	-	-	-	-	-	-	-
1866,VAL	-	-	-	-	-	-	-	-	-	-	-	-	-
1867,ARG	-	-	-	-	-	-	-	-	-	-	-	-	-
1868,GLY	-	-	-	-	-	-	-	-	-	-	-	-	-
1869,PRO	-	-	-	-	-	-	-	-	-	-	-	-	-
1870,ASP	-	-	-	-	-	-	-	-	-	-	-	-	-
1871,GLY	-	-	-	-	-	-	-	-	-	-	-	-	-
1872,PHE	-	-	-	-	-	-	-	-	-	-	-	-	-
1873,THR	-	-	-	-	-	-	-	-	-	-	-	-	-
1874,PRO	-	-	-	-	-	-	-	-	-	-	-	-	-
1875,LEU	-	-	-	-	-	-	-	-	-	-	-	-	-
1876,MET	-	-	-	-	-	-	-	-	-	-	-	-	-
1877,ILE	-	-	-	-	-	-	-	-	-	-	-	-	-
1878,ALA	-	-	-	-	-	-	-	-	-	-	-	-	-
1879,SER	-	-	-	-	-	-	-	-	-	-	-	-	-
1880,CYS	-	-	-	-	-	-	-	-	-	-	-	-	-
1881,SER	-	-	-	-	-	-	-	-	-	-	-	-	-
1882,GLY	-	-	-	-	-	-	-	-	-	-	-	-	-
1883,GLY	-	-	-	-	-	-	-	-	-	-	-	-	-
1884,GLY	-	-	-	-	-	-	-	-	-	-	-	-	-
1885,LEU	-	-	-	-	-	-	-	-	-	-	-	-	-
1886,GLU	-	-	-	-	-	-	-	-	-	-	-	-	-
1887,THR	-	-	-	-	-	-	-	-	-	-	-	-	-
1888,GLY	-	-	-	-	-	-	-	-	-	-	-	-	-
1889,ASN	-	-	-	-	-	-	-	-	-	-	-	-	-
1890,SER	-	-	-	-	-	-	-	-	-	-	-	-	-
1891,GLU	-	-	-	-	-	-	-	-	-	-	-	-	-
1892,GLU	-	-	-	-	-	-	-	-	-	-	-	-	-
1893,GLU	-	-	-	-	-	-	-	-	-	-	-	-	-
1894,GLU	-	-	-	-	-	-	-	-	-	-	-	-	-
1895,ASP	-	-	-	-	-	-	-	-	-	-	-	-	-
1896,ALA	-	-	-	-	-	-	-	-	-	-	-	-	-
1897,PRO	-	-	-	-	-	-	-	-	-	-	-	-	-
1898,ALA	-	-	-	-	-	-	-	-	-	-	-	-	-
1899,VAL	-	-	-	-	-	-	-	-	-	-	-	1899,VAL	1899,VAL
1900,ILE	-	-	-	-	-	-	-	-	-	-	-	1900,ILE	1900,ILE
1901,SER	-	-	-	-	-	-	-	-	-	-	-	1901,SER	1901,SER
1902,ASP	-	-	-	-	-	-	-	-	-	-	-	1902,ASP	1902,ASP
1903,PHE	-	-	-	-	-	-	-	-	-	-	-	1903,PHE	1903,PHE
1904,ILE	-	-	-	-	-	-	-	-	-	-	-	1904,ILE	1904,ILE
1905,TYR	-	-	-	-	-	-	-	-	-	-	-	1905,TYR	1905,TYR
1906,GLN	-	-	-	-	-	-	-	-	-	-	-	1906,GLN	1906,GLN
1907,GLY	-	-	-	-	-	-	-	-	-	-	-	1907,GLY	1907,GLY
1908,ALA	-	-	-	-	-	-	-	-	-	-	-	1908,ALA	1908,ALA
1909,SER	-	-	-	-	-	-	-	-	-	-	-	1909,SER	1909,SER
1910,LEU	-	-	-	-	-	-	-	-	-	-	-	1910,LEU	1910,LEU
1911,HIS	-	-	-	-	-	-	-	-	-	-	-	1911,HIS	1911,HIS
1912,ASN	-	-	-	-	-	-	-	-	-	-	-	1912,ASN	1912,ASN
1913,GLN	-	-	-	-	-	-	-	-	-	-	-	1913,GLN	1913,GLN
1914,THR	-	-	-	-	-	-	-	-	-	-	-	1914,THR	1914,THR
1915,ASP	-	-	-	-	-	-	-	-	-	-	-	1915,ASP	1915,ASP
1916,ARG	-	-	-	-	-	-	-	-	-	-	-	1916,ARG	1916,ARG
1917,THR	-	-	-	-	-	-	-	-	-	-	-	1917,THR	1917,THR
1918,GLY	-	-	-	-	-	-	-	-	-	-	-	1918,GLY	1918,GLY
1919,GLU	-	-	-	-	-	-	-	-	-	-	-	1919,GLU	1919,GLU
1920,THR	-	-	-	-	-	-	-	-	-	-	-	1920,THR	1920,THR
1921,ALA	-	-	-	-	-	-	-	-	-	-	-	1921,ALA	1921,ALA
1922,LEU	-	-	-	-	-	-	-	-	-	-	-	1922,LEU	1922,LEU
1923,HIS	-	-	-	-	-	-	-	-	-	-	-	1923,HIS	1923,HIS
1924,LEU	-	-	-	-	-	-	-	-	-	-	-	1924,LEU	1924,LEU
1925,ALA	-	-	-	-	-	-	-	-	-	-	-	1925,ALA	1925,ALA
1926,ALA	-	-	-	-	-	-	-	-	-	-	-	1926,ALA	1926,ALA
1927,ARG	-	-	-	-	-	-	-	-	-	-	-	1927,ARG	1927,ARG
1928,TYR	-	-	-	-	-	-	-	-	-	-	-	1928,TYR	1928,TYR
1929,SER	-	-	-	-	-	-	-	-	-	-	-	1929,SER	1929,SER
1930,ARG	1930,ARG	-	-	-	-	-	-	-	-	-	-	1930,ARG	1930,ARG
1931,SER	1931,SER	-	-	-	-	-	-	-	-	-	-	1931,SER	1931,SER
1932,ASP	1932,ASP	-	-	-	-	-	-	-	-	-	-	1932,ASP	1932,ASP
1933,ALA	1933,ALA	-	-	-	-	-	-	-	-	-	-	1933,ALA	1933,ALA
1934,ALA	1934,ALA	-	-	-	-	-	-	-	-	-	-	1934,ALA	1934,ALA
1935,LYS	1935,LYS	-	-	-	-	-	-	-	-	-	-	1935,LYS	1935,LYS
1936,ARG	1936,ARG	-	-	-	-	-	-	-	-	-	-	1936,ARG	1936,ARG
1937,LEU	1937,LEU	-	-	-	-	-	-	-	-	-	-	1937,LEU	1937,LEU
1938,LEU	1938,LEU	-	-	-	-	-	-	-	-	-	-	1938,LEU	1938,LEU
1939,GLU	1939,GLU	-	-	-	-	-	-	-	-	-	-	1939,GLU	1939,GLU
1940,ALA	1940,ALA	-	-	-	-	-	-	-	-	-	-	1940,ALA	1940,ALA
1941,SER	1941,SER	-	-	-	-	-	-	-	-	-	-	1941,SER	1941,SER
1942,ALA	1942,ALA	-	-	-	-	-	-	-	-	-	-	1942,ALA	1942,ALA
1943,ASP	1943,ASP	-	-	-	-	-	-	-	-	-	-	1943,ASP	1943,ASP
1944,ALA	1944,ALA	-	-	-	-	-	-	-	-	-	-	1944,ALA	1944,ALA
1945,ASN	1945,ASN	-	-	-	-	-	-	-	-	-	-	1945,AHB	1945,AHB
1946,ILE	1946,ILE	-	-	-	-	-	-	-	-	-	-	1946,ILE	1946,ILE
1947,GLN	1947,GLN	-	-	-	-	-	-	-	-	-	-	1947,GLN	1947,GLN
1948,ASP	1948,ASP	-	-	-	-	-	-	-	-	-	-	1948,ASP	1948,ASP
1949,ASN	1949,ASN	-	-	-	-	-	-	-	-	-	-	1949,ASN	1949,ASN
1950,MET	-	-	-	-	-	-	-	-	-	-	-	1950,MET	1950,MET
1951,GLY	-	-	-	-	-	-	-	-	-	-	-	1951,GLY	1951,GLY
1952,ARG	-	-	-	-	-	-	-	-	-	-	-	1952,ARG	1952,ARG
1953,THR	-	-	-	-	-	-	-	-	-	-	-	1953,THR	1953,THR
1954,PRO	-	-	-	-	-	-	-	-	-	-	-	1954,PRO	1954,PRO
1955,LEU	-	-	-	-	-	-	-	-	-	-	-	1955,LEU	1955,LEU
1956,HIS	-	-	-	-	-	-	-	-	-	-	-	1956,HIS	1956,HIS
1957,ALA	-	-	-	-	-	-	-	-	-	-	-	1957,ALA	1957,ALA
1958,ALA	-	-	-	-	-	-	-	-	-	-	-	1958,ALA	1958,ALA
1959,VAL	-	-	-	-	-	-	-	-	-	-	-	1959,VAL	1959,VAL
1960,SER	-	-	-	-	-	-	-	-	-	-	-	1960,SER	1960,SER
1961,ALA	-	-	-	-	-	-	-	-	-	-	-	1961,ALA	1961,ALA
1962,ASP	-	-	-	-	-	-	-	-	-	-	-	1962,ASP	1962,ASP
1963,ALA	-	-	-	-	-	-	-	-	-	-	-	1963,ALA	1963,ALA
1964,GLN	-	-	-	-	-	-	-	-	-	-	-	1964,GLN	1964,GLN
1965,GLY	-	-	-	-	-	-	-	-	-	-	-	1965,GLY	1965,GLY
1966,VAL	-	-	-	-	-	-	-	-	-	-	-	1966,VAL	1966,VAL
1967,PHE	-	-	-	-	-	-	-	-	-	-	-	1967,PHE	1967,PHE
1968,GLN	-	-	-	-	-	-	-	-	-	-	-	1968,GLN	1968,GLN
1969,ILE	-	-	-	-	-	-	-	-	-	-	-	1969,ILE	1969,ILE
1970,LEU	-	-	-	-	-	-	-	-	-	-	-	1970,LEU	1970,LEU
1971,LEU	-	-	-	104,LEU	104,LEU	-	-	-	-	-	-	1971,LEU	1971,LEU
1972,ARG	-	-	-	105,ARG	105,ARG	-	-	-	-	-	-	1972,ARG	1972,ARG
1973,ASN	-	-	-	106,ASN	106,ASN	-	-	-	-	-	-	1973,ASN	1973,ASN
1974,ARG	-	-	-	107,ARG	107,ARG	-	-	-	-	-	-	1974,ARG	1974,ARG
1975,ALA	-	-	-	108,ALA	108,ALA	-	-	-	-	-	-	1975,ALA	1975,ALA
1976,THR	-	-	-	109,THR	109,THR	-	-	-	-	-	-	1976,THR	1976,THR
1977,ASP	-	-	-	110,ASP	110,ASP	-	-	-	-	-	-	1977,ASP	1977,ASP
1978,LEU	-	-	-	111,LEU	111,LEU	-	-	-	-	-	-	1978,LEU	1978,LEU
1979,ASP	-	-	-	112,ASP	112,ASP	-	-	-	-	-	-	1979,ASP	1979,ASP
1980,ALA	-	-	-	113,ALA	113,ALA	-	-	-	-	-	-	1980,ALA	1980,ALA
1981,ARG	-	-	-	114,ARG	114,ARG	-	-	-	-	-	-	1981,ARG	1981,ARG
1982,MET	-	-	-	115,MET	115,MET	-	-	-	-	-	-	1982,MET	1982,MET
1983,HIS	-	-	-	116,HIS	116,HIS	-	-	-	-	-	-	1983,HIS	1983,HIS
1984,ASP	-	-	-	117,ASP	117,ASP	-	-	-	-	-	-	1984,ASP	1984,ASP
1985,GLY	-	-	-	118,GLY	118,GLY	-	-	-	-	-	-	1985,GLY	1985,GLY
1986,THR	-	-	-	119,THR	119,THR	-	-	-	-	-	-	1986,THR	1986,THR
1987,THR	-	-	-	120,THR	120,THR	-	-	-	-	-	-	1987,THR	1987,THR
1988,PRO	-	-	-	121,PRO	121,PRO	-	-	-	-	-	-	1988,PRO	1988,PRO
1989,LEU	-	-	-	122,LEU	122,LEU	-	-	-	-	-	-	1989,LEU	1989,LEU
1990,ILE	-	-	-	123,ILE	123,ILE	-	-	-	-	-	-	1990,ILE	1990,ILE
1991,LEU	-	-	-	124,LEU	124,LEU	-	-	-	-	-	-	1991,LEU	1991,LEU
1992,ALA	-	-	-	125,ALA	125,ALA	-	-	-	-	-	-	1992,ALA	1992,ALA
1993,ALA	-	-	-	126,ALA	126,ALA	-	-	-	-	-	-	1993,ALA	1993,ALA
1994,ARG	-	-	-	127,ARG	127,ARG	-	-	-	-	-	-	1994,ARG	1994,ARG
1995,LEU	-	-	-	128,LEU	128,LEU	-	-	-	-	-	-	1995,LEU	1995,LEU
1996,ALA	-	-	-	129,ALA	129,ALA	-	-	-	-	-	-	1996,ALA	1996,ALA
1997,VAL	-	-	-	130,LEU	130,LEU	-	-	-	-	-	-	1997,LEU	1997,LEU
1998,GLU	-	-	-	131,GLU	131,GLU	-	-	-	-	-	-	1998,GLU	1998,GLU
1999,GLY	-	-	-	132,GLY	132,GLY	-	197,GLY	-	-	-	-	1999,GLY	1999,GLY
2000,MET	-	-	-	133,MET	133,MET	-	198,MET	-	-	-	-	2000,MET	2000,MET
2001,LEU	-	-	-	134,LEU	134,LEU	-	199,LEU	-	-	-	-	2001,LEU	2001,LEU
2002,GLU	-	-	-	135,GLU	135,GLU	-	200,GLU	-	-	-	-	2002,GLU	2002,GLU
2003,ASP	-	-	-	136,ASP	136,ASP	-	201,ASP	-	-	-	-	2003,ASP	2003,ASP
2004,LEU	-	-	-	137,LEU	137,LEU	-	202,LEU	-	-	-	-	2004,LEU	2004,LEU
2005,ILE	-	-	-	138,ILE	138,ILE	-	203,ILE	-	-	-	-	2005,ILE	2005,ILE
2006,ASN	-	-	-	139,ASN	139,ASN	-	204,ASN	-	-	-	-	2006,ASN	2006,ASN
2007,SER	-	-	-	140,SER	140,SER	-	205,SER	-	-	-	-	2007,SER	2007,SER
2008,HIS	-	-	-	141,HIS	141,HIS	-	206,HIS	-	-	-	-	2008,HIS	2008,HIS
2009,ALA	-	-	-	142,ALA	142,ALA	-	207,ALA	-	-	-	-	2009,ALA	2009,ALA
2010,ASP	-	-	-	143,ASP	143,ASP	-	208,ASP	-	-	-	-	2010,ASP	2010,ASP
2011,VAL	-	-	-	144,VAL	144,VAL	-	209,VAL	-	-	-	-	2011,VAL	2011,VAL
2012,ASN	-	-	-	145,ASN	145,ASN	-	210,ASN	-	-	-	-	2012,ASN	2012,ASN
2013,ALA	-	-	-	146,ALA	146,ALA	-	211,ALA	-	-	-	-	2013,ALA	2013,ALA
2014,VAL	-	-	-	147,VAL	147,VAL	-	212,VAL	-	-	-	-	2014,VAL	2014,VAL
2015,ASP	-	-	-	148,ASP	148,ASP	-	213,ASP	-	-	-	-	2015,ASP	2015,ASP
2016,ASP	-	-	-	149,ASP	149,ASP	-	214,ASP	-	-	-	-	2016,ASP	2016,ASP
2017,LEU	-	-	-	150,LEU	150,LEU	-	-	-	-	-	-	2017,LEU	2017,LEU
2018,GLY	-	-	-	151,GLY	151,GLY	-	-	-	-	-	-	2018,GLY	2018,GLY
2019,LYS	-	-	-	152,LYS	152,LYS	-	-	-	-	-	-	2019,LYS	2019,LYS
2020,SER	-	-	-	153,SER	153,SER	-	-	-	-	-	-	2020,SER	2020,SER
2021,ALA	-	-	-	154,ALA	154,ALA	-	-	-	-	-	-	2021,ALA	2021,ALA
2022,LEU	-	-	-	155,LEU	155,LEU	-	-	-	-	-	-	2022,LEU	2022,LEU
2023,HIS	-	-	-	156,HIS	156,HIS	-	-	-	-	-	-	2023,HIS	2023,HIS
2024,TRP	-	-	-	157,TRP	157,TRP	-	-	-	-	-	-	2024,TRP	2024,TRP
2025,ALA	-	-	-	158,ALA	158,ALA	-	-	-	-	-	-	2025,ALA	2025,ALA
2026,ALA	-	-	-	159,ALA	159,ALA	-	-	-	-	-	-	2026,ALA	2026,ALA
2027,ALA	-	-	-	160,ALA	160,ALA	-	-	-	-	-	-	2027,ALA	2027,ALA
2028,VAL	-	-	-	161,VAL	161,VAL	-	-	-	-	-	-	2028,VAL	2028,VAL
2029,ASN	-	-	-	162,ASN	162,ASN	-	-	-	-	-	-	2029,ASN	2029,ASN
2030,ASN	-	-	-	163,ASN	163,ASN	-	-	-	-	-	-	2030,ASN	2030,ASN
2031,VAL	-	-	-	164,VAL	164,VAL	-	-	-	-	-	-	2031,VAL	2031,VAL
2032,ASP	-	-	-	165,ASP	165,ASP	-	-	-	-	-	-	2032,ASP	2032,ASP
2033,ALA	-	-	-	166,ALA	166,ALA	-	-	-	-	-	-	2033,ALA	2033,ALA
2034,ALA	-	-	-	167,ALA	167,ALA	-	-	-	-	-	-	2034,ALA	2034,ALA
2035,VAL	-	-	-	168,VAL	168,VAL	-	-	-	-	-	-	2035,VAL	2035,VAL
2036,VAL	-	-	-	169,VAL	169,VAL	-	-	-	-	-	-	2036,VAL	2036,VAL
2037,LEU	-	-	-	170,LEU	170,LEU	-	-	-	-	-	-	2037,LEU	2037,LEU
2038,LEU	-	-	-	171,LEU	171,LEU	-	-	-	-	-	-	2038,LEU	2038,LEU
2039,LYS	-	-	-	172,LYS	172,LYS	-	-	-	-	-	-	2039,LYS	2039,LYS
2040,ASN	-	-	-	173,ASN	173,ASN	-	-	-	-	-	-	2040,ASN	2040,ASN
2041,GLY	-	-	-	174,GLY	174,GLY	-	-	-	-	-	-	2041,GLY	2041,GLY
2042,ALA	-	-	-	175,ALA	175,ALA	-	-	-	-	-	-	2042,ALA	2042,ALA
2043,ASN	-	-	-	176,ASN	176,ASN	-	-	-	-	-	-	2043,ASN	2043,ASN
2044,LYS	-	-	-	177,LYS	177,LYS	-	-	-	-	-	-	2044,LYS	2044,LYS
2045,ASP	-	-	-	178,ASP	178,ASP	-	-	-	-	-	-	2045,ASP	2045,ASP
2046,MET	-	-	-	179,MET	179,MET	-	-	-	-	-	-	2046,MET	2046,MET
2047,GLN	-	-	-	180,GLN	180,GLN	-	-	-	-	-	-	2047,GLN	2047,GLN
2048,ASN	-	-	-	181,ASN	181,ASN	-	-	-	-	-	-	2048,ASN	2048,ASN
2049,ASN	-	-	-	182,ASN	182,ASN	-	-	-	-	-	-	2049,ASN	2049,ASN
2050,LYS	-	-	-	183,LYS	183,LYS	-	-	-	-	-	-	2050,LYS	2050,LYS
2051,GLU	-	-	-	184,GLU	184,GLU	-	-	-	-	-	-	2051,GLU	2051,GLU
2052,GLU	-	-	-	185,GLU	185,GLU	-	-	-	-	-	-	2052,GLU	2052,GLU
2053,THR	-	-	-	186,THR	186,THR	-	-	-	-	-	-	2053,THR	2053,THR
2054,PRO	-	-	-	187,PRO	187,PRO	-	-	-	-	-	-	2054,PRO	2054,PRO
2055,LEU	-	-	-	188,LEU	188,LEU	-	-	-	-	-	-	2055,LEU	2055,LEU
2056,PHE	-	-	-	189,PHE	189,PHE	-	-	-	-	-	-	2056,PHE	2056,PHE
2057,LEU	-	-	-	190,LEU	190,LEU	-	-	-	-	-	-	2057,LEU	2057,LEU
2058,ALA	-	-	-	191,ALA	191,ALA	-	-	-	-	-	-	2058,ALA	2058,ALA
2059,ALA	-	-	-	192,ALA	192,ALA	-	-	-	-	-	-	2059,ALA	2059,ALA
2060,ARG	-	-	-	193,ARG	193,ARG	-	-	-	-	-	-	2060,ARG	2060,ARG
2061,GLU	-	-	-	194,GLU	194,GLU	-	-	-	-	-	-	2061,GLU	2061,GLU
2062,GLY	-	-	-	195,GLY	195,GLY	-	-	-	-	-	-	2062,GLY	2062,GLY
2063,SER	-	-	-	196,SER	196,SER	-	-	-	-	-	-	2063,SER	2063,SER
2064,TYR	-	-	-	197,TYR	197,TYR	-	-	-	-	-	-	2064,TYR	2064,TYR
2065,GLU	-	-	-	198,GLU	198,GLU	-	-	-	-	-	-	2065,GLU	2065,GLU
2066,THR	-	-	-	199,THR	199,THR	-	-	-	-	-	-	2066,THR	2066,THR
2067,ALA	-	-	-	200,ALA	200,ALA	-	-	-	-	-	-	2067,ALA	2067,ALA
2068,LYS	-	-	-	201,LYS	201,LYS	-	-	-	-	-	-	2068,LYS	2068,LYS
2069,VAL	-	-	-	202,VAL	202,VAL	-	-	-	-	-	-	2069,VAL	2069,VAL
2070,LEU	-	-	-	203,LEU	203,LEU	-	-	-	-	-	-	2070,LEU	2070,LEU
2071,LEU	-	-	-	204,LEU	204,LEU	-	-	-	-	-	-	2071,LEU	2071,LEU
2072,ASP	-	-	-	205,ASP	205,ASP	-	-	-	-	-	-	2072,ASP	2072,ASP
2073,HIS	-	-	-	206,HIS	206,HIS	-	-	-	-	-	-	2073,HIS	2073,HIS
2074,PHE	-	-	-	207,PHE	207,PHE	-	-	-	-	-	-	2074,PHE	2074,PHE
2075,ALA	-	-	-	208,ALA	208,ALA	-	-	-	-	-	-	2075,ALA	2075,ALA
2076,ASN	-	-	-	209,ASN	209,ASN	-	-	-	-	-	-	2076,ASN	2076,ASN
2077,ARG	-	-	-	210,ARG	210,ARG	-	-	-	-	-	-	2077,ARG	2077,ARG
2078,ASP	-	-	-	211,ASP	211,ASP	-	-	-	-	-	-	2078,ASP	2078,ASP
2079,ILE	-	-	-	212,ILE	212,ILE	-	-	-	-	-	-	2079,ILE	2079,ILE
2080,THR	-	-	-	213,THR	213,THR	-	-	-	-	-	-	2080,THR	2080,THR
2081,ASP	-	-	-	214,ASP	214,ASP	-	-	-	-	-	-	2081,ASP	2081,ASP
2082,HIS	-	-	-	215,HIS	215,HIS	-	-	-	-	-	-	2082,HIS	2082,HIS
2083,MET	-	-	-	216,MET	216,MET	-	-	-	-	-	-	2083,MET	2083,MET
2084,ASP	-	-	-	217,ASP	217,ASP	-	-	-	-	-	-	2084,ASP	2084,ASP
2085,ARG	-	-	-	218,ARG	218,ARG	-	-	-	-	-	-	2085,ARG	2085,ARG
2086,LEU	-	-	-	219,LEU	219,LEU	-	-	-	-	-	-	2086,LEU	2086,LEU
2087,PRO	-	-	-	220,PRO	220,PRO	-	-	-	-	-	-	2087,PRO	2087,PRO
2088,ARG	-	-	-	221,ARG	221,ARG	-	-	-	-	-	-	2088,ARG	2088,ARG
2089,ASP	-	-	-	222,ASP	222,ASP	-	-	-	-	-	-	2089,ASP	2089,ASP
2090,ILE	-	-	-	223,ILE	223,ILE	-	-	-	-	-	-	2090,ILE	2090,ILE
2091,ALA	-	-	-	224,ALA	224,ALA	-	-	-	-	-	-	2091,ALA	2091,ALA
2092,GLN	-	-	-	225,GLN	225,GLN	-	-	-	-	-	-	2092,GLN	2092,GLN
2093,GLU	-	-	-	226,GLU	226,GLU	-	-	-	-	-	-	2093,GLU	2093,GLU
2094,ARG	-	-	-	227,ARG	227,ARG	-	-	-	-	-	-	2094,ARG	2094,ARG
2095,MET	-	-	-	228,MET	228,MET	-	-	-	-	-	-	2095,MET	2095,MET
2096,HIS	-	-	-	229,HIS	229,HIS	-	-	-	-	-	-	2096,HIS	2096,HIS
2097,HIS	-	-	-	230,HIS	230,HIS	-	-	-	-	-	-	2097,HIS	2097,HIS
2098,ASP	-	-	-	231,ASP	231,ASP	-	-	-	-	-	-	2098,ASP	2098,ASP
2099,ILE	-	-	-	232,ILE	232,ILE	-	-	-	-	-	-	2099,ILE	2099,ILE
2100,VAL	-	-	-	233,VAL	233,VAL	-	-	-	-	-	-	2100,VAL	2100,VAL
2101,ARG	-	-	-	234,ARG	234,ARG	-	-	-	-	-	-	2101,ARG	2101,ARG
2102,LEU	-	-	-	235,LEU	235,LEU	-	-	-	-	-	-	2102,LEU	2102,LEU
2103,LEU	-	-	-	236,LEU	236,LEU	-	-	-	-	-	-	2103,LEU	2103,LEU
2104,ASP	-	-	-	237,ASP	237,ASP	-	-	-	-	-	-	2104,ASP	2104,ASP
2105,GLU	-	-	-	238,GLU	238,GLU	-	-	-	-	-	-	2105,GLU	2105,GLU
2106,TYR	-	-	-	-	-	-	-	-	-	-	-	2106,TYR	2106,TYR
2107,ASN	-	-	-	-	-	-	-	-	-	-	-	-	-
2108,LEU	-	-	-	-	-	-	-	-	-	-	-	-	-
2109,VAL	-	-	-	-	-	-	-	-	-	-	-	-	-
2110,ARG	-	-	-	-	-	-	-	-	-	-	-	-	-
2111,SER	-	-	-	-	-	-	-	-	-	-	-	-	-
2112,PRO	-	-	-	-	-	-	-	-	-	-	-	-	-
2113,GLN	-	-	-	-	-	-	-	-	-	-	-	-	-
2114,LEU	-	-	-	-	-	-	-	-	-	-	-	-	-
2115,HIS	-	-	-	-	-	-	-	-	-	-	-	-	-
2116,GLY	-	-	-	-	-	-	-	-	-	-	-	-	-
2117,THR	-	-	-	-	-	-	-	-	-	-	-	-	-
2118,ALA	-	-	-	-	-	-	-	-	-	-	-	-	-
2119,LEU	-	-	-	-	-	-	-	-	-	-	-	-	-
2120,GLY	-	-	-	-	-	-	-	-	-	-	-	-	-
2121,GLY	-	-	-	-	-	-	-	-	-	-	-	-	-
2122,THR	-	-	-	-	-	-	-	-	-	-	-	-	-
2123,PRO	-	-	-	-	-	-	-	-	-	-	-	-	-
2124,THR	-	-	-	-	-	-	-	-	-	-	-	-	-
2125,LEU	-	-	-	-	-	-	-	-	-	-	-	-	-
2126,SER	-	-	-	-	-	-	-	-	-	-	-	-	-
2127,PRO	-	-	-	-	-	-	-	-	-	-	-	-	-
2128,THR	-	-	-	-	-	-	-	-	-	-	-	-	-
2129,LEU	-	-	-	-	-	-	-	-	-	-	-	-	-
2130,CYS	-	-	-	-	-	-	-	-	-	-	-	-	-
2131,SER	-	-	-	-	-	-	-	-	-	-	-	-	-
2132,PRO	-	-	-	-	-	-	-	-	-	-	-	-	-
2133,ASN	-	-	-	-	-	-	-	-	-	-	-	-	-
2134,GLY	-	-	-	-	-	-	-	-	-	-	-	-	-
2135,TYR	-	-	-	-	-	-	-	-	-	-	-	-	-
2136,LEU	-	-	-	-	-	-	-	-	-	-	-	-	-
2137,GLY	-	-	-	-	-	-	-	-	-	-	-	-	-
2138,ASN	-	-	-	-	-	-	-	-	-	-	-	-	-
2139,LEU	-	-	-	-	-	-	-	-	-	-	-	-	-
2140,LYS	-	-	-	-	-	-	-	-	-	-	-	-	-
2141,SER	-	-	-	-	-	-	-	-	-	-	-	-	-
2142,ALA	-	-	-	-	-	-	-	-	-	-	-	-	-
2143,THR	-	-	-	-	-	-	-	-	-	-	-	-	-
2144,GLN	-	-	-	-	-	-	-	-	-	-	-	-	-
2145,GLY	-	-	-	-	-	-	-	-	-	-	-	-	-
2146,LYS	-	-	-	-	-	-	-	-	-	-	-	-	-
2147,LYS	-	-	-	-	-	-	-	-	-	-	-	-	-
2148,ALA	-	-	-	-	-	-	-	-	-	-	-	-	-
2149,ARG	-	-	-	-	-	-	-	-	-	-	-	-	-
2150,LYS	-	-	-	-	-	-	-	-	-	-	-	-	-
2151,PRO	-	-	-	-	-	-	-	-	-	-	-	-	-
2152,SER	-	-	-	-	-	-	-	-	-	-	-	-	-
2153,THR	-	-	-	-	-	-	-	-	-	-	-	-	-
2154,LYS	-	-	-	-	-	-	-	-	-	-	-	-	-
2155,GLY	-	-	-	-	-	-	-	-	-	-	-	-	-
2156,LEU	-	-	-	-	-	-	-	-	-	-	-	-	-
2157,ALA	-	-	-	-	-	-	-	-	-	-	-	-	-
2158,CYS	-	-	-	-	-	-	-	-	-	-	-	-	-
2159,GLY	-	-	-	-	-	-	-	-	-	-	-	-	-
2160,SER	-	-	-	-	-	-	-	-	-	-	-	-	-
2161,LYS	-	-	-	-	-	-	-	-	-	-	-	-	-
2162,GLU	-	-	-	-	-	-	-	-	-	-	-	-	-
2163,ALA	-	-	-	-	-	-	-	-	-	-	-	-	-
2164,LYS	-	-	-	-	-	-	-	-	-	-	-	-	-
2165,ASP	-	-	-	-	-	-	-	-	-	-	-	-	-
2166,LEU	-	-	-	-	-	-	-	-	-	-	-	-	-
2167,LYS	-	-	-	-	-	-	-	-	-	-	-	-	-
2168,ALA	-	-	-	-	-	-	-	-	-	-	-	-	-
2169,ARG	-	-	-	-	-	-	-	-	-	-	-	-	-
2170,ARG	-	-	-	-	-	-	-	-	-	-	-	-	-
2171,LYS	-	-	-	-	-	-	-	-	-	-	-	-	-
2172,LYS	-	-	-	-	-	-	-	-	-	-	-	-	-
2173,SER	-	-	-	-	-	-	-	-	-	-	-	-	-
2174,GLN	-	-	-	-	-	-	-	-	-	-	-	-	-
2175,ASP	-	-	-	-	-	-	-	-	-	-	-	-	-
2176,GLY	-	-	-	-	-	-	-	-	-	-	-	-	-
2177,LYS	-	-	-	-	-	-	-	-	-	-	-	-	-
2178,GLY	-	-	-	-	-	-	-	-	-	-	-	-	-
2179,CYS	-	-	-	-	-	-	-	-	-	-	-	-	-
2180,LEU	-	-	-	-	-	-	-	-	-	-	-	-	-
2181,LEU	-	-	-	-	-	-	-	-	-	-	-	-	-
2182,ASP	-	-	-	-	-	-	-	-	-	-	-	-	-
2183,SER	-	-	-	-	-	-	-	-	-	-	-	-	-
2184,SER	-	-	-	-	-	-	-	-	-	-	-	-	-
2185,SER	-	-	-	-	-	-	-	-	-	-	-	-	-
2186,MET	-	-	-	-	-	-	-	-	-	-	-	-	-
2187,LEU	-	-	-	-	-	-	-	-	-	-	-	-	-
2188,SER	-	-	-	-	-	-	-	-	-	-	-	-	-
2189,PRO	-	-	-	-	-	-	-	-	-	-	-	-	-
2190,VAL	-	-	-	-	-	-	-	-	-	-	-	-	-
2191,ASP	-	-	-	-	-	-	-	-	-	-	-	-	-
2192,SER	-	-	-	-	-	-	-	-	-	-	-	-	-
2193,LEU	-	-	-	-	-	-	-	-	-	-	-	-	-
2194,GLU	-	-	-	-	-	-	-	-	-	-	-	-	-
2195,SER	-	-	-	-	-	-	-	-	-	-	-	-	-
2196,PRO	-	-	-	-	-	-	-	-	-	-	-	-	-
2197,HIS	-	-	-	-	-	-	-	-	-	-	-	-	-
2198,GLY	-	-	-	-	-	-	-	-	-	-	-	-	-
2199,TYR	-	-	-	-	-	-	-	-	-	-	-	-	-
2200,LEU	-	-	-	-	-	-	-	-	-	-	-	-	-
2201,SER	-	-	-	-	-	-	-	-	-	-	-	-	-
2202,ASP	-	-	-	-	-	-	-	-	-	-	-	-	-
2203,VAL	-	-	-	-	-	-	-	-	-	-	-	-	-
2204,ALA	-	-	-	-	-	-	-	-	-	-	-	-	-
2205,SER	-	-	-	-	-	-	-	-	-	-	-	-	-
2206,PRO	-	-	-	-	-	-	-	-	-	-	-	-	-
2207,PRO	-	-	-	-	-	-	-	-	-	-	-	-	-
2208,LEU	-	-	-	-	-	-	-	-	-	-	-	-	-
2209,LEU	-	-	-	-	-	-	-	-	-	-	-	-	-
2210,PRO	-	-	-	-	-	-	-	-	-	-	-	-	-
2211,SER	-	-	-	-	-	-	-	-	-	-	-	-	-
2212,PRO	-	-	-	-	-	-	-	-	-	-	-	-	-
2213,PHE	-	-	-	-	-	-	-	-	-	-	-	-	-
2214,GLN	-	-	-	-	-	-	-	-	-	-	-	-	-
2215,GLN	-	-	-	-	-	-	-	-	-	-	-	-	-
2216,SER	-	-	-	-	-	-	-	-	-	-	-	-	-
2217,PRO	-	-	-	-	-	-	-	-	-	-	-	-	-
2218,SER	-	-	-	-	-	-	-	-	-	-	-	-	-
2219,MET	-	-	-	-	-	-	-	-	-	-	-	-	-
2220,PRO	-	-	-	-	-	-	-	-	-	-	-	-	-
2221,LEU	-	-	-	-	-	-	-	-	-	-	-	-	-
2222,SER	-	-	-	-	-	-	-	-	-	-	-	-	-
2223,HIS	-	-	-	-	-	-	-	-	-	-	-	-	-
2224,LEU	-	-	-	-	-	-	-	-	-	-	-	-	-
2225,PRO	-	-	-	-	-	-	-	-	-	-	-	-	-
2226,GLY	-	-	-	-	-	-	-	-	-	-	-	-	-
2227,MET	-	-	-	-	-	-	-	-	-	-	-	-	-
2228,PRO	-	-	-	-	-	-	-	-	-	-	-	-	-
2229,ASP	-	-	-	-	-	-	-	-	-	-	-	-	-
2230,THR	-	-	-	-	-	-	-	-	-	-	-	-	-
2231,HIS	-	-	-	-	-	-	-	-	-	-	-	-	-
2232,LEU	-	-	-	-	-	-	-	-	-	-	-	-	-
2233,GLY	-	-	-	-	-	-	-	-	-	-	-	-	-
2234,ILE	-	-	-	-	-	-	-	-	-	-	-	-	-
2235,SER	-	-	-	-	-	-	-	-	-	-	-	-	-
2236,HIS	-	-	-	-	-	-	-	-	-	-	-	-	-
2237,LEU	-	-	-	-	-	-	-	-	-	-	-	-	-
2238,ASN	-	-	-	-	-	-	-	-	-	-	-	-	-
2239,VAL	-	-	-	-	-	-	-	-	-	-	-	-	-
2240,ALA	-	-	-	-	-	-	-	-	-	-	-	-	-
2241,ALA	-	-	-	-	-	-	-	-	-	-	-	-	-
2242,LYS	-	-	-	-	-	-	-	-	-	-	-	-	-
2243,PRO	-	-	-	-	-	-	-	-	-	-	-	-	-
2244,GLU	-	-	-	-	-	-	-	-	-	-	-	-	-
2245,MET	-	-	-	-	-	-	-	-	-	-	-	-	-
2246,ALA	-	-	-	-	-	-	-	-	-	-	-	-	-
2247,ALA	-	-	-	-	-	-	-	-	-	-	-	-	-
2248,LEU	-	-	-	-	-	-	-	-	-	-	-	-	-
2249,ALA	-	-	-	-	-	-	-	-	-	-	-	-	-
2250,GLY	-	-	-	-	-	-	-	-	-	-	-	-	-
2251,GLY	-	-	-	-	-	-	-	-	-	-	-	-	-
2252,SER	-	-	-	-	-	-	-	-	-	-	-	-	-
2253,ARG	-	-	-	-	-	-	-	-	-	-	-	-	-
2254,LEU	-	-	-	-	-	-	-	-	-	-	-	-	-
2255,ALA	-	-	-	-	-	-	-	-	-	-	-	-	-
2256,PHE	-	-	-	-	-	-	-	-	-	-	-	-	-
2257,GLU	-	-	-	-	-	-	-	-	-	-	-	-	-
2258,PRO	-	-	-	-	-	-	-	-	-	-	-	-	-
2259,PRO	-	-	-	-	-	-	-	-	-	-	-	-	-
2260,PRO	-	-	-	-	-	-	-	-	-	-	-	-	-
2261,PRO	-	-	-	-	-	-	-	-	-	-	-	-	-
2262,ARG	-	-	-	-	-	-	-	-	-	-	-	-	-
2263,LEU	-	-	-	-	-	-	-	-	-	-	-	-	-
2264,SER	-	-	-	-	-	-	-	-	-	-	-	-	-
2265,HIS	-	-	-	-	-	-	-	-	-	-	-	-	-
2266,LEU	-	-	-	-	-	-	-	-	-	-	-	-	-
2267,PRO	-	-	-	-	-	-	-	-	-	-	-	-	-
2268,VAL	-	-	-	-	-	-	-	-	-	-	-	-	-
2269,ALA	-	-	-	-	-	-	-	-	-	-	-	-	-
2270,SER	-	-	-	-	-	-	-	-	-	-	-	-	-
2271,SER	-	-	-	-	-	-	-	-	-	-	-	-	-
2272,ALA	-	-	-	-	-	-	-	-	-	-	-	-	-
2273,SER	-	-	-	-	-	-	-	-	-	-	-	-	-
2274,THR	-	-	-	-	-	-	-	-	-	-	-	-	-
2275,VAL	-	-	-	-	-	-	-	-	-	-	-	-	-
2276,LEU	-	-	-	-	-	-	-	-	-	-	-	-	-
2277,SER	-	-	-	-	-	-	-	-	-	-	-	-	-
2278,THR	-	-	-	-	-	-	-	-	-	-	-	-	-
2279,ASN	-	-	-	-	-	-	-	-	-	-	-	-	-
2280,GLY	-	-	-	-	-	-	-	-	-	-	-	-	-
2281,THR	-	-	-	-	-	-	-	-	-	-	-	-	-
2282,GLY	-	-	-	-	-	-	-	-	-	-	-	-	-
2283,ALA	-	-	-	-	-	-	-	-	-	-	-	-	-
2284,MET	-	-	-	-	-	-	-	-	-	-	-	-	-
2285,ASN	-	-	-	-	-	-	-	-	-	-	-	-	-
2286,PHE	-	-	-	-	-	-	-	-	-	-	-	-	-
2287,THR	-	-	-	-	-	-	-	-	-	-	-	-	-
2288,VAL	-	-	-	-	-	-	-	-	-	-	-	-	-
2289,GLY	-	-	-	-	-	-	-	-	-	-	-	-	-
2290,ALA	-	-	-	-	-	-	-	-	-	-	-	-	-
2291,PRO	-	-	-	-	-	-	-	-	-	-	-	-	-
2292,ALA	-	-	-	-	-	-	-	-	-	-	-	-	-
2293,SER	-	-	-	-	-	-	-	-	-	-	-	-	-
2294,LEU	-	-	-	-	-	-	-	-	-	-	-	-	-
2295,ASN	-	-	-	-	-	-	-	-	-	-	-	-	-
2296,GLY	-	-	-	-	-	-	-	-	-	-	-	-	-
2297,GLN	-	-	-	-	-	-	-	-	-	-	-	-	-
2298,CYS	-	-	-	-	-	-	-	-	-	-	-	-	-
2299,GLU	-	-	-	-	-	-	-	-	-	-	-	-	-
2300,TRP	-	-	-	-	-	-	-	-	-	-	-	-	-
2301,LEU	-	-	-	-	-	-	-	-	-	-	-	-	-
2302,PRO	-	-	-	-	-	-	-	-	-	-	-	-	-
2303,ARG	-	-	-	-	-	-	-	-	-	-	-	-	-
2304,LEU	-	-	-	-	-	-	-	-	-	-	-	-	-
2305,GLN	-	-	-	-	-	-	-	-	-	-	-	-	-
2306,ASN	-	-	-	-	-	-	-	-	-	-	-	-	-
2307,GLY	-	-	-	-	-	-	-	-	-	-	-	-	-
2308,MET	-	-	-	-	-	-	-	-	-	-	-	-	-
2309,VAL	-	-	-	-	-	-	-	-	-	-	-	-	-
2310,PRO	-	-	-	-	-	-	-	-	-	-	-	-	-
2311,SER	-	-	-	-	-	-	-	-	-	-	-	-	-
2312,GLN	-	-	-	-	-	-	-	-	-	-	-	-	-
2313,TYR	-	-	-	-	-	-	-	-	-	-	-	-	-
2314,ASN	-	-	-	-	-	-	-	-	-	-	-	-	-
2315,PRO	-	-	-	-	-	-	-	-	-	-	-	-	-
2316,LEU	-	-	-	-	-	-	-	-	-	-	-	-	-
2317,ARG	-	-	-	-	-	-	-	-	-	-	-	-	-
2318,PRO	-	-	-	-	-	-	-	-	-	-	-	-	-
2319,GLY	-	-	-	-	-	-	-	-	-	-	-	-	-
2320,VAL	-	-	-	-	-	-	-	-	-	-	-	-	-
2321,THR	-	-	-	-	-	-	-	-	-	-	-	-	-
2322,PRO	-	-	-	-	-	-	-	-	-	-	-	-	-
2323,GLY	-	-	-	-	-	-	-	-	-	-	-	-	-
2324,THR	-	-	-	-	-	-	-	-	-	-	-	-	-
2325,LEU	-	-	-	-	-	-	-	-	-	-	-	-	-
2326,SER	-	-	-	-	-	-	-	-	-	-	-	-	-
2327,THR	-	-	-	-	-	-	-	-	-	-	-	-	-
2328,GLN	-	-	-	-	-	-	-	-	-	-	-	-	-
2329,ALA	-	-	-	-	-	-	-	-	-	-	-	-	-
2330,ALA	-	-	-	-	-	-	-	-	-	-	-	-	-
2331,GLY	-	-	-	-	-	-	-	-	-	-	-	-	-
2332,LEU	-	-	-	-	-	-	-	-	-	-	-	-	-
2333,GLN	-	-	-	-	-	-	-	-	-	-	-	-	-
2334,HIS	-	-	-	-	-	-	-	-	-	-	-	-	-
2335,SER	-	-	-	-	-	-	-	-	-	-	-	-	-
2336,MET	-	-	-	-	-	-	-	-	-	-	-	-	-
2337,MET	-	-	-	-	-	-	-	-	-	-	-	-	-
2338,GLY	-	-	-	-	-	-	-	-	-	-	-	-	-
2339,PRO	-	-	-	-	-	-	-	-	-	-	-	-	-
2340,LEU	-	-	-	-	-	-	-	-	-	-	-	-	-
2341,HIS	-	-	-	-	-	-	-	-	-	-	-	-	-
2342,SER	-	-	-	-	-	-	-	-	-	-	-	-	-
2343,SER	-	-	-	-	-	-	-	-	-	-	-	-	-
2344,LEU	-	-	-	-	-	-	-	-	-	-	-	-	-
2345,SER	-	-	-	-	-	-	-	-	-	-	-	-	-
2346,THR	-	-	-	-	-	-	-	-	-	-	-	-	-
2347,ASN	-	-	-	-	-	-	-	-	-	-	-	-	-
2348,THR	-	-	-	-	-	-	-	-	-	-	-	-	-
2349,LEU	-	-	-	-	-	-	-	-	-	-	-	-	-
2350,SER	-	-	-	-	-	-	-	-	-	-	-	-	-
2351,PRO	-	-	-	-	-	-	-	-	-	-	-	-	-
2352,ILE	-	-	-	-	-	-	-	-	-	-	-	-	-
2353,ILE	-	-	-	-	-	-	-	-	-	-	-	-	-
2354,TYR	-	-	-	-	-	-	-	-	-	-	-	-	-
2355,GLN	-	-	-	-	-	-	-	-	-	-	-	-	-
2356,GLY	-	-	-	-	-	-	-	-	-	-	-	-	-
2357,LEU	-	-	-	-	-	-	-	-	-	-	-	-	-
2358,PRO	-	-	-	-	-	-	-	-	-	-	-	-	-
2359,ASN	-	-	-	-	-	-	-	-	-	-	-	-	-
2360,THR	-	-	-	-	-	-	-	-	-	-	-	-	-
2361,ARG	-	-	-	-	-	-	-	-	-	-	-	-	-
2362,LEU	-	-	-	-	-	-	-	-	-	-	-	-	-
2363,ALA	-	-	-	-	-	-	-	-	-	-	-	-	-
2364,THR	-	-	-	-	-	-	-	-	-	-	-	-	-
2365,GLN	-	-	-	-	-	-	-	-	-	-	-	-	-
2366,PRO	-	-	-	-	-	-	-	-	-	-	-	-	-
2367,HIS	-	-	-	-	-	-	-	-	-	-	-	-	-
2368,LEU	-	-	-	-	-	-	-	-	-	-	-	-	-
2369,VAL	-	-	-	-	-	-	-	-	-	-	-	-	-
2370,GLN	-	-	-	-	-	-	-	-	-	-	-	-	-
2371,THR	-	-	-	-	-	-	-	-	-	-	-	-	-
2372,GLN	-	-	-	-	-	-	-	-	-	-	-	-	-
2373,GLN	-	-	-	-	-	-	-	-	-	-	-	-	-
2374,VAL	-	-	-	-	-	-	-	-	-	-	-	-	-
2375,GLN	-	-	-	-	-	-	-	-	-	-	-	-	-
2376,PRO	-	-	-	-	-	-	-	-	-	-	-	-	-
2377,GLN	-	-	-	-	-	-	-	-	-	-	-	-	-
2378,ASN	-	-	-	-	-	-	-	-	-	-	-	-	-
2379,LEU	-	-	-	-	-	-	-	-	-	-	-	-	-
2380,GLN	-	-	-	-	-	-	-	-	-	-	-	-	-
2381,LEU	-	-	-	-	-	-	-	-	-	-	-	-	-
2382,GLN	-	-	-	-	-	-	-	-	-	-	-	-	-
2383,PRO	-	-	-	-	-	-	-	-	-	-	-	-	-
2384,GLN	-	-	-	-	-	-	-	-	-	-	-	-	-
2385,ASN	-	-	-	-	-	-	-	-	-	-	-	-	-
2386,LEU	-	-	-	-	-	-	-	-	-	-	-	-	-
2387,GLN	-	-	-	-	-	-	-	-	-	-	-	-	-
2388,PRO	-	-	-	-	-	-	-	-	-	-	-	-	-
2389,PRO	-	-	-	-	-	-	-	-	-	-	-	-	-
2390,SER	-	-	-	-	-	-	-	-	-	-	-	-	-
2391,GLN	-	-	-	-	-	-	-	-	-	-	-	-	-
2392,PRO	-	-	-	-	-	-	-	-	-	-	-	-	-
2393,HIS	-	-	-	-	-	-	-	-	-	-	-	-	-
2394,LEU	-	-	-	-	-	-	-	-	-	-	-	-	-
2395,SER	-	-	-	-	-	-	-	-	-	-	-	-	-
2396,VAL	-	-	-	-	-	-	-	-	-	-	-	-	-
2397,SER	-	-	-	-	-	-	-	-	-	-	-	-	-
2398,SER	-	-	-	-	-	-	-	-	-	-	-	-	-
2399,ALA	-	-	-	-	-	-	-	-	-	-	-	-	-
2400,ALA	-	-	-	-	-	-	-	-	-	-	-	-	-
2401,ASN	-	-	-	-	-	-	-	-	-	-	-	-	-
2402,GLY	-	-	-	-	-	-	-	-	-	-	-	-	-
2403,HIS	-	-	-	-	-	-	-	-	-	-	-	-	-
2404,LEU	-	-	-	-	-	-	-	-	-	-	-	-	-
2405,GLY	-	-	-	-	-	-	-	-	-	-	-	-	-
2406,ARG	-	-	-	-	-	-	-	-	-	-	-	-	-
2407,SER	-	-	-	-	-	-	-	-	-	-	-	-	-
2408,PHE	-	-	-	-	-	-	-	-	-	-	-	-	-
2409,LEU	-	-	-	-	-	-	-	-	-	-	-	-	-
2410,SER	-	-	-	-	-	-	-	-	-	-	-	-	-
2411,GLY	-	-	-	-	-	-	-	-	-	-	-	-	-
2412,GLU	-	-	-	-	-	-	-	-	-	-	-	-	-
2413,PRO	-	-	-	-	-	-	-	-	-	-	-	-	-
2414,SER	-	-	-	-	-	-	-	-	-	-	-	-	-
2415,GLN	-	-	-	-	-	-	-	-	-	-	-	-	-
2416,ALA	-	-	-	-	-	-	-	-	-	-	-	-	-
2417,ASP	-	-	-	-	-	-	-	-	-	-	-	-	-
2418,VAL	-	-	-	-	-	-	-	-	-	-	-	-	-
2419,GLN	-	-	-	-	-	-	-	-	-	-	-	-	-
2420,PRO	-	-	-	-	-	-	-	-	-	-	-	-	-
2421,LEU	-	-	-	-	-	-	-	-	-	-	-	-	-
2422,GLY	-	-	-	-	-	-	-	-	-	-	-	-	-
2423,PRO	-	-	-	-	-	-	-	-	-	-	-	-	-
2424,SER	-	-	-	-	-	-	-	-	-	-	-	-	-
2425,SER	-	-	-	-	-	-	-	-	-	-	-	-	-
2426,LEU	-	-	-	-	-	-	-	-	-	-	-	-	-
2427,PRO	-	-	-	-	-	-	-	-	-	-	-	-	-
2428,VAL	-	-	-	-	-	-	-	-	-	-	-	-	-
2429,HIS	-	-	-	-	-	-	-	-	-	-	-	-	-
2430,THR	-	-	-	-	-	-	-	-	-	-	-	-	-
2431,ILE	-	-	-	-	-	-	-	-	-	-	-	-	-
2432,LEU	-	-	-	-	-	-	-	-	-	-	-	-	-
2433,PRO	-	-	-	-	-	-	-	-	-	-	-	-	-
2434,GLN	-	-	-	-	-	-	-	-	-	-	-	-	-
2435,GLU	-	-	-	-	-	-	-	-	-	-	-	-	-
2436,SER	-	-	-	-	-	-	-	-	-	-	-	-	-
2437,GLN	-	-	-	-	-	-	-	-	-	-	-	-	-
2438,ALA	-	-	-	-	-	-	-	-	-	-	-	-	-
2439,LEU	-	-	-	-	-	-	-	-	-	-	-	-	-
2440,PRO	-	-	-	-	-	-	-	-	-	-	-	-	-
2441,THR	-	-	-	-	-	-	-	-	-	-	-	-	-
2442,SER	-	-	-	-	-	-	-	-	-	-	-	-	-
2443,LEU	-	-	-	-	-	-	-	-	-	-	-	-	-
2444,PRO	-	-	-	-	-	-	-	-	-	-	-	-	-
2445,SER	-	-	-	-	-	-	-	-	-	-	-	-	-
2446,SER	-	-	-	-	-	-	-	-	-	-	-	-	-
2447,MET	-	-	-	-	-	-	-	-	-	-	-	-	-
2448,VAL	-	-	-	-	-	-	-	-	-	-	-	-	-
2449,PRO	-	-	-	-	-	-	-	-	-	-	-	-	-
2450,PRO	-	-	-	-	-	-	-	-	-	-	-	-	-
2451,MET	-	-	-	-	-	-	-	-	-	-	-	-	-
2452,THR	-	-	-	-	-	-	-	-	-	-	-	-	-
2453,THR	-	-	-	-	-	-	-	-	-	-	-	-	-
2454,THR	-	-	-	-	-	-	-	-	-	-	-	-	-
2455,GLN	-	-	-	-	-	-	-	-	-	-	-	-	-
2456,PHE	-	-	-	-	-	-	-	-	-	-	-	-	-
2457,LEU	-	-	-	-	-	-	-	-	-	-	-	-	-
2458,THR	-	-	-	-	-	-	-	-	-	-	-	-	-
2459,PRO	-	-	-	-	-	-	-	-	-	-	-	-	-
2460,PRO	-	-	-	-	-	-	-	-	-	-	-	-	-
2461,SER	-	-	-	-	-	-	-	-	-	-	-	-	-
2462,GLN	-	-	-	-	-	-	-	-	-	-	-	-	-
2463,HIS	-	-	-	-	-	-	-	-	-	-	-	-	-
2464,SER	-	-	-	-	-	-	-	-	-	-	-	-	-
2465,TYR	-	-	-	-	-	-	-	-	-	-	-	-	-
2466,SER	-	-	-	-	-	-	-	-	-	-	-	-	-
2467,SER	-	-	-	-	-	-	-	-	-	-	-	-	-
2468,SER	-	-	-	-	-	-	-	-	-	-	-	-	-
2469,PRO	-	-	-	-	-	-	-	-	-	-	-	-	-
2470,VAL	-	-	-	-	-	-	-	-	-	-	-	-	-
2471,ASP	-	-	-	-	-	-	-	-	-	-	-	-	-
2472,ASN	-	-	-	-	-	-	-	-	-	-	-	-	-
2473,THR	-	-	-	-	-	-	-	-	-	-	-	-	-
2474,PRO	-	-	-	-	-	-	-	-	-	-	-	-	-
2475,SER	-	-	-	-	-	-	-	-	-	-	-	-	-
2476,HIS	-	-	-	-	-	-	-	-	-	-	-	-	-
2477,GLN	-	-	-	-	-	-	-	-	-	-	-	-	-
2478,LEU	-	-	-	-	-	-	-	-	-	-	-	-	-
2479,GLN	-	-	-	-	-	-	-	-	-	-	-	-	-
2480,VAL	-	-	-	-	-	-	-	-	-	-	-	-	-
2481,PRO	-	-	-	-	-	-	-	-	-	-	-	-	-
2482,GLU	-	-	-	-	-	-	-	-	-	-	-	-	-
2483,HIS	-	-	-	-	-	-	-	-	-	-	-	-	-
2484,PRO	-	-	-	-	-	-	-	-	-	-	-	-	-
2485,PHE	-	-	-	-	-	-	-	-	-	-	-	-	-
2486,LEU	-	-	-	-	-	-	-	-	-	-	-	-	-
2487,THR	-	-	-	-	-	-	-	-	-	-	-	-	-
2488,PRO	-	-	-	-	-	-	-	-	-	-	-	-	-
2489,SER	-	-	-	-	-	-	-	-	-	-	-	-	-
2490,PRO	-	-	-	-	-	-	-	-	-	-	-	-	-
2491,GLU	-	-	-	-	-	-	-	-	-	-	-	-	-
2492,SER	-	-	-	-	-	-	-	-	-	-	-	-	-
2493,PRO	-	-	-	-	-	-	-	-	-	-	-	-	-
2494,ASP	-	-	-	-	-	-	-	-	-	-	-	-	-
2495,GLN	-	-	-	-	-	-	-	-	-	-	-	-	-
2496,TRP	-	-	-	-	-	-	-	-	-	-	-	-	-
2497,SER	-	-	-	-	-	-	-	-	-	-	-	-	-
2498,SER	-	-	-	-	-	-	-	-	-	-	-	-	-
2499,SER	-	-	-	-	-	-	-	-	-	-	-	-	-
2500,SER	-	-	-	-	-	-	-	-	-	-	-	-	-
2501,PRO	-	-	-	-	-	-	-	-	-	-	-	-	-
2502,HIS	-	-	-	-	-	-	-	-	-	-	-	-	-
2503,SER	-	-	-	-	-	-	-	-	-	-	-	-	-
2504,ASN	-	-	-	-	-	-	-	-	-	-	-	-	-
2505,ILE	-	-	-	-	-	-	-	-	-	-	-	-	-
2506,SER	-	-	-	-	-	-	-	-	-	-	-	-	-
2507,ASP	-	-	-	-	-	-	-	-	-	-	-	-	-
2508,TRP	-	-	-	-	-	-	-	-	-	-	-	-	-
2509,SER	-	-	-	-	-	-	-	-	-	-	-	-	-
2510,GLU	-	-	-	-	-	-	-	-	-	-	-	-	-
2511,GLY	-	-	-	-	-	-	-	-	-	-	-	-	-
2512,ILE	-	-	-	-	-	-	-	-	-	-	-	-	-
2513,SER	-	-	-	-	-	-	-	-	-	-	-	-	-
2514,SER	-	-	-	-	-	-	-	-	-	-	-	-	-
2515,PRO	-	-	-	-	-	-	-	-	-	-	-	-	-
2516,PRO	-	-	-	-	-	-	-	-	-	-	-	-	-
2517,THR	-	-	-	-	-	-	-	-	-	-	-	-	-
2518,THR	-	-	-	-	-	-	-	-	-	-	-	-	-
2519,MET	-	-	-	-	-	-	-	-	-	-	-	-	-
2520,PRO	-	-	-	-	-	-	-	-	-	-	-	-	-
2521,SER	-	-	-	-	-	-	-	-	-	-	-	-	-
2522,GLN	-	-	-	-	-	-	-	-	-	-	-	-	-
2523,ILE	-	-	-	-	-	-	-	-	-	-	-	-	-
2524,THR	-	-	-	-	-	-	-	-	-	-	-	-	-
2525,HIS	-	-	-	-	-	-	-	-	-	-	-	-	-
2526,ILE	-	-	-	-	-	-	-	-	-	-	-	-	-
2527,PRO	-	-	-	-	-	-	-	-	-	-	-	-	-
2528,GLU	-	-	-	-	-	-	-	-	-	-	-	-	-
2529,ALA	-	-	-	-	-	-	-	-	-	-	-	-	-
2530,PHE	-	-	-	-	-	-	-	-	-	-	-	-	-
2531,LYS	-	-	-	-	-	-	-	-	-	-	-	-	-
