uniprot_isoform	location_id	ENSEMBL ID	uniprot_start	uniprot_end	1bwyA_start	1bwyA_end
1	2_122287145_122294400_1	ENSBTAE00000182826	1	25	-	24
1	2_122287145_122294400_1	ENSBTAE00000182827	25	82	24	81
1	2_122287145_122294400_1	ENSBTAE00000182828	83	116	82	115
1	2_122287145_122294400_1	ENSBTAE00000319032	117	133	116	132
