uniprot_isoform	location_id	ENSEMBL ID	uniprot_start	uniprot_end	3j9pA_start	3j9pA_end	3j9pC_start	3j9pC_end	3j9pB_start	3j9pB_end	3j9pD_start	3j9pD_end
1	8_72075409_72022909_-1	ENSE00001182388	1	37	-	37	-	37	-	37	-	37
1	8_72075409_72022909_-1	ENSE00000980807	38	90	38	90	38	90	38	90	38	90
1	8_72075409_72022909_-1	ENSE00000980808	90	148	90	148	90	148	90	148	90	148
1	8_72075409_72022909_-1	ENSE00000980809	149	184	149	184	149	184	149	184	149	184
1	8_72075409_72022909_-1	ENSE00000980810	185	221	185	221	185	221	185	224	185	221
1	8_72075409_72022909_-1	ENSE00000980811	221	269	221	269	221	269	224	269	221	269
1	8_72075409_72022909_-1	ENSE00001505489	270	315	270	315	270	315	270	315	270	315
1	8_72075409_72022909_-1	ENSE00001505488	315	331	315	331	315	331	315	331	315	331
1	8_72075409_72022909_-1	ENSE00000697494	332	365	332	365	332	365	332	365	332	365
1	8_72075409_72022909_-1	ENSE00000697492	365	398	365	398	365	398	365	398	365	398
1	8_72075409_72022909_-1	ENSE00001139526	399	455	399	455	399	455	399	455	399	455
1	8_72075409_72022909_-1	ENSE00000697488	455	510	455	510	455	510	455	510	455	510
1	8_72075409_72022909_-1	ENSE00000697486	510	548	510	548	510	548	510	547	510	548
1	8_72075409_72022909_-1	ENSE00000697484	549	604	549	604	549	604	548	604	549	604
1	8_72075409_72022909_-1	ENSE00000697483	604	635	604	635	604	635	604	635	604	635
1	8_72075409_72022909_-1	ENSE00000697482	636	655	636	655	636	655	636	655	636	655
1	8_72075409_72022909_-1	ENSE00000697479	656	687	656	687	656	687	656	687	656	687
1	8_72075409_72022909_-1	ENSE00003497688	688	711	688	711	688	711	688	711	688	711
1	8_72075409_72022909_-1	ENSE00003692711	711	765	711	765	711	765	711	765	711	765
1	8_72075409_72022909_-1	ENSE00003465735	766	795	766	795	766	795	766	795	766	795
1	8_72075409_72022909_-1	ENSE00003527095	796	852	796	852	796	852	796	852	796	852
1	8_72075409_72022909_-1	ENSE00000697471	852	895	852	895	852	895	852	895	852	895
1	8_72075409_72022909_-1	ENSE00000697470	896	956	896	956	896	956	896	956	896	956
1	8_72075409_72022909_-1	ENSE00000697469	957	979	957	979	957	979	957	979	957	979
1	8_72075409_72022909_-1	ENSE00000697468	980	1017	980	1017	980	1017	980	1017	980	1017
1	8_72075409_72022909_-1	ENSE00000697467	1018	1050	1018	1050	1018	1050	1018	1050	1018	1050
1	8_72075409_72022909_-1	ENSE00001182379	1050	1119	1050	1119	1050	1119	1050	1119	1050	1119
