uniprot_isoform	location_id	ENSEMBL ID	uniprot_start	uniprot_end	1a5eA_start	1a5eA_end	2a5eA_start	2a5eA_end	1dc2A_start	1dc2A_end	1bi7B_start	1bi7B_end
1	9_21974827_21968232_-1	ENSE00001833804	1	50	1	50	1	50	1	50	1	50
1	9_21974827_21968232_-1	ENSE00003496053	51	153	51	153	51	153	51	153	51	153
1	9_21974827_21968232_-1	ENSE00003529527	153	156	153	156	153	156	153	156	153	156
