uniprot_isoform	location_id	ENSEMBL ID	uniprot_start	uniprot_end	1epbA_start	1epbA_end	1epbB_start	1epbB_end	1epaB_start	1epaB_end	1epaA_start	1epaA_end
1	3_2877337_2880626_1	ENSRNOE00000164676	1	32	-	10	-	10	-	10	-	10
1	3_2877337_2880626_1	ENSRNOE00000164792	33	78	11	56	11	56	11	56	11	56
1	3_2877337_2880626_1	ENSRNOE00000164866	78	105	56	83	56	83	56	83	56	83
1	3_2877337_2880626_1	ENSRNOE00000164935	105	140	83	118	83	118	83	118	83	118
1	3_2877337_2880626_1	ENSRNOE00000164989	140	174	118	152	118	152	118	152	118	152
1	3_2877337_2880626_1	ENSRNOE00000418855	174	182	152	160	152	160	152	160	152	160
1	3_2877337_2880626_1	ENSRNOE00000520936	183	188	161	-	161	-	161	-	161	-
