P21809	2ft3A	2ft3C	2ft3B	2ft3E	2ft3D	2ft3F
1,MET	-	-	-	-	-	-
2,TRP	-	-	-	-	-	-
3,PRO	-	-	-	-	-	-
4,LEU	-	-	-	-	-	-
5,TRP	-	-	-	-	-	-
6,PRO	-	-	-	-	-	-
7,LEU	-	-	-	-	-	-
8,ALA	-	-	-	-	-	-
9,ALA	-	-	-	-	-	-
10,LEU	-	-	-	-	-	-
11,LEU	-	-	-	-	-	-
12,ALA	-	-	-	-	-	-
13,LEU	-	-	-	-	-	-
14,SER	-	-	-	-	-	-
15,GLN	-	-	-	-	-	-
16,ALA	-	-	-	-	-	-
17,LEU	-	-	-	-	-	-
18,PRO	-	-	-	-	-	-
19,PHE	-	-	-	-	-	-
20,GLU	-	-	-	-	-	-
21,GLN	-	-	-	-	-	-
22,LYS	-	-	-	-	-	-
23,ALA	-	-	-	-	-	-
24,PHE	-	-	-	-	-	-
25,TRP	-	-	-	-	-	-
26,ASP	-	-	-	-	-	-
27,PHE	-	-	-	-	-	-
28,THR	-	-	-	-	-	-
29,LEU	-	-	-	-	-	-
30,ASP	-	-	-	-	-	-
31,ASP	-	-	-	-	-	-
32,GLY	-	-	-	-	-	-
33,LEU	-	-	-	-	-	-
34,PRO	-	-	-	-	-	-
35,MET	-	-	-	-	-	-
36,LEU	-	-	-	-	-	-
37,ASN	-	-	-	-	-	-
38,ASP	1,ASP	1,ASP	1,ASP	1,ASP	1,ASP	1,ASP
39,GLU	2,GLU	2,GLU	2,GLU	2,GLU	2,GLU	2,GLU
40,GLU	3,GLU	3,GLU	3,GLU	3,GLU	3,GLU	3,GLU
41,ALA	4,ALA	4,ALA	4,ALA	4,ALA	4,ALA	4,ALA
42,SER	5,SER	5,SER	5,SER	5,SER	5,SER	5,SER
43,GLY	6,GLY	6,GLY	6,GLY	6,GLY	6,GLY	6,GLY
44,ALA	7,ALA	7,ALA	7,ALA	7,ALA	7,ALA	7,ALA
45,GLU	8,GLU	8,GLU	8,GLU	8,GLU	8,GLU	8,GLU
46,THR	9,THR	9,THR	9,THR	9,THR	9,THR	9,THR
47,THR	10,THR	10,THR	10,THR	10,THR	10,THR	10,THR
48,SER	11,SER	11,SER	11,SER	11,SER	11,SER	11,SER
49,GLY	12,GLY	12,GLY	12,GLY	12,GLY	12,GLY	12,GLY
50,ILE	13,ILE	13,ILE	13,ILE	13,ILE	13,ILE	13,ILE
51,PRO	14,PRO	14,PRO	14,PRO	14,PRO	14,PRO	14,PRO
52,ASP	15,ASP	15,ASP	15,ASP	15,ASP	15,ASP	15,ASP
53,LEU	16,LEU	16,LEU	16,LEU	16,LEU	16,LEU	16,LEU
54,ASP	17,ASP	17,ASP	17,ASP	17,ASP	17,ASP	17,ASP
55,SER	18,SER	18,SER	18,SER	18,SER	18,SER	18,SER
56,LEU	19,LEU	19,LEU	19,LEU	19,LEU	19,LEU	19,LEU
57,PRO	20,PRO	20,PRO	20,PRO	20,PRO	20,PRO	20,PRO
58,PRO	21,PRO	21,PRO	21,PRO	21,PRO	21,PRO	21,PRO
59,THR	22,THR	22,THR	22,THR	22,THR	22,THR	22,THR
60,TYR	23,TYR	23,TYR	23,TYR	23,TYR	23,TYR	23,TYR
61,SER	24,SER	24,SER	24,SER	24,SER	24,SER	24,SER
62,ALA	25,ALA	25,ALA	25,ALA	25,ALA	25,ALA	25,ALA
63,MET	26,MET	26,MET	26,MET	26,MET	26,MET	26,MET
64,CYS	27,CYS	27,CYS	27,CYS	27,CYS	27,CYS	27,CYS
65,PRO	28,PRO	28,PRO	28,PRO	28,PRO	28,PRO	28,PRO
66,PHE	29,PHE	29,PHE	29,PHE	29,PHE	29,PHE	29,PHE
67,GLY	30,GLY	30,GLY	30,GLY	30,GLY	30,GLY	30,GLY
68,CYS	31,CYS	31,CYS	31,CYS	31,CYS	31,CYS	31,CYS
69,HIS	32,HIS	32,HIS	32,HIS	32,HIS	32,HIS	32,HIS
70,CYS	33,CYS	33,CYS	33,CYS	33,CYS	33,CYS	33,CYS
71,HIS	34,HIS	34,HIS	34,HIS	34,HIS	34,HIS	34,HIS
72,LEU	35,LEU	35,LEU	35,LEU	35,LEU	35,LEU	35,LEU
73,ARG	36,ARG	36,ARG	36,ARG	36,ARG	36,ARG	36,ARG
74,VAL	37,VAL	37,VAL	37,VAL	37,VAL	37,VAL	37,VAL
75,VAL	38,VAL	38,VAL	38,VAL	38,VAL	38,VAL	38,VAL
76,GLN	39,GLN	39,GLN	39,GLN	39,GLN	39,GLN	39,GLN
77,CYS	40,CYS	40,CYS	40,CYS	40,CYS	40,CYS	40,CYS
78,SER	41,SER	41,SER	41,SER	41,SER	41,SER	41,SER
79,ASP	42,ASP	42,ASP	42,ASP	42,ASP	42,ASP	42,ASP
80,LEU	43,LEU	43,LEU	43,LEU	43,LEU	43,LEU	43,LEU
81,GLY	44,GLY	44,GLY	44,GLY	44,GLY	44,GLY	44,GLY
82,LEU	45,LEU	45,LEU	45,LEU	45,LEU	45,LEU	45,LEU
83,LYS	46,LYS	46,LYS	46,LYS	46,LYS	46,LYS	46,LYS
84,ALA	47,ALA	47,ALA	47,ALA	47,ALA	47,ALA	47,ALA
85,VAL	48,VAL	48,VAL	48,VAL	48,VAL	48,VAL	48,VAL
86,PRO	49,PRO	49,PRO	49,PRO	49,PRO	49,PRO	49,PRO
87,LYS	50,LYS	50,LYS	50,LYS	50,LYS	50,LYS	50,LYS
88,GLU	51,GLU	51,GLU	51,GLU	51,GLU	51,GLU	51,GLU
89,ILE	52,ILE	52,ILE	52,ILE	52,ILE	52,ILE	52,ILE
90,SER	53,SER	53,SER	53,SER	53,SER	53,SER	53,SER
91,PRO	54,PRO	54,PRO	54,PRO	54,PRO	54,PRO	54,PRO
92,ASP	55,ASP	55,ASP	55,ASP	55,ASP	55,ASP	55,ASP
93,THR	56,THR	56,THR	56,THR	56,THR	56,THR	56,THR
94,THR	57,THR	57,THR	57,THR	57,THR	57,THR	57,THR
95,LEU	58,LEU	58,LEU	58,LEU	58,LEU	58,LEU	58,LEU
96,LEU	59,LEU	59,LEU	59,LEU	59,LEU	59,LEU	59,LEU
97,ASP	60,ASP	60,ASP	60,ASP	60,ASP	60,ASP	60,ASP
98,LEU	61,LEU	61,LEU	61,LEU	61,LEU	61,LEU	61,LEU
99,GLN	62,GLN	62,GLN	62,GLN	62,GLN	62,GLN	62,GLN
100,ASN	63,ASN	63,ASN	63,ASN	63,ASN	63,ASN	63,ASN
101,ASN	64,ASN	64,ASN	64,ASN	64,ASN	64,ASN	64,ASN
102,ASP	65,ASP	65,ASP	65,ASP	65,ASP	65,ASP	65,ASP
103,ILE	66,ILE	66,ILE	66,ILE	66,ILE	66,ILE	66,ILE
104,SER	67,SER	67,SER	67,SER	67,SER	67,SER	67,SER
105,GLU	68,GLU	68,GLU	68,GLU	68,GLU	68,GLU	68,GLU
106,LEU	69,LEU	69,LEU	69,LEU	69,LEU	69,LEU	69,LEU
107,ARG	70,ARG	70,ARG	70,ARG	70,ARG	70,ARG	70,ARG
108,LYS	71,LYS	71,LYS	71,LYS	71,LYS	71,LYS	71,LYS
109,ASP	72,ASP	72,ASP	72,ASP	72,ASP	72,ASP	72,ASP
110,ASP	73,ASP	73,ASP	73,ASP	76,GLY	73,ASP	73,ASP
111,PHE	74,PHE	74,PHE	74,PHE	73,ASP	74,PHE	74,PHE
112,LYS	75,LYS	75,LYS	75,LYS	74,PHE	75,LYS	75,LYS
113,GLY	76,GLY	76,GLY	76,GLY	75,LYS	76,GLY	76,GLY
114,LEU	77,LEU	77,LEU	77,LEU	77,LEU	77,LEU	77,LEU
115,GLN	78,GLN	78,GLN	78,GLN	78,GLN	78,GLN	78,GLN
116,HIS	79,HIS	79,HIS	79,HIS	79,HIS	79,HIS	79,HIS
117,LEU	80,LEU	80,LEU	80,LEU	80,LEU	80,LEU	80,LEU
118,TYR	81,TYR	81,TYR	81,TYR	81,TYR	81,TYR	81,TYR
119,ALA	82,ALA	82,ALA	82,ALA	82,ALA	82,ALA	82,ALA
120,LEU	83,LEU	83,LEU	83,LEU	83,LEU	83,LEU	83,LEU
121,VAL	84,VAL	84,VAL	84,VAL	84,VAL	84,VAL	84,VAL
122,LEU	85,LEU	85,LEU	85,LEU	85,LEU	85,LEU	85,LEU
123,VAL	86,VAL	86,VAL	86,VAL	86,VAL	86,VAL	86,VAL
124,ASN	87,ASN	87,ASN	87,ASN	87,ASN	87,ASN	87,ASN
125,ASN	88,ASN	88,ASN	88,ASN	88,ASN	88,ASN	88,ASN
126,LYS	89,LYS	89,LYS	89,LYS	89,LYS	89,LYS	89,LYS
127,ILE	90,ILE	90,ILE	90,ILE	90,ILE	90,ILE	90,ILE
128,SER	91,SER	91,SER	91,SER	91,SER	91,SER	91,SER
129,LYS	92,LYS	92,LYS	92,LYS	92,LYS	92,LYS	92,LYS
130,ILE	93,ILE	93,ILE	93,ILE	93,ILE	93,ILE	93,ILE
131,HIS	94,HIS	94,HIS	94,HIS	94,HIS	94,HIS	94,HIS
132,GLU	95,GLU	95,GLU	95,GLU	95,GLU	95,GLU	95,GLU
133,LYS	96,LYS	96,LYS	96,LYS	96,LYS	96,LYS	96,LYS
134,ALA	97,ALA	97,ALA	97,ALA	97,ALA	97,ALA	97,ALA
135,PHE	98,PHE	98,PHE	98,PHE	98,PHE	98,PHE	98,PHE
136,SER	99,SER	99,SER	99,SER	99,SER	99,SER	99,SER
137,PRO	100,PRO	100,PRO	100,PRO	100,PRO	100,PRO	100,PRO
138,LEU	101,LEU	101,LEU	101,LEU	101,LEU	101,LEU	101,LEU
139,ARG	102,ARG	102,ARG	102,ARG	102,ARG	102,ARG	102,ARG
140,LYS	103,LYS	103,LYS	103,LYS	103,LYS	103,LYS	103,LYS
141,LEU	104,LEU	104,LEU	104,LEU	104,LEU	104,LEU	104,LEU
142,GLN	105,GLN	105,GLN	105,GLN	105,GLN	105,GLN	105,GLN
143,LYS	106,LYS	106,LYS	106,LYS	106,LYS	106,LYS	106,LYS
144,LEU	107,LEU	107,LEU	107,LEU	107,LEU	107,LEU	107,LEU
145,TYR	108,TYR	108,TYR	108,TYR	108,TYR	108,TYR	108,TYR
146,ILE	109,ILE	109,ILE	109,ILE	109,ILE	109,ILE	109,ILE
147,SER	110,SER	110,SER	110,SER	110,SER	110,SER	110,SER
148,LYS	111,LYS	111,LYS	111,LYS	111,LYS	111,LYS	111,LYS
149,ASN	112,ASN	112,ASN	112,ASN	112,ASN	112,ASN	112,ASN
150,HIS	113,HIS	113,HIS	113,HIS	113,HIS	113,HIS	113,HIS
151,LEU	114,LEU	114,LEU	114,LEU	114,LEU	114,LEU	114,LEU
152,VAL	115,VAL	115,VAL	115,VAL	115,VAL	115,VAL	115,VAL
153,GLU	116,GLU	116,GLU	116,GLU	116,GLU	116,GLU	116,GLU
154,ILE	117,ILE	117,ILE	117,ILE	117,ILE	117,ILE	117,ILE
155,PRO	118,PRO	118,PRO	118,PRO	118,PRO	118,PRO	118,PRO
156,PRO	119,PRO	119,PRO	119,PRO	119,PRO	119,PRO	119,PRO
157,ASN	120,ASN	120,ASN	120,ASN	120,ASN	120,ASN	120,ASN
158,LEU	121,LEU	121,LEU	121,LEU	121,LEU	121,LEU	121,LEU
159,PRO	122,PRO	122,PRO	122,PRO	122,PRO	122,PRO	122,PRO
160,SER	123,SER	123,SER	123,SER	123,SER	123,SER	123,SER
161,SER	124,SER	124,SER	124,SER	124,SER	124,SER	124,SER
162,LEU	125,LEU	125,LEU	125,LEU	125,LEU	125,LEU	125,LEU
163,VAL	126,VAL	126,VAL	126,VAL	126,VAL	126,VAL	126,VAL
164,GLU	127,GLU	127,GLU	127,GLU	127,GLU	127,GLU	127,GLU
165,LEU	128,LEU	128,LEU	128,LEU	128,LEU	128,LEU	128,LEU
166,ARG	129,ARG	129,ARG	129,ARG	129,ARG	129,ARG	129,ARG
167,ILE	130,ILE	130,ILE	130,ILE	130,ILE	130,ILE	130,ILE
168,HIS	131,HIS	131,HIS	131,HIS	131,HIS	131,HIS	131,HIS
169,ASP	132,ASP	132,ASP	132,ASP	132,ASP	132,ASP	132,ASP
170,ASN	133,ASN	133,ASN	133,ASN	133,ASN	133,ASN	133,ASN
171,ARG	134,ARG	134,ARG	134,ARG	134,ARG	134,ARG	134,ARG
172,ILE	135,ILE	135,ILE	135,ILE	135,ILE	135,ILE	135,ILE
173,ARG	136,ARG	136,ARG	136,ARG	136,ARG	136,ARG	136,ARG
174,LYS	137,LYS	137,LYS	137,LYS	137,LYS	137,LYS	137,LYS
175,VAL	138,VAL	138,VAL	138,VAL	138,VAL	138,VAL	138,VAL
176,PRO	139,PRO	139,PRO	139,PRO	139,PRO	139,PRO	139,PRO
177,LYS	140,LYS	140,LYS	140,LYS	140,LYS	140,LYS	140,LYS
178,GLY	141,GLY	141,GLY	141,GLY	141,GLY	141,GLY	144,SER
179,VAL	142,VAL	142,VAL	142,VAL	142,VAL	142,VAL	141,GLY
180,PHE	143,PHE	143,PHE	143,PHE	143,PHE	143,PHE	142,VAL
181,SER	144,SER	144,SER	144,SER	144,SER	144,SER	143,PHE
182,GLY	145,GLY	145,GLY	145,GLY	145,GLY	145,GLY	145,GLY
183,LEU	146,LEU	146,LEU	146,LEU	146,LEU	146,LEU	146,LEU
184,ARG	147,ARG	147,ARG	147,ARG	147,ARG	147,ARG	147,ARG
185,ASN	148,ASN	148,ASN	148,ASN	148,ASN	148,ASN	148,ASN
186,MET	149,MET	149,MET	149,MET	149,MET	149,MET	149,MET
187,ASN	150,ASN	150,ASN	150,ASN	150,ASN	150,ASN	150,ASN
188,CYS	151,CYS	151,CYS	151,CYS	151,CYS	151,CYS	151,CYS
189,ILE	152,ILE	152,ILE	152,ILE	152,ILE	152,ILE	152,ILE
190,GLU	153,GLU	153,GLU	153,GLU	153,GLU	153,GLU	153,GLU
191,MET	154,MET	154,MET	154,MET	154,MET	154,MET	154,MET
192,GLY	155,GLY	155,GLY	155,GLY	155,GLY	155,GLY	155,GLY
193,GLY	156,GLY	156,GLY	156,GLY	156,GLY	156,GLY	156,GLY
194,ASN	157,ASN	157,ASN	157,ASN	157,ASN	157,ASN	157,ASN
195,PRO	158,PRO	158,PRO	158,PRO	158,PRO	158,PRO	158,PRO
196,LEU	159,LEU	159,LEU	159,LEU	159,LEU	159,LEU	159,LEU
197,GLU	160,GLU	160,GLU	160,GLU	160,GLU	160,GLU	160,GLU
198,ASN	161,ASN	161,ASN	161,ASN	161,ASN	161,ASN	161,ASN
199,SER	162,SER	162,SER	162,SER	162,SER	162,SER	162,SER
200,GLY	163,GLY	163,GLY	163,GLY	163,GLY	163,GLY	163,GLY
201,PHE	164,PHE	164,PHE	164,PHE	164,PHE	164,PHE	164,PHE
202,GLU	165,GLU	165,GLU	165,GLU	165,GLU	165,GLU	165,GLU
203,PRO	166,PRO	166,PRO	166,PRO	166,PRO	166,PRO	166,PRO
204,GLY	167,GLY	167,GLY	167,GLY	167,GLY	167,GLY	167,GLY
205,ALA	168,ALA	168,ALA	168,ALA	168,ALA	168,ALA	168,ALA
206,PHE	169,PHE	169,PHE	169,PHE	169,PHE	169,PHE	169,PHE
207,ASP	170,ASP	170,ASP	170,ASP	170,ASP	170,ASP	170,ASP
208,GLY	171,GLY	171,GLY	171,GLY	171,GLY	171,GLY	171,GLY
209,LEU	172,LEU	172,LEU	172,LEU	172,LEU	172,LEU	172,LEU
210,LYS	173,LYS	173,LYS	173,LYS	173,LYS	173,LYS	173,LYS
211,LEU	174,LEU	174,LEU	174,LEU	174,LEU	174,LEU	174,LEU
212,ASN	175,ASN	175,ASN	175,ASN	175,ASN	175,ASN	175,ASN
213,TYR	176,TYR	176,TYR	176,TYR	176,TYR	176,TYR	176,TYR
214,LEU	177,LEU	177,LEU	177,LEU	177,LEU	177,LEU	177,LEU
215,ARG	178,ARG	178,ARG	178,ARG	178,ARG	178,ARG	178,ARG
216,ILE	179,ILE	179,ILE	179,ILE	179,ILE	179,ILE	179,ILE
217,SER	180,SER	180,SER	180,SER	180,SER	180,SER	180,SER
218,GLU	181,GLU	181,GLU	181,GLU	181,GLU	181,GLU	181,GLU
219,ALA	182,ALA	182,ALA	182,ALA	182,ALA	182,ALA	182,ALA
220,LYS	183,LYS	183,LYS	183,LYS	183,LYS	183,LYS	183,LYS
221,LEU	184,LEU	184,LEU	184,LEU	184,LEU	184,LEU	184,LEU
222,THR	185,THR	185,THR	185,THR	185,THR	185,THR	185,THR
223,GLY	186,GLY	186,GLY	186,GLY	186,GLY	186,GLY	186,GLY
224,ILE	187,ILE	187,ILE	187,ILE	187,ILE	187,ILE	187,ILE
225,PRO	188,PRO	188,PRO	188,PRO	188,PRO	188,PRO	188,PRO
226,LYS	189,LYS	189,LYS	189,LYS	189,LYS	189,LYS	189,LYS
227,ASP	190,ASP	190,ASP	190,ASP	190,ASP	190,ASP	190,ASP
228,LEU	191,LEU	191,LEU	191,LEU	191,LEU	191,LEU	191,LEU
229,PRO	192,PRO	192,PRO	192,PRO	192,PRO	192,PRO	192,PRO
230,GLU	193,GLU	193,GLU	193,GLU	193,GLU	193,GLU	193,GLU
231,THR	194,THR	194,THR	194,THR	194,THR	194,THR	194,THR
232,LEU	195,LEU	195,LEU	195,LEU	195,LEU	195,LEU	195,LEU
233,ASN	196,ASN	196,ASN	196,ASN	196,ASN	196,ASN	196,ASN
234,GLU	197,GLU	197,GLU	197,GLU	197,GLU	197,GLU	197,GLU
235,LEU	198,LEU	198,LEU	198,LEU	198,LEU	198,LEU	198,LEU
236,HIS	199,HIS	199,HIS	199,HIS	199,HIS	199,HIS	199,HIS
237,LEU	200,LEU	200,LEU	200,LEU	200,LEU	200,LEU	200,LEU
238,ASP	201,ASP	201,ASP	201,ASP	201,ASP	201,ASP	201,ASP
239,HIS	202,HIS	202,HIS	202,HIS	202,HIS	202,HIS	202,HIS
240,ASN	203,ASN	203,ASN	203,ASN	203,ASN	203,ASN	203,ASN
241,LYS	204,LYS	204,LYS	204,LYS	204,LYS	204,LYS	204,LYS
242,ILE	205,ILE	205,ILE	205,ILE	205,ILE	205,ILE	205,ILE
243,GLN	206,GLN	206,GLN	206,GLN	206,GLN	206,GLN	206,GLN
244,ALA	207,ALA	207,ALA	207,ALA	207,ALA	207,ALA	207,ALA
245,ILE	208,ILE	208,ILE	208,ILE	208,ILE	208,ILE	208,ILE
246,GLU	209,GLU	209,GLU	209,GLU	209,GLU	209,GLU	209,GLU
247,LEU	210,LEU	210,LEU	210,LEU	210,LEU	210,LEU	210,LEU
248,GLU	211,GLU	211,GLU	211,GLU	211,GLU	211,GLU	211,GLU
249,ASP	212,ASP	212,ASP	212,ASP	212,ASP	212,ASP	212,ASP
250,LEU	213,LEU	213,LEU	213,LEU	213,LEU	213,LEU	213,LEU
251,LEU	214,LEU	214,LEU	214,LEU	214,LEU	214,LEU	214,LEU
252,ARG	215,ARG	215,ARG	215,ARG	215,ARG	215,ARG	215,ARG
253,TYR	216,TYR	216,TYR	216,TYR	216,TYR	216,TYR	216,TYR
254,SER	217,SER	217,SER	217,SER	217,SER	217,SER	217,SER
255,LYS	218,LYS	218,LYS	218,LYS	218,LYS	218,LYS	218,LYS
256,LEU	219,LEU	219,LEU	219,LEU	219,LEU	219,LEU	219,LEU
257,TYR	220,TYR	220,TYR	220,TYR	220,TYR	220,TYR	220,TYR
258,ARG	221,ARG	221,ARG	221,ARG	221,ARG	221,ARG	221,ARG
259,LEU	222,LEU	222,LEU	222,LEU	222,LEU	222,LEU	222,LEU
260,GLY	223,GLY	223,GLY	223,GLY	223,GLY	223,GLY	223,GLY
261,LEU	224,LEU	224,LEU	224,LEU	224,LEU	224,LEU	224,LEU
262,GLY	225,GLY	225,GLY	225,GLY	225,GLY	225,GLY	225,GLY
263,HIS	226,HIS	226,HIS	226,HIS	226,HIS	226,HIS	226,HIS
264,ASN	227,ASN	227,ASN	227,ASN	227,ASN	227,ASN	227,ASN
265,GLN	228,GLN	228,GLN	228,GLN	228,GLN	228,GLN	228,GLN
266,ILE	229,ILE	229,ILE	229,ILE	229,ILE	229,ILE	229,ILE
267,ARG	230,ARG	230,ARG	230,ARG	230,ARG	230,ARG	230,ARG
268,MET	231,MET	231,MET	231,MET	231,MET	231,MET	231,MET
269,ILE	232,ILE	232,ILE	232,ILE	232,ILE	232,ILE	232,ILE
270,GLU	233,GLU	233,GLU	233,GLU	233,GLU	233,GLU	233,GLU
271,ASN	234,ASN	234,ASN	234,ASN	234,ASN	234,ASN	234,ASN
272,GLY	235,GLY	235,GLY	235,GLY	235,GLY	235,GLY	235,GLY
273,SER	236,SER	236,SER	236,SER	236,SER	236,SER	236,SER
274,LEU	237,LEU	237,LEU	237,LEU	237,LEU	237,LEU	237,LEU
275,SER	238,SER	238,SER	238,SER	238,SER	238,SER	238,SER
276,PHE	239,PHE	239,PHE	239,PHE	239,PHE	239,PHE	239,PHE
277,LEU	240,LEU	240,LEU	240,LEU	240,LEU	240,LEU	240,LEU
278,PRO	241,PRO	241,PRO	241,PRO	241,PRO	241,PRO	241,PRO
279,THR	242,THR	242,THR	242,THR	242,THR	242,THR	242,THR
280,LEU	243,LEU	243,LEU	243,LEU	243,LEU	243,LEU	243,LEU
281,ARG	244,ARG	244,ARG	244,ARG	244,ARG	244,ARG	244,ARG
282,GLU	245,GLU	245,GLU	245,GLU	245,GLU	245,GLU	245,GLU
283,LEU	246,LEU	246,LEU	246,LEU	246,LEU	246,LEU	246,LEU
284,HIS	247,HIS	247,HIS	247,HIS	247,HIS	247,HIS	247,HIS
285,LEU	248,LEU	248,LEU	248,LEU	248,LEU	248,LEU	248,LEU
286,ASP	249,ASP	249,ASP	249,ASP	249,ASP	249,ASP	249,ASP
287,ASN	250,ASN	250,ASN	250,ASN	250,ASN	250,ASN	250,ASN
288,ASN	251,ASN	251,ASN	251,ASN	251,ASN	251,ASN	251,ASN
289,LYS	252,LYS	252,LYS	252,LYS	252,LYS	252,LYS	252,LYS
290,LEU	253,LEU	253,LEU	253,LEU	253,LEU	253,LEU	253,LEU
291,SER	254,SER	254,SER	254,SER	254,SER	254,SER	254,SER
292,ARG	255,ARG	255,ARG	255,ARG	255,ARG	255,ARG	255,ARG
293,VAL	256,VAL	256,VAL	256,VAL	256,VAL	256,VAL	256,VAL
294,PRO	257,PRO	257,PRO	257,PRO	257,PRO	257,PRO	257,PRO
295,ALA	258,ALA	258,ALA	258,ALA	258,ALA	258,ALA	258,ALA
296,GLY	259,GLY	259,GLY	259,GLY	259,GLY	259,GLY	259,GLY
297,LEU	260,LEU	260,LEU	260,LEU	260,LEU	260,LEU	260,LEU
298,PRO	261,PRO	261,PRO	261,PRO	261,PRO	261,PRO	261,PRO
299,ASP	262,ASP	262,ASP	262,ASP	262,ASP	262,ASP	262,ASP
300,LEU	263,LEU	263,LEU	263,LEU	263,LEU	263,LEU	263,LEU
301,LYS	264,LYS	264,LYS	264,LYS	264,LYS	264,LYS	264,LYS
302,LEU	265,LEU	265,LEU	265,LEU	265,LEU	265,LEU	265,LEU
303,LEU	266,LEU	266,LEU	266,LEU	266,LEU	266,LEU	266,LEU
304,GLN	267,GLN	267,GLN	267,GLN	267,GLN	267,GLN	267,GLN
305,VAL	268,VAL	268,VAL	268,VAL	268,VAL	268,VAL	268,VAL
306,VAL	269,VAL	269,VAL	269,VAL	269,VAL	269,VAL	269,VAL
307,TYR	270,TYR	270,TYR	270,TYR	270,TYR	270,TYR	270,TYR
308,LEU	271,LEU	271,LEU	271,LEU	271,LEU	271,LEU	271,LEU
309,HIS	272,HIS	272,HIS	272,HIS	272,HIS	272,HIS	272,HIS
310,THR	273,THR	273,THR	273,THR	276,ILE	273,THR	273,THR
311,ASN	274,ASN	274,ASN	274,ASN	273,THR	274,ASN	274,ASN
312,ASN	275,ASN	275,ASN	275,ASN	274,ASN	275,ASN	275,ASN
313,ILE	276,ILE	276,ILE	276,ILE	275,ASN	276,ILE	276,ILE
314,THR	277,THR	277,THR	277,THR	277,THR	277,THR	277,THR
315,LYS	278,LYS	278,LYS	278,LYS	278,LYS	278,LYS	278,LYS
316,VAL	279,VAL	279,VAL	279,VAL	279,VAL	279,VAL	279,VAL
317,GLY	280,GLY	280,GLY	280,GLY	280,GLY	280,GLY	280,GLY
318,VAL	281,VAL	281,VAL	281,VAL	281,VAL	281,VAL	281,VAL
319,ASN	282,ASN	282,ASN	282,ASN	282,ASN	282,ASN	282,ASN
320,ASP	283,ASP	283,ASP	283,ASP	283,ASP	283,ASP	283,ASP
321,PHE	284,PHE	284,PHE	284,PHE	284,PHE	284,PHE	284,PHE
322,CYS	285,CYS	285,CYS	285,CYS	285,CYS	285,CYS	285,CYS
323,PRO	286,PRO	286,PRO	286,PRO	286,PRO	286,PRO	286,PRO
324,VAL	287,VAL	287,VAL	287,VAL	287,VAL	287,VAL	287,VAL
325,GLY	288,GLY	288,GLY	288,GLY	288,GLY	288,GLY	288,GLY
326,PHE	289,PHE	289,PHE	289,PHE	289,PHE	289,PHE	289,PHE
327,GLY	290,GLY	290,GLY	290,GLY	290,GLY	290,GLY	290,GLY
328,VAL	291,VAL	291,VAL	291,VAL	291,VAL	291,VAL	291,VAL
329,LYS	292,LYS	292,LYS	292,LYS	292,LYS	292,LYS	292,LYS
330,ARG	293,ARG	293,ARG	293,ARG	293,ARG	293,ARG	293,ARG
331,ALA	294,ALA	294,ALA	294,ALA	294,ALA	294,ALA	294,ALA
332,TYR	295,TYR	295,TYR	295,TYR	295,TYR	295,TYR	295,TYR
333,TYR	296,TYR	296,TYR	296,TYR	296,TYR	296,TYR	296,TYR
334,ASN	297,ASN	297,ASN	297,ASN	297,ASN	297,ASN	297,ASN
335,GLY	298,GLY	298,GLY	298,GLY	298,GLY	298,GLY	298,GLY
336,ILE	299,ILE	299,ILE	299,ILE	299,ILE	299,ILE	299,ILE
337,SER	300,SER	300,SER	300,SER	300,SER	300,SER	300,SER
338,LEU	301,LEU	301,LEU	301,LEU	301,LEU	301,LEU	301,LEU
339,PHE	302,PHE	302,PHE	302,PHE	302,PHE	302,PHE	302,PHE
340,ASN	303,ASN	303,ASN	303,ASN	303,ASN	303,ASN	303,ASN
341,ASN	304,ASN	304,ASN	304,ASN	304,ASN	304,ASN	304,ASN
342,PRO	305,PRO	305,PRO	305,PRO	305,PRO	305,PRO	305,PRO
343,VAL	306,VAL	306,VAL	306,VAL	306,VAL	306,VAL	306,VAL
344,PRO	307,PRO	307,PRO	307,PRO	307,PRO	307,PRO	307,PRO
345,TYR	308,TYR	308,TYR	308,TYR	308,TYR	308,TYR	308,TYR
346,TRP	309,TRP	309,TRP	309,TRP	309,TRP	309,TRP	309,TRP
347,GLU	310,GLU	310,GLU	310,GLU	310,GLU	310,GLU	310,GLU
348,VAL	311,VAL	311,VAL	311,VAL	311,VAL	311,VAL	311,VAL
349,GLN	312,GLN	312,GLN	312,GLN	312,GLN	312,GLN	312,GLN
350,PRO	313,PRO	316,PHE	313,PRO	313,PRO	313,PRO	313,PRO
351,ALA	314,ALA	313,PRO	314,ALA	314,ALA	314,ALA	314,ALA
352,THR	315,THR	314,ALA	315,THR	315,THR	315,THR	315,THR
353,PHE	316,PHE	315,THR	316,PHE	316,PHE	316,PHE	316,PHE
354,ARG	317,ARG	317,ARG	317,ARG	317,ARG	317,ARG	317,ARG
355,CYS	318,CYS	318,CYS	318,CYS	318,CYS	318,CYS	318,CYS
356,VAL	319,VAL	319,VAL	319,VAL	319,VAL	319,VAL	319,VAL
357,THR	320,THR	320,THR	320,THR	320,THR	320,THR	320,THR
358,ASP	321,ASP	321,ASP	321,ASP	321,ASP	321,ASP	321,ASP
359,ARG	322,ARG	322,ARG	322,ARG	322,ARG	322,ARG	322,ARG
360,LEU	323,LEU	323,LEU	323,LEU	323,LEU	323,LEU	323,LEU
361,ALA	324,ALA	324,ALA	324,ALA	324,ALA	324,ALA	324,ALA
362,ILE	325,ILE	325,ILE	325,ILE	325,ILE	325,ILE	325,ILE
363,GLN	326,GLN	326,GLN	326,GLN	326,GLN	326,GLN	326,GLN
364,PHE	327,PHE	327,PHE	327,PHE	327,PHE	327,PHE	327,PHE
365,GLY	328,GLY	328,GLY	328,GLY	328,GLY	328,GLY	328,GLY
366,ASN	329,ASN	329,ASN	329,ASN	329,ASN	329,ASN	329,ASN
367,TYR	330,TYR	330,TYR	330,TYR	330,TYR	330,TYR	330,TYR
368,LYS	331,LYS	331,LYS	331,LYS	331,LYS	331,LYS	331,LYS
369,LYS	332,LYS	332,LYS	332,LYS	332,LYS	332,LYS	332,LYS
