P40217	3zwlB
1,MET	1,MET
2,LYS	2,LYS
3,ALA	3,ALA
4,ILE	4,ILE
5,LYS	5,LYS
6,LEU	6,LEU
7,THR	7,THR
8,GLY	8,GLY
9,HIS	9,HIS
10,GLU	10,GLU
11,ARG	11,ARG
12,PRO	12,PRO
13,LEU	13,LEU
14,THR	14,THR
15,GLN	15,GLN
16,VAL	16,VAL
17,LYS	17,LYS
18,TYR	18,TYR
19,ASN	19,ASN
20,LYS	20,LYS
21,GLU	21,GLU
22,GLY	22,GLY
23,ASP	23,ASP
24,LEU	24,LEU
25,LEU	25,LEU
26,PHE	26,PHE
27,SER	27,SER
28,CYS	28,CYS
29,SER	29,SER
30,LYS	30,LYS
31,ASP	31,ASP
32,SER	32,SER
33,SER	33,SER
34,ALA	34,ALA
35,SER	35,SER
36,VAL	36,VAL
37,TRP	37,TRP
38,TYR	38,TYR
39,SER	39,SER
40,LEU	40,LEU
41,ASN	41,ASN
42,GLY	42,GLY
43,GLU	43,GLU
44,ARG	44,ARG
45,LEU	45,LEU
46,GLY	46,GLY
47,THR	47,THR
48,LEU	48,LEU
49,ASP	49,ASP
50,GLY	50,GLY
51,HIS	51,HIS
52,THR	52,THR
53,GLY	53,GLY
54,THR	54,THR
55,ILE	55,ILE
56,TRP	56,TRP
57,SER	57,SER
58,ILE	58,ILE
59,ASP	59,ASP
60,VAL	60,VAL
61,ASP	61,ASP
62,CYS	62,CYS
63,PHE	63,PHE
64,THR	64,THR
65,LYS	65,LYS
66,TYR	66,TYR
67,CYS	67,CYS
68,VAL	68,VAL
69,THR	69,THR
70,GLY	70,GLY
71,SER	71,SER
72,ALA	72,ALA
73,ASP	73,ASP
74,TYR	74,TYR
75,SER	75,SER
76,ILE	76,ILE
77,LYS	77,LYS
78,LEU	78,LEU
79,TRP	79,TRP
80,ASP	80,ASP
81,VAL	81,VAL
82,SER	82,SER
83,ASN	83,ASN
84,GLY	84,GLY
85,GLN	85,GLN
86,CYS	86,CYS
87,VAL	87,VAL
88,ALA	88,ALA
89,THR	89,THR
90,TRP	90,TRP
91,LYS	91,LYS
92,SER	92,SER
93,PRO	93,PRO
94,VAL	94,VAL
95,PRO	95,PRO
96,VAL	96,VAL
97,LYS	97,LYS
98,ARG	98,ARG
99,VAL	99,VAL
100,GLU	100,GLU
101,PHE	101,PHE
102,SER	102,SER
103,PRO	103,PRO
104,CYS	104,CYS
105,GLY	105,GLY
106,ASN	106,ASN
107,TYR	107,TYR
108,PHE	108,PHE
109,LEU	109,LEU
110,ALA	110,ALA
111,ILE	111,ILE
112,LEU	112,LEU
113,ASP	113,ASP
114,ASN	114,ASN
115,VAL	115,VAL
116,MET	116,MET
117,LYS	117,LYS
118,ASN	118,ASN
119,PRO	119,PRO
120,GLY	120,GLY
121,SER	121,SER
122,ILE	122,ILE
123,ASN	123,ASN
124,ILE	124,ILE
125,TYR	125,TYR
126,GLU	126,GLU
127,ILE	127,ILE
128,GLU	128,GLU
129,ARG	129,ARG
130,ASP	130,ASP
131,SER	131,SER
132,ALA	132,ALA
133,THR	133,THR
134,HIS	134,HIS
135,GLU	135,GLU
136,LEU	136,LEU
137,THR	137,THR
138,LYS	138,LYS
139,VAL	139,VAL
140,SER	140,SER
141,GLU	141,GLU
142,GLU	142,GLU
143,PRO	143,PRO
144,ILE	144,ILE
145,HIS	145,HIS
146,LYS	146,LYS
147,ILE	147,ILE
148,ILE	148,ILE
149,THR	149,THR
150,HIS	150,HIS
151,GLU	151,GLU
152,GLY	152,GLY
153,LEU	153,LEU
154,ASP	154,ASP
155,ALA	155,ALA
156,ALA	156,ALA
157,THR	157,THR
158,VAL	158,VAL
159,ALA	159,ALA
160,GLY	160,GLY
161,TRP	161,TRP
162,SER	162,SER
163,THR	163,THR
164,LYS	164,LYS
165,GLY	165,GLY
166,LYS	166,LYS
167,TYR	167,TYR
168,ILE	168,ILE
169,ILE	169,ILE
170,ALA	170,ALA
171,GLY	171,GLY
172,HIS	172,HIS
173,LYS	173,LYS
174,ASP	174,ASP
175,GLY	175,GLY
176,LYS	176,LYS
177,ILE	177,ILE
178,SER	178,SER
179,LYS	179,LYS
180,TYR	180,TYR
181,ASP	181,ASP
182,VAL	182,VAL
183,SER	183,SER
184,ASN	184,ASN
185,ASN	185,ASN
186,TYR	186,TYR
187,GLU	187,GLU
188,TYR	188,TYR
189,VAL	189,VAL
190,ASP	190,ASP
191,SER	191,SER
192,ILE	192,ILE
193,ASP	193,ASP
194,LEU	194,LEU
195,HIS	195,HIS
196,GLU	196,GLU
197,LYS	197,LYS
198,SER	198,SER
199,ILE	199,ILE
200,SER	200,SER
201,ASP	201,ASP
202,MET	202,MET
203,GLN	203,GLN
204,PHE	204,PHE
205,SER	205,SER
206,PRO	206,PRO
207,ASP	207,ASP
208,LEU	208,LEU
209,THR	209,THR
210,TYR	210,TYR
211,PHE	211,PHE
212,ILE	212,ILE
213,THR	213,THR
214,SER	214,SER
215,SER	215,SER
216,ARG	216,ARG
217,ASP	217,ASP
218,THR	218,THR
219,ASN	219,ASN
220,SER	220,SER
221,PHE	221,PHE
222,LEU	222,LEU
223,VAL	223,VAL
224,ASP	224,ASP
225,VAL	225,VAL
226,SER	226,SER
227,THR	227,THR
228,LEU	228,LEU
229,GLN	229,GLN
230,VAL	230,VAL
231,LEU	231,LEU
232,LYS	232,LYS
233,LYS	233,LYS
234,TYR	234,TYR
235,GLU	235,GLU
236,THR	236,THR
237,ASP	237,ASP
238,CYS	238,CYS
239,PRO	239,PRO
240,LEU	240,LEU
241,ASN	241,ASN
242,THR	242,THR
243,ALA	243,ALA
244,VAL	244,VAL
245,ILE	245,ILE
246,THR	246,THR
247,PRO	247,PRO
248,LEU	248,LEU
249,LYS	249,LYS
250,GLU	250,GLU
251,PHE	251,PHE
252,ILE	252,ILE
253,ILE	253,ILE
254,LEU	254,LEU
255,GLY	255,GLY
256,GLY	256,GLY
257,GLY	257,GLY
258,GLN	258,GLN
259,GLU	259,GLU
260,ALA	260,ALA
261,LYS	261,LYS
262,ASP	262,ASP
263,VAL	263,VAL
264,THR	264,THR
265,THR	265,THR
266,THR	266,THR
267,SER	267,SER
268,ALA	268,ALA
269,ASN	269,ASN
270,GLU	270,GLU
271,GLY	271,GLY
272,LYS	272,LYS
273,PHE	273,PHE
274,GLU	274,GLU
275,ALA	275,ALA
276,ARG	276,ARG
277,PHE	277,PHE
278,TYR	278,TYR
279,HIS	279,HIS
280,LYS	280,LYS
281,ILE	281,ILE
282,PHE	282,PHE
283,GLU	283,GLU
284,GLU	284,GLU
285,GLU	285,GLU
286,ILE	286,ILE
287,GLY	287,GLY
288,ARG	288,ARG
289,VAL	289,VAL
290,GLN	290,GLN
291,GLY	291,GLY
292,HIS	292,HIS
293,PHE	293,PHE
294,GLY	294,GLY
295,PRO	295,PRO
296,LEU	296,LEU
297,ASN	297,ASN
298,THR	298,THR
299,VAL	299,VAL
300,ALA	300,ALA
301,ILE	301,ILE
302,SER	302,SER
303,PRO	303,PRO
304,GLN	304,GLN
305,GLY	305,GLY
306,THR	306,THR
307,SER	307,SER
308,TYR	308,TYR
309,ALA	309,ALA
310,SER	310,SER
311,GLY	311,GLY
312,GLY	312,GLY
313,GLU	313,GLU
314,ASP	314,ASP
315,GLY	315,GLY
316,PHE	316,PHE
317,ILE	317,ILE
318,ARG	318,ARG
319,LEU	319,LEU
320,HIS	320,HIS
321,HIS	321,HIS
322,PHE	322,PHE
323,GLU	323,GLU
324,LYS	324,LYS
325,SER	325,SER
326,TYR	326,TYR
327,PHE	327,PHE
328,ASP	328,ASP
329,PHE	329,PHE
330,LYS	330,LYS
331,TYR	331,TYR
332,ASP	332,ASP
333,VAL	333,VAL
334,GLU	334,GLU
335,LYS	335,LYS
336,ALA	336,ALA
337,ALA	337,ALA
338,GLU	338,GLU
339,ALA	339,ALA
340,LYS	340,LYS
341,GLU	341,GLU
342,HIS	342,HIS
343,MET	343,MET
344,GLN	344,GLN
345,GLU	345,GLU
346,ALA	346,ALA
347,ASN	347,ASN
