P26449	1yfqA	2i3tA	2i3tC	2i3tG	2i3tE	2i3sE	2i3sC	2i3sA	4bl0D	4bl0A	1u4cA	1u4cB
1,MET	1,MET	1,MET	1,MET	1,MET	1,MET	1,MET	1,MET	1,MET	1,MET	1,MET	1,MSE	1,MSE
2,GLN	2,GLN	2,GLN	2,GLN	2,GLN	2,GLN	2,GLN	2,GLN	2,GLN	2,GLN	2,GLN	2,GLN	2,GLN
3,ILE	3,ILE	3,ILE	3,ILE	3,ILE	3,ILE	3,ILE	3,ILE	3,ILE	3,ILE	3,ILE	3,ILE	3,ILE
4,VAL	4,VAL	4,VAL	4,VAL	4,VAL	4,VAL	4,VAL	4,VAL	4,VAL	4,VAL	4,VAL	4,VAL	4,VAL
5,GLN	5,GLN	5,GLN	5,GLN	5,GLN	5,GLN	5,GLN	5,GLN	5,GLN	5,GLN	5,GLN	5,GLN	5,GLN
6,ILE	6,ILE	6,ILE	6,ILE	6,ILE	6,ILE	6,ILE	6,ILE	6,ILE	6,ILE	6,ILE	6,ILE	6,ILE
7,GLU	7,GLU	7,GLU	7,GLU	7,GLU	7,GLU	7,GLU	7,GLU	7,GLU	7,GLU	7,GLU	7,GLU	7,GLU
8,GLN	8,GLN	8,GLN	8,GLN	8,GLN	8,GLN	8,GLN	8,GLN	8,GLN	8,GLN	8,GLN	8,GLN	8,GLN
9,ALA	9,ALA	9,ALA	9,ALA	9,ALA	9,ALA	9,ALA	9,ALA	9,ALA	9,ALA	9,ALA	9,ALA	9,ALA
10,PRO	10,PRO	10,PRO	10,PRO	10,PRO	10,PRO	10,PRO	10,PRO	10,PRO	10,PRO	10,PRO	10,PRO	10,PRO
11,LYS	11,LYS	11,LYS	11,LYS	11,LYS	11,LYS	11,LYS	11,LYS	11,LYS	11,LYS	11,LYS	11,LYS	11,LYS
12,ASP	12,ASP	12,ASP	12,ASP	12,ASP	12,ASP	12,ASP	12,ASP	12,ASP	12,ASP	12,ASP	12,ASP	12,ASP
13,TYR	13,TYR	13,TYR	13,TYR	13,TYR	13,TYR	13,TYR	13,TYR	13,TYR	13,TYR	13,TYR	13,TYR	13,TYR
14,ILE	14,ILE	14,ILE	14,ILE	14,ILE	14,ILE	14,ILE	14,ILE	14,ILE	14,ILE	14,ILE	14,ILE	14,ILE
15,SER	15,SER	15,SER	15,SER	15,SER	15,SER	15,SER	15,SER	15,SER	15,SER	15,SER	15,SER	15,SER
16,ASP	16,ASP	16,ASP	16,ASP	16,ASP	16,ASP	16,ASP	16,ASP	16,ASP	16,ASP	16,ASP	16,ASP	16,ASP
17,ILE	17,ILE	17,ILE	17,ILE	17,ILE	17,ILE	17,ILE	17,ILE	17,ILE	17,ILE	17,ILE	17,ILE	17,ILE
18,LYS	18,LYS	18,LYS	18,LYS	18,LYS	18,LYS	18,LYS	18,LYS	18,LYS	18,LYS	18,LYS	18,LYS	18,LYS
19,ILE	19,ILE	19,ILE	19,ILE	19,ILE	19,ILE	19,ILE	19,ILE	19,ILE	19,ILE	19,ILE	19,ILE	19,ILE
20,ILE	20,ILE	20,ILE	20,ILE	20,ILE	20,ILE	20,ILE	20,ILE	20,ILE	20,ILE	20,ILE	20,ILE	20,ILE
21,PRO	21,PRO	21,PRO	21,PRO	21,PRO	21,PRO	21,PRO	21,PRO	21,PRO	21,PRO	21,PRO	21,PRO	21,PRO
22,SER	22,SER	22,SER	22,SER	22,SER	22,SER	22,SER	22,SER	22,SER	22,SER	22,SER	22,SER	22,SER
23,LYS	23,LYS	23,LYS	23,LYS	23,LYS	23,LYS	23,LYS	23,LYS	23,LYS	23,LYS	23,LYS	23,LYS	23,LYS
24,SER	24,SER	24,SER	24,SER	24,SER	24,SER	24,SER	24,SER	24,SER	24,SER	24,SER	24,SER	24,SER
25,LEU	25,LEU	25,LEU	25,LEU	25,LEU	25,LEU	25,LEU	25,LEU	25,LEU	25,LEU	25,LEU	25,LEU	25,LEU
26,LEU	26,LEU	26,LEU	26,LEU	26,LEU	26,LEU	26,LEU	26,LEU	26,LEU	26,LEU	26,LEU	26,LEU	26,LEU
27,LEU	27,LEU	27,LEU	27,LEU	27,LEU	27,LEU	27,LEU	27,LEU	27,LEU	27,LEU	27,LEU	27,LEU	27,LEU
28,ILE	28,ILE	28,ILE	28,ILE	28,ILE	28,ILE	28,ILE	28,ILE	28,ILE	28,ILE	28,ILE	28,ILE	28,ILE
29,THR	29,THR	29,THR	29,THR	29,THR	29,THR	29,THR	29,THR	29,THR	29,THR	29,THR	29,THR	29,THR
30,SER	30,SER	30,SER	30,SER	30,SER	30,SER	30,SER	30,SER	30,SER	30,SER	30,SER	30,SER	30,SER
31,TRP	31,TRP	31,TRP	31,TRP	31,TRP	31,TRP	31,TRP	31,TRP	31,TRP	31,TRP	31,TRP	31,TRP	31,TRP
32,ASP	32,ASP	32,ASP	32,ASP	32,ASP	32,ASP	32,ASP	32,ASP	32,ASP	32,ASP	32,ASP	32,ASP	32,ASP
33,GLY	33,GLY	33,GLY	33,GLY	33,GLY	33,GLY	33,GLY	33,GLY	33,GLY	33,GLY	33,GLY	33,GLY	33,GLY
34,SER	34,SER	34,SER	34,SER	34,SER	34,SER	34,SER	34,SER	34,SER	34,SER	34,SER	34,SER	34,SER
35,LEU	35,LEU	35,LEU	35,LEU	35,LEU	35,LEU	35,LEU	35,LEU	35,LEU	35,LEU	35,LEU	35,LEU	35,LEU
36,THR	36,THR	36,THR	36,THR	36,THR	36,THR	36,THR	36,THR	36,THR	36,THR	36,THR	36,THR	36,THR
37,VAL	37,VAL	37,VAL	37,VAL	37,VAL	37,VAL	37,VAL	37,VAL	37,VAL	37,VAL	37,VAL	37,VAL	37,VAL
38,TYR	38,TYR	38,TYR	38,TYR	38,TYR	38,TYR	38,TYR	38,TYR	38,TYR	38,TYR	38,TYR	38,TYR	38,TYR
39,LYS	39,LYS	39,LYS	39,LYS	39,LYS	39,LYS	39,LYS	39,LYS	39,LYS	39,LYS	39,LYS	39,LYS	39,LYS
40,PHE	40,PHE	40,PHE	40,PHE	40,PHE	40,PHE	40,PHE	40,PHE	40,PHE	40,PHE	40,PHE	40,PHE	40,PHE
41,ASP	41,ASP	41,ASP	41,ASP	41,ASP	41,ASP	41,ASP	41,ASP	41,ASP	41,ASP	41,ASP	41,ASP	41,ASP
42,ILE	42,ILE	42,ILE	42,ILE	42,ILE	42,ILE	42,ILE	42,ILE	42,ILE	42,ILE	42,ILE	42,ILE	42,ILE
43,GLN	43,GLN	43,GLN	43,GLN	43,GLN	43,GLN	43,GLN	43,GLN	43,GLN	43,GLN	43,GLN	43,GLN	43,GLN
44,ALA	44,ALA	44,ALA	44,ALA	44,ALA	44,ALA	44,ALA	44,ALA	44,ALA	44,ALA	44,ALA	44,ALA	44,ALA
45,LYS	45,LYS	45,LYS	45,LYS	45,LYS	45,LYS	45,LYS	45,LYS	45,LYS	45,LYS	45,LYS	45,LYS	45,LYS
46,ASN	46,ASN	46,ASN	46,ASN	46,ASN	46,ASN	46,ASN	46,ASN	46,ASN	46,ASN	46,ASN	46,ASN	46,ASN
47,VAL	47,VAL	47,VAL	47,VAL	47,VAL	47,VAL	47,VAL	47,VAL	47,VAL	47,VAL	47,VAL	47,VAL	47,VAL
48,ASP	48,ASP	48,ASP	48,ASP	48,ASP	48,ASP	48,ASP	48,ASP	48,ASP	48,ASP	48,ASP	48,ASP	48,ASP
49,LEU	49,LEU	49,LEU	49,LEU	49,LEU	49,LEU	49,LEU	49,LEU	49,LEU	49,LEU	49,LEU	49,LEU	49,LEU
50,LEU	50,LEU	50,LEU	50,LEU	50,LEU	50,LEU	50,LEU	50,LEU	50,LEU	50,LEU	50,LEU	50,LEU	50,LEU
51,GLN	51,GLN	51,GLN	51,GLN	51,GLN	51,GLN	54,ARG	51,GLN	51,GLN	51,GLN	51,GLN	51,GLN	51,GLN
52,SER	52,SER	52,SER	52,SER	52,SER	52,SER	51,GLN	52,SER	52,SER	52,SER	52,SER	52,SER	55,TYR
53,LEU	53,LEU	53,LEU	53,LEU	53,LEU	53,LEU	52,SER	53,LEU	53,LEU	53,LEU	53,LEU	53,LEU	52,SER
54,ARG	54,ARG	54,ARG	54,ARG	54,ARG	54,ARG	53,LEU	54,ARG	54,ARG	54,ARG	54,ARG	54,ARG	53,LEU
55,TYR	55,TYR	55,TYR	55,TYR	55,TYR	55,TYR	55,TYR	55,TYR	55,TYR	55,TYR	55,TYR	55,TYR	54,ARG
56,LYS	56,LYS	56,LYS	56,LYS	56,LYS	56,LYS	56,LYS	56,LYS	56,LYS	56,LYS	56,LYS	56,LYS	56,LYS
57,HIS	57,HIS	57,HIS	57,HIS	57,HIS	57,HIS	57,HIS	57,HIS	57,HIS	57,HIS	57,HIS	57,HIS	57,HIS
58,PRO	58,PRO	58,PRO	58,PRO	58,PRO	58,PRO	58,PRO	58,PRO	58,PRO	58,PRO	58,PRO	58,PRO	58,PRO
59,LEU	59,LEU	59,LEU	59,LEU	59,LEU	59,LEU	59,LEU	59,LEU	59,LEU	59,LEU	59,LEU	59,LEU	59,LEU
60,LEU	60,LEU	60,LEU	60,LEU	60,LEU	60,LEU	60,LEU	60,LEU	60,LEU	60,LEU	60,LEU	60,LEU	60,LEU
61,CYS	61,CYS	61,CYS	61,CYS	61,CYS	61,CYS	61,CYS	61,CYS	61,CYS	61,CYS	61,CYS	61,CYS	61,CYS
62,CYS	62,CYS	62,CYS	62,CYS	62,CYS	62,CYS	62,CYS	62,CYS	62,CYS	62,CYS	62,CYS	62,CYS	62,CYS
63,ASN	63,ASN	63,ASN	63,ASN	63,ASN	63,ASN	63,ASN	63,ASN	63,ASN	63,ASN	63,ASN	63,ASN	63,ASN
64,PHE	64,PHE	64,PHE	64,PHE	64,PHE	64,PHE	64,PHE	64,PHE	64,PHE	64,PHE	64,PHE	64,PHE	64,PHE
65,ILE	65,ILE	65,ILE	65,ILE	65,ILE	65,ILE	65,ILE	65,ILE	65,ILE	65,ILE	65,ILE	65,ILE	65,ILE
66,ASP	66,ASP	66,ASP	66,ASP	66,ASP	66,ASP	66,ASP	66,ASP	66,ASP	66,ASP	66,ASP	66,ASP	66,ASP
67,ASN	67,ASN	67,ASN	67,ASN	67,ASN	67,ASN	67,ASN	67,ASN	67,ASN	67,ASN	67,ASN	67,ASN	67,ASN
68,THR	71,GLN	68,THR	68,THR	68,THR	68,THR	68,THR	68,THR	68,THR	68,THR	68,THR	68,THR	68,THR
69,ASP	68,THR	69,ASP	69,ASP	69,ASP	69,ASP	69,ASP	69,ASP	69,ASP	69,ASP	69,ASP	69,ASP	69,ASP
70,LEU	69,ASP	70,LEU	70,LEU	70,LEU	70,LEU	70,LEU	70,LEU	70,LEU	70,LEU	70,LEU	70,LEU	70,LEU
71,GLN	70,LEU	71,GLN	71,GLN	71,GLN	71,GLN	71,GLN	71,GLN	71,GLN	71,GLN	71,GLN	71,GLN	71,GLN
72,ILE	72,ILE	72,ILE	72,ILE	72,ILE	72,ILE	72,ILE	72,ILE	72,ILE	72,ILE	72,ILE	72,ILE	72,ILE
73,TYR	73,TYR	73,TYR	73,TYR	73,TYR	73,TYR	73,TYR	73,TYR	73,TYR	73,TYR	73,TYR	73,TYR	73,TYR
74,VAL	74,VAL	74,VAL	74,VAL	74,VAL	74,VAL	74,VAL	74,VAL	74,VAL	74,VAL	74,VAL	74,VAL	74,VAL
75,GLY	75,GLY	75,GLY	75,GLY	75,GLY	75,GLY	75,GLY	75,GLY	75,GLY	75,GLY	75,GLY	75,GLY	75,GLY
76,THR	76,THR	76,THR	76,THR	76,THR	76,THR	76,THR	76,THR	76,THR	76,THR	76,THR	76,THR	76,THR
77,VAL	77,VAL	77,VAL	77,VAL	77,VAL	77,VAL	77,VAL	77,VAL	77,VAL	77,VAL	77,VAL	77,VAL	77,VAL
78,GLN	78,GLN	78,GLN	78,GLN	78,GLN	78,GLN	78,GLN	78,GLN	78,GLN	78,GLN	78,GLN	78,GLN	78,GLN
79,GLY	79,GLY	79,GLY	79,GLY	79,GLY	79,GLY	79,GLY	79,GLY	79,GLY	79,GLY	79,GLY	79,GLY	79,GLY
80,GLU	80,GLU	80,GLU	80,GLU	80,GLU	80,GLU	80,GLU	80,GLU	80,GLU	80,GLU	80,GLU	80,GLU	80,GLU
81,ILE	81,ILE	81,ILE	81,ILE	81,ILE	81,ILE	81,ILE	81,ILE	81,ILE	81,ILE	81,ILE	81,ILE	81,ILE
82,LEU	82,LEU	82,LEU	82,LEU	82,LEU	82,LEU	82,LEU	82,LEU	82,LEU	82,LEU	82,LEU	82,LEU	82,LEU
83,LYS	83,LYS	83,LYS	83,LYS	86,LEU	83,LYS	83,LYS	83,LYS	83,LYS	83,LYS	83,LYS	83,LYS	83,LYS
84,VAL	84,VAL	84,VAL	84,VAL	83,LYS	84,VAL	84,VAL	84,VAL	84,VAL	84,VAL	84,VAL	84,VAL	84,VAL
85,ASP	85,ASP	85,ASP	85,ASP	84,VAL	85,ASP	85,ASP	85,ASP	85,ASP	85,ASP	85,ASP	85,ASP	85,ASP
86,LEU	86,LEU	86,LEU	86,LEU	85,ASP	89,SER	86,LEU	86,LEU	86,LEU	86,LEU	86,LEU	86,LEU	86,LEU
87,ILE	87,ILE	87,ILE	87,ILE	87,ILE	86,LEU	87,ILE	87,ILE	87,ILE	87,ILE	87,ILE	87,ILE	87,ILE
88,GLY	88,GLY	88,GLY	88,GLY	88,GLY	87,ILE	88,GLY	88,GLY	88,GLY	88,GLY	88,GLY	88,GLY	88,GLY
89,SER	89,SER	89,SER	89,SER	89,SER	88,GLY	89,SER	89,SER	89,SER	89,SER	89,SER	89,SER	89,SER
90,PRO	90,PRO	90,PRO	90,PRO	90,PRO	90,PRO	90,PRO	90,PRO	90,PRO	90,PRO	90,PRO	90,PRO	90,PRO
91,SER	91,SER	91,SER	91,SER	91,SER	91,SER	91,SER	91,SER	91,SER	91,SER	91,SER	91,SER	91,SER
92,PHE	92,PHE	92,PHE	92,PHE	92,PHE	92,PHE	92,PHE	92,PHE	92,PHE	92,PHE	92,PHE	92,PHE	92,PHE
93,GLN	93,GLN	93,GLN	93,GLN	93,GLN	93,GLN	93,GLN	93,GLN	93,GLN	93,GLN	93,GLN	93,GLN	93,GLN
94,ALA	94,ALA	94,ALA	94,ALA	94,ALA	94,ALA	94,ALA	94,ALA	94,ALA	94,ALA	94,ALA	94,ALA	94,ALA
95,LEU	95,LEU	95,LEU	95,LEU	95,LEU	95,LEU	95,LEU	95,LEU	95,LEU	95,LEU	95,LEU	95,LEU	95,LEU
96,THR	96,THR	96,THR	96,THR	96,THR	96,THR	96,THR	96,THR	96,THR	96,THR	96,THR	96,THR	96,THR
97,ASN	97,ASN	97,ASN	97,ASN	97,ASN	97,ASN	97,ASN	97,ASN	97,ASN	97,ASN	97,ASN	97,ASN	97,ASN
98,ASN	98,ASN	98,ASN	98,ASN	98,ASN	98,ASN	98,ASN	98,ASN	98,ASN	98,ASN	98,ASN	98,ASN	98,ASN
99,GLU	99,GLU	99,GLU	99,GLU	99,GLU	99,GLU	99,GLU	99,GLU	99,GLU	99,GLU	99,GLU	99,GLU	99,GLU
100,ALA	100,ALA	100,ALA	100,ALA	100,ALA	100,ALA	100,ALA	100,ALA	100,ALA	100,ALA	100,ALA	100,ALA	100,ALA
101,ASN	101,ASN	101,ASN	101,ASN	101,ASN	101,ASN	101,ASN	101,ASN	101,ASN	101,ASN	101,ASN	101,ASN	101,ASN
102,LEU	102,LEU	102,LEU	102,LEU	102,LEU	102,LEU	102,LEU	102,LEU	102,LEU	102,LEU	102,LEU	102,LEU	102,LEU
103,GLY	103,GLY	103,GLY	103,GLY	103,GLY	103,GLY	103,GLY	103,GLY	103,GLY	103,GLY	103,GLY	103,GLY	103,GLY
104,ILE	104,ILE	104,ILE	104,ILE	104,ILE	104,ILE	104,ILE	104,ILE	104,ILE	104,ILE	104,ILE	104,ILE	104,ILE
105,CYS	105,CYS	105,CYS	105,CYS	105,CYS	105,CYS	105,CYS	105,CYS	105,CYS	105,CYS	105,CYS	105,CYS	105,CYS
106,ARG	106,ARG	106,ARG	106,ARG	106,ARG	106,ARG	106,ARG	106,ARG	106,ARG	106,ARG	106,ARG	106,ARG	106,ARG
107,ILE	107,ILE	107,ILE	107,ILE	107,ILE	107,ILE	107,ILE	107,ILE	107,ILE	107,ILE	107,ILE	107,ILE	107,ILE
108,CYS	108,CYS	108,CYS	108,CYS	108,CYS	108,CYS	108,CYS	108,CYS	108,CYS	108,CYS	108,CYS	108,CYS	108,CYS
109,LYS	109,LYS	109,LYS	109,LYS	109,LYS	109,LYS	109,LYS	109,LYS	109,LYS	109,LYS	109,LYS	109,LYS	109,LYS
110,TYR	110,TYR	110,TYR	110,TYR	110,TYR	110,TYR	110,TYR	110,TYR	110,TYR	110,TYR	110,TYR	110,TYR	110,TYR
111,GLY	111,GLY	111,GLY	111,GLY	111,GLY	111,GLY	111,GLY	111,GLY	111,GLY	111,GLY	111,GLY	111,GLY	111,GLY
112,ASP	112,ASP	112,ASP	112,ASP	112,ASP	112,ASP	112,ASP	112,ASP	112,ASP	112,ASP	112,ASP	112,ASP	112,ASP
113,ASP	113,ASP	113,ASP	113,ASP	113,ASP	113,ASP	113,ASP	113,ASP	113,ASP	113,ASP	113,ASP	113,ASP	113,ASP
114,LYS	114,LYS	114,LYS	114,LYS	114,LYS	114,LYS	114,LYS	114,LYS	114,LYS	114,LYS	114,LYS	114,LYS	114,LYS
115,LEU	115,LEU	115,LEU	115,LEU	115,LEU	115,LEU	115,LEU	115,LEU	115,LEU	115,LEU	115,LEU	115,LEU	115,LEU
116,ILE	116,ILE	116,ILE	116,ILE	116,ILE	116,ILE	116,ILE	116,ILE	116,ILE	116,ILE	116,ILE	116,ILE	116,ILE
117,ALA	117,ALA	117,ALA	117,ALA	117,ALA	117,ALA	117,ALA	117,ALA	117,ALA	117,ALA	117,ALA	120,TRP	117,ALA
118,ALA	118,ALA	118,ALA	118,ALA	118,ALA	118,ALA	118,ALA	118,ALA	118,ALA	118,ALA	118,ALA	117,ALA	118,ALA
119,SER	119,SER	119,SER	119,SER	119,SER	119,SER	119,SER	119,SER	119,SER	119,SER	119,SER	118,ALA	119,SER
120,TRP	120,TRP	120,TRP	120,TRP	120,TRP	120,TRP	120,TRP	120,TRP	120,TRP	120,TRP	120,TRP	119,SER	120,TRP
121,ASP	121,ASP	121,ASP	121,ASP	121,ASP	121,ASP	121,ASP	121,ASP	121,ASP	121,ASP	121,ASP	121,ASP	121,ASP
122,GLY	122,GLY	122,GLY	122,GLY	122,GLY	122,GLY	122,GLY	122,GLY	122,GLY	122,GLY	122,GLY	122,GLY	122,GLY
123,LEU	123,LEU	123,LEU	123,LEU	123,LEU	123,LEU	123,LEU	123,LEU	123,LEU	123,LEU	123,LEU	123,LEU	123,LEU
124,ILE	124,ILE	124,ILE	124,ILE	124,ILE	124,ILE	124,ILE	124,ILE	124,ILE	124,ILE	124,ILE	124,ILE	124,ILE
125,GLU	125,GLU	125,GLU	125,GLU	125,GLU	125,GLU	125,GLU	125,GLU	125,GLU	125,GLU	125,GLU	125,GLU	125,GLU
126,VAL	126,VAL	126,VAL	126,VAL	126,VAL	126,VAL	126,VAL	126,VAL	126,VAL	126,VAL	126,VAL	126,VAL	126,VAL
127,ILE	127,ILE	127,ILE	127,ILE	127,ILE	127,ILE	127,ILE	127,ILE	127,ILE	127,ILE	127,ILE	127,ILE	127,ILE
128,ASP	128,ASP	128,ASP	128,ASP	128,ASP	128,ASP	128,ASP	128,ASP	128,ASP	128,ASP	128,ASP	128,ASP	128,ASP
129,PRO	129,PRO	129,PRO	129,PRO	129,PRO	129,PRO	129,PRO	129,PRO	129,PRO	129,PRO	129,PRO	129,PRO	129,PRO
130,ARG	130,ARG	130,ARG	130,ARG	130,ARG	130,ARG	130,ARG	130,ARG	130,ARG	130,ARG	130,ARG	130,ARG	130,ARG
131,ASN	131,ASN	131,ASN	131,ASN	131,ASN	131,ASN	131,ASN	131,ASN	131,ASN	131,ASN	131,ASN	131,ASN	131,ASN
132,TYR	132,TYR	132,TYR	132,TYR	132,TYR	132,TYR	132,TYR	132,TYR	132,TYR	132,TYR	132,TYR	132,TYR	132,TYR
133,GLY	133,GLY	133,GLY	133,GLY	133,GLY	133,GLY	133,GLY	133,GLY	133,GLY	133,GLY	133,GLY	133,GLY	133,GLY
134,ASP	134,ASP	134,ASP	134,ASP	134,ASP	134,ASP	134,ASP	134,ASP	134,ASP	134,ASP	134,ASP	134,ASP	134,ASP
135,GLY	135,GLY	135,GLY	135,GLY	135,GLY	135,GLY	135,GLY	135,GLY	135,GLY	135,GLY	135,GLY	135,GLY	135,GLY
136,VAL	136,VAL	136,VAL	136,VAL	136,VAL	136,VAL	136,VAL	136,VAL	136,VAL	136,VAL	136,VAL	136,VAL	136,VAL
137,ILE	137,ILE	137,ILE	137,ILE	137,ILE	137,ILE	137,ILE	137,ILE	137,ILE	137,ILE	137,ILE	137,ILE	137,ILE
138,ALA	138,ALA	138,ALA	138,ALA	138,ALA	138,ALA	138,ALA	138,ALA	138,ALA	138,ALA	138,ALA	138,ALA	138,ALA
139,VAL	139,VAL	139,VAL	139,VAL	139,VAL	139,VAL	139,VAL	139,VAL	139,VAL	139,VAL	139,VAL	139,VAL	139,VAL
140,LYS	140,LYS	140,LYS	140,LYS	140,LYS	140,LYS	140,LYS	140,LYS	140,LYS	140,LYS	140,LYS	140,LYS	140,LYS
141,ASN	141,ASN	141,ASN	141,ASN	141,ASN	141,ASN	141,ASN	141,ASN	141,ASN	141,ASN	141,ASN	141,ASN	141,ASN
142,LEU	142,LEU	142,LEU	142,LEU	142,LEU	142,LEU	142,LEU	142,LEU	142,LEU	142,LEU	142,LEU	142,LEU	142,LEU
143,ASN	143,ASN	143,ASN	143,ASN	143,ASN	143,ASN	143,ASN	143,ASN	143,ASN	143,ASN	143,ASN	143,ASN	143,ASN
144,SER	144,SER	144,SER	144,SER	144,SER	144,SER	144,SER	144,SER	144,SER	144,SER	144,SER	144,SER	144,SER
145,ASN	145,ASN	145,ASN	145,ASN	145,ASN	145,ASN	145,ASN	145,ASN	145,ASN	145,ASN	145,ASN	145,ASN	145,ASN
146,ASN	146,ASN	146,ASN	146,ASN	146,ASN	146,ASN	146,ASN	146,ASN	146,ASN	146,ASN	146,ASN	146,ASN	146,ASN
147,THR	147,THR	147,THR	147,THR	147,THR	147,THR	147,THR	147,THR	147,THR	147,THR	147,THR	147,THR	147,THR
148,LYS	148,LYS	148,LYS	148,LYS	148,LYS	148,LYS	148,LYS	148,LYS	148,LYS	148,LYS	148,LYS	148,LYS	148,LYS
149,VAL	149,VAL	149,VAL	149,VAL	149,VAL	149,VAL	149,VAL	149,VAL	149,VAL	149,VAL	149,VAL	149,VAL	149,VAL
150,LYS	150,LYS	150,LYS	150,LYS	150,LYS	150,LYS	150,LYS	150,LYS	150,LYS	150,LYS	150,LYS	150,LYS	150,LYS
151,ASN	151,ASN	151,ASN	151,ASN	151,ASN	151,ASN	151,ASN	151,ASN	151,ASN	151,ASN	151,ASN	151,ASN	151,ASN
152,LYS	152,LYS	152,LYS	152,LYS	152,LYS	152,LYS	152,LYS	152,LYS	152,LYS	152,LYS	152,LYS	152,LYS	152,LYS
153,ILE	153,ILE	153,ILE	153,ILE	153,ILE	153,ILE	153,ILE	153,ILE	153,ILE	153,ILE	153,ILE	153,ILE	153,ILE
154,PHE	154,PHE	154,PHE	154,PHE	154,PHE	154,PHE	154,PHE	154,PHE	154,PHE	154,PHE	154,PHE	154,PHE	154,PHE
155,THR	155,THR	155,THR	155,THR	155,THR	155,THR	155,THR	155,THR	155,THR	155,THR	155,THR	155,THR	155,THR
156,MET	156,MET	156,MET	156,MET	156,MET	156,MET	156,MET	156,MET	156,MET	156,MET	156,MET	156,MSE	156,MSE
157,ASP	157,ASP	157,ASP	157,ASP	157,ASP	157,ASP	157,ASP	157,ASP	157,ASP	157,ASP	157,ASP	157,ASP	157,ASP
158,THR	158,THR	158,THR	158,THR	158,THR	158,THR	158,THR	158,THR	158,THR	158,THR	158,THR	158,THR	158,THR
159,ASN	159,ASN	159,ASN	159,ASN	159,ASN	159,ASN	159,ASN	159,ASN	159,ASN	159,ASN	159,ASN	159,ASN	159,ASN
160,SER	160,SER	160,SER	160,SER	160,SER	160,SER	160,SER	160,SER	160,SER	160,SER	160,SER	160,SER	160,SER
161,SER	161,SER	161,SER	161,SER	161,SER	161,SER	161,SER	161,SER	161,SER	161,SER	161,SER	161,SER	164,ILE
162,ARG	162,ARG	162,ARG	162,ARG	162,ARG	162,ARG	162,ARG	162,ARG	162,ARG	162,ARG	162,ARG	162,ARG	161,SER
163,LEU	163,LEU	163,LEU	163,LEU	163,LEU	163,LEU	163,LEU	163,LEU	163,LEU	163,LEU	163,LEU	163,LEU	162,ARG
164,ILE	164,ILE	164,ILE	164,ILE	164,ILE	164,ILE	164,ILE	164,ILE	164,ILE	164,ILE	164,ILE	164,ILE	163,LEU
165,VAL	165,VAL	165,VAL	165,VAL	165,VAL	165,VAL	165,VAL	165,VAL	165,VAL	165,VAL	165,VAL	165,VAL	165,VAL
166,GLY	166,GLY	166,GLY	166,GLY	166,GLY	166,GLY	166,GLY	166,GLY	166,GLY	166,GLY	166,GLY	166,GLY	166,GLY
167,MET	167,MET	167,MET	167,MET	167,MET	167,MET	167,MET	167,MET	167,MET	167,MET	167,MET	167,MSE	167,MSE
168,ASN	168,ASN	168,ASN	168,ASN	168,ASN	168,ASN	168,ASN	168,ASN	168,ASN	168,ASN	168,ASN	168,ASN	168,ASN
169,ASN	169,ASN	169,ASN	169,ASN	169,ASN	169,ASN	169,ASN	169,ASN	169,ASN	169,ASN	169,ASN	169,ASN	169,ASN
170,SER	170,SER	170,SER	170,SER	170,SER	170,SER	170,SER	170,SER	170,SER	170,SER	170,SER	170,SER	170,SER
171,GLN	171,GLN	171,GLN	171,GLN	171,GLN	171,GLN	171,GLN	171,GLN	171,GLN	171,GLN	171,GLN	171,GLN	171,GLN
172,VAL	172,VAL	172,VAL	172,VAL	172,VAL	172,VAL	172,VAL	172,VAL	172,VAL	172,VAL	172,VAL	172,VAL	172,VAL
173,GLN	173,GLN	173,GLN	173,GLN	173,GLN	173,GLN	173,GLN	173,GLN	173,GLN	173,GLN	173,GLN	173,GLN	173,GLN
174,TRP	174,TRP	174,TRP	174,TRP	174,TRP	174,TRP	174,TRP	174,TRP	174,TRP	174,TRP	174,TRP	174,TRP	174,TRP
175,PHE	175,PHE	175,PHE	175,PHE	175,PHE	175,PHE	175,PHE	175,PHE	175,PHE	175,PHE	175,PHE	175,PHE	175,PHE
176,ARG	176,ARG	176,ARG	176,ARG	176,ARG	176,ARG	176,ARG	176,ARG	176,ARG	176,ARG	176,ARG	176,ARG	176,ARG
177,LEU	177,LEU	177,LEU	177,LEU	177,LEU	177,LEU	177,LEU	177,LEU	177,LEU	177,LEU	177,LEU	177,LEU	177,LEU
178,PRO	178,PRO	178,PRO	178,PRO	178,PRO	178,PRO	178,PRO	178,PRO	178,PRO	178,PRO	178,PRO	178,PRO	178,PRO
179,LEU	179,LEU	179,LEU	179,LEU	179,LEU	179,LEU	179,LEU	179,LEU	179,LEU	179,LEU	179,LEU	182,ASP	179,LEU
180,CYS	180,CYS	180,CYS	180,CYS	180,CYS	180,CYS	180,CYS	180,CYS	180,CYS	180,CYS	180,CYS	179,LEU	180,CYS
181,GLU	181,GLU	181,GLU	181,GLU	181,GLU	181,GLU	181,GLU	181,GLU	181,GLU	181,GLU	181,GLU	180,CYS	181,GLU
182,ASP	182,ASP	182,ASP	182,ASP	182,ASP	182,ASP	182,ASP	182,ASP	182,ASP	182,ASP	182,ASP	181,GLU	182,ASP
183,ASP	183,ASP	183,ASP	183,ASP	183,ASP	183,ASP	183,ASP	183,ASP	183,ASP	183,ASP	183,ASP	186,THR	183,ASP
184,ASN	184,ASN	184,ASN	184,ASN	184,ASN	184,ASN	184,ASN	184,ASN	184,ASN	184,ASN	184,ASN	183,ASP	184,ASN
185,GLY	185,GLY	185,GLY	185,GLY	185,GLY	185,GLY	185,GLY	185,GLY	185,GLY	185,GLY	185,GLY	184,ASN	185,GLY
186,THR	186,THR	186,THR	186,THR	186,THR	186,THR	186,THR	186,THR	186,THR	186,THR	186,THR	185,GLY	186,THR
187,ILE	187,ILE	187,ILE	187,ILE	187,ILE	187,ILE	187,ILE	187,ILE	187,ILE	187,ILE	187,ILE	187,ILE	187,ILE
188,GLU	188,GLU	188,GLU	188,GLU	188,GLU	188,GLU	188,GLU	188,GLU	188,GLU	188,GLU	188,GLU	188,GLU	188,GLU
189,GLU	189,GLU	189,GLU	189,GLU	189,GLU	189,GLU	189,GLU	189,GLU	189,GLU	189,GLU	189,GLU	189,GLU	189,GLU
190,SER	190,SER	190,SER	190,SER	190,SER	190,SER	190,SER	190,SER	190,SER	190,SER	190,SER	190,SER	190,SER
191,GLY	191,GLY	191,GLY	191,GLY	191,GLY	191,GLY	191,GLY	191,GLY	191,GLY	191,GLY	191,GLY	191,GLY	191,GLY
192,LEU	192,LEU	192,LEU	192,LEU	192,LEU	192,LEU	192,LEU	192,LEU	192,LEU	192,LEU	192,LEU	192,LEU	192,LEU
193,LYS	193,LYS	193,LYS	193,LYS	193,LYS	193,LYS	193,LYS	193,LYS	193,LYS	193,LYS	193,LYS	193,LYS	193,LYS
194,TYR	194,TYR	194,TYR	194,TYR	194,TYR	194,TYR	194,TYR	194,TYR	194,TYR	194,TYR	194,TYR	194,TYR	194,TYR
195,GLN	195,GLN	195,GLN	195,GLN	195,GLN	195,GLN	195,GLN	195,GLN	195,GLN	195,GLN	195,GLN	195,GLN	195,GLN
196,ILE	196,ILE	196,ILE	196,ILE	196,ILE	196,ILE	196,ILE	196,ILE	196,ILE	196,ILE	196,ILE	196,ILE	196,ILE
197,ARG	197,ARG	197,ARG	197,ARG	197,ARG	197,ARG	197,ARG	197,ARG	197,ARG	197,ARG	197,ARG	197,ARG	197,ARG
198,ASP	198,ASP	198,ASP	198,ASP	198,ASP	198,ASP	198,ASP	198,ASP	198,ASP	198,ASP	198,ASP	198,ASP	198,ASP
199,VAL	199,VAL	199,VAL	199,VAL	199,VAL	199,VAL	199,VAL	199,VAL	199,VAL	199,VAL	199,VAL	199,VAL	199,VAL
200,ALA	200,ALA	200,ALA	200,ALA	200,ALA	200,ALA	200,ALA	200,ALA	200,ALA	200,ALA	200,ALA	200,ALA	200,ALA
201,LEU	204,LYS	201,LEU	201,LEU	201,LEU	201,LEU	201,LEU	201,LEU	201,LEU	201,LEU	201,LEU	201,LEU	201,LEU
202,LEU	201,LEU	202,LEU	202,LEU	202,LEU	202,LEU	202,LEU	202,LEU	202,LEU	202,LEU	202,LEU	202,LEU	202,LEU
203,PRO	202,LEU	203,PRO	203,PRO	203,PRO	203,PRO	203,PRO	203,PRO	203,PRO	203,PRO	203,PRO	203,PRO	203,PRO
204,LYS	203,PRO	204,LYS	204,LYS	204,LYS	204,LYS	204,LYS	204,LYS	204,LYS	204,LYS	204,LYS	204,LYS	204,LYS
205,GLU	205,GLU	205,GLU	205,GLU	205,GLU	205,GLU	205,GLU	205,GLU	205,GLU	205,GLU	205,GLU	205,GLU	205,GLU
206,GLN	206,GLN	206,GLN	206,GLN	206,GLN	206,GLN	206,GLN	206,GLN	206,GLN	206,GLN	206,GLN	206,GLN	206,GLN
207,GLU	207,GLU	207,GLU	207,GLU	207,GLU	207,GLU	207,GLU	207,GLU	207,GLU	207,GLU	207,GLU	207,GLU	207,GLU
208,GLY	208,GLY	208,GLY	208,GLY	208,GLY	208,GLY	208,GLY	208,GLY	208,GLY	208,GLY	208,GLY	208,GLY	208,GLY
209,TYR	209,TYR	209,TYR	209,TYR	209,TYR	209,TYR	209,TYR	209,TYR	209,TYR	209,TYR	209,TYR	209,TYR	209,TYR
210,ALA	210,ALA	210,ALA	210,ALA	210,ALA	210,ALA	210,ALA	210,ALA	210,ALA	210,ALA	210,ALA	210,ALA	210,ALA
211,CYS	211,CYS	211,CYS	211,CYS	211,CYS	214,ILE	211,CYS	211,CYS	211,CYS	211,CYS	211,CYS	211,CYS	211,CYS
212,SER	212,SER	212,SER	212,SER	212,SER	211,CYS	212,SER	212,SER	212,SER	212,SER	212,SER	212,SER	212,SER
213,SER	213,SER	213,SER	213,SER	213,SER	212,SER	213,SER	213,SER	213,SER	213,SER	213,SER	213,SER	213,SER
214,ILE	214,ILE	214,ILE	214,ILE	214,ILE	213,SER	214,ILE	214,ILE	214,ILE	214,ILE	214,ILE	214,ILE	214,ILE
215,ASP	215,ASP	215,ASP	215,ASP	215,ASP	215,ASP	215,ASP	215,ASP	215,ASP	215,ASP	215,ASP	215,ASP	215,ASP
216,GLY	216,GLY	216,GLY	216,GLY	219,ALA	216,GLY	216,GLY	216,GLY	216,GLY	216,GLY	216,GLY	216,GLY	216,GLY
217,ARG	217,ARG	217,ARG	217,ARG	216,GLY	217,ARG	217,ARG	217,ARG	217,ARG	217,ARG	217,ARG	217,ARG	217,ARG
218,VAL	218,VAL	218,VAL	218,VAL	217,ARG	218,VAL	218,VAL	218,VAL	218,VAL	218,VAL	218,VAL	218,VAL	218,VAL
219,ALA	219,ALA	219,ALA	219,ALA	218,VAL	219,ALA	219,ALA	219,ALA	219,ALA	219,ALA	219,ALA	219,ALA	219,ALA
220,VAL	220,VAL	220,VAL	220,VAL	223,PHE	220,VAL	220,VAL	220,VAL	220,VAL	220,VAL	220,VAL	220,VAL	220,VAL
221,GLU	221,GLU	221,GLU	221,GLU	220,VAL	221,GLU	221,GLU	221,GLU	221,GLU	221,GLU	221,GLU	221,GLU	221,GLU
222,PHE	222,PHE	222,PHE	222,PHE	221,GLU	222,PHE	222,PHE	222,PHE	222,PHE	222,PHE	222,PHE	222,PHE	222,PHE
223,PHE	223,PHE	223,PHE	223,PHE	222,PHE	223,PHE	223,PHE	223,PHE	223,PHE	223,PHE	223,PHE	223,PHE	223,PHE
224,ASP	224,ASP	224,ASP	224,ASP	224,ASP	224,ASP	224,ASP	224,ASP	224,ASP	224,ASP	224,ASP	224,ASP	224,ASP
225,ASP	225,ASP	225,ASP	225,ASP	225,ASP	225,ASP	225,ASP	225,ASP	225,ASP	225,ASP	225,ASP	225,ASP	225,ASP
226,GLN	226,GLN	226,GLN	226,GLN	226,GLN	226,GLN	226,GLN	226,GLN	226,GLN	226,GLN	226,GLN	226,GLN	226,GLN
227,GLY	227,GLY	227,GLY	227,GLY	227,GLY	227,GLY	227,GLY	227,GLY	227,GLY	227,GLY	227,GLY	227,GLY	227,GLY
228,ASP	228,ASP	228,ASP	228,ASP	228,ASP	228,ASP	228,ASP	228,ASP	228,ASP	228,ASP	228,ASP	228,ASP	228,ASP
229,ASP	229,ASP	229,ASP	229,ASP	229,ASP	229,ASP	229,ASP	229,ASP	229,ASP	229,ASP	229,ASP	229,ASP	229,ASP
230,TYR	230,TYR	230,TYR	230,TYR	230,TYR	230,TYR	230,TYR	230,TYR	230,TYR	230,TYR	230,TYR	230,TYR	230,TYR
231,ASN	231,ASN	231,ASN	231,ASN	231,ASN	231,ASN	234,LYS	231,ASN	231,ASN	231,ASN	231,ASN	231,ASN	231,ASN
232,SER	232,SER	232,SER	232,SER	232,SER	232,SER	231,ASN	232,SER	232,SER	232,SER	232,SER	232,SER	232,SER
233,SER	233,SER	233,SER	233,SER	233,SER	233,SER	232,SER	233,SER	233,SER	233,SER	233,SER	233,SER	233,SER
234,LYS	234,LYS	234,LYS	234,LYS	234,LYS	234,LYS	233,SER	234,LYS	234,LYS	234,LYS	234,LYS	234,LYS	234,LYS
235,ARG	235,ARG	235,ARG	235,ARG	235,ARG	235,ARG	235,ARG	235,ARG	235,ARG	235,ARG	235,ARG	235,ARG	235,ARG
236,PHE	236,PHE	236,PHE	236,PHE	236,PHE	236,PHE	236,PHE	236,PHE	236,PHE	236,PHE	236,PHE	236,PHE	236,PHE
237,ALA	237,ALA	237,ALA	237,ALA	237,ALA	237,ALA	237,ALA	237,ALA	237,ALA	237,ALA	237,ALA	237,ALA	237,ALA
238,PHE	238,PHE	238,PHE	238,PHE	238,PHE	238,PHE	238,PHE	238,PHE	238,PHE	238,PHE	238,PHE	238,PHE	238,PHE
239,ARG	239,ARG	239,ARG	239,ARG	239,ARG	239,ARG	239,ARG	239,ARG	239,ARG	239,ARG	239,ARG	239,ARG	239,ARG
240,CYS	240,CYS	240,CYS	240,CYS	240,CYS	240,CYS	240,CYS	240,CYS	240,CYS	240,CYS	240,CYS	240,CYS	240,CYS
241,HIS	241,HIS	241,HIS	241,HIS	241,HIS	241,HIS	241,HIS	241,HIS	241,HIS	241,HIS	241,HIS	241,HIS	241,HIS
242,ARG	242,ARG	242,ARG	242,ARG	242,ARG	242,ARG	242,ARG	242,ARG	242,ARG	242,ARG	242,ARG	242,ARG	242,ARG
243,LEU	243,LEU	243,LEU	243,LEU	243,LEU	243,LEU	243,LEU	243,LEU	243,LEU	243,LEU	243,LEU	243,LEU	243,LEU
244,ASN	244,ASN	244,ASN	244,ASN	244,ASN	244,ASN	244,ASN	244,ASN	244,ASN	244,ASN	244,ASN	244,ASN	244,ASN
245,LEU	245,LEU	245,LEU	245,LEU	245,LEU	245,LEU	245,LEU	245,LEU	245,LEU	245,LEU	245,LEU	245,LEU	245,LEU
246,LYS	246,LYS	246,LYS	246,LYS	246,LYS	246,LYS	246,LYS	246,LYS	246,LYS	246,LYS	246,LYS	246,LYS	246,LYS
247,ASP	247,ASP	247,ASP	247,ASP	247,ASP	247,ASP	247,ASP	247,ASP	247,ASP	247,ASP	247,ASP	247,ASP	247,ASP
248,THR	248,THR	248,THR	248,THR	248,THR	248,THR	248,THR	248,THR	248,THR	248,THR	248,THR	248,THR	248,THR
249,ASN	249,ASN	249,ASN	249,ASN	249,ASN	249,ASN	249,ASN	249,ASN	249,ASN	249,ASN	249,ASN	249,ASN	249,ASN
250,LEU	250,LEU	250,LEU	250,LEU	250,LEU	250,LEU	250,LEU	250,LEU	250,LEU	250,LEU	250,LEU	250,LEU	250,LEU
251,ALA	251,ALA	251,ALA	251,ALA	251,ALA	251,ALA	251,ALA	251,ALA	251,ALA	251,ALA	251,ALA	251,ALA	251,ALA
252,TYR	252,TYR	252,TYR	252,TYR	252,TYR	252,TYR	252,TYR	252,TYR	252,TYR	252,TYR	252,TYR	252,TYR	252,TYR
253,PRO	253,PRO	253,PRO	253,PRO	253,PRO	253,PRO	253,PRO	253,PRO	253,PRO	253,PRO	253,PRO	253,PRO	253,PRO
254,VAL	254,VAL	254,VAL	254,VAL	254,VAL	254,VAL	254,VAL	254,VAL	254,VAL	254,VAL	254,VAL	254,VAL	254,VAL
255,ASN	255,ASN	255,ASN	255,ASN	255,ASN	255,ASN	255,ASN	255,ASN	255,ASN	255,ASN	255,ASN	255,ASN	255,ASN
256,SER	256,SER	256,SER	256,SER	256,SER	256,SER	256,SER	256,SER	256,SER	256,SER	256,SER	256,SER	256,SER
257,ILE	257,ILE	257,ILE	257,ILE	257,ILE	257,ILE	257,ILE	257,ILE	257,ILE	257,ILE	257,ILE	257,ILE	257,ILE
258,GLU	258,GLU	258,GLU	258,GLU	258,GLU	258,GLU	258,GLU	258,GLU	258,GLU	258,GLU	258,GLU	258,GLU	258,GLU
259,PHE	259,PHE	259,PHE	259,PHE	259,PHE	259,PHE	259,PHE	259,PHE	259,PHE	259,PHE	259,PHE	259,PHE	259,PHE
260,SER	260,SER	260,SER	260,SER	260,SER	260,SER	260,SER	260,SER	260,SER	260,SER	260,SER	260,SER	260,SER
261,PRO	261,PRO	261,PRO	261,PRO	261,PRO	261,PRO	261,PRO	261,PRO	261,PRO	261,PRO	261,PRO	261,PRO	261,PRO
262,ARG	262,ARG	262,ARG	262,ARG	262,ARG	262,ARG	262,ARG	262,ARG	262,ARG	262,ARG	262,ARG	262,ARG	262,ARG
263,HIS	263,HIS	263,HIS	263,HIS	263,HIS	263,HIS	263,HIS	263,HIS	263,HIS	263,HIS	263,HIS	263,HIS	263,HIS
264,LYS	264,LYS	264,LYS	264,LYS	264,LYS	264,LYS	264,LYS	264,LYS	264,LYS	264,LYS	264,LYS	264,LYS	264,LYS
265,PHE	265,PHE	265,PHE	265,PHE	265,PHE	265,PHE	265,PHE	265,PHE	265,PHE	265,PHE	265,PHE	265,PHE	265,PHE
266,LEU	266,LEU	266,LEU	266,LEU	266,LEU	266,LEU	266,LEU	266,LEU	266,LEU	266,LEU	266,LEU	266,LEU	266,LEU
267,TYR	267,TYR	267,TYR	267,TYR	267,TYR	267,TYR	267,TYR	267,TYR	267,TYR	267,TYR	267,TYR	267,TYR	267,TYR
268,THR	268,THR	268,THR	268,THR	268,THR	268,THR	268,THR	268,THR	268,THR	268,THR	268,THR	268,THR	268,THR
269,ALA	269,ALA	269,ALA	269,ALA	269,ALA	269,ALA	269,ALA	269,ALA	269,ALA	269,ALA	269,ALA	269,ALA	269,ALA
270,GLY	270,GLY	270,GLY	270,GLY	270,GLY	270,GLY	270,GLY	270,GLY	270,GLY	273,GLY	270,GLY	270,GLY	270,GLY
271,SER	271,SER	271,SER	271,SER	271,SER	271,SER	271,SER	271,SER	271,SER	270,GLY	271,SER	271,SER	271,SER
272,ASP	272,ASP	272,ASP	272,ASP	272,ASP	272,ASP	272,ASP	272,ASP	272,ASP	271,SER	272,ASP	272,ASP	272,ASP
273,GLY	273,GLY	273,GLY	273,GLY	273,GLY	273,GLY	273,GLY	273,GLY	273,GLY	272,ASP	273,GLY	273,GLY	273,GLY
274,ILE	274,ILE	274,ILE	274,ILE	274,ILE	274,ILE	274,ILE	274,ILE	274,ILE	274,ILE	274,ILE	274,ILE	274,ILE
275,ILE	275,ILE	275,ILE	275,ILE	275,ILE	275,ILE	275,ILE	275,ILE	275,ILE	275,ILE	275,ILE	275,ILE	275,ILE
276,SER	276,SER	276,SER	276,SER	276,SER	276,SER	276,SER	276,SER	276,SER	276,SER	276,SER	276,SER	276,SER
277,CYS	277,CYS	277,CYS	277,CYS	277,CYS	277,CYS	277,CYS	277,CYS	277,CYS	277,CYS	277,CYS	277,CYS	277,CYS
278,TRP	278,TRP	278,TRP	278,TRP	278,TRP	278,TRP	278,TRP	278,TRP	278,TRP	278,TRP	278,TRP	278,TRP	278,TRP
279,ASN	279,ASN	279,ASN	279,ASN	279,ASN	279,ASN	279,ASN	279,ASN	279,ASN	279,ASN	279,ASN	279,ASN	279,ASN
280,LEU	280,LEU	280,LEU	280,LEU	280,LEU	280,LEU	280,LEU	280,LEU	280,LEU	280,LEU	280,LEU	280,LEU	280,LEU
281,GLN	281,GLN	281,GLN	281,GLN	281,GLN	281,GLN	281,GLN	281,GLN	281,GLN	281,GLN	281,GLN	281,GLN	281,GLN
282,THR	282,THR	282,THR	282,THR	282,THR	282,THR	282,THR	282,THR	282,THR	282,THR	282,THR	282,THR	282,THR
283,ARG	283,ARG	283,ARG	283,ARG	283,ARG	283,ARG	283,ARG	283,ARG	283,ARG	283,ARG	283,ARG	283,ARG	283,ARG
284,LYS	284,LYS	284,LYS	284,LYS	284,LYS	284,LYS	284,LYS	284,LYS	284,LYS	284,LYS	284,LYS	284,LYS	284,LYS
285,LYS	285,LYS	285,LYS	285,LYS	285,LYS	285,LYS	285,LYS	285,LYS	285,LYS	285,LYS	285,LYS	285,LYS	285,LYS
286,ILE	286,ILE	286,ILE	286,ILE	286,ILE	286,ILE	286,ILE	286,ILE	286,ILE	286,ILE	286,ILE	286,ILE	286,ILE
287,LYS	287,LYS	287,LYS	287,LYS	287,LYS	287,LYS	287,LYS	287,LYS	287,LYS	287,LYS	287,LYS	287,LYS	287,LYS
288,ASN	288,ASN	288,ASN	288,ASN	288,ASN	288,ASN	288,ASN	288,ASN	288,ASN	288,ASN	288,ASN	288,ASN	288,ASN
289,PHE	289,PHE	289,PHE	289,PHE	289,PHE	289,PHE	289,PHE	289,PHE	289,PHE	289,PHE	289,PHE	289,PHE	289,PHE
290,ALA	290,ALA	290,ALA	290,ALA	290,ALA	290,ALA	290,ALA	290,ALA	290,ALA	290,ALA	290,ALA	290,ALA	290,ALA
291,LYS	291,LYS	291,LYS	291,LYS	291,LYS	291,LYS	291,LYS	291,LYS	291,LYS	291,LYS	291,LYS	291,LYS	291,LYS
292,PHE	292,PHE	292,PHE	292,PHE	292,PHE	292,PHE	292,PHE	292,PHE	292,PHE	292,PHE	292,PHE	292,PHE	292,PHE
293,ASN	293,ASN	293,ASN	293,ASN	293,ASN	293,ASN	293,ASN	293,ASN	293,ASN	293,ASN	293,ASN	293,ASN	293,ASN
294,GLU	294,GLU	294,GLU	294,GLU	294,GLU	294,GLU	294,GLU	294,GLU	294,GLU	294,GLU	294,GLU	294,GLU	294,GLU
295,ASP	295,ASP	295,ASP	295,ASP	295,ASP	295,ASP	295,ASP	295,ASP	295,ASP	295,ASP	295,ASP	295,ASP	295,ASP
296,SER	296,SER	296,SER	296,SER	296,SER	296,SER	296,SER	296,SER	296,SER	296,SER	296,SER	296,SER	296,SER
297,VAL	297,VAL	297,VAL	297,VAL	297,VAL	297,VAL	297,VAL	297,VAL	297,VAL	297,VAL	297,VAL	297,VAL	297,VAL
298,VAL	298,VAL	298,VAL	298,VAL	298,VAL	298,VAL	298,VAL	298,VAL	298,VAL	298,VAL	298,VAL	298,VAL	298,VAL
299,LYS	299,LYS	299,LYS	299,LYS	299,LYS	299,LYS	299,LYS	299,LYS	299,LYS	299,LYS	299,LYS	299,LYS	299,LYS
300,ILE	300,ILE	300,ILE	300,ILE	300,ILE	300,ILE	300,ILE	300,ILE	300,ILE	300,ILE	300,ILE	303,SER	300,ILE
301,ALA	301,ALA	301,ALA	301,ALA	301,ALA	301,ALA	301,ALA	301,ALA	301,ALA	301,ALA	301,ALA	300,ILE	301,ALA
302,CYS	302,CYS	302,CYS	302,CYS	302,CYS	302,CYS	302,CYS	302,CYS	302,CYS	302,CYS	302,CYS	301,ALA	302,CYS
303,SER	303,SER	303,SER	303,SER	303,SER	303,SER	303,SER	303,SER	303,SER	303,SER	303,SER	302,CYS	303,SER
304,ASP	304,ASP	304,ASP	304,ASP	304,ASP	304,ASP	304,ASP	304,ASP	304,ASP	304,ASP	304,ASP	304,ASP	304,ASP
305,ASN	305,ASN	305,ASN	305,ASN	305,ASN	305,ASN	305,ASN	305,ASN	305,ASN	305,ASN	305,ASN	305,ASN	305,ASN
306,ILE	306,ILE	306,ILE	306,ILE	306,ILE	306,ILE	306,ILE	306,ILE	306,ILE	306,ILE	306,ILE	306,ILE	306,ILE
307,LEU	307,LEU	307,LEU	307,LEU	307,LEU	307,LEU	307,LEU	307,LEU	307,LEU	307,LEU	307,LEU	307,LEU	307,LEU
308,CYS	308,CYS	308,CYS	308,CYS	308,CYS	308,CYS	308,CYS	308,CYS	308,CYS	308,CYS	308,CYS	308,CYS	308,CYS
309,LEU	309,LEU	309,LEU	309,LEU	309,LEU	309,LEU	309,LEU	309,LEU	309,LEU	309,LEU	309,LEU	309,LEU	309,LEU
310,ALA	310,ALA	310,ALA	310,ALA	310,ALA	310,ALA	310,ALA	310,ALA	310,ALA	310,ALA	310,ALA	310,ALA	310,ALA
311,THR	311,THR	311,THR	311,THR	311,THR	311,THR	311,THR	311,THR	311,THR	311,THR	311,THR	311,THR	311,THR
312,SER	312,SER	312,SER	312,SER	312,SER	312,SER	312,SER	312,SER	312,SER	312,SER	312,SER	312,SER	312,SER
313,ASP	313,ASP	313,ASP	313,ASP	313,ASP	313,ASP	313,ASP	313,ASP	313,ASP	313,ASP	313,ASP	313,ASP	313,ASP
314,ASP	314,ASP	314,ASP	314,ASP	314,ASP	314,ASP	314,ASP	314,ASP	314,ASP	314,ASP	314,ASP	314,ASP	314,ASP
315,THR	315,THR	315,THR	315,THR	315,THR	315,THR	315,THR	315,THR	315,THR	315,THR	315,THR	315,THR	315,THR
316,PHE	316,PHE	316,PHE	316,PHE	316,PHE	316,PHE	316,PHE	316,PHE	316,PHE	316,PHE	316,PHE	316,PHE	316,PHE
317,LYS	317,LYS	317,LYS	317,LYS	317,LYS	317,LYS	317,LYS	317,LYS	317,LYS	317,LYS	317,LYS	317,LYS	317,LYS
318,THR	318,THR	318,THR	318,THR	318,THR	318,THR	318,THR	318,THR	318,THR	318,THR	318,THR	318,THR	318,THR
319,ASN	319,ASN	319,ASN	319,ASN	319,ASN	319,ASN	319,ASN	319,ASN	319,ASN	319,ASN	319,ASN	319,ASN	319,ASN
320,ALA	320,ALA	320,ALA	320,ALA	320,ALA	320,ALA	320,ALA	320,ALA	320,ALA	320,ALA	320,ALA	320,ALA	320,ALA
321,ALA	321,ALA	321,ALA	321,ALA	321,ALA	321,ALA	321,ALA	321,ALA	321,ALA	321,ALA	321,ALA	321,ALA	321,ALA
322,ILE	322,ILE	322,ILE	322,ILE	322,ILE	322,ILE	322,ILE	322,ILE	322,ILE	322,ILE	322,ILE	322,ILE	322,ILE
323,ASP	323,ASP	323,ASP	323,ASP	323,ASP	323,ASP	323,ASP	323,ASP	323,ASP	323,ASP	323,ASP	323,ASP	323,ASP
324,GLN	324,GLN	324,GLN	324,GLN	324,GLN	327,GLU	324,GLN	324,GLN	324,GLN	324,GLN	324,GLN	324,GLN	324,GLN
325,THR	325,THR	325,THR	325,THR	325,THR	324,GLN	325,THR	325,THR	325,THR	325,THR	325,THR	325,THR	325,THR
326,ILE	326,ILE	326,ILE	326,ILE	326,ILE	325,THR	326,ILE	326,ILE	326,ILE	326,ILE	326,ILE	326,ILE	326,ILE
327,GLU	327,GLU	327,GLU	327,GLU	327,GLU	326,ILE	327,GLU	327,GLU	327,GLU	327,GLU	327,GLU	327,GLU	327,GLU
328,LEU	328,LEU	328,LEU	328,LEU	328,LEU	328,LEU	328,LEU	328,LEU	328,LEU	328,LEU	328,LEU	328,LEU	328,LEU
329,ASN	329,ASN	329,ASN	329,ASN	329,ASN	329,ASN	329,ASN	329,ASN	329,ASN	329,ASN	329,ASN	329,ASN	329,ASN
330,ALA	330,ALA	330,ALA	330,ALA	330,ALA	330,ALA	330,ALA	330,ALA	330,ALA	330,ALA	330,ALA	330,ALA	330,ALA
331,SER	331,SER	331,SER	331,SER	331,SER	331,SER	331,SER	331,SER	331,SER	331,SER	331,SER	331,SER	331,SER
332,SER	332,SER	332,SER	332,SER	332,SER	332,SER	332,SER	332,SER	332,SER	332,SER	332,SER	332,SER	332,SER
333,ILE	333,ILE	333,ILE	333,ILE	333,ILE	333,ILE	333,ILE	333,ILE	333,ILE	333,ILE	333,ILE	333,ILE	333,ILE
334,TYR	334,TYR	334,TYR	334,TYR	334,TYR	334,TYR	334,TYR	334,TYR	334,TYR	334,TYR	334,TYR	334,TYR	334,TYR
335,ILE	335,ILE	335,ILE	335,ILE	335,ILE	335,ILE	335,ILE	335,ILE	335,ILE	335,ILE	335,ILE	335,ILE	335,ILE
336,ILE	336,ILE	336,ILE	336,ILE	336,ILE	336,ILE	336,ILE	336,ILE	336,ILE	336,ILE	336,ILE	336,ILE	336,ILE
337,PHE	337,PHE	337,PHE	337,PHE	337,PHE	337,PHE	337,PHE	337,PHE	337,PHE	337,PHE	337,PHE	337,PHE	337,PHE
338,ASP	338,ASP	338,ASP	338,ASP	338,ASP	338,ASP	338,ASP	338,ASP	338,ASP	338,ASP	338,ASP	338,ASP	338,ASP
339,TYR	339,TYR	339,TYR	339,TYR	339,TYR	339,TYR	339,TYR	339,TYR	339,TYR	339,TYR	339,TYR	339,TYR	339,TYR
340,GLU	340,GLU	340,GLU	340,GLU	340,GLU	340,GLU	340,GLU	340,GLU	340,GLU	340,GLU	340,GLU	340,GLU	340,GLU
341,ASN	341,ASN	341,ASN	341,ASN	341,ASN	341,ASN	341,ASN	341,ASN	341,ASN	341,ASN	341,ASN	341,ASN	341,ASN
