uniprot_isoform	location_id	ENSEMBL ID	uniprot_start	uniprot_end	4j0mA_start	4j0mA_end	4j0mB_start	4j0mB_end
1	1_20783374_20779877_-1	AT1G55610.2.exon2	1	1166	-	-	-	-
2	1_20783374_20779877_-1	AT1G55610.2.exon2	1	1166	-	-	-	-
