Q9ZWC8	4j0mA	4j0mB
1,MET	-	-
2,LYS	-	-
3,GLN	-	-
4,ARG	-	-
5,TRP	-	-
6,LEU	-	-
7,LEU	-	-
8,VAL	-	-
9,LEU	-	-
10,ILE	-	-
11,LEU	-	-
12,CYS	-	-
13,PHE	-	-
14,PHE	-	-
15,THR	-	-
16,THR	-	-
17,SER	-	-
18,LEU	-	-
19,VAL	-	-
20,MET	-	-
21,GLY	-	-
22,ILE	-	-
23,HIS	-	-
24,GLY	-	-
25,LYS	25,LYS	25,LYS
26,HIS	26,HIS	26,HIS
27,LEU	27,LEU	27,LEU
28,ILE	28,ILE	28,ILE
29,ASN	29,ASN	29,ASN
30,ASP	30,ASP	30,ASP
31,ASP	31,ASP	31,ASP
32,PHE	32,PHE	32,PHE
33,ASN	33,ASN	33,ASN
34,GLU	34,GLU	34,GLU
35,THR	35,THR	35,THR
36,ALA	36,ALA	36,ALA
37,LEU	37,LEU	37,LEU
38,LEU	38,LEU	38,LEU
39,LEU	39,LEU	39,LEU
40,ALA	40,ALA	40,ALA
41,PHE	41,PHE	41,PHE
42,LYS	42,LYS	42,LYS
43,GLN	43,GLN	43,GLN
44,ASN	44,ASN	44,ASN
45,SER	45,SER	45,SER
46,VAL	46,VAL	46,VAL
47,LYS	47,LYS	47,LYS
48,SER	48,SER	48,SER
49,ASP	49,ASP	49,ASP
50,PRO	50,PRO	50,PRO
51,ASN	51,ASN	51,ASN
52,ASN	52,ASN	52,ASN
53,VAL	53,VAL	53,VAL
54,LEU	54,LEU	54,LEU
55,GLY	55,GLY	55,GLY
56,ASN	56,ASN	56,ASN
57,TRP	57,TRP	57,TRP
58,LYS	58,LYS	58,LYS
59,TYR	59,TYR	59,TYR
60,GLU	60,GLU	60,GLU
61,SER	61,SER	61,SER
62,GLY	62,GLY	62,GLY
63,ARG	63,ARG	63,ARG
64,GLY	64,GLY	64,GLY
65,SER	65,SER	65,SER
66,CYS	66,CYS	66,CYS
67,SER	67,SER	67,SER
68,TRP	68,TRP	68,TRP
69,ARG	69,ARG	69,ARG
70,GLY	70,GLY	70,GLY
71,VAL	71,VAL	71,VAL
72,SER	72,SER	72,SER
73,CYS	73,CYS	73,CYS
74,SER	74,SER	74,SER
75,ASP	75,ASP	75,ASP
76,ASP	76,ASP	76,ASP
77,GLY	77,GLY	77,GLY
78,ARG	78,ARG	78,ARG
79,ILE	79,ILE	79,ILE
80,VAL	80,VAL	80,VAL
81,GLY	81,GLY	81,GLY
82,LEU	82,LEU	82,LEU
83,ASP	83,ASP	83,ASP
84,LEU	84,LEU	84,LEU
85,ARG	85,ARG	85,ARG
86,ASN	86,ASN	89,LEU
87,SER	87,SER	86,ASN
88,GLY	88,GLY	87,SER
89,LEU	89,LEU	88,GLY
90,THR	90,THR	90,THR
91,GLY	91,GLY	94,ASN
92,THR	92,THR	91,GLY
93,LEU	93,LEU	92,THR
94,ASN	94,ASN	93,LEU
95,LEU	95,LEU	95,LEU
96,VAL	96,VAL	96,VAL
97,ASN	97,ASN	97,ASN
98,LEU	98,LEU	98,LEU
99,THR	99,THR	99,THR
100,ALA	100,ALA	100,ALA
101,LEU	101,LEU	101,LEU
102,PRO	102,PRO	102,PRO
103,ASN	103,ASN	103,ASN
104,LEU	104,LEU	104,LEU
105,GLN	105,GLN	105,GLN
106,ASN	106,ASN	106,ASN
107,LEU	107,LEU	107,LEU
108,TYR	108,TYR	108,TYR
109,LEU	109,LEU	109,LEU
110,GLN	110,GLN	110,GLN
111,GLY	111,GLY	111,GLY
112,ASN	112,ASN	112,ASN
113,TYR	113,TYR	113,TYR
114,PHE	114,PHE	114,PHE
115,SER	115,SER	115,SER
116,SER	116,SER	116,SER
117,GLY	117,GLY	117,GLY
118,GLY	118,GLY	118,GLY
119,ASP	119,ASP	119,ASP
120,SER	120,SER	120,SER
121,SER	121,SER	121,SER
122,GLY	122,GLY	122,GLY
123,SER	123,SER	123,SER
124,ASP	124,ASP	124,ASP
125,CYS	125,CYS	125,CYS
126,TYR	126,TYR	126,TYR
127,LEU	127,LEU	127,LEU
128,GLN	128,GLN	128,GLN
129,VAL	129,VAL	129,VAL
130,LEU	130,LEU	130,LEU
131,ASP	131,ASP	131,ASP
132,LEU	132,LEU	132,LEU
133,SER	133,SER	133,SER
134,SER	134,SER	134,SER
135,ASN	135,ASN	135,ASN
136,SER	136,SER	136,SER
137,ILE	137,ILE	137,ILE
138,SER	138,SER	138,SER
139,ASP	139,ASP	139,ASP
140,TYR	140,TYR	140,TYR
141,SER	141,SER	141,SER
142,MET	142,MET	142,MET
143,VAL	143,VAL	143,VAL
144,ASP	144,ASP	144,ASP
145,TYR	145,TYR	145,TYR
146,VAL	146,VAL	146,VAL
147,PHE	147,PHE	147,PHE
148,SER	148,SER	148,SER
149,LYS	149,LYS	149,LYS
150,CYS	150,CYS	150,CYS
151,SER	151,SER	151,SER
152,ASN	152,ASN	152,ASN
153,LEU	153,LEU	153,LEU
154,VAL	154,VAL	154,VAL
155,SER	155,SER	155,SER
156,VAL	156,VAL	156,VAL
157,ASN	157,ASN	157,ASN
158,ILE	158,ILE	158,ILE
159,SER	159,SER	159,SER
160,ASN	160,ASN	160,ASN
161,ASN	161,ASN	161,ASN
162,LYS	162,LYS	162,LYS
163,LEU	163,LEU	163,LEU
164,VAL	164,VAL	164,VAL
165,GLY	165,GLY	165,GLY
166,LYS	166,LYS	166,LYS
167,LEU	167,LEU	167,LEU
168,GLY	168,GLY	168,GLY
169,PHE	169,PHE	169,PHE
170,ALA	170,ALA	170,ALA
171,PRO	171,PRO	171,PRO
172,SER	172,SER	172,SER
173,SER	173,SER	173,SER
174,LEU	174,LEU	174,LEU
175,GLN	175,GLN	175,GLN
176,SER	176,SER	176,SER
177,LEU	177,LEU	177,LEU
178,THR	178,THR	178,THR
179,THR	179,THR	179,THR
180,VAL	180,VAL	180,VAL
181,ASP	181,ASP	181,ASP
182,LEU	182,LEU	182,LEU
183,SER	183,SER	183,SER
184,TYR	184,TYR	184,TYR
185,ASN	185,ASN	185,ASN
186,ILE	186,ILE	186,ILE
187,LEU	187,LEU	187,LEU
188,SER	188,SER	188,SER
189,ASP	189,ASP	189,ASP
190,LYS	190,LYS	190,LYS
191,ILE	191,ILE	191,ILE
192,PRO	192,PRO	192,PRO
193,GLU	193,GLU	193,GLU
194,SER	194,SER	194,SER
195,PHE	195,PHE	195,PHE
196,ILE	196,ILE	196,ILE
197,SER	197,SER	197,SER
198,ASP	198,ASP	198,ASP
199,PHE	199,PHE	199,PHE
200,PRO	200,PRO	200,PRO
201,ALA	201,ALA	201,ALA
202,SER	202,SER	202,SER
203,LEU	203,LEU	203,LEU
204,LYS	204,LYS	204,LYS
205,TYR	205,TYR	205,TYR
206,LEU	206,LEU	206,LEU
207,ASP	207,ASP	207,ASP
208,LEU	208,LEU	208,LEU
209,THR	209,THR	209,THR
210,HIS	210,HIS	210,HIS
211,ASN	211,ASN	211,ASN
212,ASN	212,ASN	212,ASN
213,LEU	213,LEU	213,LEU
214,SER	214,SER	214,SER
215,GLY	215,GLY	215,GLY
216,ASP	216,ASP	216,ASP
217,PHE	217,PHE	217,PHE
218,SER	218,SER	218,SER
219,ASP	219,ASP	219,ASP
220,LEU	220,LEU	220,LEU
221,SER	221,SER	221,SER
222,PHE	222,PHE	222,PHE
223,GLY	223,GLY	223,GLY
224,ILE	224,ILE	224,ILE
225,CYS	225,CYS	225,CYS
226,GLY	226,GLY	226,GLY
227,ASN	227,ASN	227,ASN
228,LEU	228,LEU	228,LEU
229,THR	229,THR	229,THR
230,PHE	230,PHE	230,PHE
231,PHE	231,PHE	231,PHE
232,SER	232,SER	232,SER
233,LEU	233,LEU	233,LEU
234,SER	234,SER	234,SER
235,GLN	235,GLN	235,GLN
236,ASN	236,ASN	236,ASN
237,ASN	237,ASN	237,ASN
238,LEU	238,LEU	238,LEU
239,SER	239,SER	239,SER
240,GLY	240,GLY	240,GLY
241,ASP	241,ASP	241,ASP
242,LYS	242,LYS	242,LYS
243,PHE	243,PHE	243,PHE
244,PRO	244,PRO	244,PRO
245,ILE	245,ILE	245,ILE
246,THR	246,THR	246,THR
247,LEU	247,LEU	247,LEU
248,PRO	248,PRO	248,PRO
249,ASN	249,ASN	249,ASN
250,CYS	250,CYS	250,CYS
251,LYS	251,LYS	251,LYS
252,PHE	252,PHE	252,PHE
253,LEU	253,LEU	253,LEU
254,GLU	254,GLU	254,GLU
255,THR	255,THR	255,THR
256,LEU	256,LEU	256,LEU
257,ASN	257,ASN	257,ASN
258,ILE	258,ILE	258,ILE
259,SER	259,SER	259,SER
260,ARG	260,ARG	260,ARG
261,ASN	261,ASN	261,ASN
262,ASN	262,ASN	262,ASN
263,LEU	263,LEU	263,LEU
264,ALA	264,ALA	264,ALA
265,GLY	265,GLY	265,GLY
266,LYS	266,LYS	266,LYS
267,ILE	267,ILE	267,ILE
268,PRO	268,PRO	268,PRO
269,ASN	269,ASN	269,ASN
270,GLY	270,GLY	270,GLY
271,GLU	271,GLU	271,GLU
272,TYR	272,TYR	272,TYR
273,TRP	273,TRP	273,TRP
274,GLY	274,GLY	274,GLY
275,SER	275,SER	275,SER
276,PHE	276,PHE	276,PHE
277,GLN	277,GLN	277,GLN
278,ASN	278,ASN	278,ASN
279,LEU	279,LEU	279,LEU
280,LYS	280,LYS	280,LYS
281,GLN	281,GLN	281,GLN
282,LEU	282,LEU	282,LEU
283,SER	283,SER	283,SER
284,LEU	284,LEU	284,LEU
285,ALA	285,ALA	288,ARG
286,HIS	286,HIS	285,ALA
287,ASN	287,ASN	286,HIS
288,ARG	288,ARG	287,ASN
289,LEU	289,LEU	289,LEU
290,SER	290,SER	290,SER
291,GLY	291,GLY	291,GLY
292,GLU	292,GLU	292,GLU
293,ILE	293,ILE	293,ILE
294,PRO	294,PRO	294,PRO
295,PRO	295,PRO	295,PRO
296,GLU	296,GLU	296,GLU
297,LEU	297,LEU	297,LEU
298,SER	298,SER	298,SER
299,LEU	299,LEU	299,LEU
300,LEU	300,LEU	300,LEU
301,CYS	301,CYS	301,CYS
302,LYS	302,LYS	302,LYS
303,THR	303,THR	303,THR
304,LEU	304,LEU	304,LEU
305,VAL	305,VAL	305,VAL
306,ILE	306,ILE	306,ILE
307,LEU	307,LEU	307,LEU
308,ASP	308,ASP	308,ASP
309,LEU	309,LEU	309,LEU
310,SER	310,SER	310,SER
311,GLY	311,GLY	311,GLY
312,ASN	312,ASN	312,ASN
313,THR	313,THR	313,THR
314,PHE	314,PHE	314,PHE
315,SER	315,SER	315,SER
316,GLY	316,GLY	316,GLY
317,GLU	317,GLU	317,GLU
318,LEU	318,LEU	318,LEU
319,PRO	319,PRO	319,PRO
320,SER	320,SER	320,SER
321,GLN	321,GLN	321,GLN
322,PHE	322,PHE	322,PHE
323,THR	323,THR	323,THR
324,ALA	324,ALA	324,ALA
325,CYS	325,CYS	325,CYS
326,VAL	326,VAL	326,VAL
327,TRP	327,TRP	327,TRP
328,LEU	328,LEU	328,LEU
329,GLN	329,GLN	329,GLN
330,ASN	330,ASN	330,ASN
331,LEU	331,LEU	331,LEU
332,ASN	332,ASN	332,ASN
333,LEU	333,LEU	333,LEU
334,GLY	334,GLY	334,GLY
335,ASN	335,ASN	335,ASN
336,ASN	336,ASN	336,ASN
337,TYR	337,TYR	337,TYR
338,LEU	338,LEU	338,LEU
339,SER	339,SER	339,SER
340,GLY	340,GLY	340,GLY
341,ASP	341,ASP	341,ASP
342,PHE	342,PHE	342,PHE
343,LEU	343,LEU	343,LEU
344,ASN	344,ASN	344,ASN
345,THR	345,THR	345,THR
346,VAL	346,VAL	346,VAL
347,VAL	347,VAL	347,VAL
348,SER	348,SER	348,SER
349,LYS	349,LYS	349,LYS
350,ILE	350,ILE	350,ILE
351,THR	351,THR	351,THR
352,GLY	352,GLY	352,GLY
353,ILE	353,ILE	353,ILE
354,THR	354,THR	354,THR
355,TYR	355,TYR	355,TYR
356,LEU	356,LEU	356,LEU
357,TYR	357,TYR	357,TYR
358,VAL	358,VAL	358,VAL
359,ALA	359,ALA	359,ALA
360,TYR	360,TYR	360,TYR
361,ASN	361,ASN	361,ASN
362,ASN	362,ASN	362,ASN
363,ILE	363,ILE	363,ILE
364,SER	364,SER	364,SER
365,GLY	365,GLY	365,GLY
366,SER	366,SER	366,SER
367,VAL	367,VAL	367,VAL
368,PRO	368,PRO	368,PRO
369,ILE	369,ILE	369,ILE
370,SER	370,SER	370,SER
371,LEU	371,LEU	371,LEU
372,THR	372,THR	372,THR
373,ASN	373,ASN	373,ASN
374,CYS	374,CYS	374,CYS
375,SER	375,SER	375,SER
376,ASN	376,ASN	376,ASN
377,LEU	377,LEU	377,LEU
378,ARG	378,ARG	378,ARG
379,VAL	379,VAL	379,VAL
380,LEU	380,LEU	380,LEU
381,ASP	381,ASP	381,ASP
382,LEU	382,LEU	382,LEU
383,SER	383,SER	383,SER
384,SER	384,SER	384,SER
385,ASN	385,ASN	385,ASN
386,GLY	386,GLY	386,GLY
387,PHE	387,PHE	387,PHE
388,THR	388,THR	388,THR
389,GLY	389,GLY	389,GLY
390,ASN	390,ASN	390,ASN
391,VAL	391,VAL	391,VAL
392,PRO	392,PRO	392,PRO
393,SER	393,SER	393,SER
394,GLY	394,GLY	394,GLY
395,PHE	395,PHE	395,PHE
396,CYS	396,CYS	396,CYS
397,SER	397,SER	397,SER
398,LEU	398,LEU	398,LEU
399,GLN	399,GLN	399,GLN
400,SER	400,SER	400,SER
401,SER	401,SER	401,SER
402,PRO	402,PRO	402,PRO
403,VAL	403,VAL	403,VAL
404,LEU	404,LEU	404,LEU
405,GLU	405,GLU	405,GLU
406,LYS	406,LYS	406,LYS
407,ILE	407,ILE	407,ILE
408,LEU	408,LEU	408,LEU
409,ILE	409,ILE	409,ILE
410,ALA	410,ALA	410,ALA
411,ASN	411,ASN	411,ASN
412,ASN	412,ASN	412,ASN
413,TYR	413,TYR	413,TYR
414,LEU	414,LEU	414,LEU
415,SER	415,SER	415,SER
416,GLY	416,GLY	416,GLY
417,THR	417,THR	417,THR
418,VAL	418,VAL	418,VAL
419,PRO	419,PRO	419,PRO
420,MET	420,MET	420,MET
421,GLU	421,GLU	421,GLU
422,LEU	422,LEU	422,LEU
423,GLY	423,GLY	423,GLY
424,LYS	424,LYS	424,LYS
425,CYS	425,CYS	425,CYS
426,LYS	426,LYS	426,LYS
427,SER	427,SER	427,SER
428,LEU	428,LEU	428,LEU
429,LYS	429,LYS	429,LYS
430,THR	430,THR	430,THR
431,ILE	431,ILE	431,ILE
432,ASP	432,ASP	432,ASP
433,LEU	433,LEU	433,LEU
434,SER	434,SER	434,SER
435,PHE	435,PHE	435,PHE
436,ASN	436,ASN	436,ASN
437,GLU	437,GLU	437,GLU
438,LEU	438,LEU	438,LEU
439,THR	439,THR	439,THR
440,GLY	440,GLY	440,GLY
441,PRO	441,PRO	441,PRO
442,ILE	442,ILE	442,ILE
443,PRO	443,PRO	443,PRO
444,LYS	444,LYS	444,LYS
445,GLU	445,GLU	445,GLU
446,ILE	446,ILE	446,ILE
447,TRP	447,TRP	447,TRP
448,MET	448,MET	448,MET
449,LEU	449,LEU	449,LEU
450,PRO	450,PRO	450,PRO
451,ASN	451,ASN	451,ASN
452,LEU	452,LEU	452,LEU
453,SER	453,SER	453,SER
454,ASP	454,ASP	454,ASP
455,LEU	455,LEU	455,LEU
456,VAL	456,VAL	456,VAL
457,MET	457,MET	457,MET
458,TRP	458,TRP	458,TRP
459,ALA	459,ALA	459,ALA
460,ASN	460,ASN	460,ASN
461,ASN	461,ASN	461,ASN
462,LEU	462,LEU	462,LEU
463,THR	463,THR	463,THR
464,GLY	464,GLY	464,GLY
465,THR	465,THR	465,THR
466,ILE	466,ILE	466,ILE
467,PRO	467,PRO	467,PRO
468,GLU	468,GLU	468,GLU
469,GLY	469,GLY	469,GLY
470,VAL	470,VAL	470,VAL
471,CYS	471,CYS	471,CYS
472,VAL	472,VAL	472,VAL
473,LYS	473,LYS	473,LYS
474,GLY	474,GLY	474,GLY
475,GLY	475,GLY	475,GLY
476,ASN	476,ASN	476,ASN
477,LEU	477,LEU	477,LEU
478,GLU	478,GLU	478,GLU
479,THR	479,THR	479,THR
480,LEU	480,LEU	480,LEU
481,ILE	481,ILE	481,ILE
482,LEU	482,LEU	482,LEU
483,ASN	483,ASN	483,ASN
484,ASN	484,ASN	484,ASN
485,ASN	485,ASN	485,ASN
486,LEU	486,LEU	486,LEU
487,LEU	487,LEU	487,LEU
488,THR	488,THR	488,THR
489,GLY	489,GLY	489,GLY
490,SER	490,SER	490,SER
491,ILE	491,ILE	491,ILE
492,PRO	492,PRO	492,PRO
493,GLU	493,GLU	493,GLU
494,SER	494,SER	494,SER
495,ILE	495,ILE	495,ILE
496,SER	496,SER	496,SER
497,ARG	497,ARG	497,ARG
498,CYS	498,CYS	498,CYS
499,THR	499,THR	499,THR
500,ASN	500,ASN	500,ASN
501,MET	501,MET	501,MET
502,ILE	502,ILE	502,ILE
503,TRP	503,TRP	503,TRP
504,ILE	504,ILE	504,ILE
505,SER	505,SER	505,SER
506,LEU	506,LEU	506,LEU
507,SER	507,SER	507,SER
508,SER	508,SER	508,SER
509,ASN	509,ASN	509,ASN
510,ARG	510,ARG	510,ARG
511,LEU	511,LEU	511,LEU
512,THR	512,THR	512,THR
513,GLY	513,GLY	513,GLY
514,LYS	514,LYS	514,LYS
515,ILE	515,ILE	515,ILE
516,PRO	516,PRO	516,PRO
517,SER	517,SER	517,SER
518,GLY	518,GLY	518,GLY
519,ILE	519,ILE	519,ILE
520,GLY	520,GLY	520,GLY
521,ASN	521,ASN	521,ASN
522,LEU	522,LEU	522,LEU
523,SER	523,SER	523,SER
524,LYS	524,LYS	524,LYS
525,LEU	525,LEU	525,LEU
526,ALA	526,ALA	526,ALA
527,ILE	527,ILE	527,ILE
528,LEU	528,LEU	528,LEU
529,GLN	529,GLN	529,GLN
530,LEU	530,LEU	530,LEU
531,GLY	531,GLY	531,GLY
532,ASN	532,ASN	532,ASN
533,ASN	533,ASN	533,ASN
534,SER	534,SER	534,SER
535,LEU	535,LEU	535,LEU
536,SER	536,SER	536,SER
537,GLY	537,GLY	537,GLY
538,ASN	538,ASN	538,ASN
539,VAL	539,VAL	539,VAL
540,PRO	540,PRO	540,PRO
541,ARG	541,ARG	541,ARG
542,GLN	542,GLN	542,GLN
543,LEU	543,LEU	543,LEU
544,GLY	544,GLY	544,GLY
545,ASN	545,ASN	545,ASN
546,CYS	546,CYS	546,CYS
547,LYS	547,LYS	547,LYS
548,SER	548,SER	548,SER
549,LEU	549,LEU	549,LEU
550,ILE	550,ILE	550,ILE
551,TRP	551,TRP	551,TRP
552,LEU	552,LEU	552,LEU
553,ASP	553,ASP	553,ASP
554,LEU	554,LEU	554,LEU
555,ASN	555,ASN	555,ASN
556,SER	556,SER	556,SER
557,ASN	557,ASN	557,ASN
558,ASN	558,ASN	558,ASN
559,LEU	559,LEU	559,LEU
560,THR	560,THR	560,THR
561,GLY	561,GLY	561,GLY
562,ASP	562,ASP	562,ASP
563,LEU	563,LEU	563,LEU
564,PRO	564,PRO	564,PRO
565,GLY	565,GLY	565,GLY
566,GLU	566,GLU	566,GLU
567,LEU	567,LEU	567,LEU
568,ALA	568,ALA	568,ALA
569,SER	569,SER	569,SER
570,GLN	570,GLN	570,GLN
571,ALA	571,ALA	571,ALA
572,GLY	572,GLY	572,GLY
573,LEU	573,LEU	573,LEU
574,VAL	574,VAL	574,VAL
575,MET	575,MET	575,MET
576,PRO	576,PRO	576,PRO
577,GLY	577,GLY	577,GLY
578,SER	578,SER	578,SER
579,VAL	579,VAL	579,VAL
580,SER	580,SER	580,SER
581,GLY	581,GLY	581,GLY
582,LYS	582,LYS	582,LYS
583,GLN	583,GLN	583,GLN
584,PHE	584,PHE	584,PHE
585,ALA	585,ALA	585,ALA
586,PHE	586,PHE	586,PHE
587,VAL	587,VAL	587,VAL
588,ARG	588,ARG	588,ARG
589,ASN	589,ASN	589,ASN
590,GLU	590,GLU	590,GLU
591,GLY	591,GLY	591,GLY
592,GLY	592,GLY	592,GLY
593,THR	593,THR	593,THR
594,ASP	594,ASP	594,ASP
595,CYS	595,CYS	595,CYS
596,ARG	596,ARG	596,ARG
597,GLY	597,GLY	597,GLY
598,ALA	598,ALA	598,ALA
599,GLY	599,GLY	599,GLY
600,GLY	600,GLY	600,GLY
601,LEU	601,LEU	601,LEU
602,VAL	602,VAL	602,VAL
603,GLU	603,GLU	603,GLU
604,PHE	604,PHE	604,PHE
605,GLU	605,GLU	605,GLU
606,GLY	606,GLY	606,GLY
607,ILE	607,ILE	607,ILE
608,ARG	608,ARG	608,ARG
609,ALA	609,ALA	609,ALA
610,GLU	610,GLU	610,GLU
611,ARG	611,ARG	611,ARG
612,LEU	612,LEU	612,LEU
613,GLU	613,GLU	613,GLU
614,ARG	614,ARG	614,ARG
615,LEU	615,LEU	615,LEU
616,PRO	616,PRO	616,PRO
617,MET	617,MET	617,MET
618,VAL	618,VAL	618,VAL
619,HIS	619,HIS	619,HIS
620,SER	620,SER	620,SER
621,CYS	621,CYS	621,CYS
622,PRO	622,PRO	622,PRO
623,ALA	623,ALA	623,ALA
624,THR	624,THR	624,THR
625,ARG	625,ARG	625,ARG
626,ILE	626,ILE	626,ILE
627,TYR	627,TYR	627,TYR
628,SER	628,SER	628,SER
629,GLY	629,GLY	629,GLY
630,MET	630,MET	630,MET
631,THR	631,THR	631,THR
632,MET	632,MET	632,MET
633,TYR	633,TYR	633,TYR
634,THR	634,THR	634,THR
635,PHE	635,PHE	635,PHE
636,SER	636,SER	636,SER
637,ALA	637,ALA	637,ALA
638,ASN	638,ASN	638,ASN
639,GLY	639,GLY	639,GLY
640,SER	640,SER	640,SER
641,MET	641,MET	641,MET
642,ILE	642,ILE	642,ILE
643,TYR	643,TYR	643,TYR
644,PHE	644,PHE	644,PHE
645,ASP	645,ASP	645,ASP
646,ILE	646,ILE	646,ILE
647,SER	647,SER	647,SER
648,TYR	648,TYR	648,TYR
649,ASN	649,ASN	649,ASN
650,ALA	650,ALA	650,ALA
651,VAL	651,VAL	651,VAL
652,SER	652,SER	652,SER
653,GLY	653,GLY	653,GLY
654,PHE	654,PHE	654,PHE
655,ILE	655,ILE	655,ILE
656,PRO	656,PRO	656,PRO
657,PRO	657,PRO	657,PRO
658,GLY	658,GLY	658,GLY
659,TYR	659,TYR	659,TYR
660,GLY	660,GLY	660,GLY
661,ASN	661,ASN	661,ASN
662,MET	662,MET	662,MET
663,GLY	663,GLY	663,GLY
664,TYR	664,TYR	664,TYR
665,LEU	665,LEU	665,LEU
666,GLN	666,GLN	666,GLN
667,VAL	667,VAL	667,VAL
668,LEU	668,LEU	668,LEU
669,ASN	669,ASN	669,ASN
670,LEU	670,LEU	670,LEU
671,GLY	671,GLY	671,GLY
672,HIS	672,HIS	672,HIS
673,ASN	673,ASN	673,ASN
674,ARG	674,ARG	674,ARG
675,ILE	675,ILE	675,ILE
676,THR	676,THR	676,THR
677,GLY	677,GLY	677,GLY
678,THR	678,THR	678,THR
679,ILE	679,ILE	679,ILE
680,PRO	680,PRO	680,PRO
681,ASP	681,ASP	681,ASP
682,SER	682,SER	682,SER
683,PHE	683,PHE	683,PHE
684,GLY	684,GLY	684,GLY
685,GLY	685,GLY	685,GLY
686,LEU	686,LEU	686,LEU
687,LYS	687,LYS	687,LYS
688,ALA	688,ALA	688,ALA
689,ILE	689,ILE	689,ILE
690,GLY	690,GLY	690,GLY
691,VAL	691,VAL	691,VAL
692,LEU	692,LEU	692,LEU
693,ASP	693,ASP	693,ASP
694,LEU	694,LEU	694,LEU
695,SER	695,SER	695,SER
696,HIS	696,HIS	696,HIS
697,ASN	697,ASN	697,ASN
698,ASN	698,ASN	698,ASN
699,LEU	699,LEU	699,LEU
700,GLN	700,GLN	700,GLN
701,GLY	701,GLY	701,GLY
702,TYR	702,TYR	702,TYR
703,LEU	703,LEU	703,LEU
704,PRO	704,PRO	704,PRO
705,GLY	705,GLY	705,GLY
706,SER	706,SER	706,SER
707,LEU	707,LEU	707,LEU
708,GLY	708,GLY	708,GLY
709,SER	709,SER	709,SER
710,LEU	710,LEU	710,LEU
711,SER	711,SER	711,SER
712,PHE	712,PHE	712,PHE
713,LEU	713,LEU	713,LEU
714,SER	714,SER	714,SER
715,ASP	715,ASP	715,ASP
716,LEU	716,LEU	716,LEU
717,ASP	717,ASP	717,ASP
718,VAL	718,VAL	718,VAL
719,SER	719,SER	719,SER
720,ASN	720,ASN	720,ASN
721,ASN	721,ASN	721,ASN
722,ASN	722,ASN	722,ASN
723,LEU	723,LEU	723,LEU
724,THR	724,THR	724,THR
725,GLY	725,GLY	725,GLY
726,PRO	726,PRO	726,PRO
727,ILE	727,ILE	727,ILE
728,PRO	728,PRO	728,PRO
729,PHE	729,PHE	729,PHE
730,GLY	730,GLY	730,GLY
731,GLY	731,GLY	731,GLY
732,GLN	732,GLN	732,GLN
733,LEU	733,LEU	733,LEU
734,THR	734,THR	734,THR
735,THR	735,THR	735,THR
736,PHE	736,PHE	736,PHE
737,PRO	737,PRO	737,PRO
738,VAL	738,VAL	738,VAL
739,SER	739,SER	739,SER
740,ARG	740,ARG	740,ARG
741,TYR	741,TYR	741,TYR
742,ALA	742,ALA	742,ALA
743,ASN	743,ASN	743,ASN
744,ASN	744,ASN	744,ASN
745,SER	745,SER	745,SER
746,GLY	746,GLY	746,GLY
747,LEU	747,LEU	747,LEU
748,CYS	748,CYS	748,CYS
749,GLY	749,GLY	749,GLY
750,VAL	750,VAL	750,VAL
751,PRO	751,PRO	751,PRO
752,LEU	752,LEU	752,LEU
753,ARG	753,ARG	753,ARG
754,PRO	754,PRO	754,PRO
755,CYS	755,CYS	755,CYS
756,GLY	756,GLY	756,GLY
757,SER	757,SER	757,SER
758,ALA	758,ALA	758,ALA
759,PRO	-	-
760,ARG	-	-
761,ARG	-	-
762,PRO	-	-
763,ILE	-	-
764,THR	-	-
765,SER	-	-
766,ARG	-	-
767,ILE	-	-
768,HIS	-	-
769,ALA	-	-
770,LYS	-	-
771,LYS	-	-
772,GLN	-	-
773,THR	-	-
774,VAL	-	-
775,ALA	-	-
776,THR	-	-
777,ALA	-	-
778,VAL	-	-
779,ILE	-	-
780,ALA	-	-
781,GLY	-	-
782,ILE	-	-
783,ALA	-	-
784,PHE	-	-
785,SER	-	-
786,PHE	-	-
787,MET	-	-
788,CYS	-	-
789,PHE	-	-
790,VAL	-	-
791,MET	-	-
792,LEU	-	-
793,VAL	-	-
794,MET	-	-
795,ALA	-	-
796,LEU	-	-
797,TYR	-	-
798,ARG	-	-
799,VAL	-	-
800,ARG	-	-
801,LYS	-	-
802,VAL	-	-
803,GLN	-	-
804,LYS	-	-
805,LYS	-	-
806,GLU	-	-
807,GLN	-	-
808,LYS	-	-
809,ARG	-	-
810,GLU	-	-
811,LYS	-	-
812,TYR	-	-
813,ILE	-	-
814,GLU	-	-
815,SER	-	-
816,LEU	-	-
817,PRO	-	-
818,THR	-	-
819,SER	-	-
820,GLY	-	-
821,SER	-	-
822,CYS	-	-
823,SER	-	-
824,TRP	-	-
825,LYS	-	-
826,LEU	-	-
827,SER	-	-
828,SER	-	-
829,VAL	-	-
830,PRO	-	-
831,GLU	-	-
832,PRO	-	-
833,LEU	-	-
834,SER	-	-
835,ILE	-	-
836,ASN	-	-
837,VAL	-	-
838,ALA	-	-
839,THR	-	-
840,PHE	-	-
841,GLU	-	-
842,LYS	-	-
843,PRO	-	-
844,LEU	-	-
845,ARG	-	-
846,LYS	-	-
847,LEU	-	-
848,THR	-	-
849,PHE	-	-
850,ALA	-	-
851,HIS	-	-
852,LEU	-	-
853,LEU	-	-
854,GLU	-	-
855,ALA	-	-
856,THR	-	-
857,ASN	-	-
858,GLY	-	-
859,PHE	-	-
860,SER	-	-
861,ALA	-	-
862,GLU	-	-
863,THR	-	-
864,MET	-	-
865,VAL	-	-
866,GLY	-	-
867,SER	-	-
868,GLY	-	-
869,GLY	-	-
870,PHE	-	-
871,GLY	-	-
872,GLU	-	-
873,VAL	-	-
874,TYR	-	-
875,LYS	-	-
876,ALA	-	-
877,GLN	-	-
878,LEU	-	-
879,ARG	-	-
880,ASP	-	-
881,GLY	-	-
882,SER	-	-
883,VAL	-	-
884,VAL	-	-
885,ALA	-	-
886,ILE	-	-
887,LYS	-	-
888,LYS	-	-
889,LEU	-	-
890,ILE	-	-
891,ARG	-	-
892,ILE	-	-
893,THR	-	-
894,GLY	-	-
895,GLN	-	-
896,GLY	-	-
897,ASP	-	-
898,ARG	-	-
899,GLU	-	-
900,PHE	-	-
901,MET	-	-
902,ALA	-	-
903,GLU	-	-
904,MET	-	-
905,GLU	-	-
906,THR	-	-
907,ILE	-	-
908,GLY	-	-
909,LYS	-	-
910,ILE	-	-
911,LYS	-	-
912,HIS	-	-
913,ARG	-	-
914,ASN	-	-
915,LEU	-	-
916,VAL	-	-
917,PRO	-	-
918,LEU	-	-
919,LEU	-	-
920,GLY	-	-
921,TYR	-	-
922,CYS	-	-
923,LYS	-	-
924,VAL	-	-
925,GLY	-	-
926,GLU	-	-
927,GLU	-	-
928,ARG	-	-
929,LEU	-	-
930,LEU	-	-
931,VAL	-	-
932,TYR	-	-
933,GLU	-	-
934,TYR	-	-
935,MET	-	-
936,LYS	-	-
937,TRP	-	-
938,GLY	-	-
939,SER	-	-
940,LEU	-	-
941,GLU	-	-
942,THR	-	-
943,VAL	-	-
944,LEU	-	-
945,HIS	-	-
946,GLU	-	-
947,LYS	-	-
948,SER	-	-
949,SER	-	-
950,LYS	-	-
951,LYS	-	-
952,GLY	-	-
953,GLY	-	-
954,ILE	-	-
955,TYR	-	-
956,LEU	-	-
957,ASN	-	-
958,TRP	-	-
959,ALA	-	-
960,ALA	-	-
961,ARG	-	-
962,LYS	-	-
963,LYS	-	-
964,ILE	-	-
965,ALA	-	-
966,ILE	-	-
967,GLY	-	-
968,ALA	-	-
969,ALA	-	-
970,ARG	-	-
971,GLY	-	-
972,LEU	-	-
973,ALA	-	-
974,PHE	-	-
975,LEU	-	-
976,HIS	-	-
977,HIS	-	-
978,SER	-	-
979,CYS	-	-
980,ILE	-	-
981,PRO	-	-
982,HIS	-	-
983,ILE	-	-
984,ILE	-	-
985,HIS	-	-
986,ARG	-	-
987,ASP	-	-
988,MET	-	-
989,LYS	-	-
990,SER	-	-
991,SER	-	-
992,ASN	-	-
993,VAL	-	-
994,LEU	-	-
995,LEU	-	-
996,ASP	-	-
997,GLU	-	-
998,ASP	-	-
999,PHE	-	-
1000,GLU	-	-
1001,ALA	-	-
1002,ARG	-	-
1003,VAL	-	-
1004,SER	-	-
1005,ASP	-	-
1006,PHE	-	-
1007,GLY	-	-
1008,MET	-	-
1009,ALA	-	-
1010,ARG	-	-
1011,LEU	-	-
1012,VAL	-	-
1013,SER	-	-
1014,ALA	-	-
1015,LEU	-	-
1016,ASP	-	-
1017,THR	-	-
1018,HIS	-	-
1019,LEU	-	-
1020,SER	-	-
1021,VAL	-	-
1022,SER	-	-
1023,THR	-	-
1024,LEU	-	-
1025,ALA	-	-
1026,GLY	-	-
1027,THR	-	-
1028,PRO	-	-
1029,GLY	-	-
1030,TYR	-	-
1031,VAL	-	-
1032,PRO	-	-
1033,PRO	-	-
1034,GLU	-	-
1035,TYR	-	-
1036,TYR	-	-
1037,GLN	-	-
1038,SER	-	-
1039,PHE	-	-
1040,ARG	-	-
1041,CYS	-	-
1042,THR	-	-
1043,ALA	-	-
1044,LYS	-	-
1045,GLY	-	-
1046,ASP	-	-
1047,VAL	-	-
1048,TYR	-	-
1049,SER	-	-
1050,TYR	-	-
1051,GLY	-	-
1052,VAL	-	-
1053,ILE	-	-
1054,LEU	-	-
1055,LEU	-	-
1056,GLU	-	-
1057,LEU	-	-
1058,LEU	-	-
1059,SER	-	-
1060,GLY	-	-
1061,LYS	-	-
1062,LYS	-	-
1063,PRO	-	-
1064,ILE	-	-
1065,ASP	-	-
1066,PRO	-	-
1067,GLY	-	-
1068,GLU	-	-
1069,PHE	-	-
1070,GLY	-	-
1071,GLU	-	-
1072,ASP	-	-
1073,ASN	-	-
1074,ASN	-	-
1075,LEU	-	-
1076,VAL	-	-
1077,GLY	-	-
1078,TRP	-	-
1079,ALA	-	-
1080,LYS	-	-
1081,GLN	-	-
1082,LEU	-	-
1083,TYR	-	-
1084,ARG	-	-
1085,GLU	-	-
1086,LYS	-	-
1087,ARG	-	-
1088,GLY	-	-
1089,ALA	-	-
1090,GLU	-	-
1091,ILE	-	-
1092,LEU	-	-
1093,ASP	-	-
1094,PRO	-	-
1095,GLU	-	-
1096,LEU	-	-
1097,VAL	-	-
1098,THR	-	-
1099,ASP	-	-
1100,LYS	-	-
1101,SER	-	-
1102,GLY	-	-
1103,ASP	-	-
1104,VAL	-	-
1105,GLU	-	-
1106,LEU	-	-
1107,PHE	-	-
1108,HIS	-	-
1109,TYR	-	-
1110,LEU	-	-
1111,LYS	-	-
1112,ILE	-	-
1113,ALA	-	-
1114,SER	-	-
1115,GLN	-	-
1116,CYS	-	-
1117,LEU	-	-
1118,ASP	-	-
1119,ASP	-	-
1120,ARG	-	-
1121,PRO	-	-
1122,PHE	-	-
1123,LYS	-	-
1124,ARG	-	-
1125,PRO	-	-
1126,THR	-	-
1127,MET	-	-
1128,ILE	-	-
1129,GLN	-	-
1130,LEU	-	-
1131,MET	-	-
1132,ALA	-	-
1133,MET	-	-
1134,PHE	-	-
1135,LYS	-	-
1136,GLU	-	-
1137,MET	-	-
1138,LYS	-	-
1139,ALA	-	-
1140,ASP	-	-
1141,THR	-	-
1142,GLU	-	-
1143,GLU	-	-
1144,ASP	-	-
1145,GLU	-	-
1146,SER	-	-
1147,LEU	-	-
1148,ASP	-	-
1149,GLU	-	-
1150,PHE	-	-
1151,SER	-	-
1152,LEU	-	-
1153,LYS	-	-
1154,GLU	-	-
1155,THR	-	-
1156,PRO	-	-
1157,LEU	-	-
1158,VAL	-	-
1159,GLU	-	-
1160,GLU	-	-
1161,SER	-	-
1162,ARG	-	-
1163,ASP	-	-
1164,LYS	-	-
1165,GLU	-	-
1166,PRO	-	-
