Q496J9	5jlvC	5jlvD	4jraC	4jraD	5moyB	6es1B
1,MET	-	-	-	-	-	-
2,GLU	-	-	-	-	-	-
3,ASP	-	-	-	-	-	-
4,SER	-	-	-	-	-	-
5,TYR	-	-	-	-	-	-
6,LYS	-	-	-	-	-	-
7,ASP	-	-	-	-	-	-
8,ARG	-	-	-	-	-	-
9,THR	-	-	-	-	-	-
10,SER	-	-	-	-	-	-
11,LEU	-	-	-	-	-	-
12,MET	-	-	-	-	-	-
13,LYS	-	-	-	-	-	-
14,GLY	-	-	-	-	-	-
15,ALA	-	-	-	-	-	-
16,LYS	-	-	-	-	-	-
17,ASP	-	-	-	-	-	-
18,ILE	-	-	-	-	-	-
19,ALA	-	-	-	-	-	-
20,ARG	-	-	-	-	-	-
21,GLU	-	-	-	-	-	-
22,VAL	-	-	-	-	-	-
23,LYS	-	-	-	-	-	-
24,LYS	-	-	-	-	-	-
25,GLN	-	-	-	-	-	-
26,THR	-	-	-	-	-	-
27,VAL	-	-	-	-	-	-
28,LYS	-	-	-	-	-	-
29,LYS	-	-	-	-	-	-
30,VAL	-	-	-	-	-	-
31,ASN	-	-	-	-	-	-
32,GLN	-	-	-	-	-	-
33,ALA	-	-	-	-	-	-
34,VAL	-	-	-	-	-	-
35,ASP	-	-	-	-	-	-
36,ARG	-	-	-	-	-	-
37,ALA	-	-	-	-	-	-
38,GLN	-	-	-	-	-	-
39,ASP	-	-	-	-	-	-
40,GLU	-	-	-	-	-	-
41,TYR	-	-	-	-	-	-
42,THR	-	-	-	-	-	-
43,GLN	-	-	-	-	-	-
44,ARG	-	-	-	-	-	-
45,SER	-	-	-	-	-	-
46,TYR	-	-	-	-	-	-
47,SER	-	-	-	-	-	-
48,ARG	-	-	-	-	-	-
49,PHE	-	-	-	-	-	-
50,GLN	-	-	-	-	-	-
51,ASP	-	-	-	-	-	-
52,GLU	-	-	-	-	-	-
53,GLU	-	-	-	-	-	-
54,ASP	-	-	-	-	-	-
55,ASP	-	-	-	-	-	-
56,ASP	-	-	-	-	-	-
57,ASP	-	-	-	-	-	-
58,TYR	-	-	-	-	-	-
59,TYR	-	-	-	-	-	-
60,PRO	-	-	-	-	-	-
61,ALA	-	-	-	-	-	-
62,GLY	-	-	-	-	-	-
63,GLU	-	-	-	-	-	-
64,THR	-	-	-	-	-	-
65,TYR	-	-	-	-	-	-
66,ASN	-	-	-	-	-	-
67,GLY	-	-	-	-	-	-
68,GLU	-	-	-	-	-	-
69,ALA	-	-	-	-	-	-
70,ASN	-	-	-	-	-	-
71,ASP	-	-	-	-	-	-
72,ASP	-	-	-	-	-	-
73,GLU	-	-	-	-	-	-
74,GLY	-	-	-	-	-	-
75,SER	-	-	-	-	-	-
76,SER	-	-	-	-	-	-
77,GLU	-	-	-	-	-	-
78,ALA	-	-	-	-	-	-
79,THR	-	-	-	-	-	-
80,GLU	-	-	-	-	-	-
81,GLY	-	-	-	-	-	-
82,HIS	-	-	-	-	-	-
83,ASP	-	-	-	-	-	-
84,GLU	-	-	-	-	-	-
85,ASP	-	-	-	-	-	-
86,ASP	-	-	-	-	-	-
87,GLU	-	-	-	-	-	-
88,ILE	-	-	-	-	-	-
89,TYR	-	-	-	-	-	-
90,GLU	-	-	-	-	-	-
91,GLY	-	-	-	-	-	-
92,GLU	-	-	-	-	-	-
93,TYR	-	-	-	-	-	-
94,GLN	-	-	-	-	-	-
95,GLY	-	-	-	-	-	-
96,ILE	-	-	-	-	-	-
97,PRO	-	-	-	-	-	-
98,SER	-	-	-	-	-	-
99,MET	-	-	-	-	-	-
100,ASN	-	-	-	-	-	-
101,GLN	-	-	-	-	-	-
102,ALA	-	-	-	-	-	-
103,LYS	-	-	-	-	-	-
104,ASP	-	-	-	-	-	-
105,SER	-	-	-	-	-	-
106,ILE	-	-	-	-	-	-
107,VAL	-	-	-	-	-	-
108,SER	-	-	-	-	-	-
109,VAL	-	-	-	-	-	-
110,GLY	-	-	-	-	-	-
111,GLN	-	-	-	-	-	-
112,PRO	-	-	-	-	-	-
113,LYS	-	-	-	-	-	-
114,GLY	-	-	-	-	-	-
115,ASP	-	-	-	-	-	-
116,GLU	-	-	-	-	-	-
117,TYR	-	-	-	-	-	-
118,LYS	-	-	-	-	-	-
119,ASP	-	-	-	-	-	-
120,ARG	-	-	-	-	-	-
121,ARG	-	-	-	-	-	-
122,GLU	-	-	-	-	-	-
123,LEU	-	-	-	-	-	-
124,GLU	-	-	-	-	-	-
125,SER	-	-	-	-	-	-
126,GLU	-	-	-	-	-	-
127,ARG	-	-	-	-	-	-
128,ARG	-	-	-	-	-	-
129,ALA	-	-	-	-	-	-
130,ASP	-	-	-	-	-	-
131,GLU	-	-	-	-	-	-
132,GLU	-	-	-	-	-	-
133,GLU	-	-	-	-	-	-
134,LEU	-	-	-	-	-	-
135,ALA	-	-	-	-	-	-
136,GLN	-	-	-	-	-	-
137,GLN	-	-	-	-	-	-
138,TYR	-	-	-	-	-	-
139,GLU	-	-	-	-	-	-
140,LEU	-	-	-	-	-	-
141,ILE	-	-	-	-	-	-
142,ILE	-	-	-	-	-	-
143,GLN	-	-	-	-	-	-
144,GLU	-	-	-	-	-	-
145,CYS	-	-	-	-	-	-
146,GLY	-	-	-	-	-	-
147,HIS	-	-	-	-	-	-
148,GLY	-	-	-	-	-	-
149,ARG	-	-	-	-	-	-
150,PHE	-	-	-	-	-	-
151,GLN	-	-	-	-	-	-
152,TRP	-	-	-	-	-	-
153,ALA	-	-	-	-	-	-
154,LEU	-	-	-	-	-	-
155,PHE	-	-	-	-	-	-
156,PHE	-	-	-	-	-	-
157,VAL	-	-	-	-	-	-
158,LEU	-	-	-	-	-	-
159,GLY	-	-	-	-	-	-
160,MET	-	-	-	-	-	-
161,ALA	-	-	-	-	-	-
162,LEU	-	-	-	-	-	-
163,MET	-	-	-	-	-	-
164,ALA	-	-	-	-	-	-
165,ASP	-	-	-	-	-	-
166,GLY	-	-	-	-	-	-
167,VAL	-	-	-	-	-	-
168,GLU	-	-	-	-	-	-
169,VAL	-	-	-	-	-	-
170,PHE	-	-	-	-	-	-
171,VAL	-	-	-	-	-	-
172,VAL	-	-	-	-	-	-
173,GLY	-	-	-	-	-	-
174,PHE	-	-	-	-	-	-
175,VAL	-	-	-	-	-	-
176,LEU	-	-	-	-	-	-
177,PRO	-	-	-	-	-	-
178,SER	-	-	-	-	-	-
179,ALA	-	-	-	-	-	-
180,GLU	-	-	-	-	-	-
181,THR	-	-	-	-	-	-
182,ASP	-	-	-	-	-	-
183,LEU	-	-	-	-	-	-
184,CYS	-	-	-	-	-	-
185,ILE	-	-	-	-	-	-
186,PRO	-	-	-	-	-	-
187,ASN	-	-	-	-	-	-
188,SER	-	-	-	-	-	-
189,GLY	-	-	-	-	-	-
190,SER	-	-	-	-	-	-
191,GLY	-	-	-	-	-	-
192,TRP	-	-	-	-	-	-
193,LEU	-	-	-	-	-	-
194,GLY	-	-	-	-	-	-
195,SER	-	-	-	-	-	-
196,ILE	-	-	-	-	-	-
197,VAL	-	-	-	-	-	-
198,TYR	-	-	-	-	-	-
199,LEU	-	-	-	-	-	-
200,GLY	-	-	-	-	-	-
201,MET	-	-	-	-	-	-
202,MET	-	-	-	-	-	-
203,VAL	-	-	-	-	-	-
204,GLY	-	-	-	-	-	-
205,ALA	-	-	-	-	-	-
206,PHE	-	-	-	-	-	-
207,PHE	-	-	-	-	-	-
208,TRP	-	-	-	-	-	-
209,GLY	-	-	-	-	-	-
210,GLY	-	-	-	-	-	-
211,LEU	-	-	-	-	-	-
212,ALA	-	-	-	-	-	-
213,ASP	-	-	-	-	-	-
214,LYS	-	-	-	-	-	-
215,VAL	-	-	-	-	-	-
216,GLY	-	-	-	-	-	-
217,ARG	-	-	-	-	-	-
218,LYS	-	-	-	-	-	-
219,GLN	-	-	-	-	-	-
220,SER	-	-	-	-	-	-
221,LEU	-	-	-	-	-	-
222,LEU	-	-	-	-	-	-
223,ILE	-	-	-	-	-	-
224,CYS	-	-	-	-	-	-
225,MET	-	-	-	-	-	-
226,SER	-	-	-	-	-	-
227,VAL	-	-	-	-	-	-
228,ASN	-	-	-	-	-	-
229,GLY	-	-	-	-	-	-
230,PHE	-	-	-	-	-	-
231,PHE	-	-	-	-	-	-
232,ALA	-	-	-	-	-	-
233,PHE	-	-	-	-	-	-
234,LEU	-	-	-	-	-	-
235,SER	-	-	-	-	-	-
236,SER	-	-	-	-	-	-
237,PHE	-	-	-	-	-	-
238,VAL	-	-	-	-	-	-
239,GLN	-	-	-	-	-	-
240,GLY	-	-	-	-	-	-
241,TYR	-	-	-	-	-	-
242,GLY	-	-	-	-	-	-
243,PHE	-	-	-	-	-	-
244,PHE	-	-	-	-	-	-
245,LEU	-	-	-	-	-	-
246,PHE	-	-	-	-	-	-
247,CYS	-	-	-	-	-	-
248,ARG	-	-	-	-	-	-
249,LEU	-	-	-	-	-	-
250,LEU	-	-	-	-	-	-
251,SER	-	-	-	-	-	-
252,GLY	-	-	-	-	-	-
253,PHE	-	-	-	-	-	-
254,GLY	-	-	-	-	-	-
255,ILE	-	-	-	-	-	-
256,GLY	-	-	-	-	-	-
257,GLY	-	-	-	-	-	-
258,ALA	-	-	-	-	-	-
259,ILE	-	-	-	-	-	-
260,PRO	-	-	-	-	-	-
261,THR	-	-	-	-	-	-
262,VAL	-	-	-	-	-	-
263,PHE	-	-	-	-	-	-
264,SER	-	-	-	-	-	-
265,TYR	-	-	-	-	-	-
266,PHE	-	-	-	-	-	-
267,ALA	-	-	-	-	-	-
268,GLU	-	-	-	-	-	-
269,VAL	-	-	-	-	-	-
270,LEU	-	-	-	-	-	-
271,ALA	-	-	-	-	-	-
272,ARG	-	-	-	-	-	-
273,GLU	-	-	-	-	-	-
274,LYS	-	-	-	-	-	-
275,ARG	-	-	-	-	-	-
276,GLY	-	-	-	-	-	-
277,GLU	-	-	-	-	-	-
278,HIS	-	-	-	-	-	-
279,LEU	-	-	-	-	-	-
280,SER	-	-	-	-	-	-
281,TRP	-	-	-	-	-	-
282,LEU	-	-	-	-	-	-
283,CYS	-	-	-	-	-	-
284,MET	-	-	-	-	-	-
285,PHE	-	-	-	-	-	-
286,TRP	-	-	-	-	-	-
287,MET	-	-	-	-	-	-
288,ILE	-	-	-	-	-	-
289,GLY	-	-	-	-	-	-
290,GLY	-	-	-	-	-	-
291,ILE	-	-	-	-	-	-
292,TYR	-	-	-	-	-	-
293,ALA	-	-	-	-	-	-
294,SER	-	-	-	-	-	-
295,ALA	-	-	-	-	-	-
296,MET	-	-	-	-	-	-
297,ALA	-	-	-	-	-	-
298,TRP	-	-	-	-	-	-
299,ALA	-	-	-	-	-	-
300,ILE	-	-	-	-	-	-
301,ILE	-	-	-	-	-	-
302,PRO	-	-	-	-	-	-
303,HIS	-	-	-	-	-	-
304,TYR	-	-	-	-	-	-
305,GLY	-	-	-	-	-	-
306,TRP	-	-	-	-	-	-
307,SER	-	-	-	-	-	-
308,PHE	-	-	-	-	-	-
309,SER	-	-	-	-	-	-
310,MET	-	-	-	-	-	-
311,GLY	-	-	-	-	-	-
312,SER	-	-	-	-	-	-
313,ALA	-	-	-	-	-	-
314,TYR	-	-	-	-	-	-
315,GLN	-	-	-	-	-	-
316,PHE	-	-	-	-	-	-
317,HIS	-	-	-	-	-	-
318,SER	-	-	-	-	-	-
319,TRP	-	-	-	-	-	-
320,ARG	-	-	-	-	-	-
321,VAL	-	-	-	-	-	-
322,PHE	-	-	-	-	-	-
323,VAL	-	-	-	-	-	-
324,ILE	-	-	-	-	-	-
325,VAL	-	-	-	-	-	-
326,CYS	-	-	-	-	-	-
327,ALA	-	-	-	-	-	-
328,LEU	-	-	-	-	-	-
329,PRO	-	-	-	-	-	-
330,CYS	-	-	-	-	-	-
331,VAL	-	-	-	-	-	-
332,SER	-	-	-	-	-	-
333,SER	-	-	-	-	-	-
334,VAL	-	-	-	-	-	-
335,VAL	-	-	-	-	-	-
336,ALA	-	-	-	-	-	-
337,LEU	-	-	-	-	-	-
338,THR	-	-	-	-	-	-
339,PHE	-	-	-	-	-	-
340,MET	-	-	-	-	-	-
341,PRO	-	-	-	-	-	-
342,GLU	-	-	-	-	-	-
343,SER	-	-	-	-	-	-
344,PRO	-	-	-	-	-	-
345,ARG	-	-	-	-	-	-
346,PHE	-	-	-	-	-	-
347,LEU	-	-	-	-	-	-
348,LEU	-	-	-	-	-	-
349,GLU	-	-	-	-	-	-
350,VAL	-	-	-	-	-	-
351,GLY	-	-	-	-	-	-
352,LYS	-	-	-	-	-	-
353,HIS	-	-	-	-	-	-
354,ASP	-	-	-	-	-	-
355,GLU	-	-	-	-	-	-
356,ALA	-	-	-	-	-	-
357,TRP	-	-	-	-	-	-
358,MET	-	-	-	-	-	-
359,ILE	-	-	-	-	-	-
360,LEU	-	-	-	-	-	-
361,LYS	-	-	-	-	-	-
362,LEU	-	-	-	-	-	-
363,ILE	-	-	-	-	-	-
364,HIS	-	-	-	-	-	-
365,ASP	-	-	-	-	-	-
366,THR	-	-	-	-	-	-
367,ASN	-	-	-	-	-	-
368,MET	-	-	-	-	-	-
369,ARG	-	-	-	-	-	-
370,ALA	-	-	-	-	-	-
371,ARG	-	-	-	-	-	-
372,GLY	-	-	-	-	-	-
373,GLN	-	-	-	-	-	-
374,PRO	-	-	-	-	-	-
375,GLU	-	-	-	-	-	-
376,LYS	-	-	-	-	-	-
377,VAL	-	-	-	-	-	-
378,PHE	-	-	-	-	-	-
379,THR	-	-	-	-	-	-
380,VAL	-	-	-	-	-	-
381,ASN	-	-	-	-	-	-
382,LYS	-	-	-	-	-	-
383,ILE	-	-	-	-	-	-
384,LYS	-	-	-	-	-	-
385,THR	-	-	-	-	-	-
386,PRO	-	-	-	-	-	-
387,LYS	-	-	-	-	-	-
388,GLN	-	-	-	-	-	-
389,ILE	-	-	-	-	-	-
390,ASP	-	-	-	-	-	-
391,GLU	-	-	-	-	-	-
392,LEU	-	-	-	-	-	-
393,ILE	-	-	-	-	-	-
394,GLU	-	-	-	-	-	-
395,ILE	-	-	-	-	-	-
396,GLU	-	-	-	-	-	-
397,SER	-	-	-	-	-	-
398,ASP	-	-	-	-	-	-
399,THR	-	-	-	-	-	-
400,GLY	-	-	-	-	-	-
401,THR	-	-	-	-	-	-
402,TRP	-	-	-	-	-	-
403,TYR	-	-	-	-	-	-
404,ARG	-	-	-	-	-	-
405,ARG	-	-	-	-	-	-
406,CYS	-	-	-	-	-	-
407,PHE	-	-	-	-	-	-
408,VAL	-	-	-	-	-	-
409,ARG	-	-	-	-	-	-
410,ILE	-	-	-	-	-	-
411,ARG	-	-	-	-	-	-
412,THR	-	-	-	-	-	-
413,GLU	-	-	-	-	-	-
414,LEU	-	-	-	-	-	-
415,TYR	-	-	-	-	-	-
416,GLY	-	-	-	-	-	-
417,ILE	-	-	-	-	-	-
418,TRP	-	-	-	-	-	-
419,LEU	-	-	-	-	-	-
420,THR	-	-	-	-	-	-
421,PHE	-	-	-	-	-	-
422,MET	-	-	-	-	-	-
423,ARG	-	-	-	-	-	-
424,CYS	-	-	-	-	-	-
425,PHE	-	-	-	-	-	-
426,ASN	-	-	-	-	-	-
427,TYR	-	-	-	-	-	-
428,PRO	-	-	-	-	-	-
429,VAL	-	-	-	-	-	-
430,ARG	-	-	-	-	-	-
431,ASP	-	-	-	-	-	-
432,ASN	-	-	-	-	-	-
433,THR	-	-	-	-	-	-
434,ILE	-	-	-	-	-	-
435,LYS	-	-	-	-	-	-
436,LEU	-	-	-	-	-	-
437,THR	-	-	-	-	-	-
438,ILE	-	-	-	-	-	-
439,VAL	-	-	-	-	-	-
440,TRP	-	-	-	-	-	-
441,PHE	-	-	-	-	-	-
442,THR	-	-	-	-	-	-
443,LEU	-	-	-	-	-	-
444,SER	-	-	-	-	-	-
445,PHE	-	-	-	-	-	-
446,GLY	-	-	-	-	-	-
447,TYR	-	-	-	-	-	-
448,TYR	-	-	-	-	-	-
449,GLY	-	-	-	-	-	-
450,LEU	-	-	-	-	-	-
451,SER	-	-	-	-	-	-
452,VAL	-	-	-	-	-	-
453,TRP	-	-	-	-	-	-
454,PHE	-	-	-	-	-	-
455,PRO	-	-	-	-	-	-
456,ASP	-	-	456,ASP	456,ASP	456,ASP	-
457,VAL	-	-	457,VAL	457,VAL	457,VAL	-
458,ILE	-	-	458,ILE	458,ILE	458,ILE	-
459,LYS	-	-	459,LYS	459,LYS	459,LYS	-
460,PRO	-	-	460,PRO	460,PRO	460,PRO	-
461,LEU	-	-	461,LEU	461,LEU	461,LEU	-
462,GLN	-	-	462,GLN	462,GLN	462,GLN	-
463,SER	-	-	463,SER	463,SER	463,SER	-
464,ASP	-	-	464,ASP	464,ASP	464,ASP	-
465,GLU	-	-	465,GLU	465,GLU	465,GLU	-
466,TYR	-	-	466,TYR	466,TYR	466,TYR	-
467,ALA	-	-	467,ALA	467,ALA	467,ALA	-
468,LEU	-	-	468,LEU	468,LEU	468,LEU	-
469,LEU	-	-	469,LEU	469,LEU	469,LEU	-
470,THR	-	-	470,THR	470,THR	470,THR	-
471,ARG	-	-	471,ARG	471,ARG	471,ARG	-
472,ASN	-	-	472,ASN	472,ASN	472,ASN	-
473,VAL	473,VAL	473,VAL	473,VAL	473,VAL	473,VAL	-
474,GLU	474,GLU	474,GLU	474,GLU	474,GLU	474,GLU	474,GLU
475,ARG	475,ARG	475,ARG	475,ARG	475,ARG	475,ARG	475,ARG
476,ASP	476,ASP	476,ASP	476,ASP	476,ASP	476,ASP	476,ASP
477,LYS	477,LYS	477,LYS	477,LYS	477,LYS	477,LYS	477,LYS
478,TYR	478,TYR	478,TYR	478,TYR	478,TYR	478,TYR	478,TYR
479,ALA	479,ALA	479,ALA	479,ALA	479,ALA	479,ALA	479,ALA
480,ASN	480,ASN	480,ASN	480,ASN	480,ASN	480,ASN	480,ASN
481,PHE	481,PHE	481,PHE	481,PHE	481,PHE	481,PHE	481,PHE
482,THR	482,THR	482,THR	482,THR	482,THR	482,THR	482,THR
483,ILE	483,ILE	483,ILE	483,ILE	483,ILE	483,ILE	483,ILE
484,ASN	484,ASN	484,ASN	484,ASN	484,ASN	484,ASN	484,ASN
485,PHE	485,PHE	485,PHE	485,PHE	485,PHE	485,PHE	485,PHE
486,THR	486,THR	486,THR	486,THR	486,THR	486,THR	486,THR
487,MET	487,MET	487,MET	487,MET	487,MET	487,MET	487,MET
488,GLU	488,GLU	488,GLU	488,GLU	488,GLU	488,GLU	488,GLU
489,ASN	489,ASN	489,ASN	489,ASN	489,ASN	489,ASN	489,ASN
490,GLN	490,GLN	490,GLN	490,GLN	490,GLN	490,GLN	490,GLN
491,ILE	491,ILE	491,ILE	491,ILE	491,ILE	491,ILE	491,ILE
492,HIS	492,HIS	492,HIS	492,HIS	492,HIS	492,HIS	492,HIS
493,THR	493,THR	493,THR	493,THR	493,THR	493,THR	493,THR
494,GLY	494,GLY	494,GLY	494,GLY	494,GLY	494,GLY	494,GLY
495,MET	495,MET	495,MET	495,MET	495,MET	495,MET	495,MET
496,GLU	496,GLU	496,GLU	496,GLU	496,GLU	496,GLU	496,GLU
497,TYR	497,TYR	497,TYR	497,TYR	497,TYR	497,TYR	497,TYR
498,ASP	498,ASP	498,ASP	498,ASP	498,ASP	498,ASP	498,ASP
499,ASN	499,ASN	499,ASN	499,ASN	499,ASN	499,ASN	499,ASN
500,GLY	500,GLY	500,GLY	500,GLY	500,GLY	500,GLY	500,GLY
501,ARG	501,ARG	501,ARG	501,ARG	501,ARG	501,ARG	501,ARG
502,PHE	502,PHE	502,PHE	502,PHE	502,PHE	502,PHE	502,PHE
503,ILE	503,ILE	503,ILE	503,ILE	503,ILE	503,ILE	503,ILE
504,GLY	504,GLY	504,GLY	504,GLY	504,GLY	504,GLY	504,GLY
505,VAL	505,VAL	505,VAL	505,VAL	505,VAL	505,VAL	505,VAL
506,LYS	506,LYS	506,LYS	506,LYS	506,LYS	506,LYS	506,LYS
507,PHE	507,PHE	507,PHE	507,PHE	507,PHE	507,PHE	507,PHE
508,LYS	508,LYS	508,LYS	508,LYS	508,LYS	508,LYS	508,LYS
509,SER	509,SER	509,SER	509,SER	509,SER	509,SER	509,SER
510,VAL	510,VAL	510,VAL	510,VAL	510,VAL	510,VAL	510,VAL
511,THR	511,THR	511,THR	511,THR	511,THR	511,THR	511,THR
512,PHE	512,PHE	512,PHE	512,PHE	512,PHE	512,PHE	512,PHE
513,LYS	513,LYS	513,LYS	513,LYS	513,LYS	513,LYS	513,LYS
514,ASP	514,ASP	514,ASP	514,ASP	514,ASP	514,ASP	514,ASP
515,SER	515,SER	515,SER	515,SER	515,SER	515,SER	515,SER
516,VAL	516,VAL	516,VAL	516,VAL	516,VAL	516,VAL	516,VAL
517,PHE	517,PHE	517,PHE	517,PHE	517,PHE	517,PHE	517,PHE
518,LYS	518,LYS	518,LYS	518,LYS	518,LYS	518,LYS	518,LYS
519,SER	519,SER	519,SER	519,SER	519,SER	519,SER	519,SER
520,CYS	520,CYS	520,CYS	520,CYS	520,CYS	520,CYS	520,CYS
521,THR	521,THR	521,THR	521,THR	521,THR	521,THR	521,THR
522,PHE	522,PHE	522,PHE	522,PHE	522,PHE	522,PHE	522,PHE
523,GLU	523,GLU	523,GLU	523,GLU	523,GLU	523,GLU	523,GLU
524,ASP	524,ASP	524,ASP	524,ASP	524,ASP	524,ASP	524,ASP
525,VAL	525,VAL	525,VAL	525,VAL	525,VAL	525,VAL	525,VAL
526,THR	526,THR	526,THR	526,THR	526,THR	526,THR	526,THR
527,SER	527,SER	527,SER	527,SER	527,SER	527,SER	527,SER
528,VAL	528,VAL	528,VAL	528,VAL	528,VAL	528,VAL	528,VAL
529,ASN	529,ASN	529,ASN	529,ASN	529,ASN	529,ASN	529,ASN
530,THR	530,THR	530,THR	530,THR	530,THR	530,THR	530,THR
531,TYR	531,TYR	531,TYR	531,TYR	531,TYR	531,TYR	531,TYR
532,PHE	532,PHE	532,PHE	532,PHE	532,PHE	532,PHE	532,PHE
533,LYS	533,LYS	533,LYS	533,LYS	533,LYS	533,LYS	533,LYS
534,ASN	534,ASN	534,ASN	534,ASN	534,ASN	534,ASN	534,ASN
535,CYS	535,CYS	535,CYS	535,CYS	535,CYS	535,CYS	535,CYS
536,THR	536,THR	536,THR	536,THR	536,THR	536,THR	536,THR
537,PHE	537,PHE	537,PHE	537,PHE	537,PHE	537,PHE	537,PHE
538,ILE	538,ILE	538,ILE	538,ILE	538,ILE	538,ILE	538,ILE
539,ASP	539,ASP	539,ASP	539,ASP	539,ASP	539,ASP	539,ASP
540,THR	540,THR	540,THR	540,THR	540,THR	540,THR	540,THR
541,VAL	541,VAL	541,VAL	541,VAL	541,VAL	541,VAL	541,VAL
542,PHE	542,PHE	542,PHE	542,PHE	542,PHE	542,PHE	542,PHE
543,ASP	543,ASP	543,ASP	543,ASP	543,ASP	543,ASP	543,ASP
544,ASN	544,ASN	544,ASN	544,ASN	544,ASN	544,ASN	544,ASN
545,THR	545,THR	545,THR	545,THR	545,THR	545,THR	545,THR
546,ASP	546,ASP	546,ASP	546,ASP	546,ASP	546,ASP	546,ASP
547,PHE	547,PHE	547,PHE	547,PHE	547,PHE	547,PHE	547,PHE
548,GLU	548,GLU	548,GLU	548,GLU	548,GLU	548,GLU	548,GLU
549,PRO	549,PRO	549,PRO	549,PRO	549,PRO	549,PRO	549,PRO
550,TYR	550,TYR	550,TYR	550,TYR	550,TYR	550,TYR	550,TYR
551,LYS	551,LYS	551,LYS	551,LYS	551,LYS	551,LYS	551,LYS
552,PHE	552,PHE	552,PHE	552,PHE	552,PHE	552,PHE	552,PHE
553,ILE	553,ILE	553,ILE	553,ILE	553,ILE	553,ILE	553,ILE
554,ASP	554,ASP	554,ASP	554,ASP	554,ASP	554,ASP	554,ASP
555,SER	555,SER	555,SER	555,SER	555,SER	555,SER	555,SER
556,GLU	556,GLU	556,GLU	556,GLU	556,GLU	556,GLU	556,GLU
557,PHE	557,PHE	557,PHE	557,PHE	557,PHE	557,PHE	557,PHE
558,LYS	558,LYS	561,SER	558,LYS	558,LYS	558,LYS	558,LYS
559,ASN	559,ASN	558,LYS	559,ASN	559,ASN	559,ASN	559,ASN
560,CYS	560,CYS	559,ASN	560,CYS	560,CYS	560,CYS	560,CYS
561,SER	561,SER	560,CYS	561,SER	561,SER	561,SER	561,SER
562,PHE	562,PHE	562,PHE	562,PHE	562,PHE	562,PHE	562,PHE
563,PHE	563,PHE	563,PHE	563,PHE	563,PHE	563,PHE	563,PHE
564,HIS	564,HIS	564,HIS	564,HIS	564,HIS	564,HIS	564,HIS
565,ASN	565,ASN	565,ASN	565,ASN	565,ASN	565,ASN	565,ASN
566,LYS	566,LYS	566,LYS	566,LYS	566,LYS	566,LYS	566,LYS
567,THR	567,THR	567,THR	567,THR	567,THR	567,THR	567,THR
568,GLY	-	-	568,GLY	568,GLY	568,GLY	-
569,CYS	-	-	569,CYS	569,CYS	569,CYS	-
570,GLN	-	-	570,GLN	570,GLN	570,GLN	-
571,ILE	-	-	571,ILE	571,ILE	571,ILE	-
572,THR	-	-	572,THR	572,THR	572,THR	-
573,PHE	-	-	573,PHE	573,PHE	573,PHE	-
574,ASP	-	-	574,ASP	574,ASP	574,ASP	-
575,ASP	-	-	-	-	-	-
576,ASP	-	-	-	-	-	-
577,TYR	-	-	-	-	-	-
578,SER	-	-	-	-	-	-
579,ALA	-	-	-	-	-	-
580,TYR	-	-	-	-	-	-
581,TRP	-	-	-	-	-	-
582,ILE	-	-	-	-	-	-
583,TYR	-	-	-	-	-	-
584,PHE	-	-	-	-	-	-
585,VAL	-	-	-	-	-	-
586,ASN	-	-	-	-	-	-
587,PHE	-	-	-	-	-	-
588,LEU	-	-	-	-	-	-
589,GLY	-	-	-	-	-	-
590,THR	-	-	-	-	-	-
591,LEU	-	-	-	-	-	-
592,ALA	-	-	-	-	-	-
593,VAL	-	-	-	-	-	-
594,LEU	-	-	-	-	-	-
595,PRO	-	-	-	-	-	-
596,GLY	-	-	-	-	-	-
597,ASN	-	-	-	-	-	-
598,ILE	-	-	-	-	-	-
599,VAL	-	-	-	-	-	-
600,SER	-	-	-	-	-	-
601,ALA	-	-	-	-	-	-
602,LEU	-	-	-	-	-	-
603,LEU	-	-	-	-	-	-
604,MET	-	-	-	-	-	-
605,ASP	-	-	-	-	-	-
606,ARG	-	-	-	-	-	-
607,ILE	-	-	-	-	-	-
608,GLY	-	-	-	-	-	-
609,ARG	-	-	-	-	-	-
610,LEU	-	-	-	-	-	-
611,THR	-	-	-	-	-	-
612,MET	-	-	-	-	-	-
613,LEU	-	-	-	-	-	-
614,GLY	-	-	-	-	-	-
615,GLY	-	-	-	-	-	-
616,SER	-	-	-	-	-	-
617,MET	-	-	-	-	-	-
618,VAL	-	-	-	-	-	-
619,LEU	-	-	-	-	-	-
620,SER	-	-	-	-	-	-
621,GLY	-	-	-	-	-	-
622,ILE	-	-	-	-	-	-
623,SER	-	-	-	-	-	-
624,CYS	-	-	-	-	-	-
625,PHE	-	-	-	-	-	-
626,PHE	-	-	-	-	-	-
627,LEU	-	-	-	-	-	-
628,TRP	-	-	-	-	-	-
629,PHE	-	-	-	-	-	-
630,GLY	-	-	-	-	-	-
631,THR	-	-	-	-	-	-
632,SER	-	-	-	-	-	-
633,GLU	-	-	-	-	-	-
634,SER	-	-	-	-	-	-
635,MET	-	-	-	-	-	-
636,MET	-	-	-	-	-	-
637,ILE	-	-	-	-	-	-
638,GLY	-	-	-	-	-	-
639,MET	-	-	-	-	-	-
640,LEU	-	-	-	-	-	-
641,CYS	-	-	-	-	-	-
642,LEU	-	-	-	-	-	-
643,TYR	-	-	-	-	-	-
644,ASN	-	-	-	-	-	-
645,GLY	-	-	-	-	-	-
646,LEU	-	-	-	-	-	-
647,THR	-	-	-	-	-	-
648,ILE	-	-	-	-	-	-
649,SER	-	-	-	-	-	-
650,ALA	-	-	-	-	-	-
651,TRP	-	-	-	-	-	-
652,ASN	-	-	-	-	-	-
653,SER	-	-	-	-	-	-
654,LEU	-	-	-	-	-	-
655,ASP	-	-	-	-	-	-
656,VAL	-	-	-	-	-	-
657,VAL	-	-	-	-	-	-
658,THR	-	-	-	-	-	-
659,VAL	-	-	-	-	-	-
660,GLU	-	-	-	-	-	-
661,LEU	-	-	-	-	-	-
662,TYR	-	-	-	-	-	-
663,PRO	-	-	-	-	-	-
664,THR	-	-	-	-	-	-
665,ASP	-	-	-	-	-	-
666,ARG	-	-	-	-	-	-
667,ARG	-	-	-	-	-	-
668,ALA	-	-	-	-	-	-
669,THR	-	-	-	-	-	-
670,GLY	-	-	-	-	-	-
671,PHE	-	-	-	-	-	-
672,GLY	-	-	-	-	-	-
673,PHE	-	-	-	-	-	-
674,LEU	-	-	-	-	-	-
675,ASN	-	-	-	-	-	-
676,ALA	-	-	-	-	-	-
677,LEU	-	-	-	-	-	-
678,CYS	-	-	-	-	-	-
679,LYS	-	-	-	-	-	-
680,ALA	-	-	-	-	-	-
681,ALA	-	-	-	-	-	-
682,ALA	-	-	-	-	-	-
683,VAL	-	-	-	-	-	-
684,LEU	-	-	-	-	-	-
685,GLY	-	-	-	-	-	-
686,ASN	-	-	-	-	-	-
687,LEU	-	-	-	-	-	-
688,ILE	-	-	-	-	-	-
689,PHE	-	-	-	-	-	-
690,GLY	-	-	-	-	-	-
691,SER	-	-	-	-	-	-
692,LEU	-	-	-	-	-	-
693,VAL	-	-	-	-	-	-
694,SER	-	-	-	-	-	-
695,ILE	-	-	-	-	-	-
696,THR	-	-	-	-	-	-
697,LYS	-	-	-	-	-	-
698,SER	-	-	-	-	-	-
699,ILE	-	-	-	-	-	-
700,PRO	-	-	-	-	-	-
701,ILE	-	-	-	-	-	-
702,LEU	-	-	-	-	-	-
703,LEU	-	-	-	-	-	-
704,ALA	-	-	-	-	-	-
705,SER	-	-	-	-	-	-
706,THR	-	-	-	-	-	-
707,VAL	-	-	-	-	-	-
708,LEU	-	-	-	-	-	-
709,VAL	-	-	-	-	-	-
710,CYS	-	-	-	-	-	-
711,GLY	-	-	-	-	-	-
712,GLY	-	-	-	-	-	-
713,LEU	-	-	-	-	-	-
714,VAL	-	-	-	-	-	-
715,GLY	-	-	-	-	-	-
716,LEU	-	-	-	-	-	-
717,CYS	-	-	-	-	-	-
718,LEU	-	-	-	-	-	-
719,PRO	-	-	-	-	-	-
720,ASP	-	-	-	-	-	-
721,THR	-	-	-	-	-	-
722,ARG	-	-	-	-	-	-
723,THR	-	-	-	-	-	-
724,GLN	-	-	-	-	-	-
725,VAL	-	-	-	-	-	-
726,LEU	-	-	-	-	-	-
727,MET	-	-	-	-	-	-
