uniprot_isoform	location_id	ENSEMBL ID	uniprot_start	uniprot_end	3j96G_start	3j96G_end	3j96I_start	3j96I_end	3j96H_start	3j96H_end	3j96J_start	3j96J_end	6mdnK_start	6mdnK_end	6mdmK_start	6mdmK_end	3j97J_start	3j97J_end	3j97G_start	3j97G_end	3j97I_start	3j97I_end	3j97H_start	3j97H_end	3j98G_start	3j98G_end	3j98I_start	3j98I_end	3j98H_start	3j98H_end	3j98J_start	3j98J_end	3j99G_start	3j99G_end	3j99I_start	3j99I_end	3j99H_start	3j99H_end	3j99J_start	3j99J_end
1	1_77994272_78012262_1	ENSRNOE00000014323	1	33	1	33	1	33	1	33	1	33	1	33	1	33	1	33	1	33	1	33	1	33	1	33	1	33	1	33	1	33	1	33	1	33	1	33	1	33
1	1_77994272_78012262_1	ENSRNOE00000014324	33	60	33	60	33	60	33	60	33	60	33	60	33	60	33	60	33	60	33	60	33	60	33	60	33	60	33	60	33	60	33	60	33	60	33	60	33	60
1	1_77994272_78012262_1	ENSRNOE00000014325	60	99	60	102	60	99	60	99	60	99	60	99	60	99	60	99	60	99	60	99	60	99	60	99	60	99	60	99	60	99	60	99	60	98	60	99	60	102
1	1_77994272_78012262_1	ENSRNOE00000014326	99	114	102	114	99	114	99	114	99	114	99	114	99	114	99	114	99	114	99	114	99	114	99	114	99	114	99	114	99	114	99	114	98	114	99	114	102	114
1	1_77994272_78012262_1	ENSRNOE00000346796	115	140	115	140	115	140	115	140	115	140	115	140	115	140	115	140	115	140	115	140	115	140	115	140	115	140	115	140	115	140	115	140	115	140	115	140	115	140
1	1_77994272_78012262_1	ENSRNOE00000014328	141	159	141	159	141	159	141	159	141	159	141	159	141	159	141	162	141	159	141	159	141	159	141	159	141	159	141	159	141	159	141	159	141	159	141	159	141	159
1	1_77994272_78012262_1	ENSRNOE00000014329	159	187	159	187	159	187	159	187	159	187	159	187	159	187	162	187	159	187	159	187	159	187	159	187	159	187	159	187	159	187	159	187	159	187	159	187	159	187
1	1_77994272_78012262_1	ENSRNOE00000306199	188	222	188	222	188	222	188	222	188	222	188	222	188	222	188	222	188	222	188	222	188	222	188	222	188	222	188	222	188	222	188	222	188	222	188	222	188	222
1	1_77994272_78012262_1	ENSRNOE00000014331	223	245	223	245	223	245	223	245	223	245	223	245	223	245	223	245	223	245	223	245	223	245	223	245	223	245	223	245	223	245	223	245	223	245	223	245	223	245
1	1_77994272_78012262_1	ENSRNOE00000014332	246	262	246	262	246	262	246	262	246	262	246	261	246	262	246	262	246	262	246	262	246	262	246	262	246	262	246	262	246	262	246	262	246	262	246	262	246	262
1	1_77994272_78012262_1	ENSRNOE00000014333	263	295	263	295	263	295	263	295	263	295	262	-	263	295	263	295	263	295	263	295	263	295	263	295	263	295	263	295	263	295	263	295	263	295	263	295	263	295
