P35844	1zhyA	1zhxA	1zhzA	4f4bA	4f4bB	1zhtA	1zhwA	4jchB	4jchA	4fesA	4fesB	3spwA	3spwB	1zi7A	1zi7C	1zi7B
1,MET	-	-	-	-	-	-	-	-	-	-	-	1,MET	1,MET	-	-	-
2,SER	2,SER	2,SER	2,SER	2,SER	2,SER	2,SER	2,SER	2,SER	2,SER	2,SER	2,SER	2,SER	2,SER	-	-	-
3,GLN	3,GLN	3,GLN	3,GLN	3,GLN	3,GLN	3,GLN	3,GLN	3,GLN	3,GLN	3,GLN	3,GLN	3,GLN	3,GLN	-	-	-
4,TYR	4,TYR	4,TYR	4,TYR	4,TYR	4,TYR	4,TYR	4,TYR	4,TYR	4,TYR	4,TYR	4,TYR	4,TYR	4,TYR	-	-	-
5,ALA	5,ALA	5,ALA	5,ALA	5,ALA	5,ALA	5,ALA	5,ALA	5,ALA	5,ALA	5,ALA	5,ALA	5,ALA	5,ALA	-	-	-
6,SER	6,SER	6,SER	6,SER	6,SER	6,SER	6,SER	6,SER	6,SER	6,SER	6,SER	6,SER	6,SER	6,SER	-	-	-
7,SER	7,SER	7,SER	7,SER	7,SER	7,SER	7,SER	7,SER	7,SER	7,SER	7,SER	7,SER	7,SER	7,SER	-	-	-
8,SER	8,SER	8,SER	8,SER	8,SER	8,SER	8,SER	8,SER	8,SER	8,SER	8,SER	8,SER	8,SER	8,SER	-	-	-
9,SER	9,SER	9,SER	9,SER	9,SER	9,SER	9,SER	9,SER	9,SER	9,SER	9,SER	9,SER	9,SER	9,SER	-	-	-
10,TRP	10,TRP	10,TRP	10,TRP	10,TRP	10,TRP	10,TRP	10,TRP	10,TRP	10,TRP	10,TRP	10,TRP	10,TRP	10,TRP	-	-	-
11,THR	11,THR	11,THR	11,THR	11,THR	11,THR	11,THR	11,THR	11,THR	11,THR	11,THR	11,THR	11,THR	11,THR	-	-	-
12,SER	12,SER	12,SER	12,SER	12,SER	12,SER	12,SER	12,SER	12,SER	12,SER	12,SER	12,SER	12,SER	12,SER	-	-	-
13,PHE	13,PHE	13,PHE	13,PHE	13,PHE	13,PHE	13,PHE	13,PHE	13,PHE	13,PHE	13,PHE	13,PHE	13,PHE	13,PHE	-	-	-
14,LEU	14,LEU	14,LEU	14,LEU	14,LEU	14,LEU	14,LEU	14,LEU	14,LEU	14,LEU	14,LEU	14,LEU	14,LEU	14,LEU	-	-	-
15,LYS	15,LYS	15,LYS	15,LYS	15,LYS	15,LYS	15,LYS	15,LYS	15,LYS	15,LYS	15,LYS	15,LYS	15,LYS	15,LYS	-	-	-
16,SER	16,SER	16,SER	16,SER	16,SER	16,SER	16,SER	16,SER	16,SER	16,SER	16,SER	16,SER	16,SER	16,SER	-	-	-
17,ILE	17,ILE	17,ILE	17,ILE	17,ILE	17,ILE	17,ILE	17,ILE	17,ILE	17,ILE	17,ILE	17,ILE	17,ILE	17,ILE	-	-	-
18,ALA	18,ALA	18,ALA	18,ALA	18,ALA	18,ALA	18,ALA	18,ALA	18,ALA	18,ALA	18,ALA	18,ALA	18,ALA	18,ALA	-	-	-
19,SER	19,SER	19,SER	19,SER	19,SER	19,SER	19,SER	19,SER	19,SER	19,SER	19,SER	19,SER	19,SER	19,SER	-	-	-
20,PHE	20,PHE	20,PHE	20,PHE	20,PHE	20,PHE	20,PHE	20,PHE	20,PHE	20,PHE	20,PHE	20,PHE	20,PHE	20,PHE	-	-	-
21,ASN	21,ASN	21,ASN	21,ASN	21,ASN	21,ASN	21,ASN	21,ASN	21,ASN	21,ASN	21,ASN	21,ASN	21,ASN	21,ASN	-	-	-
22,GLY	22,GLY	22,GLY	22,GLY	22,GLY	22,GLY	22,GLY	22,GLY	22,GLY	22,GLY	22,GLY	22,GLY	22,GLY	22,GLY	-	-	-
23,ASP	23,ASP	23,ASP	23,ASP	23,ASP	23,ASP	23,ASP	23,ASP	23,ASP	23,ASP	23,ASP	23,ASP	23,ASP	23,ASP	-	-	-
24,LEU	24,LEU	24,LEU	24,LEU	24,LEU	24,LEU	24,LEU	24,LEU	24,LEU	24,LEU	24,LEU	24,LEU	24,LEU	24,LEU	-	-	-
25,SER	25,SER	25,SER	25,SER	25,SER	25,SER	25,SER	25,SER	25,SER	25,SER	25,SER	25,SER	25,SER	25,SER	-	-	-
26,SER	26,SER	26,SER	26,SER	26,SER	26,SER	26,SER	26,SER	26,SER	26,SER	26,SER	26,SER	26,SER	26,SER	-	-	-
27,LEU	27,LEU	27,LEU	27,LEU	27,LEU	27,LEU	27,LEU	27,LEU	27,LEU	27,LEU	27,LEU	27,LEU	27,LEU	27,LEU	-	-	-
28,SER	28,SER	28,SER	28,SER	28,SER	28,SER	28,SER	28,SER	28,SER	28,SER	28,SER	28,SER	28,SER	28,SER	-	-	-
29,ALA	29,ALA	29,ALA	29,ALA	29,ALA	29,ALA	29,ALA	29,ALA	29,ALA	29,ALA	29,ALA	29,ALA	29,ALA	29,ALA	-	-	-
30,PRO	30,PRO	30,PRO	30,PRO	30,PRO	30,PRO	30,PRO	30,PRO	30,PRO	30,PRO	30,PRO	30,PRO	30,PRO	30,PRO	30,PRO	-	-
31,PRO	31,PRO	31,PRO	31,PRO	31,PRO	31,PRO	31,PRO	31,PRO	31,PRO	31,PRO	31,PRO	31,PRO	31,PRO	31,PRO	31,PRO	-	-
32,PHE	32,PHE	32,PHE	32,PHE	32,PHE	32,PHE	32,PHE	32,PHE	32,PHE	32,PHE	32,PHE	32,PHE	32,PHE	32,PHE	32,PHE	-	-
33,ILE	33,ILE	33,ILE	33,ILE	33,ILE	33,ILE	33,ILE	33,ILE	33,ILE	33,ILE	33,ILE	33,ILE	33,ILE	33,ILE	33,ILE	-	-
34,LEU	34,LEU	34,LEU	34,LEU	34,LEU	34,LEU	34,LEU	34,LEU	34,LEU	34,LEU	34,LEU	34,LEU	34,LEU	34,LEU	34,LEU	34,LEU	34,LEU
35,SER	35,SER	35,SER	35,SER	35,SER	35,SER	35,SER	35,SER	35,SER	35,SER	35,SER	35,SER	35,SER	35,SER	35,SER	35,SER	35,SER
36,PRO	36,PRO	36,PRO	36,PRO	36,PRO	36,PRO	36,PRO	36,PRO	36,PRO	36,PRO	36,PRO	36,PRO	36,PRO	36,PRO	36,PRO	36,PRO	36,PRO
37,ILE	37,ILE	37,ILE	37,ILE	37,ILE	37,ILE	37,ILE	37,ILE	37,ILE	37,ILE	37,ILE	37,ILE	37,ILE	37,ILE	37,ILE	37,ILE	37,ILE
38,SER	38,SER	38,SER	38,SER	38,SER	38,SER	38,SER	38,SER	38,SER	38,SER	38,SER	38,SER	38,SER	38,SER	38,SER	38,SER	38,SER
39,LEU	39,LEU	39,LEU	39,LEU	39,LEU	39,LEU	39,LEU	39,LEU	39,LEU	39,LEU	39,LEU	39,LEU	39,LEU	39,LEU	39,LEU	39,LEU	39,LEU
40,THR	40,THR	40,THR	40,THR	40,THR	40,THR	40,THR	40,THR	40,THR	40,THR	40,THR	40,THR	40,THR	40,THR	40,THR	40,THR	40,THR
41,GLU	41,GLU	41,GLU	41,GLU	41,GLU	41,GLU	41,GLU	41,GLU	41,GLU	41,GLU	41,GLU	41,GLU	41,GLU	41,GLU	41,GLU	41,GLU	41,GLU
42,PHE	42,PHE	42,PHE	42,PHE	42,PHE	42,PHE	42,PHE	42,PHE	42,PHE	42,PHE	42,PHE	42,PHE	42,PHE	42,PHE	42,PHE	42,PHE	42,PHE
43,SER	43,SER	43,SER	43,SER	43,SER	43,SER	43,SER	43,SER	43,SER	43,SER	43,SER	43,SER	43,SER	43,SER	43,SER	43,SER	43,SER
44,GLN	44,GLN	44,GLN	44,GLN	44,GLN	44,GLN	44,GLN	44,GLN	44,GLN	44,GLN	44,GLN	44,GLN	44,GLN	44,GLN	44,GLN	44,GLN	44,GLN
45,TYR	45,TYR	45,TYR	45,TYR	45,TYR	45,TYR	45,TYR	45,TYR	45,TYR	45,TYR	45,TYR	45,TYR	45,TYR	45,TYR	45,TYR	45,TYR	45,TYR
46,TRP	46,TRP	46,TRP	46,TRP	46,TRP	46,TRP	46,TRP	46,TRP	46,TRP	46,TRP	46,TRP	46,TRP	46,TRP	46,TRP	46,TRP	46,TRP	46,TRP
47,ALA	47,ALA	47,ALA	47,ALA	47,ALA	47,ALA	47,ALA	47,ALA	47,ALA	47,ALA	47,ALA	47,ALA	47,ALA	47,ALA	47,ALA	47,ALA	47,ALA
48,GLU	48,GLU	48,GLU	48,GLU	48,GLU	48,GLU	48,GLU	48,GLU	48,GLU	48,GLU	48,GLU	48,GLU	48,GLU	48,GLU	48,GLU	48,GLU	48,GLU
49,HIS	49,HIS	49,HIS	49,HIS	49,HIS	49,HIS	49,HIS	49,HIS	49,HIS	49,HIS	49,HIS	49,HIS	49,HIS	49,HIS	49,HIS	49,HIS	49,HIS
50,PRO	50,PRO	50,PRO	50,PRO	50,PRO	50,PRO	50,PRO	50,PRO	50,PRO	50,PRO	50,PRO	50,PRO	50,PRO	50,PRO	50,PRO	50,PRO	50,PRO
51,GLU	51,GLU	51,GLU	51,GLU	51,GLU	51,GLU	51,GLU	51,GLU	51,GLU	51,GLU	51,GLU	51,GLU	51,GLU	51,GLU	51,GLU	51,GLU	51,GLU
52,LEU	52,LEU	52,LEU	52,LEU	52,LEU	52,LEU	52,LEU	52,LEU	52,LEU	52,LEU	52,LEU	52,LEU	52,LEU	52,LEU	52,LEU	52,LEU	52,LEU
53,PHE	53,PHE	53,PHE	53,PHE	53,PHE	53,PHE	53,PHE	53,PHE	53,PHE	53,PHE	53,PHE	53,PHE	53,PHE	53,PHE	53,PHE	53,PHE	53,PHE
54,LEU	54,LEU	54,LEU	54,LEU	54,LEU	54,LEU	54,LEU	54,LEU	54,LEU	54,LEU	54,LEU	54,LEU	54,LEU	54,LEU	54,LEU	54,LEU	54,LEU
55,GLU	55,GLU	55,GLU	55,GLU	55,GLU	55,GLU	55,GLU	55,GLU	55,GLU	55,GLU	55,GLU	55,GLU	55,GLU	55,GLU	55,GLU	55,GLU	55,GLU
56,PRO	56,PRO	56,PRO	56,PRO	56,PRO	56,PRO	56,PRO	56,PRO	56,PRO	56,PRO	56,PRO	56,PRO	56,PRO	56,PRO	56,PRO	56,PRO	56,PRO
57,SER	57,SER	57,SER	57,SER	57,SER	57,SER	57,SER	57,SER	57,SER	57,SER	57,SER	57,SER	57,SER	57,SER	57,SER	57,SER	57,SER
58,PHE	58,PHE	58,PHE	58,PHE	58,PHE	58,PHE	58,PHE	58,PHE	58,PHE	58,PHE	58,PHE	58,PHE	58,PHE	58,PHE	58,PHE	58,PHE	58,PHE
59,ILE	59,ILE	59,ILE	59,ILE	59,ILE	59,ILE	59,ILE	59,ILE	59,ILE	59,ILE	59,ILE	59,ILE	59,ILE	59,ILE	59,ILE	59,ILE	59,ILE
60,ASN	60,ASN	60,ASN	60,ASN	60,ASN	60,ASN	60,ASN	60,ASN	60,ASN	60,ASN	60,ASN	60,ASN	60,ASN	60,ASN	60,ASN	60,ASN	60,ASN
61,ASP	61,ASP	61,ASP	61,ASP	61,ASP	61,ASP	61,ASP	61,ASP	61,ASP	61,ASP	61,ASP	61,ASP	61,ASP	61,ASP	61,ASP	61,ASP	61,ASP
62,ASP	62,ASP	62,ASP	62,ASP	62,ASP	62,ASP	62,ASP	62,ASP	62,ASP	62,ASP	62,ASP	62,ASP	62,ASP	62,ASP	62,ASP	62,ASP	62,ASP
63,ASN	63,ASN	63,ASN	63,ASN	63,ASN	63,ASN	63,ASN	63,ASN	63,ASN	63,ASN	63,ASN	63,ASN	63,ASN	63,ASN	63,ASN	63,ASN	63,ASN
64,TYR	64,TYR	64,TYR	64,TYR	64,TYR	64,TYR	64,TYR	64,TYR	64,TYR	64,TYR	64,TYR	64,TYR	64,TYR	64,TYR	64,TYR	64,TYR	64,TYR
65,LYS	65,LYS	65,LYS	65,LYS	65,LYS	65,LYS	65,LYS	65,LYS	65,LYS	65,LYS	65,LYS	65,LYS	65,LYS	65,LYS	65,LYS	65,LYS	65,LYS
66,GLU	66,GLU	66,GLU	66,GLU	66,GLU	66,GLU	66,GLU	66,GLU	66,GLU	66,GLU	66,GLU	66,GLU	66,GLU	66,GLU	66,GLU	66,GLU	66,GLU
67,HIS	67,HIS	67,HIS	67,HIS	67,HIS	67,HIS	67,HIS	67,HIS	67,HIS	67,HIS	67,HIS	70,ILE	67,HIS	67,HIS	67,HIS	67,HIS	67,HIS
68,CYS	68,CYS	68,CYS	68,CYS	68,CYS	68,CYS	68,CYS	68,CYS	68,CYS	68,CYS	68,CYS	67,HIS	68,CYS	68,CYS	68,CYS	68,CYS	68,CYS
69,LEU	69,LEU	69,LEU	69,LEU	69,LEU	69,LEU	69,LEU	69,LEU	69,LEU	69,LEU	69,LEU	68,CYS	69,LEU	69,LEU	69,LEU	69,LEU	69,LEU
70,ILE	70,ILE	70,ILE	70,ILE	70,ILE	70,ILE	70,ILE	70,ILE	70,ILE	70,ILE	70,ILE	69,LEU	70,ILE	70,ILE	70,ILE	70,ILE	70,ILE
71,ASP	71,ASP	71,ASP	71,ASP	71,ASP	71,ASP	71,ASP	71,ASP	71,ASP	71,ASP	71,ASP	71,ASP	71,ASP	71,ASP	71,ASP	71,ASP	71,ASP
72,PRO	72,PRO	72,PRO	72,PRO	72,PRO	72,PRO	72,PRO	72,PRO	72,PRO	72,PRO	72,PRO	72,PRO	72,PRO	72,PRO	72,PRO	72,PRO	72,PRO
73,GLU	73,GLU	73,GLU	73,GLU	73,GLU	73,GLU	73,GLU	73,GLU	73,GLU	73,GLU	73,GLU	73,GLU	73,GLU	73,GLU	73,GLU	73,GLU	73,GLU
74,VAL	74,VAL	74,VAL	74,VAL	74,VAL	74,VAL	74,VAL	74,VAL	74,VAL	74,VAL	74,VAL	74,VAL	74,VAL	74,VAL	74,VAL	74,VAL	74,VAL
75,GLU	75,GLU	75,GLU	75,GLU	75,GLU	75,GLU	75,GLU	75,GLU	75,GLU	75,GLU	75,GLU	75,GLU	75,GLU	75,GLU	75,GLU	75,GLU	75,GLU
76,SER	76,SER	76,SER	76,SER	76,SER	76,SER	76,SER	76,SER	76,SER	76,SER	76,SER	76,SER	76,SER	76,SER	76,SER	76,SER	76,SER
77,PRO	77,PRO	77,PRO	77,PRO	77,PRO	77,PRO	77,PRO	77,PRO	77,PRO	77,PRO	77,PRO	77,PRO	77,PRO	77,PRO	77,PRO	77,PRO	77,PRO
78,GLU	78,GLU	78,GLU	78,GLU	78,GLU	78,GLU	78,GLU	78,GLU	78,GLU	78,GLU	78,GLU	78,GLU	78,GLU	78,GLU	78,GLU	78,GLU	78,GLU
79,LEU	79,LEU	79,LEU	79,LEU	79,LEU	79,LEU	79,LEU	79,LEU	79,LEU	79,LEU	79,LEU	79,LEU	79,LEU	79,LEU	79,LEU	79,LEU	79,LEU
80,ALA	80,ALA	80,ALA	80,ALA	80,ALA	80,ALA	80,ALA	80,ALA	80,ALA	80,ALA	80,ALA	83,LEU	80,ALA	80,ALA	80,ALA	80,ALA	80,ALA
81,ARG	81,ARG	81,ARG	81,ARG	81,ARG	81,ARG	81,ARG	81,ARG	81,ARG	81,ARG	81,ARG	80,ALA	81,ARG	81,ARG	81,ARG	81,ARG	81,ARG
82,MET	82,MET	82,MET	82,MET	82,MET	82,MET	82,MET	82,MET	82,MET	82,MET	82,MET	81,ARG	82,MET	82,MET	82,MET	82,MET	82,MET
83,LEU	83,LEU	83,LEU	83,LEU	83,LEU	83,LEU	83,LEU	83,LEU	83,LEU	83,LEU	83,LEU	82,MET	83,LEU	83,LEU	83,LEU	83,LEU	83,LEU
84,ALA	84,ALA	84,ALA	84,ALA	84,ALA	84,ALA	84,ALA	84,ALA	84,ALA	84,ALA	84,ALA	84,ALA	84,ALA	84,ALA	84,ALA	84,ALA	84,ALA
85,VAL	85,VAL	85,VAL	85,VAL	85,VAL	85,VAL	85,VAL	85,VAL	85,VAL	85,VAL	85,VAL	85,VAL	85,VAL	85,VAL	85,VAL	85,VAL	85,VAL
86,THR	86,THR	86,THR	86,THR	86,THR	86,THR	86,THR	86,THR	86,THR	86,THR	86,THR	86,THR	86,THR	86,THR	86,THR	86,THR	86,THR
87,LYS	87,LYS	87,LYS	87,LYS	87,LYS	87,LYS	87,LYS	87,LYS	87,LYS	87,LYS	87,LYS	87,LYS	87,LYS	87,LYS	87,LYS	87,LYS	87,LYS
88,TRP	88,TRP	88,TRP	88,TRP	88,TRP	88,TRP	88,TRP	88,TRP	88,TRP	88,TRP	88,TRP	88,TRP	88,TRP	88,TRP	88,TRP	88,TRP	88,TRP
89,PHE	89,PHE	89,PHE	89,PHE	89,PHE	89,PHE	89,PHE	89,PHE	89,PHE	89,PHE	89,PHE	89,PHE	89,PHE	89,PHE	89,PHE	89,PHE	89,PHE
90,ILE	90,ILE	90,ILE	90,ILE	90,ILE	90,ILE	90,ILE	90,ILE	90,ILE	90,ILE	90,ILE	90,ILE	90,ILE	90,ILE	90,ILE	90,ILE	90,ILE
91,SER	91,SER	91,SER	91,SER	91,SER	91,SER	91,SER	91,SER	91,SER	91,SER	91,SER	91,SER	91,SER	91,SER	91,SER	91,SER	91,SER
92,THR	92,THR	92,THR	92,THR	92,THR	92,THR	92,THR	92,THR	92,THR	92,THR	92,THR	92,THR	92,THR	92,THR	92,THR	92,THR	92,THR
93,LEU	93,LEU	93,LEU	93,LEU	93,LEU	93,LEU	93,LEU	93,LEU	93,LEU	93,LEU	93,LEU	93,LEU	93,LEU	93,LEU	93,LEU	93,LEU	93,LEU
94,LYS	94,LYS	94,LYS	94,LYS	94,LYS	94,LYS	94,LYS	94,LYS	94,LYS	94,LYS	94,LYS	94,LYS	94,LYS	94,LYS	94,LYS	94,LYS	94,LYS
95,SER	95,SER	95,SER	95,SER	95,SER	95,SER	95,SER	95,SER	95,SER	95,SER	95,SER	95,SER	95,SER	95,SER	95,SER	95,SER	95,SER
96,GLN	96,GLN	96,GLN	96,GLN	96,GLN	96,GLN	96,GLN	96,GLN	96,GLN	96,GLN	96,GLN	96,GLN	96,GLN	96,GLN	96,GLN	96,GLN	96,GLN
97,TYR	97,TYR	97,TYR	97,TYR	97,TYR	97,TYR	97,TYR	97,TYR	97,TYR	97,TYR	97,TYR	97,TYR	97,TYR	97,TYR	97,TYR	97,TYR	97,TYR
98,CYS	98,CYS	98,CYS	98,CYS	98,CYS	98,CYS	98,CYS	98,CYS	98,CYS	98,CYS	98,CYS	98,CYS	98,CYS	98,CYS	98,CYS	98,CYS	98,CYS
99,SER	99,SER	99,SER	99,SER	99,SER	99,SER	99,SER	99,SER	99,SER	99,SER	99,SER	99,SER	99,SER	99,SER	99,SER	99,SER	99,SER
100,ARG	100,ARG	100,ARG	100,ARG	100,ARG	100,ARG	100,ARG	100,ARG	100,ARG	100,ARG	100,ARG	100,ARG	100,ARG	100,ARG	100,ARG	100,ARG	100,ARG
101,ASN	101,ASN	101,ASN	101,ASN	101,ASN	101,ASN	101,ASN	101,ASN	101,ASN	101,ASN	101,ASN	101,ASN	101,ASN	101,ASN	101,ASN	101,ASN	101,ASN
102,GLU	102,GLU	102,GLU	102,GLU	102,GLU	102,GLU	102,GLU	102,GLU	102,GLU	102,GLU	102,GLU	102,GLU	102,GLU	102,GLU	102,GLU	102,GLU	102,GLU
103,SER	103,SER	103,SER	103,SER	103,SER	103,SER	103,SER	103,SER	103,SER	103,SER	103,SER	103,SER	103,SER	103,SER	103,SER	103,SER	103,SER
104,LEU	104,LEU	104,LEU	104,LEU	104,LEU	104,LEU	104,LEU	104,LEU	104,LEU	104,LEU	104,LEU	104,LEU	104,LEU	104,LEU	104,LEU	104,LEU	104,LEU
105,GLY	105,GLY	105,GLY	105,GLY	105,GLY	105,GLY	105,GLY	105,GLY	105,GLY	105,GLY	105,GLY	105,GLY	105,GLY	105,GLY	105,GLY	105,GLY	105,GLY
106,SER	106,SER	106,SER	106,SER	106,SER	106,SER	106,SER	106,SER	106,SER	106,SER	106,SER	106,SER	106,SER	106,SER	106,SER	106,SER	106,SER
107,GLU	107,GLU	107,GLU	107,GLU	107,GLU	107,GLU	107,GLU	107,GLU	107,GLU	107,GLU	107,GLU	107,GLU	107,GLU	107,GLU	107,GLU	107,GLU	107,GLU
108,LYS	108,LYS	108,LYS	108,LYS	108,LYS	108,LYS	108,LYS	108,LYS	108,LYS	108,LYS	108,LYS	108,LYS	108,LYS	108,LYS	108,LYS	108,LYS	108,LYS
109,LYS	109,LYS	109,LYS	109,LYS	109,LYS	109,LYS	109,LYS	109,LYS	109,LYS	109,LYS	109,LYS	109,LYS	109,LYS	109,LYS	109,LYS	109,LYS	109,LYS
110,PRO	110,PRO	110,PRO	110,PRO	110,PRO	110,PRO	110,PRO	110,PRO	110,PRO	110,PRO	110,PRO	110,PRO	110,PRO	110,PRO	110,PRO	110,PRO	110,PRO
111,LEU	111,LEU	111,LEU	111,LEU	111,LEU	111,LEU	111,LEU	111,LEU	111,LEU	111,LEU	111,LEU	111,LEU	111,LEU	111,LEU	111,LEU	111,LEU	111,LEU
112,ASN	112,ASN	112,ASN	112,ASN	112,ASN	112,ASN	112,ASN	112,ASN	112,ASN	112,ASN	112,ASN	112,ASN	112,ASN	112,ASN	112,ASN	112,ASN	112,ASN
113,PRO	113,PRO	113,PRO	113,PRO	113,PRO	113,PRO	113,PRO	113,PRO	113,PRO	113,PRO	113,PRO	113,PRO	113,PRO	113,PRO	113,PRO	113,PRO	113,PRO
114,PHE	114,PHE	114,PHE	114,PHE	114,PHE	114,PHE	114,PHE	114,PHE	114,PHE	114,PHE	114,PHE	114,PHE	114,PHE	114,PHE	114,PHE	114,PHE	114,PHE
115,LEU	115,LEU	115,LEU	115,LEU	115,LEU	115,LEU	115,LEU	115,LEU	115,LEU	115,LEU	115,LEU	115,LEU	115,LEU	115,LEU	115,LEU	115,LEU	115,LEU
116,GLY	116,GLY	116,GLY	116,GLY	116,GLY	116,GLY	116,GLY	116,GLY	116,GLY	116,GLY	116,GLY	116,GLY	116,GLY	116,GLY	116,GLY	116,GLY	116,GLY
117,GLU	117,GLU	117,GLU	117,GLU	117,GLU	117,GLU	117,GLU	117,GLU	117,GLU	117,GLU	117,GLU	117,GLU	117,GLU	117,GLU	117,GLU	117,GLU	117,GLU
118,LEU	118,LEU	118,LEU	118,LEU	118,LEU	118,LEU	118,LEU	118,LEU	118,LEU	118,LEU	118,LEU	118,LEU	118,LEU	118,LEU	118,LEU	118,LEU	118,LEU
119,PHE	119,PHE	119,PHE	119,PHE	119,PHE	119,PHE	119,PHE	119,PHE	119,PHE	119,PHE	119,PHE	119,PHE	119,PHE	119,PHE	119,PHE	119,PHE	119,PHE
120,VAL	120,VAL	120,VAL	120,VAL	120,VAL	120,VAL	120,VAL	120,VAL	120,VAL	120,VAL	120,VAL	120,VAL	120,VAL	120,VAL	120,VAL	120,VAL	120,VAL
121,GLY	121,GLY	121,GLY	121,GLY	121,GLY	121,GLY	121,GLY	121,GLY	121,GLY	121,GLY	121,GLY	121,GLY	121,GLY	121,GLY	121,GLY	121,GLY	121,GLY
122,LYS	122,LYS	122,LYS	122,LYS	122,LYS	122,LYS	122,LYS	122,LYS	122,LYS	122,LYS	122,LYS	122,LYS	122,LYS	122,LYS	122,LYS	122,LYS	122,LYS
123,TRP	123,TRP	123,TRP	123,TRP	123,TRP	123,TRP	123,TRP	123,TRP	123,TRP	123,TRP	123,TRP	123,TRP	123,TRP	123,TRP	123,TRP	123,TRP	123,TRP
124,GLU	124,GLU	124,GLU	124,GLU	124,GLU	124,GLU	124,GLU	124,GLU	124,GLU	124,GLU	124,GLU	124,GLU	124,GLU	124,GLU	124,GLU	124,GLU	124,GLU
125,ASN	125,ASN	125,ASN	125,ASN	125,ASN	125,ASN	125,ASN	125,ASN	125,ASN	125,ASN	125,ASN	125,ASN	125,ASN	125,ASN	125,ASN	125,ASN	125,ASN
126,LYS	126,LYS	126,LYS	126,LYS	126,LYS	126,LYS	126,LYS	126,LYS	126,LYS	126,LYS	126,LYS	126,LYS	126,LYS	126,LYS	126,LYS	126,LYS	126,LYS
127,GLU	127,GLU	127,GLU	127,GLU	127,GLU	127,GLU	127,GLU	127,GLU	127,GLU	127,GLU	127,GLU	127,GLU	127,GLU	127,GLU	127,GLU	127,GLU	127,GLU
128,HIS	128,HIS	128,HIS	128,HIS	128,HIS	128,HIS	128,HIS	128,HIS	128,HIS	128,HIS	128,HIS	128,HIS	128,HIS	128,HIS	128,HIS	128,HIS	128,HIS
129,PRO	129,PRO	129,PRO	129,PRO	129,PRO	129,PRO	129,PRO	129,PRO	129,PRO	129,PRO	129,PRO	129,PRO	129,PRO	129,PRO	129,PRO	129,PRO	129,PRO
130,GLU	130,GLU	130,GLU	130,GLU	130,GLU	130,GLU	130,GLU	130,GLU	130,GLU	130,GLU	130,GLU	130,GLU	130,GLU	130,GLU	130,GLU	130,GLU	130,GLU
131,PHE	131,PHE	131,PHE	131,PHE	131,PHE	131,PHE	131,PHE	131,PHE	131,PHE	131,PHE	131,PHE	131,PHE	131,PHE	131,PHE	131,PHE	131,PHE	131,PHE
132,GLY	132,GLY	132,GLY	132,GLY	132,GLY	132,GLY	132,GLY	132,GLY	132,GLY	132,GLY	132,GLY	132,GLY	132,GLY	132,GLY	132,GLY	132,GLY	132,GLY
133,GLU	133,GLU	133,GLU	133,GLU	133,GLU	133,GLU	133,GLU	133,GLU	133,GLU	133,GLU	133,GLU	133,GLU	133,GLU	133,GLU	133,GLU	133,GLU	133,GLU
134,THR	134,THR	134,THR	134,THR	134,THR	134,THR	134,THR	134,THR	134,THR	134,THR	134,THR	134,THR	134,THR	134,THR	134,THR	134,THR	134,THR
135,VAL	135,VAL	135,VAL	135,VAL	135,VAL	135,VAL	135,VAL	135,VAL	135,VAL	135,VAL	135,VAL	135,VAL	135,VAL	135,VAL	135,VAL	135,VAL	135,VAL
136,LEU	136,LEU	136,LEU	136,LEU	136,LEU	136,LEU	136,LEU	136,LEU	136,LEU	136,LEU	136,LEU	136,LEU	136,LEU	136,LEU	136,LEU	136,LEU	136,LEU
137,LEU	137,LEU	137,LEU	137,LEU	137,LEU	137,LEU	137,LEU	137,LEU	137,LEU	137,LEU	137,LEU	137,LEU	137,LEU	137,LEU	137,LEU	137,LEU	137,LEU
138,SER	138,SER	138,SER	138,SER	138,SER	138,SER	138,SER	138,SER	138,SER	138,SER	138,SER	138,SER	138,SER	138,SER	138,SER	138,SER	138,SER
139,GLU	139,GLU	139,GLU	139,GLU	139,GLU	139,GLU	139,GLU	139,GLU	139,GLU	139,GLU	139,GLU	139,GLU	139,GLU	139,GLU	139,GLU	139,GLU	139,GLU
140,GLN	140,GLN	140,GLN	140,GLN	140,GLN	140,GLN	140,GLN	140,GLN	140,GLN	140,GLN	140,GLN	140,GLN	140,GLN	140,GLN	140,GLN	140,GLN	140,GLN
141,VAL	141,VAL	141,VAL	141,VAL	141,VAL	141,VAL	141,VAL	141,VAL	141,VAL	141,VAL	141,VAL	141,VAL	141,VAL	141,VAL	141,VAL	141,VAL	141,VAL
142,SER	142,SER	142,SER	142,SER	142,SER	142,SER	142,SER	142,SER	142,SER	142,SER	142,SER	142,SER	142,SER	142,SER	142,SER	142,SER	142,SER
143,HIS	143,HIS	143,HIS	143,HIS	143,HIS	143,HIS	143,HIS	143,HIS	143,HIS	143,HIS	143,HIS	143,HIS	143,HIS	143,HIS	143,HIS	143,HIS	143,HIS
144,HIS	144,HIS	144,HIS	144,HIS	144,HIS	144,HIS	144,HIS	144,HIS	144,HIS	144,HIS	144,HIS	144,HIS	144,HIS	144,HIS	144,HIS	144,HIS	144,HIS
145,PRO	145,PRO	145,PRO	145,PRO	145,PRO	145,PRO	145,PRO	145,PRO	145,PRO	145,PRO	145,PRO	145,PRO	145,PRO	145,PRO	145,PRO	145,PRO	145,PRO
146,PRO	146,PRO	146,PRO	146,PRO	146,PRO	146,PRO	146,PRO	146,PRO	146,PRO	146,PRO	146,PRO	146,PRO	146,PRO	146,PRO	146,PRO	146,PRO	146,PRO
147,VAL	147,VAL	147,VAL	147,VAL	147,VAL	147,VAL	147,VAL	147,VAL	147,VAL	147,VAL	147,VAL	147,VAL	147,VAL	147,VAL	147,VAL	147,VAL	147,VAL
148,THR	148,THR	148,THR	148,THR	148,THR	148,THR	148,THR	148,THR	148,THR	148,THR	148,THR	148,THR	148,THR	148,THR	148,THR	148,THR	148,THR
149,ALA	149,ALA	149,ALA	149,ALA	149,ALA	149,ALA	149,ALA	149,ALA	149,ALA	149,ALA	149,ALA	149,ALA	149,ALA	149,ALA	149,ALA	149,ALA	149,ALA
150,PHE	150,PHE	150,PHE	150,PHE	150,PHE	150,PHE	150,PHE	150,PHE	150,PHE	150,PHE	150,PHE	150,PHE	150,PHE	150,PHE	150,PHE	150,PHE	150,PHE
151,SER	151,SER	151,SER	151,SER	151,SER	151,SER	151,SER	151,SER	151,SER	151,SER	151,SER	151,SER	151,SER	151,SER	151,SER	151,SER	151,SER
152,ILE	152,ILE	152,ILE	152,ILE	152,ILE	152,ILE	152,ILE	152,ILE	152,ILE	152,ILE	152,ILE	152,ILE	152,ILE	152,ILE	152,ILE	152,ILE	152,ILE
153,PHE	153,PHE	153,PHE	153,PHE	153,PHE	153,PHE	153,PHE	153,PHE	153,PHE	153,PHE	153,PHE	153,PHE	153,PHE	153,PHE	153,PHE	153,PHE	153,PHE
154,ASN	154,ASN	154,ASN	154,ASN	154,ASN	154,ASN	154,ASN	154,ASN	154,ASN	154,ASN	154,ASN	154,ASN	154,ASN	154,ASN	154,ASN	154,ASN	154,ASN
155,ASP	155,ASP	155,ASP	155,ASP	155,ASP	155,ASP	155,ASP	155,ASP	155,ASP	155,ASP	155,ASP	155,ASP	155,ASP	155,ASP	155,ASP	155,ASP	155,ASP
156,LYS	156,LYS	156,LYS	156,LYS	156,LYS	156,LYS	156,LYS	156,LYS	156,LYS	156,LYS	156,LYS	156,LYS	156,LYS	156,LYS	156,LYS	156,LYS	156,LYS
157,ASN	157,ASN	157,ASN	157,ASN	157,ASN	157,ASN	157,ASN	157,ASN	157,ASN	157,ASN	157,ASN	157,ASN	157,ASN	157,ASN	157,ASN	157,ASN	157,ASN
158,LYS	158,LYS	158,LYS	158,LYS	158,LYS	158,LYS	158,LYS	158,LYS	158,LYS	158,LYS	158,LYS	158,LYS	158,LYS	158,LYS	158,LYS	158,LYS	158,LYS
159,VAL	159,VAL	159,VAL	159,VAL	159,VAL	159,VAL	159,VAL	159,VAL	159,VAL	159,VAL	159,VAL	159,VAL	159,VAL	159,VAL	159,VAL	159,VAL	159,VAL
160,LYS	160,LYS	160,LYS	160,LYS	160,LYS	160,LYS	160,LYS	160,LYS	160,LYS	160,LYS	160,LYS	160,LYS	160,LYS	160,LYS	160,LYS	160,LYS	160,LYS
161,LEU	161,LEU	161,LEU	161,LEU	161,LEU	161,LEU	161,LEU	161,LEU	161,LEU	161,LEU	161,LEU	161,LEU	161,LEU	161,LEU	161,LEU	161,LEU	161,LEU
162,GLN	162,GLN	162,GLN	162,GLN	162,GLN	162,GLN	162,GLN	162,GLN	162,GLN	162,GLN	162,GLN	162,GLN	162,GLN	162,GLN	162,GLN	162,GLN	162,GLN
163,GLY	163,GLY	163,GLY	163,GLY	163,GLY	163,GLY	163,GLY	163,GLY	166,GLN	163,GLY	163,GLY	166,GLN	163,GLY	163,GLY	163,GLY	163,GLY	163,GLY
164,TYR	164,TYR	164,TYR	164,TYR	164,TYR	164,TYR	164,TYR	164,TYR	163,GLY	164,TYR	164,TYR	163,GLY	164,TYR	164,TYR	164,TYR	164,TYR	164,TYR
165,ASN	165,ASN	165,ASN	165,ASN	165,ASN	165,ASN	165,ASN	165,ASN	164,TYR	165,ASN	165,ASN	164,TYR	165,ASN	165,ASN	165,ASN	165,ASN	165,ASN
166,GLN	166,GLN	166,GLN	166,GLN	166,GLN	166,GLN	166,GLN	166,GLN	165,ASN	166,GLN	166,GLN	165,ASN	166,GLN	166,GLN	166,GLN	166,GLN	166,GLN
167,ILE	167,ILE	167,ILE	167,ILE	167,ILE	167,ILE	167,ILE	167,ILE	167,ILE	167,ILE	167,ILE	167,ILE	167,ILE	167,ILE	167,ILE	167,ILE	167,ILE
168,LYS	168,LYS	168,LYS	168,LYS	168,LYS	168,LYS	168,LYS	168,LYS	168,LYS	168,LYS	168,LYS	168,LYS	168,LYS	168,LYS	168,LYS	168,LYS	168,LYS
169,ALA	169,ALA	169,ALA	169,ALA	169,ALA	169,ALA	169,ALA	169,ALA	169,ALA	169,ALA	169,ALA	169,ALA	169,ALA	169,ALA	169,ALA	169,ALA	169,ALA
170,SER	170,SER	170,SER	170,SER	170,SER	170,SER	170,SER	170,SER	170,SER	170,SER	170,SER	170,SER	170,SER	170,SER	170,SER	170,SER	170,SER
171,PHE	171,PHE	171,PHE	171,PHE	171,PHE	171,PHE	171,PHE	171,PHE	171,PHE	171,PHE	171,PHE	171,PHE	171,PHE	171,PHE	171,PHE	171,PHE	171,PHE
172,THR	172,THR	172,THR	172,THR	172,THR	172,THR	172,THR	172,THR	172,THR	172,THR	172,THR	172,THR	172,THR	172,THR	172,THR	172,THR	172,THR
173,LYS	173,LYS	173,LYS	173,LYS	173,LYS	173,LYS	173,LYS	173,LYS	173,LYS	173,LYS	173,LYS	173,LYS	173,LYS	173,LYS	173,LYS	173,LYS	173,LYS
174,SER	174,SER	174,SER	174,SER	174,SER	174,SER	174,SER	174,SER	174,SER	174,SER	174,SER	174,SER	174,SER	174,SER	174,SER	174,SER	174,SER
175,LEU	175,LEU	175,LEU	175,LEU	175,LEU	175,LEU	175,LEU	175,LEU	175,LEU	175,LEU	175,LEU	175,LEU	175,LEU	175,LEU	175,LEU	175,LEU	175,LEU
176,MET	176,MET	176,MET	176,MET	176,MET	176,MET	176,MET	176,MET	176,MET	176,MET	176,MET	176,MET	176,MET	176,MET	176,MET	176,MET	176,MET
177,LEU	177,LEU	177,LEU	177,LEU	177,LEU	177,LEU	177,LEU	177,LEU	177,LEU	177,LEU	177,LEU	177,LEU	177,LEU	177,LEU	177,LEU	177,LEU	177,LEU
178,THR	178,THR	178,THR	178,THR	178,THR	178,THR	178,THR	178,THR	178,THR	178,THR	178,THR	178,THR	178,THR	178,THR	178,THR	178,THR	178,THR
179,VAL	179,VAL	179,VAL	179,VAL	179,VAL	179,VAL	179,VAL	179,VAL	179,VAL	179,VAL	179,VAL	179,VAL	179,VAL	179,VAL	179,VAL	179,VAL	179,VAL
180,LYS	180,LYS	180,LYS	180,LYS	180,LYS	180,LYS	180,LYS	180,LYS	180,LYS	180,LYS	180,LYS	180,LYS	180,LYS	180,LYS	180,LYS	180,LYS	180,LYS
181,GLN	181,GLN	181,GLN	181,GLN	181,GLN	181,GLN	181,GLN	181,GLN	181,GLN	181,GLN	181,GLN	181,GLN	181,GLN	181,GLN	181,GLN	181,GLN	181,GLN
182,PHE	182,PHE	182,PHE	182,PHE	182,PHE	182,PHE	182,PHE	182,PHE	182,PHE	182,PHE	182,PHE	182,PHE	182,PHE	182,PHE	182,PHE	182,PHE	182,PHE
183,GLY	183,GLY	183,GLY	183,GLY	183,GLY	183,GLY	183,GLY	183,GLY	183,GLY	183,GLY	183,GLY	183,GLY	183,GLY	183,GLY	183,GLY	183,GLY	183,GLY
184,HIS	184,HIS	184,HIS	184,HIS	184,HIS	184,HIS	184,HIS	184,HIS	184,HIS	184,HIS	184,HIS	184,HIS	184,HIS	184,HIS	184,HIS	184,HIS	184,HIS
185,THR	185,THR	185,THR	185,THR	185,THR	185,THR	185,THR	185,THR	185,THR	185,THR	185,THR	185,THR	185,THR	185,THR	185,THR	185,THR	185,THR
186,MET	186,MET	186,MET	186,MET	186,MET	186,MET	186,MET	186,MET	186,MET	186,MET	186,MET	186,MET	186,MET	186,MET	186,MET	186,MET	186,MET
187,LEU	187,LEU	187,LEU	187,LEU	187,LEU	187,LEU	187,LEU	187,LEU	187,LEU	187,LEU	187,LEU	187,LEU	187,LEU	187,LEU	187,LEU	187,LEU	187,LEU
188,ASP	188,ASP	188,ASP	188,ASP	188,ASP	188,ASP	188,ASP	188,ASP	188,ASP	188,ASP	188,ASP	188,ASP	188,ASP	188,ASP	188,ASP	188,ASP	188,ASP
189,ILE	189,ILE	189,ILE	189,ILE	189,ILE	189,ILE	189,ILE	189,ILE	189,ILE	189,ILE	189,ILE	189,ILE	189,ILE	189,ILE	189,ILE	189,ILE	189,ILE
190,LYS	190,LYS	190,LYS	190,LYS	190,LYS	190,LYS	190,LYS	190,LYS	190,LYS	190,LYS	190,LYS	190,LYS	190,LYS	190,LYS	190,LYS	190,LYS	190,LYS
191,ASP	191,ASP	191,ASP	191,ASP	191,ASP	191,ASP	191,ASP	191,ASP	191,ASP	191,ASP	191,ASP	191,ASP	191,ASP	191,ASP	191,ASP	191,ASP	191,ASP
192,GLU	192,GLU	192,GLU	192,GLU	192,GLU	192,GLU	192,GLU	192,GLU	192,GLU	192,GLU	192,GLU	192,GLU	192,GLU	192,GLU	192,GLU	192,GLU	192,GLU
193,SER	193,SER	193,SER	193,SER	193,SER	193,SER	193,SER	193,SER	193,SER	193,SER	193,SER	193,SER	193,SER	193,SER	193,SER	193,SER	193,SER
194,TYR	194,TYR	194,TYR	194,TYR	194,TYR	194,TYR	194,TYR	194,TYR	194,TYR	194,TYR	194,TYR	194,TYR	194,TYR	194,TYR	194,TYR	194,TYR	194,TYR
195,LEU	195,LEU	195,LEU	195,LEU	195,LEU	195,LEU	195,LEU	195,LEU	195,LEU	195,LEU	195,LEU	195,LEU	195,LEU	195,LEU	195,LEU	195,LEU	195,LEU
196,VAL	196,VAL	196,VAL	196,VAL	196,VAL	196,VAL	196,VAL	196,VAL	196,VAL	196,VAL	196,VAL	196,VAL	196,VAL	196,VAL	196,VAL	196,VAL	196,VAL
197,THR	197,THR	197,THR	197,THR	197,THR	197,THR	197,THR	200,PRO	197,THR	197,THR	197,THR	197,THR	197,THR	197,THR	197,THR	197,THR	197,THR
198,PRO	198,PRO	198,PRO	198,PRO	198,PRO	198,PRO	198,PRO	197,THR	198,PRO	198,PRO	198,PRO	198,PRO	198,PRO	198,PRO	198,PRO	198,PRO	198,PRO
199,PRO	199,PRO	199,PRO	199,PRO	199,PRO	199,PRO	199,PRO	198,PRO	199,PRO	199,PRO	199,PRO	199,PRO	199,PRO	199,PRO	199,PRO	199,PRO	199,PRO
200,PRO	200,PRO	200,PRO	200,PRO	200,PRO	200,PRO	200,PRO	199,PRO	200,PRO	200,PRO	200,PRO	200,PRO	200,PRO	200,PRO	200,PRO	200,PRO	200,PRO
201,LEU	201,LEU	201,LEU	201,LEU	201,LEU	201,LEU	201,LEU	201,LEU	201,LEU	201,LEU	201,LEU	201,LEU	201,LEU	201,LEU	201,LEU	201,LEU	201,LEU
202,HIS	202,HIS	202,HIS	202,HIS	202,HIS	202,HIS	202,HIS	202,HIS	202,HIS	202,HIS	202,HIS	202,HIS	202,HIS	202,HIS	202,HIS	202,HIS	202,HIS
203,ILE	203,ILE	203,ILE	203,ILE	203,ILE	203,ILE	203,ILE	203,ILE	203,ILE	203,ILE	203,ILE	203,ILE	203,ILE	203,ILE	203,ILE	203,ILE	203,ILE
204,GLU	204,GLU	204,GLU	204,GLU	204,GLU	204,GLU	204,GLU	204,GLU	204,GLU	204,GLU	204,GLU	204,GLU	204,GLU	204,GLU	204,GLU	204,GLU	204,GLU
205,GLY	205,GLY	205,GLY	205,GLY	205,GLY	205,GLY	205,GLY	205,GLY	205,GLY	205,GLY	205,GLY	205,GLY	205,GLY	205,GLY	205,GLY	205,GLY	205,GLY
206,ILE	206,ILE	206,ILE	206,ILE	206,ILE	206,ILE	206,ILE	206,ILE	206,ILE	206,ILE	206,ILE	206,ILE	206,ILE	206,ILE	206,ILE	206,ILE	206,ILE
207,LEU	207,LEU	207,LEU	207,LEU	207,LEU	207,LEU	207,LEU	207,LEU	207,LEU	207,LEU	207,LEU	207,LEU	207,LEU	207,LEU	207,LEU	207,LEU	207,LEU
208,VAL	208,VAL	208,VAL	208,VAL	208,VAL	208,VAL	208,VAL	208,VAL	208,VAL	208,VAL	208,VAL	208,VAL	208,VAL	208,VAL	208,VAL	208,VAL	208,VAL
209,ALA	209,ALA	209,ALA	209,ALA	209,ALA	209,ALA	209,ALA	209,ALA	209,ALA	209,ALA	209,ALA	209,ALA	209,ALA	209,ALA	209,ALA	209,ALA	209,ALA
210,SER	210,SER	210,SER	210,SER	210,SER	210,SER	210,SER	210,SER	210,SER	210,SER	210,SER	210,SER	210,SER	210,SER	210,SER	210,SER	210,SER
211,PRO	211,PRO	211,PRO	211,PRO	211,PRO	211,PRO	211,PRO	211,PRO	211,PRO	211,PRO	211,PRO	211,PRO	211,PRO	211,PRO	211,PRO	211,PRO	211,PRO
212,PHE	212,PHE	212,PHE	212,PHE	212,PHE	212,PHE	212,PHE	212,PHE	212,PHE	212,PHE	212,PHE	212,PHE	212,PHE	212,PHE	212,PHE	212,PHE	212,PHE
213,VAL	213,VAL	213,VAL	213,VAL	213,VAL	213,VAL	213,VAL	213,VAL	213,VAL	213,VAL	213,VAL	213,VAL	213,VAL	213,VAL	213,VAL	213,VAL	213,VAL
214,GLU	214,GLU	214,GLU	214,GLU	214,GLU	214,GLU	214,GLU	214,GLU	214,GLU	214,GLU	214,GLU	214,GLU	214,GLU	214,GLU	214,GLU	214,GLU	214,GLU
215,LEU	215,LEU	215,LEU	215,LEU	215,LEU	215,LEU	215,LEU	215,LEU	215,LEU	215,LEU	215,LEU	215,LEU	215,LEU	215,LEU	215,LEU	215,LEU	215,LEU
216,GLU	216,GLU	216,GLU	216,GLU	216,GLU	216,GLU	216,GLU	216,GLU	216,GLU	216,GLU	216,GLU	216,GLU	216,GLU	216,GLU	216,GLU	216,GLU	216,GLU
217,GLY	217,GLY	217,GLY	217,GLY	217,GLY	217,GLY	217,GLY	217,GLY	217,GLY	217,GLY	217,GLY	217,GLY	217,GLY	217,GLY	217,GLY	217,GLY	217,GLY
218,LYS	218,LYS	218,LYS	218,LYS	218,LYS	218,LYS	218,LYS	218,LYS	218,LYS	218,LYS	218,LYS	218,LYS	218,LYS	218,LYS	218,LYS	218,LYS	218,LYS
219,SER	219,SER	219,SER	219,SER	219,SER	219,SER	219,SER	219,SER	219,SER	219,SER	219,SER	219,SER	219,SER	219,SER	219,SER	219,SER	219,SER
220,TYR	220,TYR	220,TYR	220,TYR	220,TYR	220,TYR	220,TYR	220,TYR	220,TYR	220,TYR	220,TYR	220,TYR	220,TYR	220,TYR	220,TYR	220,TYR	220,TYR
221,ILE	221,ILE	221,ILE	221,ILE	221,ILE	221,ILE	221,ILE	221,ILE	221,ILE	221,ILE	221,ILE	221,ILE	221,ILE	221,ILE	221,ILE	221,ILE	221,ILE
222,GLN	222,GLN	222,GLN	222,GLN	222,GLN	222,GLN	222,GLN	222,GLN	222,GLN	222,GLN	222,GLN	222,GLN	222,GLN	222,GLN	222,GLN	222,GLN	222,GLN
223,SER	223,SER	223,SER	223,SER	223,SER	223,SER	223,SER	223,SER	223,SER	223,SER	223,SER	223,SER	223,SER	223,SER	223,SER	223,SER	223,SER
224,SER	224,SER	224,SER	224,SER	224,SER	224,SER	224,SER	224,SER	224,SER	224,SER	224,SER	224,SER	224,SER	224,SER	224,SER	224,SER	224,SER
225,THR	225,THR	225,THR	225,THR	225,THR	225,THR	225,THR	225,THR	225,THR	225,THR	225,THR	225,THR	225,THR	225,THR	225,THR	225,THR	225,THR
226,GLY	226,GLY	226,GLY	226,GLY	226,GLY	226,GLY	226,GLY	226,GLY	226,GLY	226,GLY	226,GLY	226,GLY	226,GLY	226,GLY	226,GLY	226,GLY	226,GLY
227,LEU	227,LEU	227,LEU	227,LEU	227,LEU	227,LEU	227,LEU	227,LEU	227,LEU	227,LEU	227,LEU	227,LEU	227,LEU	227,LEU	227,LEU	227,LEU	227,LEU
228,LEU	228,LEU	228,LEU	228,LEU	228,LEU	228,LEU	228,LEU	228,LEU	228,LEU	228,LEU	228,LEU	228,LEU	228,LEU	228,LEU	228,LEU	228,LEU	228,LEU
229,CYS	229,CYS	229,CYS	229,CYS	229,CYS	229,CYS	229,CYS	229,CYS	229,CYS	229,CYS	229,CYS	229,CYS	229,CYS	229,CYS	229,CYS	229,CYS	229,CYS
230,VAL	230,VAL	230,VAL	230,VAL	230,VAL	230,VAL	230,VAL	230,VAL	230,VAL	230,VAL	230,VAL	230,VAL	230,VAL	230,VAL	230,VAL	230,VAL	230,VAL
231,ILE	231,ILE	231,ILE	231,ILE	231,ILE	231,ILE	231,ILE	231,ILE	231,ILE	231,ILE	231,ILE	231,ILE	231,ILE	231,ILE	231,ILE	231,ILE	231,ILE
232,GLU	232,GLU	232,GLU	232,GLU	232,GLU	232,GLU	232,GLU	232,GLU	232,GLU	232,GLU	232,GLU	232,GLU	232,GLU	232,GLU	232,GLU	232,GLU	232,GLU
233,PHE	233,PHE	233,PHE	233,PHE	233,PHE	233,PHE	233,PHE	233,PHE	233,PHE	233,PHE	233,PHE	233,PHE	233,PHE	233,PHE	233,PHE	233,PHE	233,PHE
234,SER	234,SER	234,SER	234,SER	234,SER	234,SER	234,SER	234,SER	234,SER	234,SER	234,SER	234,SER	234,SER	234,SER	234,SER	234,SER	234,SER
235,GLY	235,GLY	235,GLY	235,GLY	235,GLY	235,GLY	235,GLY	235,GLY	235,GLY	235,GLY	235,GLY	235,GLY	235,GLY	235,GLY	235,GLY	235,GLY	235,GLY
236,ARG	236,ARG	236,ARG	236,ARG	236,ARG	236,ARG	236,ARG	236,ARG	236,ARG	236,ARG	236,ARG	236,ARG	236,ARG	236,ARG	-	-	-
237,GLY	237,GLY	237,GLY	237,GLY	237,GLY	237,GLY	237,GLY	237,GLY	237,GLY	237,GLY	237,GLY	237,GLY	237,GLY	237,GLY	-	-	-
238,TYR	238,TYR	238,TYR	238,TYR	238,TYR	238,TYR	238,TYR	238,TYR	238,TYR	238,TYR	238,TYR	238,TYR	238,TYR	238,TYR	-	-	-
239,PHE	239,PHE	239,PHE	239,PHE	239,PHE	239,PHE	239,PHE	239,PHE	239,PHE	239,PHE	239,PHE	239,PHE	239,PHE	239,PHE	239,VAL	239,VAL	239,VAL
240,SER	240,SER	240,SER	240,SER	240,SER	240,SER	240,SER	240,SER	240,SER	240,SER	240,SER	240,SER	240,SER	240,SER	240,ASP	240,ASP	240,ASP
241,GLY	241,GLY	241,GLY	241,GLY	241,GLY	241,GLY	241,GLY	241,GLY	241,GLY	241,GLY	241,GLY	241,GLY	241,GLY	241,GLY	241,GLY	241,GLY	241,GLY
242,LYS	242,LYS	242,LYS	242,LYS	242,LYS	242,LYS	242,LYS	242,LYS	242,LYS	242,LYS	242,LYS	242,LYS	242,LYS	242,LYS	242,LYS	242,LYS	242,LYS
243,LYS	243,LYS	243,LYS	243,LYS	243,LYS	243,LYS	243,LYS	243,LYS	243,LYS	243,LYS	243,LYS	243,LYS	243,LYS	243,LYS	243,LYS	243,LYS	243,LYS
244,ASN	244,ASN	244,ASN	244,ASN	244,ASN	244,ASN	244,ASN	244,ASN	244,ASN	244,ASN	244,ASN	244,ASN	244,ASN	244,ASN	244,ASN	244,ASN	244,ASN
245,SER	245,SER	245,SER	245,SER	245,SER	245,SER	245,SER	245,SER	245,SER	245,SER	245,SER	245,SER	245,SER	245,SER	245,SER	245,SER	245,SER
246,PHE	246,PHE	246,PHE	246,PHE	246,PHE	246,PHE	246,PHE	246,PHE	246,PHE	246,PHE	246,PHE	246,PHE	246,PHE	246,PHE	246,PHE	246,PHE	246,PHE
247,LYS	247,LYS	247,LYS	247,LYS	247,LYS	247,LYS	247,LYS	247,LYS	247,LYS	247,LYS	247,LYS	247,LYS	247,LYS	247,LYS	247,LYS	247,LYS	247,LYS
248,ALA	248,ALA	248,ALA	248,ALA	248,ALA	248,ALA	248,ALA	248,ALA	248,ALA	248,ALA	248,ALA	248,ALA	248,ALA	248,ALA	248,ALA	248,ALA	248,ALA
249,ARG	249,ARG	249,ARG	249,ARG	249,ARG	249,ARG	249,ARG	249,ARG	249,ARG	249,ARG	249,ARG	249,ARG	249,ARG	249,ARG	249,ARG	249,ARG	249,ARG
250,ILE	250,ILE	250,ILE	250,ILE	250,ILE	250,ILE	250,ILE	250,ILE	250,ILE	250,ILE	250,ILE	250,ILE	250,ILE	250,ILE	250,ILE	250,ILE	250,ILE
251,TYR	251,TYR	251,TYR	251,TYR	251,TYR	251,TYR	251,TYR	251,TYR	251,TYR	251,TYR	251,TYR	251,TYR	251,TYR	251,TYR	251,TYR	251,TYR	251,TYR
252,LYS	252,LYS	252,LYS	252,LYS	252,LYS	252,LYS	252,LYS	252,LYS	252,LYS	252,LYS	252,LYS	252,LYS	252,LYS	252,LYS	252,LYS	252,LYS	252,LYS
253,ASP	253,ASP	253,ASP	253,ASP	253,ASP	253,ASP	253,ASP	253,ASP	253,ASP	253,ASP	253,ASP	253,ASP	253,ASP	253,ASP	253,ASP	253,ASP	253,ASP
254,SER	254,SER	254,SER	254,SER	254,SER	254,SER	254,SER	254,SER	254,SER	254,SER	254,SER	254,SER	254,SER	254,SER	254,SER	254,SER	254,SER
255,LYS	255,LYS	255,LYS	255,LYS	255,LYS	255,LYS	255,LYS	255,LYS	255,LYS	255,LYS	255,LYS	255,LYS	255,LYS	255,LYS	255,LYS	255,LYS	255,LYS
256,ASP	256,ASP	256,ASP	256,ASP	256,ASP	256,ASP	256,ASP	256,ASP	256,ASP	256,ASP	256,ASP	256,ASP	256,ASP	256,ASP	256,ASP	256,ASP	256,ASP
257,SER	257,SER	257,SER	257,SER	257,SER	257,SER	257,SER	257,SER	257,SER	257,SER	257,SER	257,SER	257,SER	257,SER	257,SER	257,SER	257,SER
258,LYS	258,LYS	258,LYS	258,LYS	258,LYS	258,LYS	258,LYS	258,LYS	258,LYS	258,LYS	258,LYS	258,LYS	258,LYS	258,LYS	258,LYS	258,LYS	258,LYS
259,ASP	259,ASP	259,ASP	259,ASP	259,ASP	259,ASP	259,ASP	259,ASP	259,ASP	259,ASP	259,ASP	259,ASP	259,ASP	259,ASP	259,ASP	259,ASP	259,ASP
260,LYS	260,LYS	260,LYS	260,LYS	260,LYS	260,LYS	260,LYS	260,LYS	260,LYS	260,LYS	260,LYS	260,LYS	260,LYS	260,LYS	260,LYS	260,LYS	260,LYS
261,GLU	261,GLU	261,GLU	261,GLU	261,GLU	261,GLU	261,GLU	261,GLU	261,GLU	261,GLU	261,GLU	261,GLU	261,GLU	261,GLU	261,GLU	261,GLU	261,GLU
262,LYS	262,LYS	262,LYS	262,LYS	262,LYS	262,LYS	262,LYS	262,LYS	262,LYS	262,LYS	262,LYS	262,LYS	262,LYS	262,LYS	262,LYS	262,LYS	262,LYS
263,ALA	263,ALA	263,ALA	263,ALA	263,ALA	263,ALA	263,ALA	263,ALA	263,ALA	263,ALA	263,ALA	263,ALA	263,ALA	263,ALA	263,ALA	263,ALA	263,ALA
264,LEU	264,LEU	264,LEU	264,LEU	264,LEU	264,LEU	264,LEU	264,LEU	264,LEU	264,LEU	264,LEU	264,LEU	264,LEU	264,LEU	264,LEU	264,LEU	264,LEU
265,TYR	265,TYR	265,TYR	265,TYR	265,TYR	265,TYR	265,TYR	265,TYR	265,TYR	265,TYR	265,TYR	265,TYR	265,TYR	265,TYR	265,TYR	265,TYR	265,TYR
266,THR	266,THR	266,THR	266,THR	266,THR	266,THR	266,THR	266,THR	266,THR	266,THR	266,THR	266,THR	266,THR	266,THR	266,THR	266,THR	266,THR
267,ILE	267,ILE	267,ILE	267,ILE	267,ILE	267,ILE	267,ILE	267,ILE	267,ILE	267,ILE	267,ILE	267,ILE	267,ILE	267,ILE	267,ILE	267,ILE	267,ILE
268,SER	268,SER	268,SER	268,SER	268,SER	268,SER	268,SER	268,SER	268,SER	268,SER	268,SER	268,SER	268,SER	268,SER	268,SER	268,SER	268,SER
269,GLY	269,GLY	269,GLY	269,GLY	269,GLY	269,GLY	269,GLY	269,GLY	269,GLY	269,GLY	269,GLY	269,GLY	269,GLY	269,GLY	269,GLY	269,GLY	269,GLY
270,GLN	270,GLN	270,GLN	270,GLN	270,GLN	270,GLN	270,GLN	270,GLN	270,GLN	270,GLN	270,GLN	270,GLN	270,GLN	270,GLN	270,GLN	270,GLN	270,GLN
271,TRP	271,TRP	271,TRP	271,TRP	271,TRP	271,TRP	271,TRP	271,TRP	271,TRP	271,TRP	271,TRP	271,TRP	271,TRP	271,TRP	271,TRP	271,TRP	271,TRP
272,SER	272,SER	272,SER	272,SER	272,SER	272,SER	272,SER	272,SER	272,SER	272,SER	272,SER	272,SER	272,SER	272,SER	272,SER	272,SER	272,SER
273,GLY	273,GLY	273,GLY	273,GLY	273,GLY	273,GLY	273,GLY	273,GLY	273,GLY	273,GLY	273,GLY	273,GLY	273,GLY	273,GLY	273,GLY	273,GLY	273,GLY
274,SER	274,SER	274,SER	274,SER	274,SER	274,SER	274,SER	274,SER	274,SER	274,SER	274,SER	274,SER	274,SER	274,SER	274,SER	274,SER	274,SER
275,SER	275,SER	275,SER	275,SER	275,SER	275,SER	275,SER	275,SER	275,SER	275,SER	275,SER	275,SER	275,SER	275,SER	275,SER	275,SER	275,SER
276,LYS	276,LYS	276,LYS	276,LYS	276,LYS	276,LYS	276,LYS	276,LYS	276,LYS	276,LYS	276,LYS	276,LYS	276,LYS	276,LYS	276,LYS	276,LYS	276,LYS
277,ILE	277,ILE	277,ILE	277,ILE	277,ILE	277,ILE	277,ILE	277,ILE	277,ILE	277,ILE	277,ILE	277,ILE	277,ILE	277,ILE	277,ILE	277,ILE	277,ILE
278,ILE	278,ILE	278,ILE	278,ILE	278,ILE	278,ILE	278,ILE	278,ILE	278,ILE	278,ILE	278,ILE	278,ILE	278,ILE	278,ILE	278,ILE	278,ILE	278,ILE
279,LYS	279,LYS	279,LYS	279,LYS	279,LYS	279,LYS	279,LYS	279,LYS	279,LYS	279,LYS	279,LYS	279,LYS	279,LYS	279,LYS	279,LYS	279,LYS	279,LYS
280,ALA	280,ALA	280,ALA	280,ALA	280,ALA	280,ALA	280,ALA	280,ALA	280,ALA	280,ALA	280,ALA	280,ALA	280,ALA	280,ALA	280,ALA	280,ALA	280,ALA
281,ASN	281,ASN	281,ASN	281,ASN	281,ASN	281,ASN	281,ASN	281,ASN	281,ASN	281,ASN	281,ASN	281,ASN	281,ASN	281,ASN	281,ASN	281,ASN	281,ASN
282,LYS	282,LYS	282,LYS	282,LYS	282,LYS	282,LYS	282,LYS	282,LYS	282,LYS	282,LYS	282,LYS	282,LYS	282,LYS	282,LYS	282,LYS	282,LYS	282,LYS
283,LYS	283,LYS	283,LYS	283,LYS	283,LYS	283,LYS	283,LYS	283,LYS	283,LYS	283,LYS	283,LYS	283,LYS	283,LYS	283,LYS	283,LYS	283,LYS	283,LYS
284,GLU	284,GLU	284,GLU	284,GLU	284,GLU	284,GLU	284,GLU	284,GLU	284,GLU	284,GLU	284,GLU	284,GLU	284,GLU	284,GLU	284,GLU	284,GLU	284,GLU
285,GLU	285,GLU	285,GLU	285,GLU	285,GLU	285,GLU	285,GLU	285,GLU	285,GLU	285,GLU	285,GLU	285,GLU	285,GLU	285,GLU	285,GLU	285,GLU	285,GLU
286,SER	286,SER	286,SER	286,SER	286,SER	286,SER	286,SER	286,SER	286,SER	286,SER	286,SER	286,SER	286,SER	286,SER	286,SER	286,SER	286,SER
287,ARG	287,ARG	287,ARG	287,ARG	287,ARG	287,ARG	287,ARG	287,ARG	287,ARG	287,ARG	287,ARG	287,ARG	287,ARG	287,ARG	287,ARG	287,ARG	287,ARG
288,LEU	288,LEU	288,LEU	288,LEU	288,LEU	288,LEU	288,LEU	288,LEU	288,LEU	288,LEU	288,LEU	288,LEU	288,LEU	288,LEU	288,LEU	288,LEU	288,LEU
289,PHE	289,PHE	289,PHE	289,PHE	289,PHE	289,PHE	289,PHE	289,PHE	289,PHE	289,PHE	289,PHE	289,PHE	289,PHE	289,PHE	289,PHE	289,PHE	289,PHE
290,TYR	290,TYR	290,TYR	290,TYR	290,TYR	290,TYR	290,TYR	290,TYR	290,TYR	290,TYR	290,TYR	290,TYR	290,TYR	290,TYR	290,TYR	290,TYR	290,TYR
291,ASP	291,ASP	291,ASP	291,ASP	291,ASP	291,ASP	291,ASP	291,ASP	291,ASP	291,ASP	291,ASP	291,ASP	291,ASP	291,ASP	291,ASP	291,ASP	291,ASP
292,ALA	292,ALA	292,ALA	292,ALA	292,ALA	292,ALA	292,ALA	292,ALA	292,ALA	292,ALA	292,ALA	292,ALA	292,ALA	292,ALA	292,ALA	292,ALA	292,ALA
293,ALA	293,ALA	293,ALA	293,ALA	293,ALA	293,ALA	293,ALA	293,ALA	293,ALA	293,ALA	293,ALA	293,ALA	293,ALA	293,ALA	293,ALA	293,ALA	293,ALA
294,ARG	294,ARG	294,ARG	294,ARG	294,ARG	294,ARG	294,ARG	294,ARG	294,ARG	294,ARG	294,ARG	294,ARG	294,ARG	294,ARG	294,ARG	294,ARG	294,ARG
295,ILE	295,ILE	295,ILE	295,ILE	295,ILE	295,ILE	295,ILE	295,ILE	295,ILE	295,ILE	295,ILE	295,ILE	295,ILE	295,ILE	295,ILE	295,ILE	295,ILE
296,PRO	296,PRO	296,PRO	296,PRO	296,PRO	296,PRO	296,PRO	296,PRO	296,PRO	296,PRO	296,PRO	296,PRO	296,PRO	296,PRO	296,PRO	296,PRO	296,PRO
297,ALA	297,ALA	297,ALA	297,ALA	297,ALA	297,ALA	297,ALA	297,ALA	297,ALA	297,ALA	297,ALA	297,ALA	297,ALA	297,ALA	297,ALA	297,ALA	297,ALA
298,GLU	298,GLU	298,GLU	298,GLU	298,GLU	298,GLU	298,GLU	298,GLU	298,GLU	298,GLU	298,GLU	298,GLU	298,GLU	298,GLU	298,GLU	298,GLU	298,GLU
299,HIS	299,HIS	299,HIS	299,HIS	299,HIS	299,HIS	299,HIS	299,HIS	299,HIS	299,HIS	299,HIS	299,HIS	299,HIS	299,HIS	299,HIS	299,HIS	299,HIS
300,LEU	300,LEU	300,LEU	300,LEU	300,LEU	300,LEU	300,LEU	300,LEU	300,LEU	300,LEU	300,LEU	300,LEU	300,LEU	300,LEU	300,LEU	300,LEU	300,LEU
301,ASN	301,ASN	301,ASN	301,ASN	301,ASN	301,ASN	301,ASN	301,ASN	301,ASN	301,ASN	301,ASN	301,ASN	301,ASN	301,ASN	301,ASN	301,ASN	301,ASN
302,VAL	302,VAL	302,VAL	302,VAL	302,VAL	302,VAL	302,VAL	302,VAL	302,VAL	302,VAL	302,VAL	302,VAL	302,VAL	302,VAL	302,VAL	302,VAL	302,VAL
303,LYS	303,LYS	303,LYS	303,LYS	303,LYS	303,LYS	303,LYS	303,LYS	303,LYS	303,LYS	303,LYS	303,LYS	303,LYS	303,LYS	303,LYS	303,LYS	303,LYS
304,PRO	304,PRO	304,PRO	304,PRO	304,PRO	304,PRO	304,PRO	304,PRO	304,PRO	304,PRO	304,PRO	304,PRO	304,PRO	304,PRO	304,PRO	304,PRO	304,PRO
305,LEU	305,LEU	305,LEU	305,LEU	305,LEU	305,LEU	305,LEU	305,LEU	305,LEU	305,LEU	305,LEU	305,LEU	305,LEU	305,LEU	305,LEU	305,LEU	305,LEU
306,GLU	306,GLU	306,GLU	306,GLU	306,GLU	306,GLU	306,GLU	306,GLU	306,GLU	306,GLU	306,GLU	306,GLU	306,GLU	306,GLU	306,GLU	306,GLU	306,GLU
307,GLU	307,GLU	307,GLU	307,GLU	307,GLU	307,GLU	307,GLU	307,GLU	307,GLU	307,GLU	307,GLU	307,GLU	307,GLU	307,GLU	307,GLU	307,GLU	307,GLU
308,GLN	308,GLN	308,GLN	308,GLN	308,GLN	308,GLN	308,GLN	308,GLN	308,GLN	308,GLN	308,GLN	308,GLN	308,GLN	308,GLN	308,GLN	308,GLN	308,GLN
309,HIS	309,HIS	309,HIS	309,HIS	309,HIS	309,HIS	309,HIS	309,HIS	309,HIS	309,HIS	309,HIS	309,HIS	309,HIS	309,HIS	309,HIS	309,HIS	309,HIS
310,PRO	310,PRO	310,PRO	310,PRO	310,PRO	310,PRO	310,PRO	310,PRO	310,PRO	310,PRO	310,PRO	310,PRO	310,PRO	310,PRO	310,PRO	310,PRO	310,PRO
311,LEU	311,LEU	311,LEU	311,LEU	311,LEU	311,LEU	311,LEU	311,LEU	311,LEU	311,LEU	311,LEU	311,LEU	311,LEU	311,LEU	311,LEU	311,LEU	311,LEU
312,GLU	312,GLU	312,GLU	312,GLU	312,GLU	312,GLU	312,GLU	312,GLU	312,GLU	312,GLU	312,GLU	312,GLU	312,GLU	312,GLU	312,GLU	312,GLU	312,GLU
313,SER	313,SER	313,SER	313,SER	313,SER	313,SER	313,SER	313,SER	313,SER	313,SER	313,SER	313,SER	313,SER	313,SER	313,SER	313,SER	313,SER
314,ARG	314,ARG	314,ARG	314,ARG	314,ARG	314,ARG	314,ARG	314,ARG	314,ARG	314,ARG	314,ARG	314,ARG	314,ARG	314,ARG	314,ARG	314,ARG	314,ARG
315,LYS	315,LYS	315,LYS	315,LYS	315,LYS	315,LYS	315,LYS	315,LYS	315,LYS	315,LYS	315,LYS	315,LYS	315,LYS	315,LYS	315,LYS	315,LYS	315,LYS
316,ALA	316,ALA	316,ALA	316,ALA	316,ALA	316,ALA	316,ALA	316,ALA	316,ALA	316,ALA	316,ALA	316,ALA	316,ALA	316,ALA	316,ALA	316,ALA	316,ALA
317,TRP	317,TRP	317,TRP	317,TRP	317,TRP	317,TRP	317,TRP	317,TRP	317,TRP	317,TRP	317,TRP	317,TRP	317,TRP	317,TRP	317,TRP	317,TRP	317,TRP
318,TYR	318,TYR	318,TYR	318,TYR	318,TYR	318,TYR	318,TYR	318,TYR	318,TYR	318,TYR	318,TYR	318,TYR	318,TYR	318,TYR	318,TYR	318,TYR	318,TYR
319,ASP	319,ASP	319,ASP	319,ASP	319,ASP	319,ASP	319,ASP	319,ASP	319,ASP	319,ASP	319,ASP	319,ASP	319,ASP	319,ASP	319,ASP	319,ASP	319,ASP
320,VAL	320,VAL	320,VAL	320,VAL	320,VAL	320,VAL	320,VAL	320,VAL	320,VAL	320,VAL	320,VAL	320,VAL	320,VAL	320,VAL	320,VAL	320,VAL	320,VAL
321,ALA	321,ALA	321,ALA	321,ALA	321,ALA	321,ALA	321,ALA	321,ALA	321,ALA	321,ALA	321,ALA	321,ALA	321,ALA	321,ALA	321,ALA	321,ALA	321,ALA
322,GLY	322,GLY	322,GLY	322,GLY	322,GLY	322,GLY	322,GLY	322,GLY	322,GLY	322,GLY	322,GLY	322,GLY	322,GLY	322,GLY	322,GLY	322,GLY	322,GLY
323,ALA	323,ALA	323,ALA	323,ALA	323,ALA	323,ALA	323,ALA	323,ALA	323,ALA	323,ALA	323,ALA	323,ALA	323,ALA	323,ALA	323,ALA	323,ALA	323,ALA
324,ILE	324,ILE	324,ILE	324,ILE	324,ILE	324,ILE	324,ILE	324,ILE	324,ILE	324,ILE	324,ILE	324,ILE	324,ILE	324,ILE	324,ILE	324,ILE	324,ILE
325,LYS	325,LYS	325,LYS	325,LYS	325,LYS	325,LYS	325,LYS	325,LYS	325,LYS	325,LYS	325,LYS	325,LYS	325,LYS	325,LYS	325,LYS	325,LYS	325,LYS
326,LEU	326,LEU	326,LEU	326,LEU	326,LEU	326,LEU	326,LEU	326,LEU	326,LEU	326,LEU	326,LEU	326,LEU	326,LEU	326,LEU	326,LEU	326,LEU	326,LEU
327,GLY	327,GLY	327,GLY	327,GLY	327,GLY	327,GLY	327,GLY	327,GLY	327,GLY	327,GLY	327,GLY	327,GLY	327,GLY	327,GLY	327,GLY	327,GLY	327,GLY
328,ASP	328,ASP	328,ASP	328,ASP	328,ASP	328,ASP	328,ASP	328,ASP	328,ASP	328,ASP	328,ASP	328,ASP	328,ASP	328,ASP	328,ASP	328,ASP	328,ASP
329,PHE	329,PHE	329,PHE	329,PHE	329,PHE	329,PHE	329,PHE	329,PHE	329,PHE	329,PHE	329,PHE	329,PHE	329,PHE	329,PHE	329,PHE	329,PHE	329,PHE
330,ASN	330,ASN	330,ASN	330,ASN	330,ASN	330,ASN	330,ASN	330,ASN	330,ASN	330,ASN	330,ASN	330,ASN	330,ASN	330,ASN	330,ASN	330,ASN	330,ASN
331,LEU	331,LEU	331,LEU	331,LEU	331,LEU	331,LEU	331,LEU	331,LEU	331,LEU	331,LEU	331,LEU	331,LEU	331,LEU	331,LEU	331,LEU	331,LEU	331,LEU
332,ILE	332,ILE	332,ILE	332,ILE	332,ILE	332,ILE	332,ILE	332,ILE	332,ILE	332,ILE	332,ILE	332,ILE	332,ILE	332,ILE	332,ILE	332,ILE	332,ILE
333,ALA	333,ALA	333,ALA	333,ALA	333,ALA	333,ALA	333,ALA	333,ALA	333,ALA	333,ALA	333,ALA	333,ALA	333,ALA	333,ALA	333,ALA	333,ALA	333,ALA
334,LYS	334,LYS	334,LYS	334,LYS	334,LYS	334,LYS	334,LYS	334,LYS	334,LYS	334,LYS	334,LYS	334,LYS	334,LYS	334,LYS	334,LYS	334,LYS	334,LYS
335,THR	335,THR	335,THR	335,THR	335,THR	335,THR	335,THR	335,THR	335,THR	335,THR	335,THR	335,THR	335,THR	335,THR	335,THR	335,THR	335,THR
336,LYS	336,LYS	336,LYS	336,LYS	336,LYS	336,LYS	336,LYS	336,LYS	336,LYS	336,LYS	336,LYS	336,LYS	336,LYS	336,LYS	336,LYS	336,LYS	336,LYS
337,THR	337,THR	337,THR	337,THR	337,THR	337,THR	337,THR	337,THR	337,THR	337,THR	337,THR	337,THR	337,THR	337,THR	337,THR	337,THR	337,THR
338,GLU	338,GLU	338,GLU	338,GLU	338,GLU	338,GLU	338,GLU	338,GLU	338,GLU	338,GLU	338,GLU	338,GLU	338,GLU	338,GLU	338,GLU	338,GLU	338,GLU
339,LEU	339,LEU	339,LEU	339,LEU	339,LEU	339,LEU	339,LEU	339,LEU	339,LEU	339,LEU	339,LEU	339,LEU	339,LEU	339,LEU	339,LEU	339,LEU	339,LEU
340,GLU	340,GLU	340,GLU	340,GLU	340,GLU	340,GLU	340,GLU	340,GLU	340,GLU	340,GLU	340,GLU	340,GLU	340,GLU	340,GLU	340,GLU	340,GLU	340,GLU
341,GLU	341,GLU	341,GLU	341,GLU	341,GLU	341,GLU	341,GLU	341,GLU	341,GLU	341,GLU	341,GLU	341,GLU	341,GLU	341,GLU	341,GLU	341,GLU	341,GLU
342,THR	342,THR	342,THR	342,THR	342,THR	342,THR	342,THR	342,THR	342,THR	342,THR	342,THR	342,THR	342,THR	342,THR	342,THR	342,THR	342,THR
343,GLN	343,GLN	343,GLN	343,GLN	343,GLN	343,GLN	343,GLN	343,GLN	343,GLN	343,GLN	343,GLN	343,GLN	343,GLN	343,GLN	343,GLN	343,GLN	343,GLN
344,ARG	344,ARG	344,ARG	344,ARG	344,ARG	344,ARG	344,ARG	344,ARG	344,ARG	344,ARG	344,ARG	344,ARG	344,ARG	344,ARG	344,ARG	344,ARG	344,ARG
345,GLU	345,GLU	345,GLU	345,GLU	345,GLU	345,GLU	345,GLU	345,GLU	345,GLU	345,GLU	345,GLU	345,GLU	345,GLU	345,GLU	345,GLU	345,GLU	345,GLU
346,LEU	346,LEU	346,LEU	346,LEU	346,LEU	346,LEU	346,LEU	346,LEU	349,GLU	346,LEU	346,LEU	346,LEU	346,LEU	346,LEU	346,LEU	346,LEU	346,LEU
347,ARG	347,ARG	347,ARG	347,ARG	347,ARG	347,ARG	347,ARG	347,ARG	346,LEU	347,ARG	347,ARG	347,ARG	347,ARG	347,ARG	347,ARG	347,ARG	347,ARG
348,LYS	348,LYS	348,LYS	348,LYS	348,LYS	348,LYS	348,LYS	348,LYS	347,ARG	348,LYS	348,LYS	348,LYS	348,LYS	348,LYS	348,LYS	348,LYS	348,LYS
349,GLU	349,GLU	349,GLU	349,GLU	349,GLU	349,GLU	349,GLU	349,GLU	348,LYS	349,GLU	349,GLU	349,GLU	349,GLU	349,GLU	349,GLU	349,GLU	349,GLU
350,GLU	350,GLU	350,GLU	350,GLU	350,GLU	350,GLU	350,GLU	350,GLU	350,GLU	350,GLU	350,GLU	350,GLU	350,GLU	350,GLU	350,GLU	350,GLU	350,GLU
351,GLU	351,GLU	351,GLU	351,GLU	351,GLU	351,GLU	351,GLU	351,GLU	351,GLU	351,GLU	351,GLU	351,GLU	351,GLU	351,GLU	351,GLU	351,GLU	351,GLU
352,ALA	352,ALA	352,ALA	352,ALA	352,ALA	352,ALA	352,ALA	352,ALA	352,ALA	352,ALA	352,ALA	352,ALA	352,ALA	352,ALA	352,ALA	352,ALA	352,ALA
353,LYS	353,LYS	353,LYS	353,LYS	353,LYS	353,LYS	353,LYS	353,LYS	353,LYS	353,LYS	353,LYS	353,LYS	353,LYS	353,LYS	353,LYS	353,LYS	353,LYS
354,GLY	354,GLY	354,GLY	354,GLY	354,GLY	354,GLY	354,GLY	354,GLY	354,GLY	354,GLY	354,GLY	354,GLY	354,GLY	354,GLY	354,GLY	354,GLY	354,GLY
355,ILE	355,ILE	355,ILE	355,ILE	355,ILE	355,ILE	355,ILE	355,ILE	355,ILE	355,ILE	355,ILE	355,ILE	355,ILE	355,ILE	355,ILE	355,ILE	355,ILE
356,SER	356,SER	356,SER	356,SER	356,SER	356,SER	356,SER	356,SER	356,SER	356,SER	356,SER	356,SER	356,SER	356,SER	356,SER	356,SER	356,SER
357,TRP	357,TRP	357,TRP	357,TRP	357,TRP	357,TRP	357,TRP	357,TRP	357,TRP	357,TRP	357,TRP	357,TRP	357,TRP	357,TRP	357,TRP	357,TRP	357,TRP
358,GLN	358,GLN	358,GLN	358,GLN	358,GLN	358,GLN	358,GLN	358,GLN	358,GLN	358,GLN	358,GLN	358,GLN	358,GLN	358,GLN	358,GLN	358,GLN	358,GLN
359,ARG	359,ARG	359,ARG	359,ARG	359,ARG	359,ARG	359,ARG	359,ARG	359,ARG	359,ARG	359,ARG	359,ARG	359,ARG	359,ARG	359,ARG	359,ARG	359,ARG
360,ARG	360,ARG	360,ARG	360,ARG	360,ARG	360,ARG	360,ARG	360,ARG	360,ARG	360,ARG	360,ARG	360,ARG	360,ARG	360,ARG	360,ARG	360,ARG	360,ARG
361,TRP	361,TRP	361,TRP	361,TRP	361,TRP	361,TRP	361,TRP	361,TRP	361,TRP	361,TRP	361,TRP	361,TRP	361,TRP	361,TRP	361,TRP	361,TRP	361,TRP
362,PHE	362,PHE	362,PHE	362,PHE	362,PHE	362,PHE	362,PHE	362,PHE	362,PHE	362,PHE	362,PHE	362,PHE	362,PHE	362,PHE	362,PHE	362,PHE	362,PHE
363,LYS	363,LYS	363,LYS	363,LYS	363,LYS	363,LYS	363,LYS	363,LYS	363,LYS	363,LYS	363,LYS	366,ASP	363,LYS	363,LYS	363,LYS	363,LYS	363,LYS
364,ASP	364,ASP	364,ASP	364,ASP	364,ASP	367,TYR	364,ASP	364,ASP	364,ASP	364,ASP	364,ASP	363,LYS	364,ASP	364,ASP	364,ASP	364,ASP	364,ASP
365,PHE	365,PHE	365,PHE	365,PHE	365,PHE	364,ASP	365,PHE	365,PHE	365,PHE	365,PHE	365,PHE	364,ASP	365,PHE	365,PHE	365,PHE	365,PHE	365,PHE
366,ASP	366,ASP	366,ASP	366,ASP	366,ASP	365,PHE	366,ASP	366,ASP	366,ASP	366,ASP	366,ASP	365,PHE	366,ASP	366,ASP	366,ASP	366,ASP	366,ASP
367,TYR	367,TYR	367,TYR	367,TYR	367,TYR	366,ASP	367,TYR	367,TYR	367,TYR	367,TYR	367,TYR	367,TYR	367,TYR	367,TYR	367,TYR	367,TYR	367,TYR
368,SER	368,SER	368,SER	368,SER	368,SER	368,SER	368,SER	368,SER	368,SER	368,SER	368,SER	368,SER	368,SER	368,SER	368,SER	368,SER	368,SER
369,VAL	369,VAL	369,VAL	369,VAL	369,VAL	369,VAL	369,VAL	369,VAL	369,VAL	369,VAL	369,VAL	369,VAL	369,VAL	369,VAL	369,VAL	369,VAL	369,VAL
370,THR	370,THR	370,THR	370,THR	370,THR	370,THR	370,THR	370,THR	370,THR	370,THR	370,THR	370,THR	370,THR	370,THR	370,THR	370,THR	370,THR
371,PRO	371,PRO	371,PRO	371,PRO	371,PRO	371,PRO	371,PRO	371,PRO	371,PRO	371,PRO	371,PRO	371,PRO	371,PRO	371,PRO	371,PRO	371,PRO	371,PRO
372,GLU	372,GLU	372,GLU	372,GLU	372,GLU	372,GLU	372,GLU	372,GLU	372,GLU	372,GLU	372,GLU	372,GLU	372,GLU	372,GLU	372,GLU	372,GLU	372,GLU
373,GLU	373,GLU	373,GLU	373,GLU	373,GLU	373,GLU	373,GLU	373,GLU	373,GLU	373,GLU	373,GLU	373,GLU	373,GLU	373,GLU	373,GLU	373,GLU	373,GLU
374,GLY	374,GLY	374,GLY	374,GLY	374,GLY	374,GLY	374,GLY	374,GLY	374,GLY	374,GLY	374,GLY	374,GLY	374,GLY	374,GLY	374,GLY	374,GLY	374,GLY
375,ALA	375,ALA	375,ALA	375,ALA	375,ALA	375,ALA	375,ALA	375,ALA	375,ALA	375,ALA	375,ALA	375,ALA	375,ALA	375,ALA	375,ALA	375,ALA	375,ALA
376,LEU	376,LEU	376,LEU	376,LEU	376,LEU	376,LEU	376,LEU	376,LEU	376,LEU	376,LEU	376,LEU	376,LEU	376,LEU	376,LEU	376,LEU	376,LEU	376,LEU
377,VAL	377,VAL	377,VAL	377,VAL	377,VAL	377,VAL	377,VAL	377,VAL	377,VAL	377,VAL	377,VAL	377,VAL	377,VAL	377,VAL	377,VAL	377,VAL	377,VAL
378,PRO	378,PRO	378,PRO	378,PRO	378,PRO	378,PRO	378,PRO	378,PRO	378,PRO	378,PRO	378,PRO	378,PRO	378,PRO	378,PRO	378,PRO	378,PRO	378,PRO
379,GLU	379,GLU	379,GLU	379,GLU	379,GLU	379,GLU	379,GLU	379,GLU	379,GLU	379,GLU	379,GLU	379,GLU	379,GLU	379,GLU	379,GLU	379,GLU	379,GLU
380,LYS	380,LYS	380,LYS	380,LYS	380,LYS	380,LYS	380,LYS	380,LYS	380,LYS	380,LYS	380,LYS	380,LYS	380,LYS	380,LYS	380,LYS	380,LYS	380,LYS
381,ASP	381,ASP	381,ASP	381,ASP	381,ASP	381,ASP	381,ASP	381,ASP	381,ASP	381,ASP	381,ASP	381,ASP	381,ASP	381,ASP	381,ASP	381,ASP	381,ASP
382,ASP	382,ASP	382,ASP	382,ASP	382,ASP	382,ASP	382,ASP	382,ASP	382,ASP	382,ASP	382,ASP	382,ASP	382,ASP	382,ASP	382,ASP	382,ASP	382,ASP
383,THR	383,THR	383,THR	383,THR	383,THR	383,THR	383,THR	383,THR	383,THR	383,THR	383,THR	383,THR	383,THR	383,THR	383,THR	383,THR	383,THR
384,PHE	384,PHE	384,PHE	384,PHE	384,PHE	384,PHE	387,LEU	384,PHE	384,PHE	384,PHE	384,PHE	384,PHE	384,PHE	384,PHE	384,PHE	384,PHE	384,PHE
385,LEU	385,LEU	385,LEU	385,LEU	385,LEU	385,LEU	384,PHE	385,LEU	385,LEU	385,LEU	385,LEU	385,LEU	385,LEU	385,LEU	385,LEU	385,LEU	385,LEU
386,LYS	386,LYS	386,LYS	386,LYS	386,LYS	386,LYS	385,LEU	386,LYS	386,LYS	386,LYS	386,LYS	386,LYS	386,LYS	386,LYS	386,LYS	386,LYS	386,LYS
387,LEU	387,LEU	387,LEU	387,LEU	387,LEU	387,LEU	386,LYS	387,LEU	387,LEU	387,LEU	387,LEU	387,LEU	387,LEU	387,LEU	387,LEU	387,LEU	387,LEU
388,ALA	388,ALA	388,ALA	388,ALA	388,ALA	388,ALA	388,ALA	388,ALA	388,ALA	388,ALA	388,ALA	388,ALA	388,ALA	388,ALA	388,ALA	388,ALA	388,ALA
389,SER	389,SER	389,SER	389,SER	389,SER	389,SER	389,SER	389,SER	389,SER	389,SER	389,SER	389,SER	389,SER	389,SER	389,SER	389,SER	389,SER
390,ALA	390,ALA	390,ALA	390,ALA	390,ALA	390,ALA	390,ALA	390,ALA	390,ALA	390,ALA	390,ALA	390,ALA	390,ALA	390,ALA	390,ALA	390,ALA	390,ALA
391,LEU	391,LEU	391,LEU	391,LEU	391,LEU	391,LEU	391,LEU	391,LEU	391,LEU	391,LEU	391,LEU	391,LEU	391,LEU	391,LEU	391,LEU	391,LEU	391,LEU
392,ASN	392,ASN	392,ASN	392,ASN	392,ASN	392,ASN	392,ASN	392,ASN	392,ASN	392,ASN	392,ASN	392,ASN	392,ASN	392,ASN	392,ASN	392,ASN	392,ASN
393,LEU	393,LEU	393,LEU	393,LEU	393,LEU	393,LEU	393,LEU	393,LEU	393,LEU	393,LEU	393,LEU	393,LEU	393,LEU	393,LEU	393,LEU	393,LEU	393,LEU
394,SER	394,SER	394,SER	394,SER	394,SER	394,SER	394,SER	394,SER	394,SER	394,SER	394,SER	394,SER	394,SER	394,SER	394,SER	394,SER	394,SER
395,THR	395,THR	395,THR	395,THR	395,THR	395,THR	395,THR	395,THR	395,THR	395,THR	395,THR	395,THR	395,THR	395,THR	395,THR	395,THR	395,THR
396,LYS	396,LYS	396,LYS	396,LYS	396,LYS	396,LYS	396,LYS	396,LYS	396,LYS	396,LYS	396,LYS	396,LYS	396,LYS	396,LYS	396,LYS	396,LYS	396,LYS
397,ASN	397,ASN	397,ASN	397,ASN	397,ASN	397,ASN	400,SER	400,SER	397,ASN	397,ASN	397,ASN	397,ASN	397,ASN	397,ASN	397,ASN	397,ASN	397,ASN
398,ALA	398,ALA	398,ALA	398,ALA	398,ALA	398,ALA	397,ASN	397,ASN	398,ALA	398,ALA	398,ALA	398,ALA	398,ALA	398,ALA	398,ALA	398,ALA	398,ALA
399,PRO	399,PRO	399,PRO	399,PRO	399,PRO	399,PRO	398,ALA	398,ALA	399,PRO	402,THR	399,PRO	399,PRO	399,PRO	399,PRO	399,PRO	399,PRO	399,PRO
400,SER	400,SER	400,SER	400,SER	400,SER	400,SER	399,PRO	399,PRO	400,SER	399,PRO	400,SER	400,SER	400,SER	400,SER	400,SER	400,SER	400,SER
401,GLY	401,GLY	401,GLY	401,GLY	401,GLY	401,GLY	401,GLY	401,GLY	401,GLY	400,SER	401,GLY	401,GLY	401,GLY	401,GLY	401,GLY	401,GLY	401,GLY
402,THR	402,THR	402,THR	402,THR	402,THR	402,THR	402,THR	402,THR	402,THR	401,GLY	402,THR	402,THR	402,THR	402,THR	402,THR	402,THR	402,THR
403,LEU	403,LEU	403,LEU	403,LEU	403,LEU	403,LEU	403,LEU	403,LEU	403,LEU	403,LEU	403,LEU	403,LEU	403,LEU	403,LEU	403,LEU	403,LEU	403,LEU
404,VAL	404,VAL	404,VAL	404,VAL	404,VAL	404,VAL	404,VAL	404,VAL	404,VAL	404,VAL	404,VAL	404,VAL	404,VAL	404,VAL	404,VAL	404,VAL	404,VAL
405,GLY	405,GLY	405,GLY	405,GLY	405,GLY	405,GLY	405,GLY	405,GLY	405,GLY	405,GLY	405,GLY	405,GLY	405,GLY	405,GLY	405,GLY	405,GLY	405,GLY
406,ASP	406,ASP	406,ASP	406,ASP	406,ASP	406,ASP	406,ASP	406,ASP	406,ASP	406,ASP	406,ASP	406,ASP	406,ASP	406,ASP	406,ASP	406,ASP	406,ASP
407,LYS	407,LYS	407,LYS	407,LYS	407,LYS	407,LYS	407,LYS	407,LYS	407,LYS	407,LYS	407,LYS	407,LYS	407,LYS	407,LYS	407,LYS	407,LYS	407,LYS
408,GLU	408,GLU	408,GLU	408,GLU	408,GLU	408,GLU	408,GLU	408,GLU	408,GLU	408,GLU	408,GLU	408,GLU	408,GLU	408,GLU	408,GLU	408,GLU	408,GLU
409,ASP	409,ASP	409,ASP	409,ASP	409,ASP	409,ASP	409,ASP	409,ASP	409,ASP	409,ASP	409,ASP	409,ASP	409,ASP	409,ASP	409,ASP	409,ASP	409,ASP
410,ARG	410,ARG	410,ARG	410,ARG	410,ARG	410,ARG	410,ARG	410,ARG	410,ARG	410,ARG	410,ARG	410,ARG	410,ARG	410,ARG	410,ARG	410,ARG	410,ARG
411,LYS	411,LYS	411,LYS	411,LYS	411,LYS	411,LYS	411,LYS	411,LYS	411,LYS	411,LYS	411,LYS	411,LYS	411,LYS	411,LYS	411,LYS	411,LYS	411,LYS
412,GLU	412,GLU	412,GLU	412,GLU	412,GLU	412,GLU	412,GLU	412,GLU	412,GLU	412,GLU	412,GLU	412,GLU	412,GLU	412,GLU	412,GLU	412,GLU	412,GLU
413,ASP	413,ASP	413,ASP	413,ASP	413,ASP	413,ASP	413,ASP	413,ASP	413,ASP	413,ASP	413,ASP	413,ASP	413,ASP	413,ASP	413,ASP	413,ASP	413,ASP
414,LEU	414,LEU	414,LEU	414,LEU	414,LEU	414,LEU	414,LEU	414,LEU	414,LEU	414,LEU	414,LEU	414,LEU	414,LEU	414,LEU	414,LEU	414,LEU	414,LEU
415,SER	415,SER	415,SER	415,SER	415,SER	415,SER	415,SER	415,SER	415,SER	415,SER	415,SER	415,SER	415,SER	415,SER	415,SER	415,SER	415,SER
416,SER	416,SER	416,SER	416,SER	416,SER	416,SER	416,SER	416,SER	416,SER	416,SER	416,SER	416,SER	416,SER	416,SER	416,SER	416,SER	416,SER
417,ILE	417,ILE	417,ILE	417,ILE	417,ILE	417,ILE	417,ILE	417,ILE	417,ILE	417,ILE	417,ILE	417,ILE	417,ILE	417,ILE	417,ILE	417,ILE	417,ILE
418,HIS	418,HIS	418,HIS	418,HIS	418,HIS	418,HIS	418,HIS	418,HIS	418,HIS	418,HIS	418,HIS	418,HIS	418,HIS	418,HIS	418,HIS	418,HIS	418,HIS
419,TRP	419,TRP	419,TRP	419,TRP	419,TRP	419,TRP	419,TRP	419,TRP	419,TRP	419,TRP	419,TRP	419,TRP	419,TRP	419,TRP	419,TRP	419,TRP	419,TRP
420,ARG	420,ARG	420,ARG	420,ARG	420,ARG	420,ARG	420,ARG	420,ARG	420,ARG	420,ARG	420,ARG	420,ARG	420,ARG	420,ARG	420,ARG	420,ARG	420,ARG
421,PHE	421,PHE	421,PHE	421,PHE	421,PHE	421,PHE	421,PHE	421,PHE	421,PHE	421,PHE	421,PHE	421,PHE	421,PHE	421,PHE	421,PHE	421,PHE	421,PHE
422,GLN	422,GLN	422,GLN	422,GLN	422,GLN	422,GLN	422,GLN	422,GLN	422,GLN	422,GLN	422,GLN	422,GLN	422,GLN	422,GLN	422,GLN	422,GLN	422,GLN
423,ARG	423,ARG	423,ARG	423,ARG	423,ARG	423,ARG	423,ARG	423,ARG	423,ARG	423,ARG	423,ARG	423,ARG	423,ARG	423,ARG	423,ARG	423,ARG	423,ARG
424,GLU	424,GLU	424,GLU	424,GLU	424,GLU	424,GLU	424,GLU	424,GLU	424,GLU	424,GLU	424,GLU	424,GLU	424,GLU	424,GLU	424,GLU	424,GLU	424,GLU
425,LEU	425,LEU	425,LEU	425,LEU	425,LEU	425,LEU	425,LEU	425,LEU	425,LEU	425,LEU	425,LEU	425,LEU	425,LEU	425,LEU	425,LEU	425,LEU	425,LEU
426,TRP	426,TRP	426,TRP	426,TRP	426,TRP	426,TRP	426,TRP	426,TRP	426,TRP	426,TRP	426,TRP	426,TRP	426,TRP	426,TRP	426,TRP	426,TRP	426,TRP
427,ASP	427,ASP	427,ASP	427,ASP	427,ASP	427,ASP	430,LYS	427,ASP	427,ASP	427,ASP	427,ASP	427,ASP	427,ASP	427,ASP	427,ASP	427,ASP	427,ASP
428,GLU	428,GLU	428,GLU	428,GLU	428,GLU	428,GLU	427,ASP	428,GLU	428,GLU	428,GLU	428,GLU	428,GLU	428,GLU	428,GLU	428,GLU	428,GLU	428,GLU
429,GLU	429,GLU	429,GLU	429,GLU	429,GLU	429,GLU	428,GLU	429,GLU	429,GLU	429,GLU	429,GLU	429,GLU	429,GLU	429,GLU	429,GLU	429,GLU	429,GLU
430,LYS	430,LYS	430,LYS	430,LYS	430,LYS	430,LYS	429,GLU	430,LYS	430,LYS	430,LYS	430,LYS	430,LYS	430,LYS	430,LYS	430,LYS	430,LYS	430,LYS
431,GLU	431,GLU	431,GLU	431,GLU	431,GLU	431,GLU	431,GLU	431,GLU	431,GLU	431,GLU	431,GLU	431,GLU	431,GLU	431,GLU	431,GLU	431,GLU	431,GLU
432,ILE	432,ILE	432,ILE	432,ILE	432,ILE	432,ILE	432,ILE	432,ILE	432,ILE	432,ILE	432,ILE	432,ILE	432,ILE	432,ILE	432,ILE	432,ILE	432,ILE
433,VAL	433,VAL	433,VAL	433,VAL	433,VAL	433,VAL	433,VAL	433,VAL	433,VAL	433,VAL	433,VAL	433,VAL	433,VAL	433,VAL	433,VAL	433,VAL	433,VAL
434,LEU	434,LEU	434,LEU	434,LEU	434,LEU	434,LEU	434,LEU	434,LEU	434,LEU	434,LEU	434,LEU	434,LEU	434,LEU	434,LEU	434,LEU	434,LEU	434,LEU
