P50086	1ixvA	1wg0A	2dznA	2dznC	2dznE	2dzoA	2dzoC
1,MET	1,MET	1,MET	1,MET	1,MET	1,MET	1,MET	1,MET
2,SER	2,SER	2,SER	2,SER	2,SER	2,SER	2,SER	2,SER
3,ASN	3,ASN	3,ASN	3,ASN	3,ASN	3,ASN	3,ASN	3,ASN
4,TYR	4,TYR	4,TYR	4,TYR	4,TYR	4,TYR	4,TYR	4,TYR
5,PRO	5,PRO	5,PRO	5,PRO	5,PRO	5,PRO	5,PRO	5,PRO
6,LEU	6,LEU	6,LEU	6,LEU	6,LEU	6,LEU	6,LEU	6,LEU
7,HIS	7,HIS	7,HIS	7,HIS	7,HIS	7,HIS	7,HIS	7,HIS
8,GLN	8,GLN	8,GLN	8,GLN	8,GLN	8,GLN	8,GLN	8,GLN
9,ALA	9,ALA	9,ALA	9,ALA	9,ALA	9,ALA	9,ALA	9,ALA
10,CYS	10,CYS	10,CYS	10,CYS	10,CYS	10,CYS	10,CYS	10,CYS
11,MET	11,MET	11,MET	11,MET	11,MET	11,MET	11,MET	11,MET
12,GLU	12,GLU	12,GLU	12,GLU	12,GLU	12,GLU	12,GLU	12,GLU
13,ASN	13,ASN	13,ASN	13,ASN	13,ASN	13,ASN	13,ASN	13,ASN
14,GLU	14,GLU	14,GLU	14,GLU	14,GLU	14,GLU	14,GLU	17,LYS
15,PHE	15,PHE	15,PHE	15,PHE	15,PHE	15,PHE	15,PHE	14,GLU
16,PHE	16,PHE	16,PHE	16,PHE	16,PHE	16,PHE	16,PHE	15,PHE
17,LYS	17,LYS	17,LYS	17,LYS	17,LYS	17,LYS	17,LYS	16,PHE
18,VAL	18,VAL	18,VAL	18,VAL	18,VAL	18,VAL	18,VAL	18,VAL
19,GLN	19,GLN	19,GLN	19,GLN	19,GLN	19,GLN	19,GLN	19,GLN
20,GLU	20,GLU	20,GLU	20,GLU	20,GLU	20,GLU	20,GLU	20,GLU
21,LEU	21,LEU	21,LEU	21,LEU	21,LEU	21,LEU	21,LEU	21,LEU
22,LEU	22,LEU	22,LEU	22,LEU	22,LEU	22,LEU	22,LEU	22,LEU
23,HIS	23,HIS	23,HIS	23,HIS	23,HIS	23,HIS	23,HIS	26,PRO
24,SER	24,SER	24,SER	24,SER	24,SER	24,SER	24,SER	23,HIS
25,LYS	25,LYS	25,LYS	25,LYS	25,LYS	25,LYS	25,LYS	24,SER
26,PRO	26,PRO	26,PRO	26,PRO	26,PRO	26,PRO	26,PRO	25,LYS
27,SER	27,SER	27,SER	27,SER	27,SER	27,SER	27,SER	27,SER
28,LEU	28,LEU	28,LEU	28,LEU	28,LEU	28,LEU	28,LEU	28,LEU
29,LEU	29,LEU	29,LEU	29,LEU	29,LEU	29,LEU	29,LEU	29,LEU
30,LEU	30,LEU	30,LEU	30,LEU	30,LEU	30,LEU	30,LEU	30,LEU
31,GLN	31,GLN	31,GLN	31,GLN	31,GLN	31,GLN	31,GLN	34,GLN
32,LYS	32,LYS	32,LYS	32,LYS	32,LYS	32,LYS	32,LYS	31,GLN
33,ASP	33,ASP	33,ASP	33,ASP	33,ASP	33,ASP	33,ASP	32,LYS
34,GLN	34,GLN	34,GLN	34,GLN	34,GLN	34,GLN	34,GLN	33,ASP
35,ASP	35,ASP	35,ASP	35,ASP	35,ASP	35,ASP	35,ASP	35,ASP
36,GLY	36,GLY	36,GLY	36,GLY	36,GLY	36,GLY	36,GLY	36,GLY
37,ARG	37,ARG	37,ARG	37,ARG	37,ARG	37,ARG	37,ARG	37,ARG
38,ILE	38,ILE	38,ILE	38,ILE	38,ILE	38,ILE	38,ILE	38,ILE
39,PRO	39,PRO	39,PRO	39,PRO	39,PRO	39,PRO	39,PRO	39,PRO
40,LEU	40,LEU	40,LEU	40,LEU	40,LEU	40,LEU	40,LEU	40,LEU
41,HIS	41,HIS	41,HIS	41,HIS	41,HIS	41,HIS	41,HIS	41,HIS
42,TRP	42,TRP	42,TRP	42,TRP	42,TRP	42,TRP	42,TRP	42,TRP
43,SER	43,SER	43,SER	43,SER	43,SER	43,SER	43,SER	43,SER
44,VAL	44,VAL	44,VAL	44,VAL	44,VAL	44,VAL	44,VAL	44,VAL
45,SER	45,SER	45,SER	45,SER	45,SER	45,SER	45,SER	45,SER
46,PHE	46,PHE	46,PHE	46,PHE	46,PHE	46,PHE	46,PHE	46,PHE
47,GLN	47,GLN	47,GLN	47,GLN	47,GLN	47,GLN	47,GLN	47,GLN
48,ALA	48,ALA	48,ALA	48,ALA	48,ALA	48,ALA	48,ALA	51,ILE
49,HIS	49,HIS	49,HIS	49,HIS	49,HIS	49,HIS	49,HIS	48,ALA
50,GLU	50,GLU	50,GLU	50,GLU	50,GLU	50,GLU	50,GLU	49,HIS
51,ILE	51,ILE	51,ILE	51,ILE	51,ILE	51,ILE	51,ILE	50,GLU
52,THR	52,THR	52,THR	52,THR	52,THR	52,THR	52,THR	52,THR
53,SER	53,SER	53,SER	53,SER	53,SER	53,SER	53,SER	53,SER
54,PHE	54,PHE	54,PHE	54,PHE	54,PHE	54,PHE	54,PHE	54,PHE
55,LEU	55,LEU	55,LEU	55,LEU	55,LEU	55,LEU	55,LEU	55,LEU
56,LEU	56,LEU	56,LEU	56,LEU	56,LEU	56,LEU	56,LEU	56,LEU
57,SER	57,SER	57,SER	57,SER	57,SER	57,SER	57,SER	57,SER
58,LYS	58,LYS	58,LYS	58,LYS	58,LYS	58,LYS	58,LYS	58,LYS
59,MET	59,MET	59,MET	59,MET	59,MET	59,MET	59,MET	59,MET
60,GLU	60,GLU	60,GLU	60,GLU	60,GLU	60,GLU	60,GLU	60,GLU
61,ASN	61,ASN	61,ASN	61,ASN	61,ASN	61,ASN	61,ASN	61,ASN
62,VAL	62,VAL	62,VAL	62,VAL	62,VAL	62,VAL	62,VAL	62,VAL
63,ASN	63,ASN	63,ASN	63,ASN	63,ASN	63,ASN	63,ASN	63,ASN
64,LEU	64,LEU	64,LEU	64,LEU	64,LEU	64,LEU	64,LEU	64,LEU
65,ASP	65,ASP	65,ASP	65,ASP	65,ASP	65,ASP	65,ASP	65,ASP
66,ASP	66,ASP	66,ASP	66,ASP	66,ASP	66,ASP	66,ASP	66,ASP
67,TYR	67,TYR	67,TYR	67,TYR	67,TYR	67,TYR	67,TYR	67,TYR
68,PRO	68,PRO	68,PRO	68,PRO	68,PRO	68,PRO	68,PRO	68,PRO
69,ASP	69,ASP	69,ASP	69,ASP	69,ASP	69,ASP	69,ASP	69,ASP
70,ASP	70,ASP	70,ASP	70,ASP	70,ASP	70,ASP	70,ASP	70,ASP
71,SER	71,SER	71,SER	71,SER	71,SER	71,SER	71,SER	71,SER
72,GLY	72,GLY	72,GLY	72,GLY	72,GLY	72,GLY	72,GLY	72,GLY
73,TRP	73,TRP	73,TRP	73,TRP	73,TRP	73,TRP	73,TRP	73,TRP
74,THR	74,THR	74,THR	74,THR	74,THR	74,THR	74,THR	74,THR
75,PRO	75,PRO	75,PRO	75,PRO	75,PRO	75,PRO	75,PRO	75,PRO
76,PHE	76,PHE	76,PHE	76,PHE	76,PHE	76,PHE	76,PHE	76,PHE
77,HIS	77,HIS	77,HIS	77,HIS	77,HIS	77,HIS	77,HIS	77,HIS
78,ILE	78,ILE	78,ILE	78,ILE	78,ILE	78,ILE	78,ILE	78,ILE
79,ALA	79,ALA	79,ALA	79,ALA	79,ALA	79,ALA	79,ALA	79,ALA
80,CYS	80,CYS	80,CYS	80,CYS	80,CYS	80,CYS	80,CYS	80,CYS
81,SER	81,SER	81,SER	81,SER	81,SER	81,SER	81,SER	81,SER
82,VAL	82,VAL	82,VAL	82,VAL	82,VAL	82,VAL	82,VAL	82,VAL
83,GLY	83,GLY	83,GLY	83,GLY	83,GLY	83,GLY	83,GLY	83,GLY
84,ASN	84,ASN	84,ASN	84,ASN	84,ASN	84,ASN	84,ASN	84,ASN
85,LEU	85,LEU	85,LEU	85,LEU	85,LEU	85,LEU	85,LEU	85,LEU
86,GLU	86,GLU	86,GLU	86,GLU	86,GLU	86,GLU	86,GLU	86,GLU
87,VAL	87,VAL	87,VAL	87,VAL	87,VAL	87,VAL	87,VAL	87,VAL
88,VAL	88,VAL	88,VAL	88,VAL	88,VAL	88,VAL	88,VAL	88,VAL
89,LYS	89,LYS	89,LYS	89,LYS	89,LYS	89,LYS	89,LYS	89,LYS
90,SER	90,SER	90,SER	90,SER	90,SER	90,SER	90,SER	90,SER
91,LEU	91,LEU	91,LEU	91,LEU	91,LEU	91,LEU	91,LEU	94,ARG
92,TYR	92,TYR	92,TYR	92,TYR	92,TYR	92,TYR	92,TYR	91,LEU
93,ASP	93,ASP	93,ASP	93,ASP	93,ASP	93,ASP	93,ASP	92,TYR
94,ARG	94,ARG	94,ARG	94,ARG	94,ARG	94,ARG	94,ARG	93,ASP
95,PRO	95,PRO	95,PRO	95,PRO	95,PRO	95,PRO	95,PRO	95,PRO
96,LEU	96,LEU	96,LEU	96,LEU	96,LEU	96,LEU	96,LEU	96,LEU
97,LYS	97,LYS	97,LYS	97,LYS	97,LYS	97,LYS	97,LYS	97,LYS
98,PRO	98,PRO	98,PRO	98,PRO	98,PRO	98,PRO	98,PRO	98,PRO
99,ASP	99,ASP	99,ASP	99,ASP	99,ASP	99,ASP	99,ASP	99,ASP
100,LEU	100,LEU	100,LEU	100,LEU	100,LEU	100,LEU	100,LEU	100,LEU
101,ASN	101,ASN	101,ASN	101,ASN	101,ASN	101,ASN	101,ASN	101,ASN
102,LYS	102,LYS	102,LYS	102,LYS	102,LYS	102,LYS	102,LYS	102,LYS
103,ILE	103,ILE	103,ILE	103,ILE	103,ILE	103,ILE	103,ILE	103,ILE
104,THR	104,THR	104,THR	104,THR	104,THR	104,THR	104,THR	104,THR
105,ASN	105,ASN	105,ASN	105,ASN	105,ASN	105,ASN	105,ASN	105,ASN
106,GLN	106,GLN	106,GLN	106,GLN	106,GLN	106,GLN	106,GLN	106,GLN
107,GLY	107,GLY	107,GLY	107,GLY	107,GLY	107,GLY	107,GLY	107,GLY
108,VAL	108,VAL	108,VAL	108,VAL	108,VAL	108,VAL	108,VAL	108,VAL
109,THR	109,THR	109,THR	109,THR	109,THR	109,THR	109,THR	109,THR
110,CYS	110,CYS	110,CYS	110,CYS	110,CYS	110,CYS	110,CYS	110,CYS
111,LEU	111,LEU	111,LEU	111,LEU	111,LEU	111,LEU	111,LEU	111,LEU
112,HIS	112,HIS	112,HIS	112,HIS	112,HIS	112,HIS	112,HIS	112,HIS
113,LEU	113,LEU	113,LEU	113,LEU	113,LEU	113,LEU	113,LEU	113,LEU
114,ALA	114,ALA	114,ALA	114,ALA	114,ALA	114,ALA	114,ALA	114,ALA
115,VAL	115,VAL	115,VAL	115,VAL	115,VAL	115,VAL	115,VAL	115,VAL
116,GLY	116,GLY	116,GLY	116,GLY	116,GLY	116,GLY	116,GLY	116,GLY
117,LYS	117,LYS	117,LYS	117,LYS	117,LYS	117,LYS	117,LYS	117,LYS
118,LYS	118,LYS	118,LYS	118,LYS	118,LYS	118,LYS	118,LYS	118,LYS
119,TRP	119,TRP	119,TRP	119,TRP	119,TRP	119,TRP	119,TRP	119,TRP
120,PHE	120,PHE	120,PHE	120,PHE	120,PHE	120,PHE	120,PHE	120,PHE
121,GLU	121,GLU	121,GLU	121,GLU	121,GLU	121,GLU	121,GLU	121,GLU
122,VAL	122,VAL	122,VAL	122,VAL	122,VAL	122,VAL	122,VAL	122,VAL
123,SER	123,SER	123,SER	123,SER	123,SER	123,SER	123,SER	123,SER
124,GLN	124,GLN	124,GLN	124,GLN	124,GLN	124,GLN	124,GLN	124,GLN
125,PHE	125,PHE	125,PHE	125,PHE	125,PHE	125,PHE	125,PHE	125,PHE
126,LEU	126,LEU	126,LEU	126,LEU	126,LEU	126,LEU	126,LEU	126,LEU
127,ILE	127,ILE	127,ILE	127,ILE	127,ILE	127,ILE	127,ILE	127,ILE
128,GLU	128,GLU	128,GLU	128,GLU	128,GLU	128,GLU	128,GLU	128,GLU
129,ASN	129,ASN	129,ASN	129,ASN	129,ASN	129,ASN	129,ASN	129,ASN
130,GLY	130,GLY	130,GLY	130,GLY	130,GLY	130,GLY	130,GLY	130,GLY
131,ALA	131,ALA	131,ALA	131,ALA	131,ALA	131,ALA	131,ALA	131,ALA
132,SER	132,SER	132,SER	132,SER	132,SER	132,SER	132,SER	132,SER
133,VAL	133,VAL	133,VAL	133,VAL	133,VAL	133,VAL	133,VAL	133,VAL
134,ARG	134,ARG	134,ARG	134,ARG	134,ARG	134,ARG	134,ARG	134,ARG
135,ILE	135,ILE	135,ILE	135,ILE	135,ILE	135,ILE	135,ILE	135,ILE
136,LYS	136,LYS	136,LYS	136,LYS	136,LYS	136,LYS	136,LYS	136,LYS
137,ASP	137,ASP	137,ASP	137,ASP	137,ASP	137,ASP	137,ASP	137,ASP
138,LYS	138,LYS	138,LYS	138,LYS	138,LYS	138,LYS	138,LYS	138,LYS
139,PHE	139,PHE	139,PHE	139,PHE	139,PHE	139,PHE	139,PHE	139,PHE
140,ASN	140,ASN	140,ASN	140,ASN	140,ASN	140,ASN	140,ASN	140,ASN
141,GLN	141,GLN	141,GLN	141,GLN	141,GLN	141,GLN	141,GLN	141,GLN
142,ILE	142,ILE	142,ILE	142,ILE	142,ILE	142,ILE	142,ILE	142,ILE
143,PRO	143,PRO	143,PRO	143,PRO	143,PRO	143,PRO	143,PRO	143,PRO
144,LEU	144,LEU	144,LEU	144,LEU	144,LEU	144,LEU	144,LEU	144,LEU
145,HIS	145,HIS	145,HIS	145,HIS	145,HIS	145,HIS	145,HIS	145,HIS
146,ARG	146,ARG	146,ARG	146,ARG	146,ARG	146,ARG	146,ARG	146,ARG
147,ALA	147,ALA	147,ALA	147,ALA	147,ALA	147,ALA	147,ALA	147,ALA
148,ALA	148,ALA	148,ALA	148,ALA	148,ALA	148,ALA	148,ALA	148,ALA
149,SER	149,SER	149,SER	149,SER	149,SER	149,SER	149,SER	149,SER
150,VAL	150,VAL	150,VAL	150,VAL	150,VAL	150,VAL	150,VAL	150,VAL
151,GLY	151,GLY	151,GLY	151,GLY	151,GLY	151,GLY	151,GLY	151,GLY
152,SER	152,SER	152,SER	152,SER	152,SER	152,SER	152,SER	152,SER
153,LEU	153,LEU	153,LEU	153,LEU	153,LEU	153,LEU	153,LEU	153,LEU
154,LYS	154,LYS	154,LYS	154,LYS	154,LYS	154,LYS	154,LYS	154,LYS
155,LEU	155,LEU	155,LEU	155,LEU	155,LEU	155,LEU	155,LEU	155,LEU
156,ILE	156,ILE	156,ILE	156,ILE	156,ILE	156,ILE	156,ILE	156,ILE
157,GLU	157,GLU	157,GLU	157,GLU	157,GLU	157,GLU	157,GLU	157,GLU
158,LEU	158,LEU	158,LEU	158,LEU	158,LEU	158,LEU	158,LEU	158,LEU
159,LEU	159,LEU	159,LEU	159,LEU	159,LEU	159,LEU	159,LEU	159,LEU
160,CYS	160,CYS	160,CYS	160,CYS	160,CYS	160,CYS	160,CYS	160,CYS
161,GLY	161,GLY	161,GLY	161,GLY	161,GLY	161,GLY	161,GLY	161,GLY
162,LEU	162,LEU	162,LEU	162,LEU	162,LEU	162,LEU	162,LEU	162,LEU
163,GLY	163,GLY	163,GLY	163,GLY	163,GLY	163,GLY	163,GLY	163,GLY
164,LYS	164,LYS	164,LYS	164,LYS	164,LYS	164,LYS	164,LYS	164,LYS
165,SER	165,SER	165,SER	165,SER	165,SER	165,SER	165,SER	165,SER
166,ALA	166,ALA	166,ALA	166,ALA	166,ALA	166,ALA	166,ALA	166,ALA
167,VAL	167,VAL	167,VAL	167,VAL	167,VAL	167,VAL	167,VAL	167,VAL
168,ASN	168,ASN	168,ASN	168,ASN	168,ASN	168,ASN	168,ASN	168,ASN
169,TRP	169,TRP	169,TRP	169,TRP	169,TRP	169,TRP	169,TRP	169,TRP
170,GLN	170,GLN	170,GLN	170,GLN	170,GLN	170,GLN	170,GLN	170,GLN
171,ASP	171,ASP	171,ASP	171,ASP	171,ASP	171,ASP	171,ASP	171,ASP
172,LYS	172,LYS	172,LYS	172,LYS	172,LYS	172,LYS	172,LYS	172,LYS
173,GLN	173,GLN	173,GLN	173,GLN	173,GLN	173,GLN	173,GLN	173,GLN
174,GLY	174,GLY	174,GLY	174,GLY	174,GLY	174,GLY	174,GLY	174,GLY
175,TRP	175,TRP	175,TRP	175,TRP	175,TRP	175,TRP	175,TRP	175,TRP
176,THR	176,THR	176,THR	176,THR	176,THR	176,THR	176,THR	176,THR
177,PRO	177,PRO	177,PRO	177,PRO	177,PRO	177,PRO	177,PRO	177,PRO
178,LEU	178,LEU	178,LEU	178,LEU	178,LEU	178,LEU	178,LEU	178,LEU
179,PHE	179,PHE	179,PHE	179,PHE	179,PHE	179,PHE	179,PHE	179,PHE
180,HIS	180,HIS	180,HIS	180,HIS	180,HIS	180,HIS	180,HIS	180,HIS
181,ALA	181,ALA	181,ALA	181,ALA	181,ALA	181,ALA	181,ALA	181,ALA
182,LEU	182,LEU	182,LEU	182,LEU	182,LEU	182,LEU	182,LEU	182,LEU
183,ALA	183,ALA	183,ALA	183,ALA	183,ALA	183,ALA	183,ALA	183,ALA
184,GLU	184,GLU	184,GLU	184,GLU	184,GLU	184,GLU	184,GLU	184,GLU
185,GLY	185,GLY	185,GLY	185,GLY	185,GLY	185,GLY	185,GLY	185,GLY
186,HIS	186,HIS	186,HIS	186,HIS	186,HIS	186,HIS	186,HIS	186,HIS
187,GLY	187,GLY	187,GLY	187,GLY	187,GLY	187,GLY	187,GLY	187,GLY
188,ASP	188,ASP	188,ASP	188,ASP	188,ASP	188,ASP	188,ASP	188,ASP
189,ALA	189,ALA	189,ALA	189,ALA	189,ALA	189,ALA	189,ALA	189,ALA
190,ALA	190,ALA	190,ALA	190,ALA	190,ALA	190,ALA	190,ALA	190,ALA
191,VAL	191,VAL	191,VAL	191,VAL	191,VAL	191,VAL	191,VAL	191,VAL
192,LEU	192,LEU	192,LEU	192,LEU	192,LEU	192,LEU	192,LEU	192,LEU
193,LEU	193,LEU	193,LEU	193,LEU	193,LEU	193,LEU	193,LEU	193,LEU
194,VAL	194,VAL	194,VAL	194,VAL	194,VAL	194,VAL	194,VAL	194,VAL
195,GLU	195,GLU	195,GLU	195,GLU	195,GLU	195,GLU	195,GLU	195,GLU
196,LYS	196,LYS	196,LYS	196,LYS	196,LYS	196,LYS	196,LYS	196,LYS
197,TYR	197,TYR	197,TYR	197,TYR	197,TYR	197,TYR	197,TYR	197,TYR
198,GLY	198,GLY	198,GLY	198,GLY	198,GLY	198,GLY	198,GLY	198,GLY
199,ALA	199,ALA	199,ALA	199,ALA	199,ALA	199,ALA	199,ALA	199,ALA
200,GLU	200,GLU	200,GLU	200,GLU	200,GLU	200,GLU	200,GLU	200,GLU
201,TYR	201,TYR	201,TYR	201,TYR	201,TYR	201,TYR	201,TYR	201,TYR
202,ASP	202,ASP	202,ASP	202,ASP	202,ASP	202,ASP	202,ASP	202,ASP
203,LEU	203,LEU	203,LEU	203,LEU	203,LEU	203,LEU	203,LEU	203,LEU
204,VAL	204,VAL	204,VAL	204,VAL	204,VAL	204,VAL	204,VAL	204,VAL
205,ASP	205,ASP	205,ASP	205,ASP	205,ASP	205,ASP	205,ASP	205,ASP
206,ASN	206,ASN	206,ASN	206,ASN	206,ASN	206,ASN	206,ASN	206,ASN
207,LYS	207,LYS	207,LYS	207,LYS	207,LYS	207,LYS	207,LYS	207,LYS
208,GLY	208,GLY	208,GLY	208,GLY	208,GLY	208,GLY	208,GLY	208,GLY
209,ALA	209,ALA	209,ALA	209,ALA	209,ALA	209,ALA	209,ALA	209,ALA
210,LYS	210,LYS	210,LYS	210,LYS	210,LYS	210,LYS	210,LYS	210,LYS
211,ALA	211,ALA	211,ALA	211,ALA	211,ALA	211,ALA	211,ALA	211,ALA
212,GLU	212,GLU	212,GLU	212,GLU	212,GLU	212,GLU	212,GLU	212,GLU
213,ASP	213,ASP	213,ASP	213,ASP	213,ASP	213,ASP	213,ASP	213,ASP
214,VAL	214,VAL	214,VAL	214,VAL	214,VAL	214,VAL	214,VAL	214,VAL
215,ALA	215,ALA	215,ALA	215,ALA	215,ALA	215,ALA	215,ALA	215,ALA
216,LEU	216,LEU	216,LEU	216,LEU	216,LEU	216,LEU	216,LEU	216,LEU
217,ASN	217,ASN	217,ASN	217,ASN	217,ASN	217,ASN	217,ASN	217,ASN
218,GLU	218,GLU	218,GLU	218,GLU	218,GLU	218,GLU	218,GLU	218,GLU
219,GLN	219,GLN	219,GLN	219,GLN	219,GLN	219,GLN	219,GLN	219,GLN
220,VAL	220,VAL	220,VAL	220,VAL	220,VAL	220,VAL	220,VAL	220,VAL
221,LYS	221,LYS	221,LYS	221,LYS	221,LYS	221,LYS	221,LYS	221,LYS
222,LYS	222,LYS	222,LYS	222,LYS	222,LYS	222,LYS	222,LYS	222,LYS
223,PHE	223,PHE	223,PHE	223,PHE	223,PHE	223,PHE	223,PHE	223,PHE
224,PHE	224,PHE	224,PHE	224,PHE	224,PHE	224,PHE	224,PHE	224,PHE
225,LEU	225,LEU	225,LEU	225,LEU	225,LEU	225,LEU	225,LEU	225,LEU
226,ASN	226,ASN	226,ASN	226,ASN	226,ASN	226,ASN	226,ASN	226,ASN
227,ASN	227,ASN	227,ASN	227,ASN	227,ASN	227,ASN	227,ASN	227,ASN
228,VAL	228,VAL	228,VAL	228,VAL	228,VAL	228,VAL	228,VAL	228,VAL
