Q76MZ3	6ef4A	3fgaA	2pf4A	2pf4C	2pf4B	2pf4D	2iaeA	2iaeD
1,MET	1,MET	-	1,MET	1,MET	1,MET	1,MET	1,MET	1,MET
2,ALA	2,ALA	2,ALA	2,ALA	2,ALA	2,ALA	2,ALA	2,ALA	2,ALA
3,ALA	3,ALA	3,ALA	3,ALA	3,ALA	3,ALA	3,ALA	3,ALA	3,ALA
4,ALA	4,ALA	4,ALA	4,ALA	4,ALA	4,ALA	4,ALA	4,ALA	4,ALA
5,ASP	5,ASP	5,ASP	5,ASP	5,ASP	5,ASP	5,ASP	5,ASP	5,ASP
6,GLY	6,GLY	6,GLY	6,GLY	6,GLY	6,GLY	6,GLY	6,GLY	6,GLY
7,ASP	7,ASP	7,ASP	7,ASP	7,ASP	7,ASP	7,ASP	7,ASP	7,ASP
8,ASP	8,ASP	8,ASP	8,ASP	8,ASP	8,ASP	8,ASP	8,ASP	8,ASP
9,SER	9,SER	9,SER	9,SER	9,SER	9,SER	9,SER	9,SER	9,SER
10,LEU	10,LEU	10,LEU	10,LEU	10,LEU	10,LEU	10,LEU	10,LEU	10,LEU
11,TYR	11,TYR	11,TYR	11,TYR	11,TYR	11,TYR	11,TYR	11,TYR	11,TYR
12,PRO	12,PRO	12,PRO	12,PRO	12,PRO	12,PRO	12,PRO	12,PRO	12,PRO
13,ILE	13,ILE	13,ILE	13,ILE	13,ILE	13,ILE	13,ILE	13,ILE	13,ILE
14,ALA	14,ALA	14,ALA	14,ALA	14,ALA	14,ALA	14,ALA	14,ALA	14,ALA
15,VAL	15,VAL	15,VAL	15,VAL	15,VAL	15,VAL	15,VAL	15,VAL	15,VAL
16,LEU	16,LEU	16,LEU	16,LEU	16,LEU	16,LEU	16,LEU	16,LEU	16,LEU
17,ILE	17,ILE	17,ILE	17,ILE	17,ILE	17,ILE	17,ILE	17,ILE	17,ILE
18,ASP	18,ASP	18,ASP	18,ASP	18,ASP	18,ASP	18,ASP	18,ASP	18,ASP
19,GLU	19,GLU	19,GLU	19,GLU	19,GLU	19,GLU	19,GLU	19,GLU	19,GLU
20,LEU	20,LEU	20,LEU	20,LEU	20,LEU	20,LEU	20,LEU	20,LEU	20,LEU
21,ARG	21,ARG	21,ARG	21,ARG	21,ARG	21,ARG	21,ARG	21,ARG	21,ARG
22,ASN	22,ASN	22,ASN	22,ASN	22,ASN	22,ASN	22,ASN	22,ASN	22,ASN
23,GLU	23,GLU	23,GLU	23,GLU	23,GLU	23,GLU	23,GLU	23,GLU	23,GLU
24,ASP	24,ASP	24,ASP	24,ASP	24,ASP	24,ASP	24,ASP	24,ASP	24,ASP
25,VAL	25,VAL	25,VAL	25,VAL	25,VAL	25,VAL	25,VAL	25,VAL	25,VAL
26,GLN	26,GLN	26,GLN	26,GLN	26,GLN	26,GLN	26,GLN	26,GLN	26,GLN
27,LEU	27,LEU	27,LEU	27,LEU	27,LEU	27,LEU	27,LEU	27,LEU	27,LEU
28,ARG	28,ARG	28,ARG	28,ARG	28,ARG	28,ARG	28,ARG	28,ARG	28,ARG
29,LEU	29,LEU	29,LEU	29,LEU	29,LEU	29,LEU	29,LEU	29,LEU	29,LEU
30,ASN	30,ASN	30,ASN	30,ASN	30,ASN	30,ASN	30,ASN	30,ASN	30,ASN
31,SER	31,SER	31,SER	31,SER	31,SER	31,SER	31,SER	31,SER	31,SER
32,ILE	32,ILE	32,ILE	32,ILE	32,ILE	32,ILE	32,ILE	32,ILE	32,ILE
33,LYS	33,LYS	33,LYS	33,LYS	33,LYS	33,LYS	33,LYS	33,LYS	33,LYS
34,LYS	34,LYS	34,LYS	34,LYS	34,LYS	34,LYS	34,LYS	34,LYS	34,LYS
35,LEU	35,LEU	35,LEU	35,LEU	35,LEU	35,LEU	35,LEU	35,LEU	35,LEU
36,SER	36,SER	36,SER	36,SER	36,SER	36,SER	36,SER	36,SER	36,SER
37,THR	37,THR	37,THR	37,THR	37,THR	37,THR	37,THR	37,THR	37,THR
38,ILE	38,ILE	38,ILE	38,ILE	38,ILE	38,ILE	38,ILE	38,ILE	38,ILE
39,ALA	39,ALA	39,ALA	39,ALA	39,ALA	39,ALA	39,ALA	39,ALA	39,ALA
40,LEU	40,LEU	40,LEU	40,LEU	40,LEU	40,LEU	40,LEU	40,LEU	40,LEU
41,ALA	41,ALA	41,ALA	41,ALA	41,ALA	41,ALA	41,ALA	41,ALA	41,ALA
42,LEU	42,LEU	42,LEU	42,LEU	42,LEU	42,LEU	42,LEU	42,LEU	42,LEU
43,GLY	43,GLY	43,GLY	43,GLY	43,GLY	43,GLY	43,GLY	43,GLY	43,GLY
44,VAL	44,VAL	44,VAL	44,VAL	44,VAL	44,VAL	44,VAL	44,VAL	44,VAL
45,GLU	45,GLU	45,GLU	45,GLU	45,GLU	45,GLU	45,GLU	45,GLU	45,GLU
46,ARG	46,ARG	46,ARG	46,ARG	46,ARG	46,ARG	46,ARG	46,ARG	46,ARG
47,THR	47,THR	47,THR	47,THR	47,THR	47,THR	47,THR	47,THR	47,THR
48,ARG	48,ARG	48,ARG	48,ARG	48,ARG	48,ARG	48,ARG	48,ARG	48,ARG
49,SER	49,SER	49,SER	49,SER	49,SER	49,SER	49,SER	49,SER	49,SER
50,GLU	50,GLU	50,GLU	50,GLU	50,GLU	50,GLU	50,GLU	50,GLU	50,GLU
51,LEU	51,LEU	51,LEU	51,LEU	51,LEU	51,LEU	51,LEU	51,LEU	51,LEU
52,LEU	52,LEU	52,LEU	52,LEU	52,LEU	52,LEU	52,LEU	52,LEU	52,LEU
53,PRO	53,PRO	53,PRO	53,PRO	53,PRO	53,PRO	53,PRO	53,PRO	53,PRO
54,PHE	54,PHE	54,PHE	54,PHE	54,PHE	54,PHE	54,PHE	54,PHE	54,PHE
55,LEU	55,LEU	55,LEU	55,LEU	55,LEU	55,LEU	55,LEU	55,LEU	55,LEU
56,THR	56,THR	56,THR	56,THR	56,THR	56,THR	56,THR	56,THR	56,THR
57,ASP	57,ASP	57,ASP	57,ASP	57,ASP	57,ASP	57,ASP	57,ASP	57,ASP
58,THR	58,THR	58,THR	58,THR	58,THR	58,THR	58,THR	58,THR	58,THR
59,ILE	59,ILE	59,ILE	59,ILE	59,ILE	59,ILE	59,ILE	59,ILE	59,ILE
60,TYR	60,TYR	60,TYR	60,TYR	60,TYR	60,TYR	60,TYR	60,TYR	60,TYR
61,ASP	61,ASP	61,ASP	61,ASP	61,ASP	61,ASP	61,ASP	61,ASP	61,ASP
62,GLU	62,GLU	62,GLU	62,GLU	62,GLU	62,GLU	62,GLU	62,GLU	62,GLU
63,ASP	63,ASP	63,ASP	63,ASP	63,ASP	63,ASP	63,ASP	63,ASP	63,ASP
64,GLU	64,GLU	64,GLU	64,GLU	64,GLU	64,GLU	64,GLU	64,GLU	64,GLU
65,VAL	65,VAL	65,VAL	65,VAL	65,VAL	65,VAL	65,VAL	65,VAL	65,VAL
66,LEU	66,LEU	66,LEU	66,LEU	66,LEU	66,LEU	66,LEU	66,LEU	66,LEU
67,LEU	67,LEU	67,LEU	67,LEU	67,LEU	67,LEU	67,LEU	67,LEU	67,LEU
68,ALA	68,ALA	68,ALA	68,ALA	68,ALA	68,ALA	68,ALA	68,ALA	68,ALA
69,LEU	69,LEU	69,LEU	69,LEU	69,LEU	69,LEU	69,LEU	69,LEU	69,LEU
70,ALA	70,ALA	70,ALA	70,ALA	70,ALA	70,ALA	70,ALA	70,ALA	70,ALA
71,GLU	71,GLU	71,GLU	71,GLU	71,GLU	71,GLU	71,GLU	71,GLU	71,GLU
72,GLN	72,GLN	72,GLN	72,GLN	72,GLN	72,GLN	72,GLN	72,GLN	72,GLN
73,LEU	73,LEU	73,LEU	73,LEU	73,LEU	73,LEU	73,LEU	73,LEU	73,LEU
74,GLY	74,GLY	74,GLY	74,GLY	74,GLY	74,GLY	74,GLY	74,GLY	74,GLY
75,THR	75,THR	75,THR	75,THR	75,THR	75,THR	75,THR	75,THR	75,THR
76,PHE	76,PHE	76,PHE	76,PHE	76,PHE	76,PHE	76,PHE	76,PHE	76,PHE
77,THR	77,THR	77,THR	77,THR	77,THR	77,THR	77,THR	77,THR	77,THR
78,THR	78,THR	78,THR	78,THR	78,THR	78,THR	78,THR	78,THR	78,THR
79,LEU	79,LEU	79,LEU	79,LEU	79,LEU	79,LEU	79,LEU	79,LEU	79,LEU
80,VAL	80,VAL	80,VAL	80,VAL	80,VAL	80,VAL	80,VAL	80,VAL	80,VAL
81,GLY	81,GLY	81,GLY	81,GLY	81,GLY	81,GLY	81,GLY	81,GLY	81,GLY
82,GLY	82,GLY	82,GLY	82,GLY	82,GLY	82,GLY	82,GLY	82,GLY	82,GLY
83,PRO	83,PRO	83,PRO	83,PRO	83,PRO	83,PRO	83,PRO	83,PRO	83,PRO
84,GLU	84,GLU	84,GLU	84,GLU	84,GLU	84,GLU	84,GLU	84,GLU	84,GLU
85,TYR	85,TYR	85,TYR	85,TYR	85,TYR	85,TYR	85,TYR	85,TYR	85,TYR
86,VAL	86,VAL	86,VAL	86,VAL	86,VAL	86,VAL	86,VAL	86,VAL	86,VAL
87,HIS	87,HIS	87,HIS	87,HIS	87,HIS	87,HIS	87,HIS	87,HIS	87,HIS
88,CYS	88,CYS	88,CYS	88,CYS	88,CYS	88,CYS	88,CYS	88,CYS	88,CYS
89,LEU	89,LEU	89,LEU	89,LEU	89,LEU	89,LEU	89,LEU	89,LEU	89,LEU
90,LEU	90,LEU	90,LEU	90,LEU	90,LEU	90,LEU	90,LEU	90,LEU	90,LEU
91,PRO	91,PRO	91,PRO	91,PRO	91,PRO	91,PRO	91,PRO	91,PRO	91,PRO
92,PRO	92,PRO	92,PRO	92,PRO	92,PRO	92,PRO	92,PRO	92,PRO	92,PRO
93,LEU	93,LEU	93,LEU	93,LEU	93,LEU	93,LEU	93,LEU	93,LEU	93,LEU
94,GLU	94,GLU	94,GLU	94,GLU	94,GLU	94,GLU	94,GLU	94,GLU	94,GLU
95,SER	95,SER	95,SER	95,SER	95,SER	95,SER	95,SER	95,SER	95,SER
96,LEU	96,LEU	96,LEU	96,LEU	96,LEU	96,LEU	96,LEU	96,LEU	96,LEU
97,ALA	97,ALA	97,ALA	97,ALA	97,ALA	97,ALA	97,ALA	97,ALA	97,ALA
98,THR	98,THR	98,THR	98,THR	98,THR	98,THR	98,THR	98,THR	98,THR
99,VAL	99,VAL	99,VAL	99,VAL	99,VAL	99,VAL	99,VAL	99,VAL	99,VAL
100,GLU	100,GLU	100,GLU	100,GLU	100,GLU	100,GLU	100,GLU	100,GLU	100,GLU
101,GLU	101,GLU	101,GLU	101,GLU	101,GLU	101,GLU	101,GLU	101,GLU	101,GLU
102,THR	102,THR	102,THR	102,THR	102,THR	102,THR	102,THR	102,THR	102,THR
103,VAL	103,VAL	103,VAL	103,VAL	103,VAL	103,VAL	103,VAL	103,VAL	103,VAL
104,VAL	104,VAL	104,VAL	104,VAL	104,VAL	104,VAL	104,VAL	104,VAL	104,VAL
105,ARG	105,ARG	105,ARG	105,ARG	105,ARG	105,ARG	105,ARG	105,ARG	105,ARG
106,ASP	106,ASP	106,ASP	106,ASP	106,ASP	106,ASP	106,ASP	106,ASP	106,ASP
107,LYS	107,LYS	107,LYS	107,LYS	107,LYS	107,LYS	107,LYS	107,LYS	107,LYS
108,ALA	108,ALA	108,ALA	108,ALA	108,ALA	108,ALA	108,ALA	108,ALA	108,ALA
109,VAL	109,VAL	109,VAL	109,VAL	109,VAL	109,VAL	109,VAL	109,VAL	109,VAL
110,GLU	110,GLU	110,GLU	110,GLU	110,GLU	110,GLU	110,GLU	110,GLU	110,GLU
111,SER	111,SER	111,SER	111,SER	111,SER	111,SER	111,SER	111,SER	111,SER
112,LEU	112,LEU	112,LEU	112,LEU	112,LEU	112,LEU	112,LEU	112,LEU	112,LEU
113,ARG	113,ARG	113,ARG	113,ARG	113,ARG	113,ARG	113,ARG	113,ARG	113,ARG
114,ALA	114,ALA	114,ALA	114,ALA	114,ALA	114,ALA	114,ALA	114,ALA	114,ALA
115,ILE	115,ILE	115,ILE	115,ILE	115,ILE	115,ILE	115,ILE	115,ILE	115,ILE
116,SER	116,SER	116,SER	116,SER	116,SER	116,SER	116,SER	116,SER	116,SER
117,HIS	117,HIS	117,HIS	117,HIS	117,HIS	117,HIS	117,HIS	117,HIS	117,HIS
118,GLU	118,GLU	118,GLU	118,GLU	118,GLU	118,GLU	118,GLU	118,GLU	118,GLU
119,HIS	119,HIS	119,HIS	119,HIS	119,HIS	119,HIS	119,HIS	119,HIS	119,HIS
120,SER	120,SER	120,SER	120,SER	120,SER	120,SER	120,SER	120,SER	120,SER
121,PRO	121,PRO	121,PRO	121,PRO	121,PRO	121,PRO	121,PRO	121,PRO	121,PRO
122,SER	122,SER	122,SER	122,SER	122,SER	122,SER	122,SER	122,SER	122,SER
123,ASP	123,ASP	123,ASP	123,ASP	123,ASP	123,ASP	123,ASP	123,ASP	123,ASP
124,LEU	124,LEU	124,LEU	124,LEU	124,LEU	124,LEU	124,LEU	124,LEU	124,LEU
125,GLU	125,GLU	125,GLU	125,GLU	125,GLU	125,GLU	125,GLU	125,GLU	125,GLU
126,ALA	126,ALA	126,ALA	126,ALA	126,ALA	126,ALA	126,ALA	126,ALA	126,ALA
127,HIS	127,HIS	127,HIS	127,HIS	127,HIS	127,HIS	127,HIS	127,HIS	127,HIS
128,PHE	128,PHE	128,PHE	128,PHE	131,LEU	128,PHE	128,PHE	128,PHE	128,PHE
129,VAL	129,VAL	129,VAL	129,VAL	128,PHE	129,VAL	129,VAL	129,VAL	129,VAL
130,PRO	130,PRO	130,PRO	130,PRO	129,VAL	130,PRO	130,PRO	130,PRO	130,PRO
131,LEU	131,LEU	131,LEU	131,LEU	130,PRO	131,LEU	131,LEU	131,LEU	131,LEU
132,VAL	132,VAL	132,VAL	132,VAL	132,VAL	132,VAL	132,VAL	132,VAL	132,VAL
133,LYS	133,LYS	133,LYS	133,LYS	133,LYS	133,LYS	133,LYS	133,LYS	133,LYS
134,ARG	134,ARG	134,ARG	134,ARG	134,ARG	134,ARG	134,ARG	134,ARG	134,ARG
135,LEU	135,LEU	135,LEU	135,LEU	135,LEU	135,LEU	135,LEU	135,LEU	135,LEU
136,ALA	136,ALA	136,ALA	136,ALA	136,ALA	136,ALA	136,ALA	136,ALA	136,ALA
137,GLY	137,GLY	137,GLY	137,GLY	137,GLY	137,GLY	137,GLY	137,GLY	137,GLY
138,GLY	138,GLY	138,GLY	138,GLY	138,GLY	138,GLY	138,GLY	138,GLY	138,GLY
139,ASP	139,ASP	139,ASP	139,ASP	139,ASP	139,ASP	139,ASP	139,ASP	139,ASP
140,TRP	140,TRP	140,TRP	140,TRP	140,TRP	140,TRP	140,TRP	140,TRP	140,TRP
141,PHE	141,PHE	141,PHE	141,PHE	141,PHE	141,PHE	141,PHE	141,PHE	141,PHE
142,THR	142,THR	142,THR	142,THR	142,THR	142,THR	142,THR	142,THR	142,THR
143,SER	143,SER	143,SER	143,SER	143,SER	143,SER	143,SER	143,SER	143,SER
144,ARG	144,ARG	144,ARG	144,ARG	144,ARG	144,ARG	144,ARG	144,ARG	144,ARG
145,THR	145,THR	145,THR	145,THR	145,THR	145,THR	145,THR	145,THR	145,THR
146,SER	146,SER	146,SER	146,SER	146,SER	146,SER	146,SER	146,SER	146,SER
147,ALA	147,ALA	147,ALA	147,ALA	147,ALA	147,ALA	147,ALA	147,ALA	147,ALA
148,CYS	148,CYS	148,CYS	148,CYS	148,CYS	148,CYS	148,CYS	148,CYS	148,CYS
149,GLY	149,GLY	149,GLY	149,GLY	149,GLY	149,GLY	149,GLY	149,GLY	149,GLY
150,LEU	150,LEU	150,LEU	150,LEU	150,LEU	150,LEU	150,LEU	150,LEU	150,LEU
151,PHE	151,PHE	151,PHE	151,PHE	151,PHE	151,PHE	151,PHE	151,PHE	151,PHE
152,SER	152,SER	152,SER	152,SER	152,SER	152,SER	152,SER	152,SER	152,SER
153,VAL	153,VAL	153,VAL	153,VAL	153,VAL	153,VAL	153,VAL	153,VAL	153,VAL
154,CYS	154,CYS	154,CYS	154,CYS	154,CYS	154,CYS	154,CYS	154,CYS	154,CYS
155,TYR	155,TYR	155,TYR	155,TYR	155,TYR	155,TYR	155,TYR	155,TYR	155,TYR
156,PRO	156,PRO	156,PRO	156,PRO	156,PRO	156,PRO	156,PRO	156,PRO	156,PRO
157,ARG	157,ARG	157,ARG	157,ARG	157,ARG	157,ARG	157,ARG	157,ARG	157,ARG
158,VAL	158,VAL	158,VAL	158,VAL	158,VAL	158,VAL	158,VAL	158,VAL	158,VAL
159,SER	159,SER	159,SER	159,SER	159,SER	159,SER	159,SER	159,SER	159,SER
160,SER	160,SER	160,SER	160,SER	160,SER	160,SER	160,SER	160,SER	160,SER
161,ALA	161,ALA	161,ALA	161,ALA	161,ALA	161,ALA	161,ALA	161,ALA	161,ALA
162,VAL	162,VAL	162,VAL	162,VAL	162,VAL	162,VAL	162,VAL	162,VAL	162,VAL
163,LYS	163,LYS	163,LYS	163,LYS	163,LYS	163,LYS	163,LYS	163,LYS	163,LYS
164,ALA	164,ALA	164,ALA	164,ALA	164,ALA	164,ALA	164,ALA	164,ALA	164,ALA
165,GLU	165,GLU	165,GLU	165,GLU	165,GLU	165,GLU	165,GLU	165,GLU	165,GLU
166,LEU	166,LEU	166,LEU	166,LEU	166,LEU	166,LEU	166,LEU	166,LEU	166,LEU
167,ARG	167,ARG	167,ARG	167,ARG	167,ARG	167,ARG	167,ARG	167,ARG	170,PHE
168,GLN	168,GLN	168,GLN	168,GLN	168,GLN	168,GLN	168,GLN	168,GLN	167,ARG
169,TYR	169,TYR	169,TYR	169,TYR	169,TYR	169,TYR	169,TYR	169,TYR	168,GLN
170,PHE	170,PHE	170,PHE	170,PHE	170,PHE	170,PHE	170,PHE	170,PHE	169,TYR
171,ARG	171,ARG	171,ARG	171,ARG	171,ARG	171,ARG	171,ARG	171,ARG	171,ARG
172,ASN	172,ASN	172,ASN	172,ASN	172,ASN	172,ASN	172,ASN	172,ASN	172,ASN
173,LEU	173,LEU	173,LEU	173,LEU	173,LEU	173,LEU	173,LEU	173,LEU	173,LEU
174,CYS	174,CYS	174,CYS	174,CYS	174,CYS	174,CYS	174,CYS	174,CYS	174,CYS
175,SER	175,SER	175,SER	175,SER	175,SER	175,SER	175,SER	175,SER	175,SER
176,ASP	176,ASP	176,ASP	176,ASP	176,ASP	176,ASP	176,ASP	176,ASP	176,ASP
177,ASP	177,ASP	177,ASP	177,ASP	177,ASP	177,ASP	177,ASP	177,ASP	177,ASP
178,THR	178,THR	178,THR	178,THR	178,THR	178,THR	178,THR	178,THR	178,THR
179,PRO	179,ARG	179,PRO	179,PRO	179,PRO	179,PRO	179,PRO	179,PRO	179,PRO
180,MET	180,MET	180,MET	180,MET	180,MET	180,MET	180,MET	180,MET	180,MET
181,VAL	181,VAL	181,VAL	181,VAL	181,VAL	181,VAL	181,VAL	181,VAL	181,VAL
182,ARG	182,ARG	182,ARG	182,ARG	182,ARG	182,ARG	182,ARG	182,ARG	182,ARG
183,ARG	183,ARG	183,ARG	183,ARG	183,ARG	183,ARG	183,ARG	183,ARG	183,ARG
184,ALA	184,ALA	184,ALA	184,ALA	184,ALA	184,ALA	184,ALA	184,ALA	184,ALA
185,ALA	185,ALA	185,ALA	185,ALA	185,ALA	185,ALA	185,ALA	185,ALA	185,ALA
186,ALA	186,ALA	186,ALA	186,ALA	186,ALA	186,ALA	186,ALA	186,ALA	186,ALA
187,SER	187,SER	187,SER	187,SER	187,SER	187,SER	187,SER	187,SER	187,SER
188,LYS	188,LYS	188,LYS	188,LYS	188,LYS	188,LYS	188,LYS	188,LYS	188,LYS
189,LEU	189,LEU	189,LEU	189,LEU	189,LEU	189,LEU	189,LEU	189,LEU	189,LEU
190,GLY	190,GLY	190,GLY	190,GLY	190,GLY	190,GLY	190,GLY	190,GLY	190,GLY
191,GLU	191,GLU	191,GLU	191,GLU	191,GLU	191,GLU	191,GLU	191,GLU	191,GLU
192,PHE	192,PHE	192,PHE	192,PHE	192,PHE	192,PHE	192,PHE	192,PHE	192,PHE
193,ALA	193,ALA	193,ALA	193,ALA	193,ALA	193,ALA	193,ALA	193,ALA	193,ALA
194,LYS	194,LYS	194,LYS	194,LYS	194,LYS	194,LYS	194,LYS	194,LYS	194,LYS
195,VAL	195,VAL	195,VAL	195,VAL	195,VAL	195,VAL	195,VAL	195,VAL	195,VAL
196,LEU	196,LEU	196,LEU	196,LEU	196,LEU	196,LEU	196,LEU	196,LEU	196,LEU
197,GLU	197,GLU	197,GLU	197,GLU	197,GLU	197,GLU	197,GLU	197,GLU	197,GLU
198,LEU	198,LEU	198,LEU	198,LEU	198,LEU	198,LEU	198,LEU	198,LEU	198,LEU
199,ASP	199,ASP	199,ASP	199,ASP	199,ASP	199,ASP	199,ASP	199,ASP	199,ASP
200,ASN	200,ASN	200,ASN	200,ASN	200,ASN	200,ASN	200,ASN	200,ASN	200,ASN
201,VAL	201,VAL	201,VAL	201,VAL	201,VAL	201,VAL	201,VAL	201,VAL	201,VAL
202,LYS	202,LYS	202,LYS	202,LYS	202,LYS	202,LYS	202,LYS	202,LYS	202,LYS
203,SER	203,SER	203,SER	203,SER	203,SER	203,SER	203,SER	203,SER	203,SER
204,GLU	204,GLU	204,GLU	204,GLU	204,GLU	204,GLU	204,GLU	204,GLU	204,GLU
205,ILE	205,ILE	205,ILE	205,ILE	205,ILE	205,ILE	205,ILE	205,ILE	205,ILE
206,ILE	206,ILE	206,ILE	206,ILE	206,ILE	206,ILE	206,ILE	206,ILE	206,ILE
207,PRO	207,PRO	207,PRO	207,PRO	207,PRO	207,PRO	207,PRO	207,PRO	207,PRO
208,MET	208,MET	208,MET	208,MET	208,MET	208,MET	208,MET	208,MET	208,MET
209,PHE	209,PHE	209,PHE	209,PHE	209,PHE	209,PHE	209,PHE	209,PHE	209,PHE
210,SER	210,SER	210,SER	210,SER	210,SER	210,SER	210,SER	210,SER	210,SER
211,ASN	211,ASN	211,ASN	211,ASN	211,ASN	211,ASN	211,ASN	211,ASN	211,ASN
212,LEU	212,LEU	212,LEU	212,LEU	212,LEU	215,ASP	212,LEU	212,LEU	212,LEU
213,ALA	213,ALA	213,ALA	213,ALA	213,ALA	212,LEU	213,ALA	213,ALA	213,ALA
214,SER	214,SER	214,SER	214,SER	214,SER	213,ALA	214,SER	214,SER	214,SER
215,ASP	215,ASP	215,ASP	215,ASP	215,ASP	214,SER	215,ASP	215,ASP	215,ASP
216,GLU	216,GLU	216,GLU	216,GLU	216,GLU	216,GLU	216,GLU	216,GLU	216,GLU
217,GLN	217,GLN	217,GLN	217,GLN	217,GLN	217,GLN	217,GLN	217,GLN	217,GLN
218,ASP	218,ASP	218,ASP	218,ASP	218,ASP	218,ASP	218,ASP	218,ASP	218,ASP
219,SER	219,SER	219,SER	219,SER	219,SER	219,SER	219,SER	219,SER	219,SER
220,VAL	220,VAL	220,VAL	220,VAL	220,VAL	220,VAL	220,VAL	220,VAL	220,VAL
221,ARG	221,ARG	221,ARG	221,ARG	221,ARG	221,ARG	221,ARG	221,ARG	221,ARG
222,LEU	222,LEU	222,LEU	222,LEU	222,LEU	222,LEU	222,LEU	222,LEU	222,LEU
223,LEU	223,LEU	223,LEU	223,LEU	223,LEU	223,LEU	223,LEU	223,LEU	223,LEU
224,ALA	224,ALA	224,ALA	224,ALA	224,ALA	224,ALA	224,ALA	224,ALA	224,ALA
225,VAL	225,VAL	225,VAL	225,VAL	225,VAL	225,VAL	225,VAL	225,VAL	225,VAL
226,GLU	226,GLU	226,GLU	226,GLU	226,GLU	226,GLU	226,GLU	226,GLU	226,GLU
227,ALA	227,ALA	227,ALA	227,ALA	227,ALA	227,ALA	227,ALA	227,ALA	227,ALA
228,CYS	228,CYS	228,CYS	228,CYS	228,CYS	228,CYS	228,CYS	228,CYS	228,CYS
229,VAL	229,VAL	229,VAL	229,VAL	229,VAL	229,VAL	229,VAL	229,VAL	229,VAL
230,ASN	230,ASN	230,ASN	230,ASN	230,ASN	230,ASN	230,ASN	230,ASN	230,ASN
231,ILE	231,ILE	231,ILE	231,ILE	231,ILE	231,ILE	231,ILE	231,ILE	231,ILE
232,ALA	232,ALA	232,ALA	232,ALA	232,ALA	232,ALA	232,ALA	232,ALA	232,ALA
233,GLN	233,GLN	233,GLN	233,GLN	233,GLN	233,GLN	233,GLN	233,GLN	233,GLN
234,LEU	234,LEU	234,LEU	234,LEU	234,LEU	234,LEU	234,LEU	234,LEU	234,LEU
235,LEU	235,LEU	235,LEU	235,LEU	235,LEU	235,LEU	235,LEU	235,LEU	235,LEU
236,PRO	236,PRO	236,PRO	236,PRO	236,PRO	236,PRO	236,PRO	236,PRO	236,PRO
237,GLN	237,GLN	237,GLN	237,GLN	237,GLN	237,GLN	237,GLN	237,GLN	237,GLN
238,GLU	238,GLU	238,GLU	238,GLU	238,GLU	238,GLU	238,GLU	238,GLU	238,GLU
239,ASP	239,ASP	239,ASP	239,ASP	239,ASP	239,ASP	239,ASP	239,ASP	239,ASP
240,LEU	240,LEU	240,LEU	240,LEU	240,LEU	240,LEU	240,LEU	240,LEU	240,LEU
241,GLU	241,GLU	241,GLU	241,GLU	241,GLU	241,GLU	244,VAL	241,GLU	241,GLU
242,ALA	242,ALA	242,ALA	242,ALA	242,ALA	242,ALA	241,GLU	242,ALA	242,ALA
243,LEU	243,LEU	243,LEU	243,LEU	243,LEU	243,LEU	242,ALA	243,LEU	243,LEU
244,VAL	244,VAL	244,VAL	244,VAL	244,VAL	244,VAL	243,LEU	244,VAL	244,VAL
245,MET	245,MET	245,MET	245,MET	245,MET	245,MET	245,MET	245,MET	245,MET
246,PRO	246,PRO	246,PRO	246,PRO	246,PRO	246,PRO	246,PRO	246,PRO	246,PRO
247,THR	247,THR	247,THR	247,THR	247,THR	247,THR	247,THR	247,THR	247,THR
248,LEU	248,LEU	248,LEU	248,LEU	248,LEU	248,LEU	248,LEU	248,LEU	248,LEU
249,ARG	249,ARG	249,ARG	249,ARG	249,ARG	249,ARG	249,ARG	249,ARG	249,ARG
250,GLN	250,GLN	250,GLN	250,GLN	250,GLN	250,GLN	250,GLN	250,GLN	250,GLN
251,ALA	251,ALA	251,ALA	251,ALA	251,ALA	251,ALA	251,ALA	251,ALA	251,ALA
252,ALA	252,ALA	252,ALA	252,ALA	252,ALA	252,ALA	252,ALA	252,ALA	252,ALA
253,GLU	253,GLU	253,GLU	253,GLU	253,GLU	253,GLU	253,GLU	253,GLU	253,GLU
254,ASP	254,ASP	254,ASP	254,ASP	254,ASP	254,ASP	254,ASP	254,ASP	254,ASP
255,LYS	255,LYS	255,LYS	255,LYS	255,LYS	255,LYS	255,LYS	255,LYS	255,LYS
256,SER	256,SER	256,SER	256,SER	256,SER	256,SER	256,SER	256,SER	256,SER
257,TRP	257,TRP	257,TRP	257,TRP	257,TRP	257,TRP	257,TRP	257,TRP	257,TRP
258,ARG	258,ARG	258,ARG	258,ARG	258,ARG	258,ARG	258,ARG	258,ARG	258,ARG
259,VAL	259,VAL	259,VAL	259,VAL	259,VAL	259,VAL	259,VAL	259,VAL	259,VAL
260,ARG	260,ARG	260,ARG	260,ARG	260,ARG	260,ARG	260,ARG	260,ARG	260,ARG
261,TYR	261,TYR	261,TYR	261,TYR	261,TYR	261,TYR	261,TYR	261,TYR	261,TYR
262,MET	262,MET	262,MET	262,MET	262,MET	262,MET	262,MET	262,MET	262,MET
263,VAL	263,VAL	263,VAL	263,VAL	263,VAL	263,VAL	263,VAL	263,VAL	263,VAL
264,ALA	264,ALA	264,ALA	264,ALA	264,ALA	264,ALA	264,ALA	264,ALA	264,ALA
265,ASP	265,ASP	265,ASP	265,ASP	265,ASP	265,ASP	265,ASP	265,ASP	265,ASP
266,LYS	266,LYS	266,LYS	266,LYS	266,LYS	266,LYS	266,LYS	266,LYS	266,LYS
267,PHE	267,PHE	267,PHE	267,PHE	267,PHE	267,PHE	267,PHE	267,PHE	267,PHE
268,THR	268,THR	268,THR	268,THR	268,THR	268,THR	268,THR	268,THR	268,THR
269,GLU	269,GLU	269,GLU	269,GLU	269,GLU	269,GLU	269,GLU	269,GLU	269,GLU
270,LEU	270,LEU	270,LEU	270,LEU	270,LEU	270,LEU	270,LEU	270,LEU	270,LEU
271,GLN	271,GLN	271,GLN	271,GLN	271,GLN	271,GLN	271,GLN	271,GLN	271,GLN
272,LYS	272,LYS	272,LYS	272,LYS	272,LYS	272,LYS	272,LYS	272,LYS	272,LYS
273,ALA	273,ALA	273,ALA	273,ALA	273,ALA	273,ALA	273,ALA	273,ALA	273,ALA
274,VAL	274,VAL	274,VAL	274,VAL	274,VAL	274,VAL	274,VAL	274,VAL	274,VAL
275,GLY	275,GLY	275,GLY	275,GLY	275,GLY	275,GLY	275,GLY	275,GLY	275,GLY
276,PRO	276,PRO	276,PRO	276,PRO	276,PRO	276,PRO	276,PRO	276,PRO	276,PRO
277,GLU	277,GLU	277,GLU	277,GLU	277,GLU	277,GLU	277,GLU	277,GLU	277,GLU
278,ILE	278,ILE	278,ILE	278,ILE	278,ILE	278,ILE	278,ILE	278,ILE	278,ILE
279,THR	279,THR	279,THR	279,THR	279,THR	279,THR	279,THR	279,THR	279,THR
280,LYS	280,LYS	280,LYS	280,LYS	280,LYS	280,LYS	280,LYS	280,LYS	280,LYS
281,THR	281,THR	281,THR	281,THR	281,THR	281,THR	281,THR	281,THR	281,THR
282,ASP	282,ASP	282,ASP	282,ASP	282,ASP	282,ASP	282,ASP	282,ASP	282,ASP
283,LEU	283,LEU	283,LEU	283,LEU	283,LEU	283,LEU	283,LEU	283,LEU	283,LEU
284,VAL	284,VAL	284,VAL	284,VAL	284,VAL	284,VAL	284,VAL	284,VAL	284,VAL
285,PRO	285,PRO	285,PRO	285,PRO	285,PRO	285,PRO	285,PRO	285,PRO	285,PRO
286,ALA	286,ALA	286,ALA	286,ALA	286,ALA	286,ALA	286,ALA	286,ALA	286,ALA
287,PHE	287,PHE	287,PHE	287,PHE	287,PHE	287,PHE	287,PHE	287,PHE	287,PHE
288,GLN	288,GLN	288,GLN	288,GLN	288,GLN	288,GLN	288,GLN	288,GLN	288,GLN
289,ASN	289,ASN	289,ASN	289,ASN	289,ASN	289,ASN	289,ASN	289,ASN	289,ASN
290,LEU	290,LEU	290,LEU	290,LEU	290,LEU	290,LEU	290,LEU	290,LEU	290,LEU
291,MET	291,MET	291,MET	291,MET	291,MET	291,MET	291,MET	291,MET	291,MET
292,LYS	292,LYS	292,LYS	292,LYS	292,LYS	292,LYS	292,LYS	292,LYS	292,LYS
293,ASP	293,ASP	293,ASP	293,ASP	293,ASP	293,ASP	293,ASP	293,ASP	293,ASP
294,CYS	294,CYS	294,CYS	294,CYS	294,CYS	294,CYS	294,CYS	294,CYS	294,CYS
295,GLU	295,GLU	295,GLU	295,GLU	295,GLU	295,GLU	295,GLU	295,GLU	295,GLU
296,ALA	296,ALA	296,ALA	296,ALA	296,ALA	296,ALA	296,ALA	296,ALA	296,ALA
297,GLU	297,GLU	297,GLU	297,GLU	297,GLU	297,GLU	297,GLU	297,GLU	297,GLU
298,VAL	298,VAL	298,VAL	298,VAL	298,VAL	298,VAL	298,VAL	298,VAL	298,VAL
299,ARG	299,ARG	299,ARG	299,ARG	299,ARG	299,ARG	299,ARG	299,ARG	299,ARG
300,ALA	300,ALA	300,ALA	300,ALA	300,ALA	300,ALA	300,ALA	300,ALA	300,ALA
301,ALA	301,ALA	301,ALA	301,ALA	301,ALA	301,ALA	301,ALA	301,ALA	301,ALA
302,ALA	302,ALA	302,ALA	302,ALA	302,ALA	302,ALA	302,ALA	302,ALA	302,ALA
303,SER	303,SER	303,SER	303,SER	303,SER	303,SER	303,SER	303,SER	303,SER
304,HIS	304,HIS	304,HIS	304,HIS	304,HIS	304,HIS	304,HIS	304,HIS	304,HIS
305,LYS	305,LYS	305,LYS	305,LYS	305,LYS	305,LYS	305,LYS	305,LYS	305,LYS
306,VAL	306,VAL	306,VAL	306,VAL	306,VAL	306,VAL	306,VAL	306,VAL	306,VAL
307,LYS	307,LYS	307,LYS	307,LYS	307,LYS	307,LYS	307,LYS	307,LYS	307,LYS
308,GLU	308,GLU	308,GLU	308,GLU	308,GLU	308,GLU	308,GLU	308,GLU	308,GLU
309,PHE	309,PHE	309,PHE	309,PHE	309,PHE	309,PHE	309,PHE	309,PHE	309,PHE
310,CYS	310,CYS	310,CYS	310,CYS	310,CYS	310,CYS	310,CYS	310,CYS	310,CYS
311,GLU	311,GLU	311,GLU	311,GLU	311,GLU	311,GLU	311,GLU	311,GLU	311,GLU
312,ASN	312,ASN	312,ASN	312,ASN	315,ALA	312,ASN	312,ASN	312,ASN	312,ASN
313,LEU	313,LEU	313,LEU	313,LEU	312,ASN	313,LEU	313,LEU	313,LEU	313,LEU
314,SER	314,SER	314,SER	314,SER	313,LEU	314,SER	314,SER	314,SER	314,SER
315,ALA	315,ALA	315,ALA	315,ALA	314,SER	315,ALA	315,ALA	315,ALA	315,ALA
316,ASP	316,ASP	316,ASP	316,ASP	316,ASP	316,ASP	316,ASP	316,ASP	316,ASP
317,CYS	317,CYS	317,CYS	317,CYS	317,CYS	317,CYS	317,CYS	317,CYS	317,CYS
318,ARG	318,ARG	318,ARG	318,ARG	318,ARG	318,ARG	318,ARG	318,ARG	318,ARG
319,GLU	319,GLU	319,GLU	319,GLU	319,GLU	319,GLU	319,GLU	319,GLU	319,GLU
320,ASN	320,ASN	320,ASN	320,ASN	320,ASN	320,ASN	320,ASN	320,ASN	320,ASN
321,VAL	321,VAL	321,VAL	321,VAL	321,VAL	321,VAL	321,VAL	321,VAL	321,VAL
322,ILE	322,ILE	322,ILE	322,ILE	322,ILE	322,ILE	322,ILE	322,ILE	322,ILE
323,MET	323,MET	323,MET	323,MET	323,MET	323,MET	323,MET	323,MET	323,MET
324,THR	324,THR	324,THR	324,THR	324,THR	324,THR	324,THR	324,THR	324,THR
325,GLN	325,GLN	325,GLN	325,GLN	325,GLN	325,GLN	325,GLN	325,GLN	325,GLN
326,ILE	326,ILE	326,ILE	326,ILE	326,ILE	326,ILE	326,ILE	326,ILE	326,ILE
327,LEU	327,LEU	327,LEU	327,LEU	327,LEU	327,LEU	327,LEU	327,LEU	327,LEU
328,PRO	328,PRO	328,PRO	328,PRO	328,PRO	328,PRO	328,PRO	328,PRO	328,PRO
329,CYS	329,CYS	329,CYS	329,CYS	329,CYS	329,CYS	329,CYS	329,CYS	329,CYS
330,ILE	330,ILE	330,ILE	330,ILE	330,ILE	330,ILE	330,ILE	330,ILE	330,ILE
331,LYS	331,LYS	331,LYS	331,LYS	331,LYS	331,LYS	331,LYS	331,LYS	331,LYS
332,GLU	332,GLU	332,GLU	332,GLU	332,GLU	332,GLU	332,GLU	332,GLU	332,GLU
333,LEU	333,LEU	333,LEU	333,LEU	333,LEU	333,LEU	333,LEU	333,LEU	333,LEU
334,VAL	334,VAL	334,VAL	334,VAL	334,VAL	334,VAL	334,VAL	334,VAL	334,VAL
335,SER	335,SER	335,SER	335,SER	335,SER	335,SER	335,SER	335,SER	335,SER
336,ASP	336,ASP	336,ASP	336,ASP	336,ASP	336,ASP	336,ASP	336,ASP	336,ASP
337,ALA	337,ALA	337,ALA	337,ALA	337,ALA	337,ALA	337,ALA	337,ALA	337,ALA
338,ASN	338,ASN	338,ASN	338,ASN	338,ASN	338,ASN	338,ASN	338,ASN	338,ASN
339,GLN	339,GLN	339,GLN	339,GLN	339,GLN	339,GLN	339,GLN	339,GLN	339,GLN
340,HIS	340,HIS	340,HIS	340,HIS	340,HIS	340,HIS	340,HIS	340,HIS	340,HIS
341,VAL	341,VAL	341,VAL	341,VAL	341,VAL	341,VAL	341,VAL	341,VAL	341,VAL
342,LYS	342,LYS	342,LYS	342,LYS	342,LYS	342,LYS	342,LYS	342,LYS	342,LYS
343,SER	343,SER	343,SER	343,SER	343,SER	343,SER	343,SER	343,SER	343,SER
344,ALA	344,ALA	344,ALA	344,ALA	344,ALA	344,ALA	344,ALA	344,ALA	344,ALA
345,LEU	345,LEU	345,LEU	345,LEU	345,LEU	345,LEU	345,LEU	345,LEU	345,LEU
346,ALA	346,ALA	346,ALA	346,ALA	346,ALA	346,ALA	346,ALA	346,ALA	346,ALA
347,SER	347,SER	347,SER	347,SER	347,SER	347,SER	347,SER	347,SER	347,SER
348,VAL	348,VAL	348,VAL	348,VAL	348,VAL	348,VAL	348,VAL	348,VAL	348,VAL
349,ILE	349,ILE	349,ILE	349,ILE	349,ILE	349,ILE	349,ILE	349,ILE	349,ILE
350,MET	350,MET	350,MET	350,MET	350,MET	350,MET	350,MET	350,MET	350,MET
351,GLY	351,GLY	351,GLY	351,GLY	351,GLY	351,GLY	351,GLY	351,GLY	351,GLY
352,LEU	352,LEU	352,LEU	352,LEU	352,LEU	352,LEU	352,LEU	352,LEU	352,LEU
353,SER	353,SER	353,SER	353,SER	353,SER	353,SER	353,SER	353,SER	353,SER
354,PRO	354,PRO	354,PRO	354,PRO	354,PRO	354,PRO	354,PRO	354,PRO	354,PRO
355,ILE	355,ILE	355,ILE	355,ILE	355,ILE	355,ILE	355,ILE	355,ILE	355,ILE
356,LEU	356,LEU	356,LEU	356,LEU	356,LEU	356,LEU	356,LEU	356,LEU	356,LEU
357,GLY	357,GLY	357,GLY	357,GLY	357,GLY	357,GLY	357,GLY	357,GLY	357,GLY
358,LYS	358,LYS	358,LYS	358,LYS	358,LYS	358,LYS	358,LYS	358,LYS	358,LYS
359,ASP	359,ASP	359,ASP	359,ASP	359,ASP	359,ASP	359,ASP	359,ASP	359,ASP
360,ASN	360,ASN	360,ASN	360,ASN	360,ASN	360,ASN	360,ASN	360,ASN	360,ASN
361,THR	361,THR	361,THR	361,THR	361,THR	361,THR	361,THR	361,THR	361,THR
362,ILE	362,ILE	362,ILE	362,ILE	362,ILE	362,ILE	362,ILE	362,ILE	362,ILE
363,GLU	363,GLU	363,GLU	363,GLU	363,GLU	363,GLU	363,GLU	363,GLU	363,GLU
364,HIS	364,HIS	364,HIS	364,HIS	364,HIS	364,HIS	364,HIS	364,HIS	364,HIS
365,LEU	365,LEU	365,LEU	365,LEU	365,LEU	365,LEU	365,LEU	365,LEU	365,LEU
366,LEU	366,LEU	366,LEU	366,LEU	366,LEU	366,LEU	366,LEU	366,LEU	366,LEU
367,PRO	367,PRO	367,PRO	367,PRO	367,PRO	367,PRO	367,PRO	367,PRO	367,PRO
368,LEU	368,LEU	368,LEU	368,LEU	368,LEU	368,LEU	368,LEU	368,LEU	368,LEU
369,PHE	369,PHE	369,PHE	369,PHE	369,PHE	369,PHE	369,PHE	369,PHE	369,PHE
370,LEU	370,LEU	370,LEU	370,LEU	370,LEU	370,LEU	370,LEU	370,LEU	370,LEU
371,ALA	371,ALA	371,ALA	371,ALA	371,ALA	371,ALA	371,ALA	371,ALA	371,ALA
372,GLN	372,GLN	372,GLN	372,GLN	372,GLN	372,GLN	372,GLN	372,GLN	372,GLN
373,LEU	373,LEU	373,LEU	373,LEU	373,LEU	373,LEU	373,LEU	373,LEU	373,LEU
374,LYS	374,LYS	374,LYS	374,LYS	374,LYS	374,LYS	374,LYS	374,LYS	374,LYS
375,ASP	375,ASP	375,ASP	375,ASP	375,ASP	375,ASP	375,ASP	375,ASP	375,ASP
376,GLU	376,GLU	376,GLU	376,GLU	376,GLU	376,GLU	376,GLU	376,GLU	376,GLU
377,CYS	377,CYS	377,CYS	377,CYS	377,CYS	377,CYS	377,CYS	377,CYS	377,CYS
378,PRO	378,PRO	378,PRO	378,PRO	378,PRO	378,PRO	378,PRO	378,PRO	378,PRO
379,GLU	379,GLU	379,GLU	379,GLU	379,GLU	379,GLU	379,GLU	379,GLU	379,GLU
380,VAL	380,VAL	380,VAL	380,VAL	380,VAL	380,VAL	380,VAL	380,VAL	380,VAL
381,ARG	381,ARG	381,ARG	381,ARG	381,ARG	381,ARG	381,ARG	381,ARG	381,ARG
382,LEU	382,LEU	382,LEU	382,LEU	382,LEU	382,LEU	382,LEU	382,LEU	382,LEU
383,ASN	383,ASN	383,ASN	383,ASN	383,ASN	383,ASN	383,ASN	383,ASN	383,ASN
384,ILE	384,ILE	384,ILE	384,ILE	384,ILE	384,ILE	384,ILE	384,ILE	384,ILE
385,ILE	385,ILE	385,ILE	385,ILE	385,ILE	385,ILE	385,ILE	385,ILE	385,ILE
386,SER	386,SER	386,SER	386,SER	386,SER	386,SER	386,SER	386,SER	386,SER
387,ASN	387,ASN	387,ASN	387,ASN	387,ASN	387,ASN	387,ASN	387,ASN	387,ASN
388,LEU	388,LEU	388,LEU	388,LEU	388,LEU	388,LEU	388,LEU	388,LEU	388,LEU
389,ASP	389,ASP	389,ASP	389,ASP	389,ASP	389,ASP	389,ASP	389,ASP	389,ASP
390,CYS	390,CYS	390,CYS	390,CYS	390,CYS	390,CYS	390,CYS	390,CYS	390,CYS
391,VAL	391,VAL	391,VAL	391,VAL	391,VAL	391,VAL	391,VAL	391,VAL	391,VAL
392,ASN	392,ASN	392,ASN	392,ASN	392,ASN	392,ASN	392,ASN	392,ASN	392,ASN
393,GLU	393,GLU	393,GLU	393,GLU	393,GLU	393,GLU	393,GLU	393,GLU	393,GLU
394,VAL	394,VAL	394,VAL	394,VAL	394,VAL	394,VAL	394,VAL	394,VAL	394,VAL
395,ILE	395,ILE	395,ILE	395,ILE	395,ILE	395,ILE	395,ILE	395,ILE	395,ILE
396,GLY	396,GLY	396,GLY	396,GLY	396,GLY	396,GLY	396,GLY	396,GLY	396,GLY
397,ILE	397,ILE	397,ILE	397,ILE	397,ILE	397,ILE	397,ILE	397,ILE	397,ILE
398,ARG	398,ARG	398,ARG	398,ARG	398,ARG	398,ARG	398,ARG	398,ARG	398,ARG
399,GLN	399,GLN	399,GLN	399,GLN	399,GLN	399,GLN	399,GLN	399,GLN	399,GLN
400,LEU	400,LEU	400,LEU	400,LEU	400,LEU	400,LEU	400,LEU	400,LEU	400,LEU
401,SER	401,SER	401,SER	401,SER	401,SER	401,SER	401,SER	401,SER	401,SER
402,GLN	402,GLN	402,GLN	402,GLN	402,GLN	402,GLN	402,GLN	402,GLN	402,GLN
403,SER	403,SER	403,SER	403,SER	403,SER	403,SER	403,SER	403,SER	403,SER
404,LEU	404,LEU	404,LEU	404,LEU	404,LEU	404,LEU	404,LEU	404,LEU	404,LEU
405,LEU	405,LEU	405,LEU	405,LEU	405,LEU	405,LEU	405,LEU	405,LEU	405,LEU
406,PRO	406,PRO	406,PRO	406,PRO	406,PRO	406,PRO	406,PRO	406,PRO	406,PRO
407,ALA	407,ALA	407,ALA	407,ALA	407,ALA	407,ALA	407,ALA	407,ALA	407,ALA
408,ILE	408,ILE	408,ILE	408,ILE	408,ILE	408,ILE	408,ILE	408,ILE	408,ILE
409,VAL	409,VAL	409,VAL	409,VAL	409,VAL	409,VAL	409,VAL	409,VAL	409,VAL
410,GLU	410,GLU	410,GLU	410,GLU	410,GLU	410,GLU	410,GLU	410,GLU	410,GLU
411,LEU	411,LEU	411,LEU	411,LEU	411,LEU	411,LEU	411,LEU	411,LEU	411,LEU
412,ALA	412,ALA	412,ALA	412,ALA	412,ALA	412,ALA	412,ALA	412,ALA	412,ALA
413,GLU	413,GLU	413,GLU	413,GLU	413,GLU	413,GLU	413,GLU	413,GLU	413,GLU
414,ASP	414,ASP	414,ASP	414,ASP	414,ASP	414,ASP	414,ASP	414,ASP	414,ASP
415,ALA	415,ALA	415,ALA	415,ALA	415,ALA	415,ALA	415,ALA	415,ALA	415,ALA
416,LYS	416,LYS	416,LYS	416,LYS	416,LYS	416,LYS	416,LYS	416,LYS	416,LYS
417,TRP	417,TRP	417,TRP	417,TRP	417,TRP	417,TRP	417,TRP	417,TRP	417,TRP
418,ARG	418,ARG	418,ARG	418,ARG	418,ARG	418,ARG	418,ARG	418,ARG	418,ARG
419,VAL	419,VAL	419,VAL	419,VAL	419,VAL	419,VAL	419,VAL	419,VAL	419,VAL
420,ARG	420,ARG	420,ARG	420,ARG	420,ARG	420,ARG	420,ARG	420,ARG	420,ARG
421,LEU	421,LEU	421,LEU	421,LEU	421,LEU	421,LEU	421,LEU	421,LEU	421,LEU
422,ALA	422,ALA	422,ALA	422,ALA	422,ALA	422,ALA	422,ALA	422,ALA	422,ALA
423,ILE	423,ILE	423,ILE	423,ILE	423,ILE	423,ILE	423,ILE	423,ILE	423,ILE
424,ILE	424,ILE	424,ILE	424,ILE	424,ILE	424,ILE	424,ILE	424,ILE	424,ILE
425,GLU	425,GLU	425,GLU	425,GLU	425,GLU	425,GLU	425,GLU	425,GLU	425,GLU
426,TYR	426,TYR	426,TYR	426,TYR	426,TYR	426,TYR	426,TYR	426,TYR	426,TYR
427,MET	427,MET	427,MET	427,MET	427,MET	427,MET	427,MET	427,MET	427,MET
428,PRO	428,PRO	428,PRO	428,PRO	428,PRO	428,PRO	428,PRO	428,PRO	428,PRO
429,LEU	429,LEU	429,LEU	429,LEU	429,LEU	429,LEU	429,LEU	429,LEU	429,LEU
430,LEU	430,LEU	430,LEU	430,LEU	430,LEU	430,LEU	430,LEU	430,LEU	430,LEU
431,ALA	431,ALA	431,ALA	431,ALA	431,ALA	431,ALA	431,ALA	431,ALA	431,ALA
432,GLY	432,GLY	432,GLY	432,GLY	432,GLY	432,GLY	432,GLY	432,GLY	432,GLY
433,GLN	433,GLN	433,GLN	433,GLN	433,GLN	433,GLN	433,GLN	433,GLN	433,GLN
434,LEU	434,LEU	434,LEU	434,LEU	434,LEU	434,LEU	434,LEU	434,LEU	434,LEU
435,GLY	435,GLY	435,GLY	435,GLY	435,GLY	435,GLY	435,GLY	435,GLY	435,GLY
436,VAL	436,VAL	436,VAL	436,VAL	436,VAL	436,VAL	436,VAL	436,VAL	436,VAL
437,GLU	437,GLU	437,GLU	437,GLU	437,GLU	437,GLU	437,GLU	437,GLU	437,GLU
438,PHE	438,PHE	438,PHE	438,PHE	438,PHE	438,PHE	438,PHE	438,PHE	438,PHE
439,PHE	439,PHE	439,PHE	439,PHE	439,PHE	439,PHE	439,PHE	439,PHE	439,PHE
440,ASP	440,ASP	440,ASP	440,ASP	440,ASP	440,ASP	440,ASP	440,ASP	440,ASP
441,GLU	441,GLU	441,GLU	441,GLU	441,GLU	441,GLU	441,GLU	441,GLU	441,GLU
442,LYS	442,LYS	442,LYS	442,LYS	442,LYS	442,LYS	442,LYS	442,LYS	442,LYS
443,LEU	443,LEU	443,LEU	443,LEU	443,LEU	443,LEU	443,LEU	443,LEU	443,LEU
444,ASN	444,ASN	444,ASN	444,ASN	444,ASN	444,ASN	444,ASN	444,ASN	444,ASN
445,SER	445,SER	445,SER	445,SER	445,SER	445,SER	445,SER	445,SER	445,SER
446,LEU	446,LEU	446,LEU	446,LEU	446,LEU	446,LEU	446,LEU	446,LEU	446,LEU
447,CYS	447,CYS	447,CYS	447,CYS	447,CYS	447,CYS	447,CYS	447,CYS	447,CYS
448,MET	448,MET	448,MET	448,MET	448,MET	448,MET	448,MET	448,MET	448,MET
449,ALA	449,ALA	449,ALA	449,ALA	449,ALA	449,ALA	449,ALA	449,ALA	449,ALA
450,TRP	450,TRP	450,TRP	450,TRP	450,TRP	450,TRP	450,TRP	450,TRP	450,TRP
451,LEU	451,LEU	451,LEU	451,LEU	451,LEU	451,LEU	451,LEU	451,LEU	451,LEU
452,VAL	452,VAL	452,VAL	452,VAL	452,VAL	452,VAL	452,VAL	452,VAL	452,VAL
453,ASP	453,ASP	453,ASP	453,ASP	453,ASP	453,ASP	453,ASP	453,ASP	453,ASP
454,HIS	454,HIS	454,HIS	454,HIS	454,HIS	454,HIS	454,HIS	454,HIS	454,HIS
455,VAL	455,VAL	455,VAL	455,VAL	455,VAL	455,VAL	455,VAL	455,VAL	455,VAL
456,TYR	456,TYR	456,TYR	456,TYR	456,TYR	456,TYR	456,TYR	456,TYR	456,TYR
457,ALA	457,ALA	457,ALA	457,ALA	457,ALA	457,ALA	457,ALA	457,ALA	457,ALA
458,ILE	458,ILE	458,ILE	458,ILE	458,ILE	458,ILE	458,ILE	458,ILE	458,ILE
459,ARG	459,ARG	459,ARG	459,ARG	459,ARG	459,ARG	459,ARG	459,ARG	459,ARG
460,GLU	460,GLU	460,GLU	460,GLU	460,GLU	460,GLU	460,GLU	460,GLU	460,GLU
461,ALA	461,ALA	461,ALA	461,ALA	461,ALA	461,ALA	461,ALA	461,ALA	461,ALA
462,ALA	462,ALA	462,ALA	462,ALA	462,ALA	462,ALA	462,ALA	462,ALA	462,ALA
463,THR	463,THR	463,THR	463,THR	463,THR	463,THR	463,THR	463,THR	463,THR
464,SER	464,SER	464,SER	464,SER	464,SER	464,SER	464,SER	464,SER	464,SER
465,ASN	465,ASN	465,ASN	465,ASN	465,ASN	465,ASN	465,ASN	465,ASN	465,ASN
466,LEU	466,LEU	466,LEU	466,LEU	466,LEU	466,LEU	466,LEU	466,LEU	466,LEU
467,LYS	467,LYS	467,LYS	467,LYS	467,LYS	467,LYS	467,LYS	467,LYS	467,LYS
468,LYS	468,LYS	468,LYS	468,LYS	468,LYS	468,LYS	468,LYS	468,LYS	468,LYS
469,LEU	469,LEU	469,LEU	469,LEU	469,LEU	469,LEU	469,LEU	469,LEU	469,LEU
470,VAL	470,VAL	470,VAL	470,VAL	470,VAL	470,VAL	470,VAL	470,VAL	470,VAL
471,GLU	471,GLU	471,GLU	471,GLU	471,GLU	471,GLU	471,GLU	471,GLU	471,GLU
472,LYS	472,LYS	472,LYS	472,LYS	472,LYS	472,LYS	472,LYS	472,LYS	472,LYS
473,PHE	473,PHE	473,PHE	473,PHE	473,PHE	473,PHE	473,PHE	473,PHE	473,PHE
474,GLY	474,GLY	474,GLY	474,GLY	474,GLY	474,GLY	474,GLY	474,GLY	474,GLY
475,LYS	475,LYS	475,LYS	475,LYS	475,LYS	475,LYS	475,LYS	475,LYS	475,LYS
476,GLU	476,GLU	476,GLU	476,GLU	476,GLU	476,GLU	476,GLU	476,GLU	476,GLU
477,TRP	477,TRP	477,TRP	477,TRP	477,TRP	477,TRP	477,TRP	477,TRP	477,TRP
478,ALA	478,ALA	478,ALA	478,ALA	478,ALA	478,ALA	478,ALA	478,ALA	478,ALA
479,HIS	479,HIS	479,HIS	479,HIS	479,HIS	479,HIS	479,HIS	479,HIS	479,HIS
480,ALA	480,ALA	480,ALA	480,ALA	480,ALA	480,ALA	480,ALA	480,ALA	480,ALA
481,THR	481,THR	481,THR	481,THR	481,THR	481,THR	481,THR	481,THR	481,THR
482,ILE	482,ILE	482,ILE	482,ILE	482,ILE	482,ILE	482,ILE	482,ILE	482,ILE
483,ILE	483,ILE	483,ILE	483,ILE	483,ILE	483,ILE	483,ILE	483,ILE	483,ILE
484,PRO	484,PRO	484,PRO	484,PRO	484,PRO	484,PRO	484,PRO	484,PRO	484,PRO
485,LYS	485,LYS	485,LYS	485,LYS	485,LYS	485,LYS	485,LYS	485,LYS	485,LYS
486,VAL	486,VAL	486,VAL	486,VAL	486,VAL	486,VAL	486,VAL	486,VAL	486,VAL
487,LEU	487,LEU	487,LEU	487,LEU	487,LEU	487,LEU	487,LEU	487,LEU	487,LEU
488,ALA	488,ALA	488,ALA	488,ALA	488,ALA	488,ALA	488,ALA	488,ALA	488,ALA
489,MET	489,MET	489,MET	489,MET	489,MET	489,MET	489,MET	489,MET	489,MET
490,SER	490,SER	490,SER	490,SER	490,SER	490,SER	490,SER	490,SER	490,SER
491,GLY	491,GLY	491,GLY	491,GLY	491,GLY	491,GLY	491,GLY	491,GLY	491,GLY
492,ASP	492,ASP	492,ASP	492,ASP	492,ASP	492,ASP	492,ASP	492,ASP	492,ASP
493,PRO	493,PRO	493,PRO	493,PRO	493,PRO	493,PRO	493,PRO	493,PRO	493,PRO
494,ASN	494,ASN	494,ASN	494,ASN	494,ASN	494,ASN	494,ASN	494,ASN	494,ASN
495,TYR	495,TYR	495,TYR	495,TYR	495,TYR	495,TYR	495,TYR	495,TYR	495,TYR
496,LEU	496,LEU	496,LEU	496,LEU	496,LEU	496,LEU	496,LEU	496,LEU	496,LEU
497,HIS	497,HIS	497,HIS	497,HIS	497,HIS	497,HIS	497,HIS	497,HIS	497,HIS
498,ARG	498,ARG	498,ARG	498,ARG	498,ARG	498,ARG	498,ARG	498,ARG	498,ARG
499,MET	499,MET	499,MET	499,MET	499,MET	499,MET	499,MET	499,MET	499,MET
500,THR	500,THR	500,THR	500,THR	500,THR	500,THR	500,THR	500,THR	500,THR
501,THR	501,THR	501,THR	501,THR	501,THR	501,THR	501,THR	501,THR	501,THR
502,LEU	502,LEU	502,LEU	502,LEU	502,LEU	502,LEU	502,LEU	502,LEU	502,LEU
503,PHE	503,PHE	503,PHE	503,PHE	503,PHE	503,PHE	503,PHE	503,PHE	503,PHE
504,CYS	504,CYS	504,CYS	504,CYS	504,CYS	504,CYS	504,CYS	504,CYS	504,CYS
505,ILE	505,ILE	505,ILE	505,ILE	505,ILE	505,ILE	505,ILE	505,ILE	505,ILE
506,ASN	506,ASN	506,ASN	506,ASN	506,ASN	506,ASN	506,ASN	506,ASN	506,ASN
507,VAL	507,VAL	507,VAL	507,VAL	507,VAL	507,VAL	507,VAL	507,VAL	507,VAL
508,LEU	508,LEU	508,LEU	508,LEU	508,LEU	508,LEU	508,LEU	508,LEU	508,LEU
509,SER	509,SER	509,SER	509,SER	509,SER	509,SER	509,SER	509,SER	509,SER
510,GLU	510,GLU	510,GLU	510,GLU	510,GLU	510,GLU	510,GLU	510,GLU	510,GLU
511,VAL	511,VAL	511,VAL	511,VAL	511,VAL	511,VAL	511,VAL	511,VAL	511,VAL
512,CYS	512,CYS	512,CYS	512,CYS	512,CYS	512,CYS	512,CYS	512,CYS	512,CYS
513,GLY	513,GLY	513,GLY	513,GLY	513,GLY	513,GLY	513,GLY	513,GLY	513,GLY
514,GLN	514,GLN	514,GLN	514,GLN	514,GLN	514,GLN	514,GLN	514,GLN	514,GLN
515,ASP	515,ASP	515,ASP	515,ASP	515,ASP	515,ASP	515,ASP	515,ASP	515,ASP
516,ILE	516,ILE	516,ILE	516,ILE	516,ILE	516,ILE	516,ILE	516,ILE	516,ILE
517,THR	517,THR	517,THR	517,THR	517,THR	517,THR	517,THR	517,THR	517,THR
518,THR	518,THR	518,THR	518,THR	518,THR	518,THR	518,THR	518,THR	518,THR
519,LYS	519,LYS	519,LYS	519,LYS	519,LYS	519,LYS	519,LYS	519,LYS	519,LYS
520,HIS	520,HIS	520,HIS	520,HIS	520,HIS	520,HIS	520,HIS	520,HIS	520,HIS
521,MET	521,MET	521,MET	521,MET	521,MET	521,MET	521,MET	521,MET	521,MET
522,LEU	522,LEU	522,LEU	522,LEU	522,LEU	522,LEU	522,LEU	522,LEU	522,LEU
523,PRO	523,PRO	523,PRO	523,PRO	523,PRO	523,PRO	523,PRO	523,PRO	523,PRO
524,THR	524,THR	524,THR	524,THR	524,THR	524,THR	524,THR	524,THR	524,THR
525,VAL	525,VAL	525,VAL	525,VAL	525,VAL	525,VAL	525,VAL	525,VAL	525,VAL
526,LEU	526,LEU	526,LEU	526,LEU	526,LEU	526,LEU	526,LEU	526,LEU	526,LEU
527,ARG	527,ARG	527,ARG	527,ARG	527,ARG	527,ARG	527,ARG	527,ARG	527,ARG
528,MET	528,MET	528,MET	528,MET	528,MET	528,MET	528,MET	528,MET	528,MET
529,ALA	529,ALA	529,ALA	529,ALA	529,ALA	529,ALA	529,ALA	529,ALA	529,ALA
530,GLY	530,GLY	530,GLY	530,GLY	530,GLY	530,GLY	530,GLY	530,GLY	530,GLY
531,ASP	531,ASP	531,ASP	531,ASP	531,ASP	531,ASP	531,ASP	531,ASP	531,ASP
532,PRO	532,PRO	532,PRO	532,PRO	532,PRO	532,PRO	532,PRO	532,PRO	532,PRO
533,VAL	533,VAL	533,VAL	533,VAL	533,VAL	533,VAL	533,VAL	533,VAL	533,VAL
534,ALA	534,ALA	534,ALA	534,ALA	534,ALA	534,ALA	534,ALA	534,ALA	534,ALA
535,ASN	535,ASN	535,ASN	535,ASN	535,ASN	535,ASN	535,ASN	535,ASN	535,ASN
536,VAL	536,VAL	536,VAL	536,VAL	536,VAL	536,VAL	536,VAL	536,VAL	536,VAL
537,ARG	537,ARG	537,ARG	537,ARG	537,ARG	537,ARG	537,ARG	537,ARG	537,ARG
538,PHE	538,PHE	538,PHE	538,PHE	538,PHE	538,PHE	538,PHE	538,PHE	538,PHE
539,ASN	539,ASN	539,ASN	539,ASN	539,ASN	539,ASN	539,ASN	539,ASN	539,ASN
540,VAL	540,VAL	540,VAL	540,VAL	540,VAL	540,VAL	540,VAL	540,VAL	540,VAL
541,ALA	541,ALA	541,ALA	541,ALA	541,ALA	541,ALA	541,ALA	541,ALA	541,ALA
542,LYS	542,LYS	542,LYS	542,LYS	542,LYS	542,LYS	542,LYS	542,LYS	542,LYS
543,SER	543,SER	543,SER	543,SER	543,SER	543,SER	543,SER	543,SER	543,SER
544,LEU	544,LEU	544,LEU	544,LEU	544,LEU	544,LEU	544,LEU	544,LEU	544,LEU
545,GLN	545,GLN	545,GLN	545,GLN	545,GLN	545,GLN	545,GLN	545,GLN	545,GLN
546,LYS	546,LYS	546,LYS	546,LYS	546,LYS	546,LYS	546,LYS	546,LYS	546,LYS
547,ILE	547,ILE	547,ILE	547,ILE	547,ILE	547,ILE	547,ILE	547,ILE	547,ILE
548,GLY	548,GLY	548,GLY	548,GLY	548,GLY	548,GLY	548,GLY	548,GLY	548,GLY
549,PRO	549,PRO	549,PRO	549,PRO	549,PRO	549,PRO	549,PRO	549,PRO	549,PRO
550,ILE	550,ILE	550,ILE	550,ILE	550,ILE	550,ILE	550,ILE	550,ILE	550,ILE
551,LEU	551,LEU	551,LEU	551,LEU	551,LEU	551,LEU	551,LEU	551,LEU	551,LEU
552,ASP	552,ASP	552,ASP	552,ASP	552,ASP	552,ASP	552,ASP	552,ASP	552,ASP
553,ASN	553,ASN	553,ASN	553,ASN	553,ASN	553,ASN	553,ASN	553,ASN	553,ASN
554,SER	554,SER	554,SER	554,SER	554,SER	554,SER	554,SER	554,SER	554,SER
555,THR	555,THR	555,THR	555,THR	555,THR	555,THR	555,THR	555,THR	555,THR
556,LEU	556,LEU	556,LEU	556,LEU	556,LEU	556,LEU	556,LEU	556,LEU	556,LEU
557,GLN	557,GLN	557,GLN	557,GLN	557,GLN	557,GLN	557,GLN	557,GLN	557,GLN
558,SER	558,SER	558,SER	558,SER	558,SER	558,SER	558,SER	558,SER	558,SER
559,GLU	559,GLU	559,GLU	559,GLU	559,GLU	559,GLU	559,GLU	559,GLU	559,GLU
560,VAL	560,VAL	560,VAL	560,VAL	560,VAL	560,VAL	560,VAL	560,VAL	560,VAL
561,LYS	561,LYS	561,LYS	561,LYS	561,LYS	561,LYS	561,LYS	561,LYS	561,LYS
562,PRO	562,PRO	562,PRO	562,PRO	562,PRO	562,PRO	562,PRO	562,PRO	562,PRO
563,ILE	563,ILE	563,ILE	563,ILE	563,ILE	563,ILE	563,ILE	563,ILE	563,ILE
564,LEU	564,LEU	564,LEU	564,LEU	564,LEU	564,LEU	564,LEU	564,LEU	564,LEU
565,GLU	565,GLU	565,GLU	565,GLU	565,GLU	565,GLU	565,GLU	565,GLU	565,GLU
566,LYS	566,LYS	566,LYS	566,LYS	566,LYS	566,LYS	566,LYS	566,LYS	566,LYS
567,LEU	567,LEU	567,LEU	567,LEU	567,LEU	567,LEU	567,LEU	567,LEU	567,LEU
568,THR	568,THR	568,THR	568,THR	568,THR	568,THR	568,THR	568,THR	568,THR
569,GLN	569,GLN	569,GLN	569,GLN	569,GLN	569,GLN	569,GLN	569,GLN	569,GLN
570,ASP	570,ASP	570,ASP	570,ASP	570,ASP	570,ASP	570,ASP	570,ASP	570,ASP
571,GLN	571,GLN	571,GLN	571,GLN	571,GLN	571,GLN	571,GLN	571,GLN	571,GLN
572,ASP	572,ASP	572,ASP	572,ASP	572,ASP	572,ASP	572,ASP	572,ASP	572,ASP
573,VAL	573,VAL	573,VAL	573,VAL	573,VAL	573,VAL	573,VAL	573,VAL	573,VAL
574,ASP	574,ASP	574,ASP	574,ASP	574,ASP	574,ASP	574,ASP	574,ASP	574,ASP
575,VAL	575,VAL	575,VAL	575,VAL	575,VAL	575,VAL	575,VAL	575,VAL	575,VAL
576,LYS	576,LYS	576,LYS	576,LYS	576,LYS	576,LYS	576,LYS	576,LYS	576,LYS
577,TYR	577,TYR	577,TYR	577,TYR	577,TYR	577,TYR	577,TYR	577,TYR	577,TYR
578,PHE	578,PHE	578,PHE	578,PHE	578,PHE	578,PHE	578,PHE	578,PHE	578,PHE
579,ALA	579,ALA	579,ALA	579,ALA	579,ALA	579,ALA	579,ALA	579,ALA	579,ALA
580,GLN	580,GLN	580,GLN	580,GLN	580,GLN	580,GLN	580,GLN	580,GLN	580,GLN
581,GLU	581,GLU	581,GLU	581,GLU	581,GLU	581,GLU	581,GLU	581,GLU	581,GLU
582,ALA	582,ALA	582,ALA	582,ALA	582,ALA	582,ALA	582,ALA	582,ALA	582,ALA
583,LEU	583,LEU	583,LEU	583,LEU	583,LEU	583,LEU	583,LEU	583,LEU	583,LEU
584,THR	584,THR	584,THR	584,THR	584,THR	584,THR	584,THR	584,THR	584,THR
585,VAL	585,VAL	585,VAL	585,VAL	585,VAL	585,VAL	585,VAL	585,VAL	585,VAL
586,LEU	586,LEU	586,LEU	586,LEU	586,LEU	586,LEU	586,LEU	586,LEU	586,LEU
587,SER	587,SER	587,SER	587,SER	587,SER	587,SER	587,SER	587,SER	587,SER
588,LEU	588,LEU	588,LEU	588,LEU	588,LEU	588,LEU	588,LEU	588,LEU	588,LEU
589,ALA	589,ALA	589,ALA	589,ALA	589,ALA	589,ALA	589,ALA	589,ALA	589,ALA
