Q6R5N8	4z0cA
1,MET	-
2,SER	-
3,GLY	-
4,LEU	-
5,TYR	-
6,ARG	-
7,ILE	-
8,LEU	-
9,VAL	-
10,GLN	-
11,LEU	-
12,GLU	-
13,GLN	-
14,SER	-
15,PRO	-
16,TYR	-
17,VAL	-
18,LYS	-
19,THR	-
20,VAL	-
21,PRO	-
22,LEU	-
23,ASN	-
24,MET	-
25,ARG	-
26,ARG	-
27,ASP	-
28,PHE	-
29,PHE	-
30,PHE	-
31,LEU	-
32,VAL	-
33,VAL	-
34,THR	-
35,TRP	-
36,MET	-
37,PRO	-
38,LYS	-
39,THR	-
40,VAL	-
41,LYS	-
42,MET	-
43,ASN	-
44,GLY	-
45,SER	-
46,SER	-
47,PHE	-
48,VAL	-
49,PRO	-
50,SER	-
51,LEU	-
52,GLN	-
53,LEU	-
54,LEU	-
55,LEU	-
56,MET	-
57,LEU	-
58,VAL	-
59,GLY	-
60,PHE	-
61,SER	-
62,LEU	-
63,PRO	-
64,PRO	-
65,VAL	-
66,ALA	-
67,GLU	-
68,THR	-
69,TYR	69,TYR
70,GLY	70,GLY
71,PHE	71,PHE
72,ASN	72,ASN
73,LYS	73,LYS
74,CYS	74,CYS
75,THR	75,THR
76,GLN	76,GLN
77,TYR	77,TYR
78,GLU	78,GLU
79,PHE	79,PHE
80,ASP	80,ASP
81,ILE	81,ILE
82,HIS	82,HIS
83,HIS	83,HIS
84,VAL	84,VAL
85,LEU	85,LEU
86,CYS	86,CYS
87,ILE	87,ILE
88,ARG	88,ARG
89,LYS	89,LYS
90,LYS	90,LYS
91,ILE	91,ILE
92,THR	92,THR
93,ASN	93,ASN
94,LEU	94,LEU
95,THR	95,THR
96,GLU	96,GLU
97,ALA	97,ALA
98,ILE	98,ILE
99,SER	99,SER
100,ASP	100,ASP
101,ILE	101,ILE
102,PRO	105,THR
103,ARG	102,PRO
104,TYR	103,ARG
105,THR	104,TYR
106,THR	106,THR
107,HIS	107,HIS
108,LEU	108,LEU
109,ASN	109,ASN
110,LEU	110,LEU
111,THR	111,THR
112,HIS	112,HIS
113,ASN	113,ASN
114,GLU	114,GLU
115,ILE	115,ILE
116,GLN	116,GLN
117,VAL	117,VAL
118,LEU	118,LEU
119,PRO	119,PRO
120,PRO	120,PRO
121,TRP	121,TRP
122,SER	122,SER
123,PHE	123,PHE
124,THR	127,SER
125,ASN	124,THR
126,LEU	125,ASN
127,SER	126,LEU
128,ALA	128,ALA
129,LEU	129,LEU
130,VAL	130,VAL
131,ASP	134,LEU
132,LEU	131,ASP
133,ARG	132,LEU
134,LEU	133,ARG
135,GLU	135,GLU
136,TRP	136,TRP
137,ASN	137,ASN
138,SER	138,SER
139,ILE	139,ILE
140,TRP	140,TRP
141,LYS	141,LYS
142,ILE	142,ILE
143,ASP	143,ASP
144,GLU	144,GLU
145,GLY	148,ARG
146,ALA	145,GLY
147,PHE	146,ALA
148,ARG	147,PHE
149,GLY	149,GLY
150,LEU	150,LEU
151,GLU	151,GLU
152,ASN	155,LEU
153,LEU	152,ASN
154,THR	153,LEU
155,LEU	154,THR
156,LEU	156,LEU
157,ASN	157,ASN
158,LEU	158,LEU
159,VAL	159,VAL
160,GLU	160,GLU
161,ASN	161,ASN
162,LYS	162,LYS
163,ILE	163,ILE
164,GLN	164,GLN
165,SER	165,SER
166,VAL	169,SER
167,ASN	166,VAL
168,ASN	167,ASN
169,SER	168,ASN
170,PHE	170,PHE
171,GLU	171,GLU
172,GLY	172,GLY
173,LEU	173,LEU
174,SER	174,SER
175,SER	175,SER
176,LEU	176,LEU
177,LYS	177,LYS
178,THR	181,LEU
179,LEU	178,THR
180,LEU	179,LEU
181,LEU	180,LEU
182,SER	182,SER
183,HIS	183,HIS
184,ASN	184,ASN
185,GLN	185,GLN
186,ILE	189,ILE
187,THR	186,ILE
188,HIS	187,THR
189,ILE	188,HIS
190,HIS	190,HIS
191,LYS	191,LYS
192,ASP	192,ASP
193,ALA	193,ALA
194,PHE	197,LEU
195,THR	194,PHE
196,PRO	195,THR
197,LEU	196,PRO
198,ILE	198,ILE
199,LYS	199,LYS
200,LEU	200,LEU
201,LYS	201,LYS
202,TYR	202,TYR
203,LEU	203,LEU
204,SER	204,SER
205,LEU	205,LEU
206,SER	206,SER
207,ARG	207,ARG
208,ASN	208,ASN
209,ASN	209,ASN
210,ILE	210,ILE
211,SER	211,SER
212,ASP	212,ASP
213,PHE	213,PHE
214,SER	214,SER
215,GLY	215,GLY
216,ILE	219,ALA
217,LEU	216,ILE
218,GLU	217,LEU
219,ALA	218,GLU
220,VAL	220,VAL
221,GLN	221,GLN
222,HIS	222,HIS
223,LEU	223,LEU
224,PRO	224,PRO
225,CYS	225,CYS
226,LEU	226,LEU
227,GLU	227,GLU
228,ARG	228,ARG
229,LEU	229,LEU
230,ASP	230,ASP
231,LEU	231,LEU
232,THR	232,THR
233,ASN	233,ASN
234,ASN	234,ASN
235,SER	235,SER
236,ILE	236,ILE
237,MET	237,MET
238,TYR	238,TYR
239,LEU	239,LEU
240,ASP	240,ASP
241,HIS	241,HIS
242,SER	242,SER
243,PRO	243,PRO
244,ARG	244,ARG
245,SER	245,SER
246,LEU	246,LEU
247,VAL	247,VAL
248,SER	248,SER
249,LEU	249,LEU
250,THR	250,THR
251,HIS	251,HIS
252,LEU	252,LEU
253,SER	253,SER
254,PHE	254,PHE
255,GLU	255,GLU
256,GLY	256,GLY
257,ASN	257,ASN
258,LYS	258,LYS
259,LEU	259,LEU
260,ARG	260,ARG
261,GLU	261,GLU
262,LEU	262,LEU
263,ASN	263,ASN
264,PHE	264,PHE
265,SER	265,SER
266,ALA	266,ALA
267,LEU	267,LEU
268,SER	268,SER
269,LEU	269,LEU
270,PRO	270,PRO
271,ASN	271,ASN
272,LEU	272,LEU
273,THR	273,THR
274,ASN	274,ASN
275,LEU	275,LEU
276,SER	276,SER
277,ALA	277,ALA
278,SER	278,SER
279,ARG	279,ARG
280,ASN	280,ASN
281,GLY	281,GLY
282,ASN	282,ASN
283,LYS	283,LYS
284,VAL	284,VAL
285,ILE	285,ILE
286,GLN	286,GLN
287,ASN	287,ASN
288,VAL	288,VAL
289,TYR	289,TYR
290,LEU	290,LEU
291,LYS	291,LYS
292,THR	292,THR
293,LEU	293,LEU
294,PRO	294,PRO
295,GLN	295,GLN
296,LEU	296,LEU
297,LYS	297,LYS
298,SER	298,SER
299,LEU	299,LEU
300,ASN	300,ASN
301,LEU	301,LEU
302,SER	302,SER
303,GLY	303,GLY
304,THR	304,THR
305,VAL	305,VAL
306,ILE	306,ILE
307,LYS	307,LYS
308,LEU	308,LEU
309,GLU	309,GLU
310,ASN	310,ASN
311,LEU	311,LEU
312,SER	312,SER
313,ALA	313,ALA
314,LYS	314,LYS
315,HIS	315,HIS
316,LEU	316,LEU
317,GLN	317,GLN
318,ASN	318,ASN
319,LEU	319,LEU
320,ARG	320,ARG
321,ALA	321,ALA
322,MET	322,MET
323,ASP	323,ASP
324,LEU	324,LEU
325,SER	325,SER
326,ASN	326,ASN
327,TRP	327,TRP
328,GLU	328,GLU
329,LEU	329,LEU
330,ARG	330,ARG
331,HIS	331,HIS
332,GLY	332,GLY
333,HIS	333,HIS
334,LEU	334,LEU
335,ASP	335,ASP
336,MET	336,MET
337,LYS	337,LYS
338,THR	341,HIS
339,VAL	338,THR
340,CYS	339,VAL
341,HIS	340,CYS
342,LEU	342,LEU
343,LEU	343,LEU
344,GLY	344,GLY
345,ASN	345,ASN
346,LEU	346,LEU
347,PRO	347,PRO
348,LYS	348,LYS
349,LEU	349,LEU
350,GLU	350,GLU
351,THR	351,THR
352,LEU	352,LEU
353,VAL	353,VAL
354,PHE	354,PHE
355,GLN	355,GLN
356,LYS	356,LYS
357,ASN	357,ASN
358,VAL	358,VAL
359,THR	359,THR
360,ASN	360,ASN
361,ALA	361,ALA
362,GLU	362,GLU
363,GLY	363,GLY
364,ILE	364,ILE
365,LYS	365,LYS
366,GLN	366,GLN
367,LEU	367,LEU
368,ALA	368,ALA
369,LYS	369,LYS
370,CYS	370,CYS
371,THR	371,THR
372,ARG	372,ARG
373,LEU	373,LEU
374,LEU	374,LEU
375,PHE	375,PHE
376,LEU	376,LEU
377,ASP	377,ASP
378,LEU	378,LEU
379,GLY	379,GLY
380,GLN	380,GLN
381,ASN	381,ASN
382,SER	382,SER
383,ASP	383,ASP
384,LEU	384,LEU
385,ILE	385,ILE
386,TYR	386,TYR
387,LEU	387,LEU
388,ASN	388,ASN
389,ASP	389,ASP
390,SER	390,SER
391,GLU	391,GLU
392,PHE	392,PHE
393,ASN	393,ASN
394,ALA	394,ALA
395,LEU	395,LEU
396,PRO	396,PRO
397,SER	397,SER
398,LEU	398,LEU
399,GLN	399,GLN
400,LYS	400,LYS
401,LEU	401,LEU
402,ASN	402,ASN
403,LEU	403,LEU
404,ASN	404,ASN
405,LYS	405,LYS
406,CYS	406,CYS
407,GLN	407,GLN
408,LEU	408,LEU
409,SER	409,SER
410,PHE	410,PHE
411,ILE	411,ILE
412,ASN	412,ASN
413,ASN	413,ASN
414,ARG	414,ARG
415,THR	415,THR
416,TRP	416,TRP
417,SER	417,SER
418,SER	418,SER
419,LEU	419,LEU
420,GLN	420,GLN
421,ASN	421,ASN
422,LEU	422,LEU
423,THR	423,THR
424,SER	424,SER
425,LEU	425,LEU
426,ASP	426,ASP
427,LEU	427,LEU
428,SER	428,SER
429,HIS	429,HIS
430,ASN	430,ASN
431,LYS	431,LYS
432,PHE	432,PHE
433,LYS	433,LYS
434,SER	434,SER
435,PHE	435,PHE
436,PRO	436,PRO
437,ASP	437,ASP
438,PHE	438,PHE
439,ALA	439,ALA
440,PHE	440,PHE
441,SER	441,SER
442,PRO	442,PRO
443,LEU	443,LEU
444,LYS	444,LYS
445,HIS	445,HIS
446,LEU	446,LEU
447,GLU	447,GLU
448,PHE	448,PHE
449,LEU	449,LEU
450,SER	450,SER
451,LEU	451,LEU
452,SER	452,SER
453,ARG	453,ARG
454,ASN	454,ASN
455,PRO	455,PRO
456,ILE	456,ILE
457,THR	457,THR
458,GLU	458,GLU
459,LEU	459,LEU
460,ASN	460,ASN
461,ASN	461,ASN
462,LEU	462,LEU
463,ALA	463,ALA
464,PHE	464,PHE
465,SER	465,SER
466,GLY	466,GLY
467,LEU	467,LEU
468,PHE	468,PHE
469,ALA	469,ALA
470,LEU	470,LEU
471,LYS	471,LYS
472,GLU	472,GLU
473,LEU	473,LEU
474,ASN	474,ASN
475,LEU	475,LEU
476,ALA	476,ALA
477,ALA	477,ALA
478,CYS	478,CYS
479,TRP	479,TRP
480,ILE	480,ILE
481,VAL	481,VAL
482,THR	482,THR
483,ILE	483,ILE
484,ASP	484,ASP
485,ARG	485,ARG
486,TYR	486,TYR
487,SER	487,SER
488,PHE	488,PHE
489,THR	489,THR
490,GLN	490,GLN
491,PHE	491,PHE
492,PRO	492,PRO
493,ASN	493,ASN
494,LEU	494,LEU
495,GLU	495,GLU
496,VAL	496,VAL
497,LEU	497,LEU
498,ASP	498,ASP
499,LEU	499,LEU
500,GLY	500,GLY
501,ASP	501,ASP
502,ASN	502,ASN
503,ASN	503,ASN
504,ILE	504,ILE
505,ARG	505,ARG
506,THR	506,THR
507,LEU	507,LEU
508,ASN	508,ASN
509,HIS	509,HIS
510,GLY	510,GLY
511,THR	511,THR
512,PHE	512,PHE
513,ARG	513,ARG
514,PRO	514,PRO
515,LEU	515,LEU
516,LYS	516,LYS
517,LYS	517,LYS
518,LEU	518,LEU
519,GLN	519,GLN
520,SER	520,SER
521,LEU	521,LEU
522,ILE	522,ILE
523,LEU	523,LEU
524,SER	524,SER
525,HIS	525,HIS
526,ASN	526,ASN
527,CYS	527,CYS
528,LEU	528,LEU
529,LYS	529,LYS
530,ILE	530,ILE
531,LEU	531,LEU
532,GLU	532,GLU
533,PRO	533,PRO
534,ASN	534,ASN
535,SER	535,SER
536,PHE	536,PHE
537,SER	537,SER
538,GLY	538,GLY
539,LEU	539,LEU
540,THR	540,THR
541,ASN	541,ASN
542,LEU	542,LEU
543,ARG	543,ARG
544,SER	544,SER
545,LEU	545,LEU
546,ASP	546,ASP
547,LEU	547,LEU
548,MET	548,MET
549,TYR	549,TYR
550,ASN	550,ASN
551,SER	551,SER
552,LEU	552,LEU
553,SER	553,SER
554,TYR	554,TYR
555,PHE	555,PHE
556,HIS	556,HIS
557,GLU	557,GLU
558,HIS	558,HIS
559,LEU	559,LEU
560,PHE	560,PHE
561,SER	561,SER
562,GLY	562,GLY
563,LEU	563,LEU
564,GLU	564,GLU
565,LYS	565,LYS
566,LEU	566,LEU
567,LEU	567,LEU
568,ILE	568,ILE
569,LEU	569,LEU
570,LYS	570,LYS
571,LEU	571,LEU
572,GLY	572,GLY
573,PHE	573,PHE
574,ASN	574,ASN
575,LYS	575,LYS
576,ILE	576,ILE
577,THR	577,THR
578,TYR	578,TYR
579,GLU	579,GLU
580,THR	580,THR
581,THR	581,THR
582,ARG	582,ARG
583,THR	583,THR
584,LEU	584,LEU
585,GLN	585,GLN
586,TYR	586,TYR
587,PRO	587,PRO
588,PRO	588,PRO
589,PHE	589,PHE
590,ILE	590,ILE
591,LYS	591,LYS
592,LEU	592,LEU
593,LYS	593,LYS
594,SER	594,SER
595,LEU	595,LEU
596,LYS	596,LYS
597,GLN	597,GLN
598,LEU	598,LEU
599,ASN	599,ASN
600,LEU	600,LEU
601,GLU	601,GLU
602,GLY	602,GLY
603,GLN	603,GLN
604,ARG	604,ARG
605,HIS	605,HIS
606,GLY	606,GLY
607,ILE	607,ILE
608,GLN	608,GLN
609,VAL	609,VAL
610,VAL	610,VAL
611,PRO	611,PRO
612,SER	612,SER
613,ASN	613,ASN
614,PHE	614,PHE
615,PHE	615,PHE
616,GLN	616,GLN
617,GLY	617,GLY
618,LEU	618,LEU
619,GLY	619,GLY
620,SER	620,SER
621,LEU	621,LEU
622,GLN	622,GLN
623,GLU	623,GLU
624,LEU	624,LEU
625,LEU	625,LEU
626,LEU	626,LEU
627,GLY	627,GLY
628,LYS	628,LYS
629,ASN	629,ASN
630,PRO	630,PRO
631,SER	631,SER
632,VAL	632,VAL
633,PHE	633,PHE
634,LEU	634,LEU
635,ASP	635,ASP
636,HIS	636,HIS
637,HIS	637,HIS
638,GLN	638,GLN
639,PHE	639,PHE
640,ASP	640,ASP
641,PRO	641,PRO
642,LEU	642,LEU
643,ILE	643,ILE
644,ASN	644,ASN
645,LEU	645,LEU
646,THR	646,THR
647,LYS	647,LYS
648,LEU	648,LEU
649,ASP	649,ASP
650,ILE	650,ILE
651,SER	651,SER
652,GLY	652,GLY
653,THR	653,THR
654,LYS	654,LYS
655,ASP	655,ASP
656,GLY	656,GLY
657,ASP	657,ASP
658,ARG	658,ARG
659,SER	659,SER
660,LEU	660,LEU
661,TYR	661,TYR
662,LEU	662,LEU
663,ASN	663,ASN
664,ALA	664,ALA
665,SER	665,SER
666,LEU	666,LEU
667,PHE	667,PHE
668,GLN	668,GLN
669,ASN	669,ASN
670,LEU	670,LEU
671,LYS	671,LYS
672,ARG	672,ARG
673,LEU	673,LEU
674,LYS	674,LYS
675,ILE	675,ILE
676,LEU	676,LEU
677,ARG	677,ARG
678,LEU	678,LEU
679,GLU	679,GLU
680,ASN	680,ASN
681,ASN	681,ASN
682,ASN	682,ASN
683,LEU	683,LEU
684,GLU	684,GLU
685,SER	685,SER
686,LEU	686,LEU
687,VAL	687,VAL
688,PRO	688,PRO
689,ASP	689,ASP
690,MET	690,MET
691,PHE	691,PHE
692,SER	692,SER
693,SER	693,SER
694,LEU	694,LEU
695,GLN	695,GLN
696,SER	696,SER
697,LEU	697,LEU
698,GLN	698,GLN
699,VAL	699,VAL
700,PHE	700,PHE
701,SER	701,SER
702,LEU	702,LEU
703,ARG	703,ARG
704,PHE	704,PHE
705,ASN	705,ASN
706,ASN	706,ASN
707,LEU	707,LEU
708,LYS	708,LYS
709,VAL	709,VAL
710,ILE	710,ILE
711,ASN	711,ASN
712,GLN	712,GLN
713,SER	713,SER
714,HIS	714,HIS
715,LEU	715,LEU
716,LYS	716,LYS
717,ASN	717,ASN
718,LEU	718,LEU
719,LYS	719,LYS
720,SER	720,SER
721,LEU	721,LEU
722,MET	722,MET
723,PHE	723,PHE
724,PHE	724,PHE
725,ASP	725,ASP
726,VAL	726,VAL
727,TYR	727,TYR
728,GLY	728,GLY
729,ASN	729,ASN
730,LYS	730,LYS
731,LEU	731,LEU
732,GLN	732,GLN
733,CYS	733,CYS
734,THR	734,THR
735,CYS	735,CYS
736,ASP	736,ASP
737,ASN	737,ASN
738,LEU	738,LEU
739,TRP	739,TRP
740,PHE	740,PHE
741,LYS	741,LYS
742,ASN	742,ASN
743,TRP	743,TRP
744,SER	744,SER
745,MET	745,MET
746,ASN	746,ASN
747,THR	747,THR
748,GLU	748,GLU
749,GLU	749,GLU
750,VAL	750,VAL
751,HIS	751,HIS
752,ILE	752,ILE
753,PRO	753,PRO
754,PHE	754,PHE
755,LEU	755,LEU
756,ARG	756,ARG
757,SER	757,SER
758,TYR	758,TYR
759,PRO	759,PRO
760,CYS	760,CYS
761,GLN	761,GLN
762,GLN	762,GLN
763,PRO	763,PRO
764,GLY	764,GLY
765,SER	765,SER
766,GLN	766,GLN
767,SER	767,SER
768,LEU	768,LEU
769,LEU	769,LEU
770,ILE	770,ILE
771,ASP	771,ASP
772,PHE	772,PHE
773,ASP	773,ASP
774,ASP	774,ASP
775,ALA	775,ALA
776,MET	776,MET
777,CYS	777,CYS
778,ASN	-
779,PHE	-
780,ASP	-
781,LEU	-
782,GLY	-
783,LYS	-
784,VAL	-
785,TYR	-
786,PHE	-
787,LEU	-
788,CYS	-
789,SER	-
790,PHE	-
791,SER	-
792,MET	-
793,VAL	-
794,LEU	-
795,SER	-
796,THR	-
797,MET	-
798,VAL	-
799,PHE	-
800,SER	-
801,TRP	-
802,PHE	-
803,SER	-
804,THR	-
805,LYS	-
806,MET	-
807,ILE	-
808,ALA	-
809,SER	-
810,LEU	-
811,TRP	-
812,TYR	-
813,GLY	-
814,LEU	-
815,TYR	-
816,ILE	-
817,CYS	-
818,ARG	-
819,ALA	-
820,TRP	-
821,TYR	-
822,LEU	-
823,THR	-
824,LYS	-
825,TRP	-
826,HIS	-
827,LYS	-
828,THR	-
829,GLU	-
830,LYS	-
831,LYS	-
832,PHE	-
833,LEU	-
834,TYR	-
835,ASP	-
836,ALA	-
837,PHE	-
838,VAL	-
839,SER	-
840,PHE	-
841,SER	-
842,ALA	-
843,THR	-
844,ASP	-
845,GLU	-
846,ALA	-
847,TRP	-
848,VAL	-
849,TYR	-
850,LYS	-
851,GLU	-
852,LEU	-
853,VAL	-
854,PRO	-
855,ALA	-
856,LEU	-
857,GLU	-
858,GLN	-
859,GLY	-
860,SER	-
861,GLN	-
862,THR	-
863,THR	-
864,PHE	-
865,LYS	-
866,LEU	-
867,CYS	-
868,LEU	-
869,HIS	-
870,GLN	-
871,ARG	-
872,ASP	-
873,PHE	-
874,GLU	-
875,PRO	-
876,GLY	-
877,ILE	-
878,ASP	-
879,ILE	-
880,PHE	-
881,GLU	-
882,ASN	-
883,ILE	-
884,GLN	-
885,ASN	-
886,ALA	-
887,ILE	-
888,ASN	-
889,THR	-
890,SER	-
891,ARG	-
892,LYS	-
893,THR	-
894,LEU	-
895,CYS	-
896,VAL	-
897,VAL	-
898,SER	-
899,ASN	-
900,HIS	-
901,TYR	-
902,LEU	-
903,HIS	-
904,SER	-
905,GLU	-
906,TRP	-
907,CYS	-
908,ARG	-
909,LEU	-
910,GLU	-
911,VAL	-
912,GLN	-
913,LEU	-
914,ALA	-
915,SER	-
916,MET	-
917,LYS	-
918,MET	-
919,PHE	-
920,TYR	-
921,GLU	-
922,HIS	-
923,LYS	-
924,ASP	-
925,VAL	-
926,ILE	-
927,ILE	-
928,LEU	-
929,ILE	-
930,PHE	-
931,LEU	-
932,GLU	-
933,GLU	-
934,ILE	-
935,PRO	-
936,ASN	-
937,TYR	-
938,LYS	-
939,LEU	-
940,SER	-
941,SER	-
942,TYR	-
943,HIS	-
944,ARG	-
945,LEU	-
946,ARG	-
947,LYS	-
948,LEU	-
949,ILE	-
950,ASN	-
951,LYS	-
952,GLN	-
953,THR	-
954,PHE	-
955,ILE	-
956,THR	-
957,TRP	-
958,PRO	-
959,ASP	-
960,SER	-
961,VAL	-
962,HIS	-
963,GLN	-
964,GLN	-
965,PRO	-
966,LEU	-
967,PHE	-
968,TRP	-
969,ALA	-
970,ARG	-
971,ILE	-
972,ARG	-
973,ASN	-
974,ALA	-
975,LEU	-
976,GLY	-
977,LYS	-
978,GLU	-
979,THR	-
980,VAL	-
981,GLU	-
982,LYS	-
983,GLU	-
984,ASN	-
985,THR	-
986,HIS	-
987,LEU	-
988,ILE	-
989,VAL	-
990,VAL	-
991,GLU	-
