uniprot_isoform	location_id	ENSEMBL ID	uniprot_start	uniprot_end	3bg0A_start	3bg0A_end	3bg0E_start	3bg0E_end	3bg0D_start	3bg0D_end	3bg0H_start	3bg0H_end	3bg1A_start	3bg1A_end	3bg1E_start	3bg1E_end	3bg1D_start	3bg1D_end	3bg1H_start	3bg1H_end
1	3_10321052_10301264_-1	ENSE00001397686	1	1	1	1	1	1	1	1	3	3	1	1	1	1	1	1	1	1
1	3_10321052_10301264_-1	ENSE00003646435	2	16	2	16	2	16	2	16	1	16	2	16	2	16	2	16	2	15
1	3_10321052_10301264_-1	ENSE00003686780	17	55	17	55	17	55	17	55	17	55	17	55	17	55	17	55	16	55
1	3_10321052_10301264_-1	ENSE00003618484	55	106	55	106	55	106	55	106	55	106	55	106	55	106	55	106	55	106
1	3_10321052_10301264_-1	ENSE00003679202	106	150	106	150	106	150	106	150	106	150	106	150	106	150	106	150	106	150
1	3_10321052_10301264_-1	ENSE00003486763	151	195	151	195	151	195	151	195	151	195	151	195	151	195	151	195	151	195
1	3_10321052_10301264_-1	ENSE00003692347	195	236	195	236	195	236	195	236	195	236	195	236	195	236	195	236	195	236
1	3_10321052_10301264_-1	ENSE00003652241	237	285	237	285	237	285	237	285	237	285	237	285	237	285	237	285	237	285
1	3_10321052_10301264_-1	ENSE00001029794	286	322	286	-	286	-	286	-	286	-	286	-	286	-	286	-	286	-
