Q12038	2oajA
1,MET	-
2,PHE	-
3,GLY	-
4,SER	-
5,LYS	-
6,ARG	-
7,LEU	-
8,LYS	-
9,ASN	-
10,VAL	-
11,LYS	-
12,GLU	-
13,ALA	-
14,PHE	-
15,LYS	-
16,SER	-
17,LEU	-
18,LYS	-
19,GLY	-
20,GLN	-
21,ASN	-
22,SER	-
23,GLU	-
24,THR	-
25,PRO	-
26,ILE	-
27,GLU	-
28,ASN	-
29,SER	-
30,LYS	-
31,ALA	-
32,SER	-
33,PHE	-
34,LYS	-
35,SER	-
36,LYS	-
37,ASN	-
38,SER	-
39,LYS	-
40,THR	-
41,SER	-
42,THR	-
43,ILE	-
44,SER	-
45,LYS	-
46,ASP	-
47,ALA	-
48,LYS	-
49,SER	-
50,SER	-
51,SER	-
52,SER	-
53,LEU	-
54,LYS	-
55,ILE	-
56,PRO	-
57,ILE	-
58,SER	-
59,SER	-
60,ASN	-
61,ASN	61,ASN
62,LYS	62,LYS
63,ASN	63,ASN
64,LYS	64,LYS
65,ILE	65,ILE
66,PHE	66,PHE
67,SER	67,SER
68,LEU	68,LEU
69,ALA	69,ALA
70,GLU	70,GLU
71,THR	71,THR
72,ASN	72,ASN
73,LYS	73,LYS
74,TYR	74,TYR
75,GLY	75,GLY
76,MET	76,MET
77,SER	77,SER
78,SER	78,SER
79,LYS	79,LYS
80,PRO	80,PRO
81,ILE	81,ILE
82,ALA	82,ALA
83,ALA	83,ALA
84,ALA	84,ALA
85,PHE	85,PHE
86,ASP	86,ASP
87,PHE	87,PHE
88,THR	88,THR
89,GLN	89,GLN
90,ASN	90,ASN
91,LEU	91,LEU
92,LEU	92,LEU
93,ALA	93,ALA
94,ILE	94,ILE
95,ALA	95,ALA
96,THR	96,THR
97,VAL	97,VAL
98,THR	98,THR
99,GLY	99,GLY
100,GLU	100,GLU
101,VAL	101,VAL
102,HIS	102,HIS
103,ILE	103,ILE
104,TYR	104,TYR
105,GLY	105,GLY
106,GLN	106,GLN
107,GLN	107,GLN
108,GLN	108,GLN
109,VAL	109,VAL
110,GLU	110,GLU
111,VAL	111,VAL
112,VAL	112,VAL
113,ILE	113,ILE
114,LYS	114,LYS
115,LEU	115,LEU
116,GLU	116,GLU
117,ASP	117,ASP
118,ARG	118,ARG
119,SER	119,SER
120,ALA	120,ALA
121,ILE	121,ILE
122,LYS	122,LYS
123,GLU	123,GLU
124,MET	124,MET
125,ARG	125,ARG
126,PHE	126,PHE
127,VAL	127,VAL
128,LYS	128,LYS
129,GLY	129,GLY
130,ILE	130,ILE
131,TYR	131,TYR
132,LEU	132,LEU
133,VAL	133,VAL
134,VAL	134,VAL
135,ILE	135,ILE
136,ASN	136,ASN
137,ALA	137,ALA
138,LYS	138,LYS
139,ASP	139,ASP
140,THR	140,THR
141,VAL	141,VAL
142,TYR	142,TYR
143,VAL	143,VAL
144,LEU	144,LEU
145,SER	145,SER
146,LEU	146,LEU
147,TYR	147,TYR
148,SER	148,SER
149,GLN	149,GLN
150,LYS	150,LYS
151,VAL	151,VAL
152,LEU	152,LEU
153,THR	153,THR
154,THR	154,THR
155,VAL	155,VAL
156,PHE	156,PHE
157,VAL	157,VAL
158,PRO	158,PRO
159,GLY	159,GLY
160,LYS	160,LYS
161,ILE	161,ILE
162,THR	162,THR
163,SER	163,SER
164,ILE	164,ILE
165,ASP	165,ASP
166,THR	166,THR
167,ASP	167,ASP
168,ALA	168,ALA
169,SER	169,SER
170,LEU	170,LEU
171,ASP	171,ASP
172,TRP	172,TRP
173,MET	173,MET
174,LEU	174,LEU
175,ILE	175,ILE
176,GLY	176,GLY
177,LEU	177,LEU
178,GLN	178,GLN
179,ASN	179,ASN
180,GLY	180,GLY
181,SER	181,SER
182,MET	182,MET
183,ILE	183,ILE
184,VAL	184,VAL
185,TYR	185,TYR
186,ASP	186,ASP
187,ILE	187,ILE
188,ASP	188,ASP
189,ARG	189,ARG
190,ASP	190,ASP
191,GLN	191,GLN
192,LEU	192,LEU
193,SER	193,SER
194,SER	194,SER
195,PHE	195,PHE
196,LYS	196,LYS
197,LEU	197,LEU
198,ASP	198,ASP
199,ASN	199,ASN
200,LEU	200,LEU
201,GLN	201,GLN
202,LYS	202,LYS
203,SER	203,SER
204,SER	204,SER
205,PHE	205,PHE
206,PHE	206,PHE
207,PRO	207,PRO
208,ALA	208,ALA
209,ALA	209,ALA
210,ARG	210,ARG
211,LEU	211,LEU
212,SER	212,SER
213,PRO	213,PRO
214,ILE	214,ILE
215,VAL	215,VAL
216,SER	216,SER
217,ILE	217,ILE
218,GLN	218,GLN
219,TRP	219,TRP
220,ASN	220,ASN
221,PRO	221,PRO
222,ARG	222,ARG
223,ASP	223,ASP
224,ILE	224,ILE
225,GLY	225,GLY
226,THR	226,THR
227,VAL	227,VAL
228,LEU	228,LEU
229,ILE	229,ILE
230,SER	230,SER
231,TYR	231,TYR
232,GLU	232,GLU
233,TYR	233,TYR
234,VAL	234,VAL
235,THR	235,THR
236,LEU	236,LEU
237,THR	240,LEU
238,TYR	237,THR
239,SER	238,TYR
240,LEU	239,SER
241,VAL	241,VAL
242,GLU	242,GLU
243,ASN	243,ASN
244,GLU	244,GLU
245,ILE	245,ILE
246,LYS	246,LYS
247,GLN	247,GLN
248,SER	248,SER
249,PHE	249,PHE
250,ILE	250,ILE
251,TYR	251,TYR
252,GLU	252,GLU
253,LEU	253,LEU
254,PRO	254,PRO
255,PRO	255,PRO
256,PHE	256,PHE
257,ALA	257,ALA
258,PRO	258,PRO
259,GLY	259,GLY
260,GLY	260,GLY
261,ASP	261,ASP
262,PHE	262,PHE
263,SER	263,SER
264,GLU	264,GLU
265,LYS	265,LYS
266,THR	266,THR
267,ASN	267,ASN
268,GLU	268,GLU
269,LYS	269,LYS
270,ARG	270,ARG
271,THR	271,THR
272,PRO	272,PRO
273,LYS	273,LYS
274,VAL	274,VAL
275,ILE	275,ILE
276,GLN	276,GLN
277,SER	277,SER
278,LEU	278,LEU
279,TYR	279,TYR
280,HIS	280,HIS
281,PRO	281,PRO
282,ASN	282,ASN
283,SER	283,SER
284,LEU	284,LEU
285,HIS	285,HIS
286,ILE	286,ILE
287,ILE	287,ILE
288,THR	288,THR
289,ILE	289,ILE
290,HIS	290,HIS
291,GLU	291,GLU
292,ASP	292,ASP
293,ASN	293,ASN
294,SER	294,SER
295,LEU	295,LEU
296,VAL	296,VAL
297,PHE	297,PHE
298,TRP	298,TRP
299,ASP	299,ASP
300,ALA	300,ALA
301,ASN	301,ASN
302,SER	302,SER
303,GLY	303,GLY
304,HIS	304,HIS
305,MET	305,MET
306,ILE	306,ILE
307,MET	307,MET
308,ALA	308,ALA
309,ARG	309,ARG
310,THR	310,THR
311,VAL	311,VAL
312,PHE	312,PHE
313,GLU	313,GLU
314,THR	314,THR
315,GLU	315,GLU
316,ILE	316,ILE
317,ASN	317,ASN
318,VAL	318,VAL
319,PRO	319,PRO
320,GLN	320,GLN
321,PRO	321,PRO
322,ASP	322,ASP
323,TYR	323,TYR
324,ILE	324,ILE
325,ARG	325,ARG
326,ASP	326,ASP
327,SER	327,SER
328,SER	328,SER
329,THR	329,THR
330,ASN	330,ASN
331,ALA	331,ALA
332,ALA	332,ALA
333,LYS	333,LYS
334,ILE	334,ILE
335,SER	335,SER
336,LYS	336,LYS
337,VAL	337,VAL
338,TYR	338,TYR
339,TRP	339,TRP
340,MET	340,MET
341,CYS	341,CYS
342,GLU	342,GLU
343,ASN	343,ASN
344,ASN	344,ASN
345,PRO	345,PRO
346,GLU	346,GLU
347,TYR	347,TYR
348,THR	348,THR
349,SER	352,ILE
350,LEU	349,SER
351,LEU	350,LEU
352,ILE	351,LEU
353,SER	353,SER
354,HIS	354,HIS
355,LYS	355,LYS
356,SER	356,SER
357,ILE	357,ILE
358,SER	358,SER
359,ARG	359,ARG
360,GLY	360,GLY
361,ASP	361,ASP
362,ASN	362,ASN
363,GLN	363,GLN
364,SER	364,SER
365,LEU	365,LEU
366,THR	366,THR
367,MET	367,MET
368,ILE	368,ILE
369,ASP	369,ASP
370,LEU	370,LEU
371,GLY	371,GLY
372,TYR	372,TYR
373,THR	373,THR
374,PRO	374,PRO
375,ARG	375,ARG
376,TYR	376,TYR
377,SER	377,SER
378,ILE	378,ILE
379,THR	379,THR
380,SER	380,SER
381,TYR	381,TYR
382,GLU	382,GLU
383,GLY	383,GLY
384,MET	384,MET
385,LYS	385,LYS
386,ASN	386,ASN
387,TYR	387,TYR
388,TYR	388,TYR
389,ALA	389,ALA
390,ASN	390,ASN
391,PRO	391,PRO
392,LYS	392,LYS
393,GLN	393,GLN
394,MET	394,MET
395,LYS	395,LYS
396,ILE	396,ILE
397,PHE	397,PHE
398,PRO	398,PRO
399,LEU	399,LEU
400,PRO	400,PRO
401,THR	401,THR
402,ASN	402,ASN
403,VAL	403,VAL
404,PRO	404,PRO
405,ILE	405,ILE
406,VAL	406,VAL
407,ASN	407,ASN
408,ILE	408,ILE
409,LEU	409,LEU
410,PRO	410,PRO
411,ILE	411,ILE
412,PRO	412,PRO
413,ARG	413,ARG
414,GLN	414,GLN
415,SER	415,SER
416,PRO	416,PRO
417,TYR	417,TYR
418,PHE	418,PHE
419,ALA	419,ALA
420,GLY	420,GLY
421,CYS	421,CYS
422,HIS	422,HIS
423,ASN	423,ASN
424,PRO	424,PRO
425,GLY	425,GLY
426,LEU	426,LEU
427,ILE	427,ILE
428,LEU	428,LEU
429,LEU	429,LEU
430,ILE	430,ILE
431,LEU	431,LEU
432,GLY	432,GLY
433,ASN	433,ASN
434,GLY	434,GLY
435,GLU	435,GLU
436,ILE	436,ILE
437,GLU	437,GLU
438,THR	438,THR
439,MET	439,MET
440,LEU	440,LEU
441,TYR	441,TYR
442,PRO	442,PRO
443,SER	443,SER
444,GLY	444,GLY
445,ILE	445,ILE
446,PHE	446,PHE
447,THR	447,THR
448,ASP	448,ASP
449,LYS	449,LYS
450,ALA	450,ALA
451,SER	451,SER
452,LEU	452,LEU
453,PHE	453,PHE
454,PRO	454,PRO
455,GLN	455,GLN
456,ASN	456,ASN
457,LEU	457,LEU
458,SER	458,SER
459,TRP	459,TRP
460,LEU	460,LEU
461,ARG	461,ARG
462,PRO	462,PRO
463,LEU	463,LEU
464,ALA	464,ALA
465,THR	465,THR
466,THR	466,THR
467,SER	467,SER
468,MET	468,MET
469,ALA	469,ALA
470,ALA	470,ALA
471,SER	471,SER
472,VAL	472,VAL
473,PRO	473,PRO
474,ASN	474,ASN
475,LYS	475,LYS
476,LEU	476,LEU
477,TRP	477,TRP
478,LEU	478,LEU
479,GLY	479,GLY
480,ALA	480,ALA
481,LEU	481,LEU
482,SER	482,SER
483,ALA	483,ALA
484,ALA	484,ALA
485,GLN	485,GLN
486,ASN	486,ASN
487,LYS	487,LYS
488,ASP	488,ASP
489,TYR	489,TYR
490,LEU	490,LEU
491,LEU	491,LEU
492,LYS	492,LYS
493,GLY	493,GLY
494,GLY	494,GLY
495,VAL	495,VAL
496,ARG	496,ARG
497,THR	497,THR
498,LYS	498,LYS
499,ARG	499,ARG
500,GLN	500,GLN
501,LYS	501,LYS
502,LEU	502,LEU
503,PRO	503,PRO
504,ALA	504,ALA
505,GLU	505,GLU
506,TYR	506,TYR
507,GLY	507,GLY
508,THR	508,THR
509,ALA	509,ALA
510,PHE	510,PHE
511,ILE	511,ILE
512,THR	512,THR
513,GLY	513,GLY
514,HIS	514,HIS
515,SER	515,SER
516,ASN	516,ASN
517,GLY	517,GLY
518,SER	518,SER
519,VAL	519,VAL
520,ARG	520,ARG
521,ILE	521,ILE
522,TYR	522,TYR
523,ASP	523,ASP
524,ALA	524,ALA
525,SER	525,SER
526,HIS	526,HIS
527,GLY	527,GLY
528,ASP	528,ASP
529,ILE	529,ILE
530,GLN	530,GLN
531,ASP	531,ASP
532,ASN	532,ASN
533,ALA	533,ALA
534,SER	534,SER
535,PHE	535,PHE
536,GLU	536,GLU
537,VAL	537,VAL
538,ASN	538,ASN
539,LEU	539,LEU
540,SER	540,SER
541,ARG	541,ARG
542,THR	542,THR
543,LEU	543,LEU
544,ASN	547,LYS
545,LYS	544,ASN
546,ALA	545,LYS
547,LYS	546,ALA
548,GLU	548,GLU
549,LEU	549,LEU
550,ALA	553,LYS
551,VAL	550,ALA
552,ASP	551,VAL
553,LYS	552,ASP
554,ILE	554,ILE
555,SER	555,SER
556,PHE	556,PHE
557,ALA	557,ALA
558,ALA	558,ALA
559,GLU	562,GLU
560,THR	559,GLU
561,LEU	560,THR
562,GLU	561,LEU
563,LEU	563,LEU
564,ALA	564,ALA
565,VAL	565,VAL
566,SER	566,SER
567,ILE	567,ILE
568,GLU	568,GLU
569,THR	569,THR
570,GLY	570,GLY
571,ASP	571,ASP
572,VAL	572,VAL
573,VAL	573,VAL
574,LEU	574,LEU
575,PHE	575,PHE
576,LYS	576,LYS
577,TYR	577,TYR
578,GLU	578,GLU
579,VAL	579,VAL
580,ASN	580,ASN
581,GLN	581,GLN
582,PHE	582,PHE
583,TYR	583,TYR
584,SER	584,SER
585,VAL	585,VAL
586,GLU	586,GLU
587,ASN	587,ASN
588,ARG	588,ARG
589,PRO	589,PRO
590,GLU	590,GLU
591,SER	591,SER
592,GLY	592,GLY
593,ASP	593,ASP
594,LEU	594,LEU
595,GLU	595,GLU
596,MET	596,MET
597,ASN	597,ASN
598,PHE	598,PHE
599,ARG	599,ARG
600,ARG	600,ARG
601,PHE	601,PHE
602,SER	602,SER
603,LEU	603,LEU
604,ASN	604,ASN
605,ASN	605,ASN
606,THR	606,THR
607,ASN	607,ASN
608,GLY	608,GLY
609,VAL	609,VAL
610,LEU	610,LEU
611,VAL	611,VAL
612,ASP	612,ASP
613,VAL	613,VAL
614,ARG	614,ARG
615,ASP	615,ASP
616,ARG	616,ARG
617,ALA	617,ALA
618,PRO	618,PRO
619,THR	619,THR
620,GLY	620,GLY
621,VAL	621,VAL
622,ARG	622,ARG
623,GLN	623,GLN
624,GLY	624,GLY
625,PHE	625,PHE
626,MET	626,MET
627,PRO	627,PRO
628,SER	628,SER
629,THR	629,THR
630,ALA	630,ALA
631,VAL	631,VAL
632,HIS	632,HIS
633,ALA	633,ALA
634,ASN	634,ASN
635,LYS	635,LYS
636,GLY	636,GLY
637,LYS	637,LYS
638,THR	638,THR
639,SER	639,SER
640,ALA	640,ALA
641,ILE	641,ILE
642,ASN	642,ASN
643,ASN	643,ASN
644,SER	644,SER
645,ASN	645,ASN
646,ILE	646,ILE
647,GLY	647,GLY
648,PHE	648,PHE
649,VAL	649,VAL
650,GLY	650,GLY
651,ILE	651,ILE
652,ALA	652,ALA
653,TYR	653,TYR
654,ALA	654,ALA
655,ALA	655,ALA
656,GLY	656,GLY
657,SER	657,SER
658,LEU	658,LEU
659,MET	659,MET
660,LEU	660,LEU
661,ILE	661,ILE
662,ASP	662,ASP
663,ARG	663,ARG
664,ARG	664,ARG
665,GLY	665,GLY
666,PRO	666,PRO
667,ALA	667,ALA
668,ILE	668,ILE
669,ILE	669,ILE
670,TYR	670,TYR
671,MET	671,MET
672,GLU	672,GLU
673,ASN	673,ASN
674,ILE	674,ILE
675,ARG	675,ARG
676,GLU	676,GLU
677,ILE	677,ILE
678,SER	678,SER
679,GLY	679,GLY
680,ALA	680,ALA
681,GLN	681,GLN
682,SER	682,SER
683,ALA	683,ALA
684,CYS	684,CYS
685,VAL	685,VAL
686,THR	686,THR
687,CYS	687,CYS
688,ILE	688,ILE
689,GLU	689,GLU
690,PHE	690,PHE
691,VAL	691,VAL
692,ILE	692,ILE
693,MET	693,MET
694,GLU	694,GLU
695,TYR	695,TYR
696,GLY	696,GLY
697,ASP	697,ASP
698,ASP	698,ASP
699,GLY	699,GLY
700,TYR	700,TYR
701,SER	701,SER
702,SER	702,SER
703,ILE	703,ILE
704,LEU	704,LEU
705,MET	705,MET
706,VAL	706,VAL
707,CYS	707,CYS
708,GLY	708,GLY
709,THR	709,THR
710,ASP	710,ASP
711,MET	711,MET
712,GLY	712,GLY
713,GLU	713,GLU
714,VAL	714,VAL
715,ILE	715,ILE
716,THR	716,THR
717,TYR	717,TYR
718,LYS	718,LYS
719,ILE	719,ILE
720,LEU	720,LEU
721,PRO	721,PRO
722,ALA	722,ALA
723,SER	723,SER
724,GLY	724,GLY
725,GLY	725,GLY
726,LYS	726,LYS
727,PHE	727,PHE
728,ASP	728,ASP
729,VAL	729,VAL
730,GLN	730,GLN
731,LEU	731,LEU
732,MET	732,MET
733,ASP	733,ASP
734,ILE	734,ILE
735,THR	735,THR
736,ASN	736,ASN
737,VAL	737,VAL
738,THR	738,THR
739,SER	739,SER
740,LYS	740,LYS
741,GLY	741,GLY
742,PRO	742,PRO
743,ILE	743,ILE
744,HIS	744,HIS
745,LYS	745,LYS
746,ILE	746,ILE
747,ASP	747,ASP
748,ALA	748,ALA
749,PHE	749,PHE
750,SER	750,SER
751,LYS	751,LYS
752,GLU	752,GLU
753,THR	753,THR
754,LYS	754,LYS
755,SER	755,SER
756,SER	756,SER
757,CYS	757,CYS
758,LEU	758,LEU
759,ALA	759,ALA
760,THR	760,THR
761,ILE	761,ILE
762,PRO	762,PRO
763,LYS	763,LYS
764,MET	764,MET
765,GLN	765,GLN
766,ASN	766,ASN
767,LEU	770,GLY
768,SER	767,LEU
769,LYS	768,SER
770,GLY	769,LYS
771,LEU	771,LEU
772,CYS	772,CYS
773,ILE	773,ILE
774,PRO	774,PRO
775,GLY	775,GLY
776,ILE	776,ILE
777,VAL	777,VAL
778,LEU	778,LEU
779,ILE	779,ILE
780,THR	780,THR
781,GLY	781,GLY
782,PHE	782,PHE
783,ASP	783,ASP
784,ASP	784,ASP
785,ILE	785,ILE
786,ARG	786,ARG
787,LEU	787,LEU
788,ILE	788,ILE
789,THR	792,LYS
790,LEU	789,THR
791,GLY	790,LEU
792,LYS	791,GLY
793,SER	793,SER
794,LYS	794,LYS
795,SER	795,SER
796,THR	796,THR
797,HIS	797,HIS
798,LYS	798,LYS
799,GLY	799,GLY
800,PHE	800,PHE
801,LYS	801,LYS
802,TYR	802,TYR
803,PRO	803,PRO
804,LEU	804,LEU
805,ALA	805,ALA
806,ALA	806,ALA
807,THR	807,THR
808,GLY	808,GLY
809,LEU	809,LEU
810,SER	810,SER
811,TYR	811,TYR
812,ILE	812,ILE
813,SER	813,SER
814,THR	814,THR
815,VAL	815,VAL
816,GLU	816,GLU
817,LYS	817,LYS
818,ASN	818,ASN
819,ASN	819,ASN
820,ASP	820,ASP
821,ARG	821,ARG
822,LYS	822,LYS
823,ASN	823,ASN
824,LEU	824,LEU
825,THR	825,THR
826,VAL	826,VAL
827,ILE	827,ILE
828,ILE	828,ILE
829,THR	829,THR
830,LEU	830,LEU
831,GLU	831,GLU
832,ILE	832,ILE
833,ASN	833,ASN
834,GLY	834,GLY
835,HIS	835,HIS
836,LEU	836,LEU
837,ARG	837,ARG
838,VAL	838,VAL
839,PHE	839,PHE
840,THR	840,THR
841,ILE	841,ILE
842,PRO	842,PRO
843,ASP	843,ASP
844,PHE	844,PHE
845,LYS	845,LYS
846,GLU	846,GLU
847,GLN	847,GLN
848,MET	848,MET
849,SER	849,SER
850,GLU	850,GLU
851,HIS	851,HIS
852,ILE	852,ILE
853,PRO	853,PRO
854,PHE	854,PHE
855,PRO	855,PRO
856,ILE	856,ILE
857,ALA	857,ALA
858,ALA	858,ALA
859,LYS	859,LYS
860,TYR	860,TYR
861,ILE	861,ILE
862,THR	862,THR
863,GLU	863,GLU
864,SER	864,SER
865,SER	865,SER
866,VAL	866,VAL
867,LEU	867,LEU
868,ARG	868,ARG
869,ASN	869,ASN
870,GLY	870,GLY
871,ASP	871,ASP
872,ILE	872,ILE
873,ALA	873,ALA
874,ILE	874,ILE
875,ARG	875,ARG
876,VAL	876,VAL
877,SER	877,SER
878,GLU	878,GLU
879,PHE	879,PHE
880,GLN	880,GLN
881,ALA	881,ALA
882,SER	882,SER
883,LEU	883,LEU
884,PHE	884,PHE
885,SER	885,SER
886,THR	886,THR
887,VAL	887,VAL
888,LYS	888,LYS
889,GLU	889,GLU
890,GLN	890,GLN
891,ASP	891,ASP
892,THR	892,THR
893,LEU	893,LEU
894,ALA	894,ALA
895,PRO	895,PRO
896,VAL	896,VAL
897,SER	897,SER
898,ASP	898,ASP
899,THR	899,THR
900,LEU	900,LEU
901,TYR	901,TYR
902,ILE	902,ILE
903,ASN	903,ASN
904,GLY	904,GLY
905,ILE	905,ILE
906,ARG	906,ARG
907,ILE	907,ILE
908,PRO	908,PRO
909,TYR	909,TYR
910,ARG	910,ARG
911,PRO	911,PRO
912,GLN	912,GLN
913,VAL	913,VAL
914,ASN	914,ASN
915,SER	915,SER
916,LEU	916,LEU
917,GLN	917,GLN
918,TRP	918,TRP
919,ALA	919,ALA
920,ARG	920,ARG
921,GLY	921,GLY
922,THR	922,THR
923,VAL	923,VAL
924,TYR	924,TYR
925,CYS	925,CYS
926,THR	926,THR
927,PRO	927,PRO
928,ALA	928,ALA
929,GLN	929,GLN
930,LEU	930,LEU
931,ASN	931,ASN
932,GLU	932,GLU
933,LEU	933,LEU
934,LEU	934,LEU
935,GLY	935,GLY
936,GLY	936,GLY
937,VAL	937,VAL
938,ASN	938,ASN
939,ARG	939,ARG
940,PRO	940,PRO
941,ALA	941,ALA
942,SER	942,SER
943,LYS	943,LYS
944,TYR	944,TYR
945,LYS	945,LYS
946,GLU	946,GLU
947,SER	947,SER
948,ILE	948,ILE
949,ILE	949,ILE
950,ALA	950,ALA
951,GLU	951,GLU
952,GLY	952,GLY
953,SER	953,SER
954,PHE	954,PHE
955,SER	955,SER
956,GLU	956,GLU
957,ARG	957,ARG
958,SER	958,SER
959,SER	959,SER
960,ASP	960,ASP
961,ASP	961,ASP
962,ASN	962,ASN
963,ASN	-
964,ALA	-
965,ASN	-
966,HIS	-
967,PRO	-
968,GLU	-
969,HIS	-
970,GLN	-
971,TYR	-
972,THR	-
973,LYS	-
974,PRO	-
975,THR	-
976,ARG	-
977,LYS	-
978,GLY	-
979,ARG	-
980,ASN	-
981,SER	-
982,SER	-
983,TYR	-
984,GLY	-
985,VAL	-
986,LEU	-
987,ARG	-
988,ASN	-
989,VAL	-
990,SER	-
991,ARG	-
992,ALA	-
993,VAL	-
994,GLU	-
995,THR	-
996,ARG	-
997,TRP	-
998,ASP	-
999,ALA	-
1000,VAL	-
1001,GLU	-
1002,ASP	-
1003,ARG	-
1004,PHE	-
1005,ASN	-
1006,ASP	-
1007,TYR	-
1008,ALA	-
1009,THR	-
1010,ALA	-
1011,MET	-
1012,GLY	-
1013,GLU	-
1014,THR	-
1015,MET	-
1016,ASN	-
1017,GLU	-
1018,ALA	-
1019,VAL	-
1020,GLU	-
1021,GLN	-
1022,THR	-
1023,GLY	-
1024,LYS	-
1025,ASP	-
1026,VAL	-
1027,MET	-
1028,LYS	-
1029,GLY	-
1030,ALA	-
1031,LEU	-
1032,GLY	-
1033,PHE	-
