uniprot_isoform	location_id	ENSEMBL ID	uniprot_start	uniprot_end	2nc9A_start	2nc9A_end	3fwvA_start	3fwvA_end	3fwvB_start	3fwvB_end	2lniA_start	2lniA_end	1elwA_start	1elwA_end	1elwB_start	1elwB_end	3eskA_start	3eskA_end	1elrA_start	1elrA_end
1	11_64186262_64204123_1	ENSE00001303761	1	3	-	-	-	-	-	-	-	-	1	3	1	3	-	-	-	-
1	11_64186262_64204123_1	ENSE00003558482	4	73	-	-	-	-	-	-	-	-	4	73	4	73	-	-	-	-
1	11_64186262_64204123_1	ENSE00003497506	74	121	-	-	-	-	-	-	-	-	74	-	74	-	-	-	-	-
1	11_64186262_64204123_1	ENSE00003684816	121	168	-	-	-	-	-	-	-	-	-	-	-	-	-	-	-	-
1	11_64186262_64204123_1	ENSE00001196227	168	224	-	13	-	224	-	224	-	-	-	-	-	-	-	224	-	224
1	11_64186262_64204123_1	ENSE00003686910	225	267	14	56	225	267	225	266	-	-	-	-	-	-	225	267	225	267
1	11_64186262_64204123_1	ENSE00003543299	267	301	56	90	267	301	266	301	-	-	-	-	-	-	267	301	267	301
1	11_64186262_64204123_1	ENSE00003530378	301	341	90	130	301	341	301	341	-	-	-	-	-	-	301	341	301	341
1	11_64186262_64204123_1	ENSE00003617784	342	374	131	-	342	-	342	-	-	30	-	-	-	-	342	-	342	-
1	11_64186262_64204123_1	ENSE00001317889	374	415	-	-	-	-	-	-	30	71	-	-	-	-	-	-	-	-
1	11_64186262_64204123_1	ENSE00001169747	416	428	-	-	-	-	-	-	72	84	-	-	-	-	-	-	-	-
1	11_64186262_64204123_1	ENSE00001169731	428	462	-	-	-	-	-	-	84	118	-	-	-	-	-	-	-	-
1	11_64186262_64204123_1	ENSE00001169722	463	520	-	-	-	-	-	-	119	-	-	-	-	-	-	-	-	-
1	11_64186262_64204123_1	ENSE00002207017	520	543	-	-	-	-	-	-	-	-	-	-	-	-	-	-	-	-
