uniprot_isoform	location_id	ENSEMBL ID	uniprot_start	uniprot_end	1egjA_start	1egjA_end	4nkqA_start	4nkqA_end	5dwuA_start	5dwuA_end	5dwuB_start	5dwuB_end	2na9A_start	2na9A_end	2na8A_start	2na8A_end	2gysA_start	2gysA_end	2gysA.1_start	2gysA.1_end	2gysB_start	2gysB_end	2gysB.1_start	2gysB.1_end	1c8pA_start	1c8pA_end	1gh7A_start	1gh7A_end	1gh7B_start	1gh7B_end	1gh7B.1_start	1gh7B.1_end	1gh7A.1_start	1gh7A.1_end
1	22_36922208_36938499_1	ENSE00001547917	1	26	-	-	-	26	-	26	-	-	-	-	-	-	-	2	-	2	-	2	-	2	-	-	-	2	-	2	-	2	-	2
1	22_36922208_36938499_1	ENSE00003651733	26	67	-	-	26	67	26	67	-	-	-	-	-	-	2	43	2	43	2	43	2	43	-	-	2	43	2	43	2	43	2	43
1	22_36922208_36938499_1	ENSE00003602454	67	131	-	-	67	131	67	131	-	-	-	-	-	-	43	107	43	107	43	107	43	107	-	-	43	107	43	107	43	107	43	107
1	22_36922208_36938499_1	ENSE00000653699	131	183	-	-	131	183	131	183	-	-	-	-	-	-	107	159	107	159	107	159	107	159	-	-	107	159	107	159	107	159	107	159
1	22_36922208_36938499_1	ENSE00000653700	184	240	-	-	184	240	184	240	-	-	-	-	-	-	160	216	160	216	160	216	160	216	-	-	160	216	160	216	160	216	160	216
1	22_36922208_36938499_1	ENSE00000653701	240	285	-	-	240	285	240	-	-	285	-	-	-	-	216	261	216	261	216	261	216	261	-	-	216	261	216	261	216	261	216	261
1	22_36922208_36938499_1	ENSE00000653702	285	338	-	338	285	338	-	-	285	338	-	-	-	-	261	320	261	320	261	320	261	320	-	2	261	320	261	320	261	320	261	320
1	22_36922208_36938499_1	ENSE00000653703	338	384	338	384	338	384	-	-	338	384	-	-	-	-	320	366	320	366	320	366	320	366	2	48	320	366	320	366	320	366	320	366
1	22_36922208_36938499_1	ENSE00000653704	385	439	385	-	385	-	-	-	385	439	-	438	-	438	367	-	367	-	367	-	367	-	49	-	367	-	367	-	367	-	367	-
1	22_36922208_36938499_1	ENSE00000880095	439	469	-	-	-	-	-	-	439	-	438	468	438	468	-	-	-	-	-	-	-	-	-	-	-	-	-	-	-	-	-	-
1	22_36922208_36938499_1	ENSE00000653707	469	488	-	-	-	-	-	-	-	-	468	-	468	-	-	-	-	-	-	-	-	-	-	-	-	-	-	-	-	-	-	-
1	22_36922208_36938499_1	ENSE00000653708	489	523	-	-	-	-	-	-	-	-	-	-	-	-	-	-	-	-	-	-	-	-	-	-	-	-	-	-	-	-	-	-
1	22_36922208_36938499_1	ENSE00001827597	523	897	-	-	-	-	-	-	-	-	-	-	-	-	-	-	-	-	-	-	-	-	-	-	-	-	-	-	-	-	-	-
