uniprot_isoform	location_id	ENSEMBL ID	uniprot_start	uniprot_end	1xksA_start	1xksA_end	3cqcB_start	3cqcB_end	3i4rB_start	3i4rB_end	3cqgB_start	3cqgB_end
1	1_229508249_229441907_-1	ENSE00001263815	1	61	-	-	-	-	-	-	-	-
1	1_229508249_229441907_-1	ENSE00003755291	61	101	-	101	-	-	-	-	-	-
1	1_229508249_229441907_-1	ENSE00003756624	101	135	101	135	-	-	-	-	-	-
1	1_229508249_229441907_-1	ENSE00003759814	136	171	136	171	-	-	-	-	-	-
1	1_229508249_229441907_-1	ENSE00003756149	172	216	172	216	-	-	-	-	-	-
1	1_229508249_229441907_-1	ENSE00001069978	217	273	217	273	-	-	-	-	-	-
1	1_229508249_229441907_-1	ENSE00001069994	274	325	274	325	-	-	-	-	-	-
1	1_229508249_229441907_-1	ENSE00001069984	326	349	326	349	-	-	-	-	-	-
1	1_229508249_229441907_-1	ENSE00001069987	349	398	349	398	-	-	-	-	-	-
1	1_229508249_229441907_-1	ENSE00001015850	399	448	399	448	-	-	-	-	-	-
1	1_229508249_229441907_-1	ENSE00001015859	448	500	448	500	-	-	-	-	-	-
1	1_229508249_229441907_-1	ENSE00000961359	501	531	501	-	-	-	-	531	-	-
1	1_229508249_229441907_-1	ENSE00000594035	531	586	-	-	-	-	531	586	-	-
1	1_229508249_229441907_-1	ENSE00000793031	586	617	-	-	-	-	586	617	-	-
1	1_229508249_229441907_-1	ENSE00000793030	618	692	-	-	-	-	618	692	-	-
1	1_229508249_229441907_-1	ENSE00000961360	693	733	-	-	-	-	693	733	-	-
1	1_229508249_229441907_-1	ENSE00000594038	734	767	-	-	-	-	734	767	-	-
1	1_229508249_229441907_-1	ENSE00001015853	767	851	-	-	-	-	767	851	-	-
1	1_229508249_229441907_-1	ENSE00000961361	851	895	-	-	-	-	851	895	-	-
1	1_229508249_229441907_-1	ENSE00000961362	896	948	-	-	-	948	896	951	-	948
1	1_229508249_229441907_-1	ENSE00000961363	949	994	-	-	949	994	948	994	949	994
1	1_229508249_229441907_-1	ENSE00000961364	994	1033	-	-	994	1033	994	1033	994	1033
1	1_229508249_229441907_-1	ENSE00000961365	1034	1060	-	-	1034	1060	1034	1060	1034	1060
1	1_229508249_229441907_-1	ENSE00003676573	1061	1082	-	-	1061	1082	1061	1082	1061	1082
1	1_229508249_229441907_-1	ENSE00003619523	1082	1112	-	-	1082	1112	1082	1112	1082	1112
1	1_229508249_229441907_-1	ENSE00001879885	1112	1156	-	-	1112	1156	1112	1156	1112	1156
