P62965	1cbrA	1cbrB	1cbiA	1cbiB
1,MET	-	-	-	-
2,PRO	1,PRO	1,PRO	1,PRO	1,PRO
3,ASN	2,ASN	2,ASN	2,ASN	2,ASN
4,PHE	3,PHE	3,PHE	3,PHE	3,PHE
5,ALA	4,ALA	4,ALA	4,ALA	4,ALA
6,GLY	5,GLY	5,GLY	5,GLY	5,GLY
7,THR	6,THR	6,THR	6,THR	6,THR
8,TRP	7,TRP	7,TRP	7,TRP	7,TRP
9,LYS	8,LYS	8,LYS	8,LYS	8,LYS
10,MET	9,MET	9,MET	9,MET	9,MET
11,ARG	10,ARG	10,ARG	10,ARG	10,ARG
12,SER	11,SER	11,SER	11,SER	11,SER
13,SER	12,SER	12,SER	12,SER	12,SER
14,GLU	13,GLU	13,GLU	13,GLU	13,GLU
15,ASN	14,ASN	14,ASN	14,ASN	14,ASN
16,PHE	15,PHE	15,PHE	15,PHE	15,PHE
17,ASP	16,ASP	16,ASP	16,ASP	16,ASP
18,GLU	17,GLU	17,GLU	17,GLU	17,GLU
19,LEU	18,LEU	18,LEU	18,LEU	18,LEU
20,LEU	19,LEU	19,LEU	19,LEU	19,LEU
21,LYS	20,LYS	20,LYS	20,LYS	20,LYS
22,ALA	21,ALA	21,ALA	21,ALA	21,ALA
23,LEU	22,LEU	22,LEU	22,LEU	22,LEU
24,GLY	23,GLY	23,GLY	23,GLY	23,GLY
25,VAL	24,VAL	24,VAL	24,VAL	24,VAL
26,ASN	25,ASN	25,ASN	25,ASN	25,ASN
27,ALA	26,ALA	26,ALA	26,ALA	26,ALA
28,MET	27,MET	27,MET	27,MET	27,MET
29,LEU	28,LEU	28,LEU	28,LEU	28,LEU
30,ARG	29,ARG	29,ARG	29,ARG	29,ARG
31,LYS	30,LYS	30,LYS	30,LYS	30,LYS
32,VAL	31,VAL	31,VAL	31,VAL	31,VAL
33,ALA	32,ALA	32,ALA	32,ALA	32,ALA
34,VAL	33,VAL	33,VAL	33,VAL	33,VAL
35,ALA	34,ALA	34,ALA	34,ALA	34,ALA
36,ALA	35,ALA	35,ALA	35,ALA	35,ALA
37,ALA	36,ALA	36,ALA	36,ALA	36,ALA
38,SER	37,SER	37,SER	37,SER	37,SER
39,LYS	38,LYS	38,LYS	38,LYS	38,LYS
40,PRO	39,PRO	39,PRO	39,PRO	39,PRO
41,HIS	40,HIS	40,HIS	40,HIS	40,HIS
42,VAL	41,VAL	41,VAL	41,VAL	41,VAL
43,GLU	42,GLU	42,GLU	42,GLU	42,GLU
44,ILE	43,ILE	43,ILE	43,ILE	43,ILE
45,ARG	44,ARG	44,ARG	44,ARG	44,ARG
46,GLN	45,GLN	45,GLN	45,GLN	45,GLN
47,ASP	46,ASP	46,ASP	46,ASP	46,ASP
48,GLY	47,GLY	47,GLY	47,GLY	47,GLY
49,ASP	48,ASP	48,ASP	48,ASP	48,ASP
50,GLN	49,GLN	49,GLN	49,GLN	49,GLN
51,PHE	50,PHE	50,PHE	50,PHE	50,PHE
52,TYR	51,TYR	51,TYR	51,TYR	51,TYR
53,ILE	52,ILE	52,ILE	52,ILE	52,ILE
54,LYS	53,LYS	53,LYS	53,LYS	53,LYS
55,THR	54,THR	54,THR	54,THR	54,THR
56,SER	55,SER	55,SER	55,SER	55,SER
57,THR	56,THR	56,THR	56,THR	56,THR
58,THR	57,THR	57,THR	57,THR	57,THR
59,VAL	58,VAL	58,VAL	58,VAL	58,VAL
60,ARG	59,ARG	59,ARG	59,ARG	59,ARG
61,THR	60,THR	60,THR	60,THR	60,THR
62,THR	61,THR	61,THR	61,THR	61,THR
63,GLU	62,GLU	62,GLU	62,GLU	62,GLU
64,ILE	63,ILE	63,ILE	63,ILE	63,ILE
65,ASN	64,ASN	64,ASN	64,ASN	64,ASN
66,PHE	65,PHE	65,PHE	65,PHE	65,PHE
67,LYS	66,LYS	66,LYS	66,LYS	66,LYS
68,VAL	67,VAL	67,VAL	67,VAL	67,VAL
69,GLY	68,GLY	68,GLY	68,GLY	68,GLY
70,GLU	69,GLU	69,GLU	69,GLU	69,GLU
71,GLY	70,GLY	70,GLY	70,GLY	70,GLY
72,PHE	71,PHE	71,PHE	71,PHE	71,PHE
73,GLU	72,GLU	72,GLU	72,GLU	72,GLU
74,GLU	73,GLU	73,GLU	73,GLU	73,GLU
75,GLU	74,GLU	74,GLU	74,GLU	74,GLU
76,THR	75,THR	75,THR	75,THR	75,THR
77,VAL	76,VAL	76,VAL	76,VAL	76,VAL
78,ASP	77,ASP	77,ASP	77,ASP	77,ASP
79,GLY	78,GLY	78,GLY	78,GLY	78,GLY
80,ARG	79,ARG	79,ARG	79,ARG	79,ARG
81,LYS	80,LYS	80,LYS	80,LYS	80,LYS
82,CYS	81,CYS	81,CYS	81,CYS	81,CYS
83,ARG	82,ARG	82,ARG	82,ARG	82,ARG
84,SER	83,SER	83,SER	83,SER	83,SER
85,LEU	84,LEU	84,LEU	84,LEU	84,LEU
86,PRO	85,PRO	85,PRO	85,PRO	85,PRO
87,THR	86,THR	86,THR	86,THR	86,THR
88,TRP	87,TRP	87,TRP	87,TRP	87,TRP
89,GLU	88,GLU	88,GLU	88,GLU	88,GLU
90,ASN	89,ASN	89,ASN	89,ASN	89,ASN
91,GLU	90,GLU	90,GLU	90,GLU	90,GLU
92,ASN	91,ASN	91,ASN	91,ASN	91,ASN
93,LYS	92,LYS	92,LYS	92,LYS	92,LYS
94,ILE	93,ILE	93,ILE	93,ILE	93,ILE
95,HIS	94,HIS	94,HIS	94,HIS	94,HIS
96,CYS	95,CYS	95,CYS	95,CYS	95,CYS
97,THR	96,THR	96,THR	96,THR	96,THR
98,GLN	97,GLN	97,GLN	97,GLN	97,GLN
99,THR	98,THR	98,THR	98,THR	98,THR
100,LEU	99,LEU	99,LEU	99,LEU	99,LEU
101,LEU	100,LEU	103,ASP	100,LEU	100,LEU
102,GLU	101,GLU	100,LEU	101,GLU	101,GLU
103,GLY	102,GLY	101,GLU	102,GLY	102,GLY
104,ASP	103,ASP	102,GLY	103,ASP	103,ASP
105,GLY	104,GLY	104,GLY	104,GLY	104,GLY
106,PRO	105,PRO	105,PRO	105,PRO	105,PRO
107,LYS	106,LYS	106,LYS	106,LYS	106,LYS
108,THR	107,THR	107,THR	107,THR	107,THR
109,TYR	108,TYR	108,TYR	108,TYR	108,TYR
110,TRP	109,TRP	109,TRP	109,TRP	109,TRP
111,THR	110,THR	110,THR	110,THR	110,THR
112,ARG	111,ARG	111,ARG	111,ARG	111,ARG
113,GLU	112,GLU	112,GLU	112,GLU	112,GLU
114,LEU	113,LEU	113,LEU	113,LEU	113,LEU
115,ALA	114,ALA	114,ALA	114,ALA	114,ALA
116,ASN	115,ASN	115,ASN	115,ASN	115,ASN
117,ASP	116,ASP	116,ASP	116,ASP	116,ASP
118,GLU	117,GLU	117,GLU	117,GLU	117,GLU
119,LEU	118,LEU	118,LEU	118,LEU	118,LEU
120,ILE	122,PHE	119,ILE	119,ILE	119,ILE
121,LEU	119,ILE	120,LEU	120,LEU	120,LEU
122,THR	120,LEU	121,THR	121,THR	121,THR
123,PHE	121,THR	122,PHE	122,PHE	122,PHE
124,GLY	123,GLY	123,GLY	123,GLY	123,GLY
125,ALA	124,ALA	124,ALA	124,ALA	124,ALA
126,ASP	125,ASP	125,ASP	125,ASP	125,ASP
127,ASP	126,ASP	126,ASP	126,ASP	126,ASP
128,VAL	127,VAL	127,VAL	127,VAL	127,VAL
129,VAL	128,VAL	128,VAL	128,VAL	128,VAL
130,CYS	129,CYS	129,CYS	129,CYS	129,CYS
131,THR	130,THR	130,THR	130,THR	130,THR
132,ARG	131,ARG	131,ARG	131,ARG	131,ARG
133,ILE	132,ILE	132,ILE	132,ILE	132,ILE
134,TYR	133,TYR	133,TYR	133,TYR	133,TYR
135,VAL	134,VAL	134,VAL	134,VAL	134,VAL
136,ARG	135,ARG	135,ARG	135,ARG	135,ARG
137,GLU	136,GLU	136,GLU	136,GLU	136,GLU
