Q96E29	3m66A
1,MET	-
2,ALA	-
3,LEU	-
4,SER	-
5,ALA	-
6,GLN	-
7,GLN	-
8,ILE	-
9,PRO	-
10,ARG	-
11,TRP	-
12,PHE	-
13,ASN	-
14,SER	-
15,VAL	-
16,LYS	-
17,LEU	-
18,ARG	-
19,SER	-
20,LEU	-
21,ILE	-
22,ASN	-
23,ALA	-
24,ALA	-
25,GLN	-
26,LEU	-
27,THR	-
28,LYS	-
29,ARG	-
30,PHE	-
31,THR	-
32,ARG	-
33,PRO	-
34,ALA	-
35,ARG	-
36,THR	-
37,LEU	-
38,LEU	-
39,HIS	-
40,GLY	-
41,PHE	-
42,SER	-
43,ALA	-
44,GLN	-
45,PRO	-
46,GLN	-
47,ILE	-
48,SER	-
49,SER	-
50,ASP	-
51,ASN	-
52,CYS	-
53,PHE	-
54,LEU	-
55,GLN	-
56,TRP	-
57,GLY	-
58,PHE	-
59,LYS	-
60,THR	-
61,TYR	-
62,ARG	-
63,THR	-
64,SER	-
65,SER	-
66,LEU	-
67,TRP	-
68,ASN	-
69,SER	-
70,SER	-
71,GLN	-
72,SER	-
73,THR	-
74,SER	-
75,SER	-
76,SER	-
77,SER	-
78,GLN	-
79,GLU	-
80,ASN	-
81,ASN	-
82,SER	-
83,ALA	-
84,GLN	-
85,SER	-
86,SER	-
87,LEU	-
88,LEU	-
89,PRO	-
90,SER	-
91,MET	-
92,ASN	-
93,GLU	-
94,GLN	-
95,SER	-
96,GLN	-
97,LYS	-
98,THR	-
99,GLN	-
100,ASN	-
101,ILE	-
102,SER	-
103,SER	-
104,PHE	-
105,ASP	-
106,SER	-
107,GLU	-
108,LEU	-
109,PHE	-
110,LEU	-
111,GLU	-
112,GLU	-
113,LEU	-
114,ASP	-
115,GLU	-
116,LEU	-
117,PRO	-
118,PRO	-
119,LEU	-
120,SER	-
121,PRO	-
122,MET	-
123,GLN	-
124,PRO	-
125,ILE	-
126,SER	-
127,GLU	-
128,GLU	-
129,GLU	-
130,ALA	-
131,ILE	-
132,GLN	-
133,ILE	-
134,ILE	-
135,ALA	-
136,ASP	-
137,PRO	-
138,PRO	-
139,LEU	-
140,PRO	-
141,PRO	-
142,ALA	-
143,SER	-
144,PHE	-
145,THR	-
146,LEU	-
147,ARG	-
148,ASP	148,ASP
149,TYR	149,TYR
150,VAL	150,VAL
151,ASP	151,ASP
152,HIS	152,HIS
153,SER	153,SER
154,GLU	154,GLU
155,THR	155,THR
156,LEU	156,LEU
157,GLN	157,GLN
158,LYS	158,LYS
159,LEU	159,LEU
160,VAL	160,VAL
161,LEU	161,LEU
162,LEU	162,LEU
163,GLY	163,GLY
164,VAL	164,VAL
165,ASP	165,ASP
166,LEU	166,LEU
167,SER	167,SER
168,LYS	168,LYS
169,ILE	169,ILE
170,GLU	170,GLU
171,LYS	171,LYS
172,HIS	172,HIS
173,PRO	173,PRO
174,GLU	174,GLU
175,ALA	175,ALA
176,ALA	176,ALA
177,ASN	177,ASN
178,LEU	178,LEU
179,LEU	179,LEU
180,LEU	180,LEU
181,ARG	181,ARG
182,LEU	182,LEU
183,ASP	183,ASP
184,PHE	184,PHE
185,GLU	185,GLU
186,LYS	186,LYS
187,ASP	187,ASP
188,ILE	188,ILE
189,LYS	189,LYS
190,GLN	190,GLN
191,MET	191,MET
192,LEU	192,LEU
193,LEU	193,LEU
194,PHE	194,PHE
195,LEU	195,LEU
196,LYS	196,LYS
197,ASP	197,ASP
198,VAL	198,VAL
199,GLY	199,GLY
200,ILE	200,ILE
201,GLU	201,GLU
202,ASP	202,ASP
203,ASN	203,ASN
204,GLN	204,GLN
205,LEU	205,LEU
206,GLY	206,GLY
207,ALA	207,ALA
208,PHE	208,PHE
209,LEU	209,LEU
210,THR	210,THR
211,LYS	211,LYS
212,ASN	212,ASN
213,HIS	213,HIS
214,ALA	214,ALA
215,ILE	215,ILE
216,PHE	216,PHE
217,SER	217,SER
218,GLU	218,GLU
219,ASP	219,ASP
220,LEU	220,LEU
221,GLU	221,GLU
222,ASN	222,ASN
223,LEU	223,LEU
224,LYS	224,LYS
225,THR	225,THR
226,ARG	226,ARG
227,VAL	227,VAL
228,ALA	228,ALA
229,TYR	229,TYR
230,LEU	230,LEU
231,HIS	231,HIS
232,SER	232,SER
233,LYS	233,LYS
234,ASN	234,ASN
235,PHE	235,PHE
236,SER	236,SER
237,LYS	237,LYS
238,ALA	238,ALA
239,ASP	239,ASP
240,VAL	240,VAL
241,ALA	241,ALA
242,GLN	242,GLN
243,MET	243,MET
244,VAL	244,VAL
245,ARG	245,ARG
246,LYS	246,LYS
247,ALA	247,ALA
248,PRO	248,PRO
249,PHE	249,PHE
250,LEU	250,LEU
251,LEU	251,LEU
252,ASN	252,ASN
253,PHE	253,PHE
254,SER	254,SER
255,VAL	255,VAL
256,GLU	256,GLU
257,ARG	257,ARG
258,LEU	258,LEU
259,ASP	259,ASP
260,ASN	260,ASN
261,ARG	261,ARG
262,LEU	262,LEU
263,GLY	263,GLY
264,PHE	264,PHE
265,PHE	265,PHE
266,GLN	266,GLN
267,LYS	267,LYS
268,GLU	268,GLU
269,LEU	269,LEU
270,GLU	270,GLU
271,LEU	271,LEU
272,SER	272,SER
273,VAL	273,VAL
274,LYS	274,LYS
275,LYS	275,LYS
276,THR	276,THR
277,ARG	277,ARG
278,ASP	278,ASP
279,LEU	279,LEU
280,VAL	280,VAL
281,VAL	281,VAL
282,ARG	282,ARG
283,LEU	283,LEU
284,PRO	284,PRO
285,ARG	285,ARG
286,LEU	286,LEU
287,LEU	287,LEU
288,THR	288,THR
289,GLY	289,GLY
290,SER	290,SER
291,LEU	291,LEU
292,GLU	292,GLU
293,PRO	293,PRO
294,VAL	294,VAL
295,LYS	295,LYS
296,GLU	296,GLU
297,ASN	297,ASN
298,MET	298,MET
299,LYS	299,LYS
300,VAL	300,VAL
301,TYR	301,TYR
302,ARG	302,ARG
303,LEU	303,LEU
304,GLU	304,GLU
305,LEU	305,LEU
306,GLY	306,GLY
307,PHE	307,PHE
308,LYS	308,LYS
309,HIS	309,HIS
310,ASN	310,ASN
311,GLU	311,GLU
312,ILE	312,ILE
313,GLN	313,GLN
314,HIS	314,HIS
315,MET	315,MET
316,ILE	316,ILE
317,THR	317,THR
318,ARG	318,ARG
319,ILE	319,ILE
320,PRO	320,PRO
321,LYS	321,LYS
322,MET	322,MET
323,LEU	323,LEU
324,THR	324,THR
325,ALA	325,ALA
326,ASN	326,ASN
327,LYS	327,LYS
328,MET	328,MET
329,LYS	329,LYS
330,LEU	330,LEU
331,THR	331,THR
332,GLU	332,GLU
333,THR	333,THR
334,PHE	334,PHE
335,ASP	335,ASP
336,PHE	336,PHE
337,VAL	337,VAL
338,HIS	338,HIS
339,ASN	339,ASN
340,VAL	340,VAL
341,MET	341,MET
342,SER	342,SER
343,ILE	343,ILE
344,PRO	344,PRO
345,HIS	345,HIS
346,HIS	346,HIS
347,ILE	347,ILE
348,ILE	348,ILE
349,VAL	349,VAL
350,LYS	350,LYS
351,PHE	351,PHE
352,PRO	352,PRO
353,GLN	353,GLN
354,VAL	354,VAL
355,PHE	355,PHE
356,ASN	356,ASN
357,THR	357,THR
358,ARG	358,ARG
359,LEU	359,LEU
360,PHE	360,PHE
361,LYS	361,LYS
362,VAL	362,VAL
363,LYS	363,LYS
364,GLU	364,GLU
365,ARG	365,ARG
366,HIS	366,HIS
367,LEU	367,LEU
368,PHE	368,PHE
369,LEU	369,LEU
370,THR	370,THR
371,TYR	371,TYR
372,LEU	372,LEU
373,GLY	373,GLY
374,ARG	374,ARG
375,ALA	375,ALA
376,GLN	376,GLN
377,TYR	377,TYR
378,ASP	378,ASP
379,PRO	379,PRO
380,ALA	380,ALA
381,LYS	381,LYS
382,PRO	382,PRO
383,ASN	383,ASN
384,TYR	384,TYR
385,ILE	385,ILE
386,SER	386,SER
387,LEU	387,LEU
388,ASP	388,ASP
389,LYS	389,LYS
390,LEU	390,LEU
391,VAL	391,VAL
392,SER	392,SER
393,ILE	393,ILE
394,PRO	394,PRO
395,ASP	395,ASP
396,GLU	396,GLU
397,ILE	397,ILE
398,PHE	398,PHE
399,CYS	399,CYS
400,GLU	400,GLU
401,GLU	401,GLU
402,ILE	402,ILE
403,ALA	403,ALA
404,LYS	404,LYS
405,ALA	405,ALA
406,SER	406,SER
407,VAL	407,VAL
408,GLN	408,GLN
409,ASP	409,ASP
410,PHE	410,PHE
411,GLU	411,GLU
412,LYS	412,LYS
413,PHE	413,PHE
414,LEU	414,LEU
415,LYS	415,LYS
416,THR	416,THR
417,LEU	417,LEU
