uniprot_isoform	location_id	ENSEMBL ID	uniprot_start	uniprot_end	2xeqA_start	2xeqA_end	2xeqC_start	2xeqC_end	2xeqB_start	2xeqB_end	2xeqD_start	2xeqD_end	2xesA_start	2xesA_end	2xesB_start	2xesB_end	2xerA_start	2xerA_end	2xerC_start	2xerC_end	2xerB_start	2xerB_end
1	11_59668895_59638393_-1	ENSE00002171154	1	5	-	-	-	-	-	-	-	-	-	-	-	-	-	-	-	-	-	-
1	11_59668895_59638393_-1	ENSE00001730207	6	43	-	-	-	-	-	-	-	-	-	-	-	-	-	-	-	-	-	-
1	11_59668895_59638393_-1	ENSE00001783089	43	115	-	-	-	-	-	-	-	-	-	-	-	-	-	-	-	-	-	-
1	11_59668895_59638393_-1	ENSE00001365809	116	142	-	-	-	-	-	-	-	-	-	-	-	-	-	-	-	-	-	-
1	11_59668895_59638393_-1	ENSE00001688086	143	207	-	-	-	-	-	-	-	-	-	-	-	-	-	-	-	-	-	-
1	11_59668895_59638393_-1	ENSE00001779134	208	241	-	-	-	-	-	-	-	-	-	-	-	-	-	-	-	-	-	-
1	11_59668895_59638393_-1	ENSE00001641318	242	271	-	-	-	-	-	-	-	-	-	-	-	-	-	-	-	-	-	-
1	11_59668895_59638393_-1	ENSE00001646148	272	344	-	-	-	-	-	-	-	-	-	-	-	-	-	-	-	-	-	-
1	11_59668895_59638393_-1	ENSE00003424254	344	374	-	-	-	-	-	-	-	-	-	-	-	-	-	-	-	-	-	-
1	11_59668895_59638393_-1	ENSE00003450674	374	434	-	-	-	-	-	-	-	-	-	-	-	-	-	-	-	-	-	-
1	11_59668895_59638393_-1	ENSE00003390402	435	476	-	-	-	-	-	-	-	-	-	-	-	-	-	-	-	-	-	-
1	11_59668895_59638393_-1	ENSE00003265562	476	508	-	-	-	-	-	-	-	-	-	-	-	-	-	-	-	-	-	-
1	11_59668895_59638393_-1	ENSE00003446946	509	528	-	528	-	528	-	528	-	528	-	528	-	528	-	528	-	528	-	528
1	11_59668895_59638393_-1	ENSE00001732285	529	578	529	578	529	578	529	578	529	578	529	578	529	578	529	578	529	578	529	578
1	11_59668895_59638393_-1	ENSE00001635740	578	631	578	631	578	631	578	631	578	631	578	631	578	631	578	631	578	631	578	631
1	11_59668895_59638393_-1	ENSE00001714261	632	683	632	683	632	683	632	683	632	683	632	683	632	683	632	683	632	683	632	683
1	11_59668895_59638393_-1	ENSE00001269844	684	714	684	714	684	714	684	714	684	714	684	714	684	714	684	714	684	714	684	714
1	11_59668895_59638393_-1	ENSE00001269835	714	764	714	764	714	764	714	764	714	764	714	764	714	764	714	764	714	764	714	764
1	11_59668895_59638393_-1	ENSE00002181907	764	770	764	-	764	-	764	-	764	-	764	-	764	-	764	-	764	-	764	-
