Q86TB9	2xeqA	2xeqC	2xeqB	2xeqD	2xesA	2xesB	2xerA	2xerC	2xerB
1,MET	-	-	-	-	-	-	-	-	-
2,PHE	-	-	-	-	-	-	-	-	-
3,ARG	-	-	-	-	-	-	-	-	-
4,TYR	-	-	-	-	-	-	-	-	-
5,GLU	-	-	-	-	-	-	-	-	-
6,SER	-	-	-	-	-	-	-	-	-
7,LEU	-	-	-	-	-	-	-	-	-
8,GLU	-	-	-	-	-	-	-	-	-
9,ASP	-	-	-	-	-	-	-	-	-
10,CYS	-	-	-	-	-	-	-	-	-
11,PRO	-	-	-	-	-	-	-	-	-
12,LEU	-	-	-	-	-	-	-	-	-
13,ASP	-	-	-	-	-	-	-	-	-
14,GLU	-	-	-	-	-	-	-	-	-
15,ASP	-	-	-	-	-	-	-	-	-
16,GLU	-	-	-	-	-	-	-	-	-
17,ASP	-	-	-	-	-	-	-	-	-
18,ALA	-	-	-	-	-	-	-	-	-
19,PHE	-	-	-	-	-	-	-	-	-
20,GLN	-	-	-	-	-	-	-	-	-
21,GLY	-	-	-	-	-	-	-	-	-
22,LEU	-	-	-	-	-	-	-	-	-
23,GLY	-	-	-	-	-	-	-	-	-
24,GLU	-	-	-	-	-	-	-	-	-
25,GLU	-	-	-	-	-	-	-	-	-
26,ASP	-	-	-	-	-	-	-	-	-
27,GLU	-	-	-	-	-	-	-	-	-
28,GLU	-	-	-	-	-	-	-	-	-
29,ILE	-	-	-	-	-	-	-	-	-
30,ASP	-	-	-	-	-	-	-	-	-
31,GLN	-	-	-	-	-	-	-	-	-
32,PHE	-	-	-	-	-	-	-	-	-
33,ASN	-	-	-	-	-	-	-	-	-
34,ASP	-	-	-	-	-	-	-	-	-
35,ASP	-	-	-	-	-	-	-	-	-
36,THR	-	-	-	-	-	-	-	-	-
37,PHE	-	-	-	-	-	-	-	-	-
38,GLY	-	-	-	-	-	-	-	-	-
39,SER	-	-	-	-	-	-	-	-	-
40,GLY	-	-	-	-	-	-	-	-	-
41,ALA	-	-	-	-	-	-	-	-	-
42,VAL	-	-	-	-	-	-	-	-	-
43,ASP	-	-	-	-	-	-	-	-	-
44,ASP	-	-	-	-	-	-	-	-	-
45,ASP	-	-	-	-	-	-	-	-	-
46,TRP	-	-	-	-	-	-	-	-	-
47,GLN	-	-	-	-	-	-	-	-	-
48,GLU	-	-	-	-	-	-	-	-	-
49,ALA	-	-	-	-	-	-	-	-	-
50,HIS	-	-	-	-	-	-	-	-	-
51,GLU	-	-	-	-	-	-	-	-	-
52,ARG	-	-	-	-	-	-	-	-	-
53,LEU	-	-	-	-	-	-	-	-	-
54,ALA	-	-	-	-	-	-	-	-	-
55,GLU	-	-	-	-	-	-	-	-	-
56,LEU	-	-	-	-	-	-	-	-	-
57,GLU	-	-	-	-	-	-	-	-	-
58,GLU	-	-	-	-	-	-	-	-	-
59,LYS	-	-	-	-	-	-	-	-	-
60,LEU	-	-	-	-	-	-	-	-	-
61,PRO	-	-	-	-	-	-	-	-	-
62,VAL	-	-	-	-	-	-	-	-	-
63,ALA	-	-	-	-	-	-	-	-	-
64,VAL	-	-	-	-	-	-	-	-	-
65,ASN	-	-	-	-	-	-	-	-	-
66,GLU	-	-	-	-	-	-	-	-	-
67,GLN	-	-	-	-	-	-	-	-	-
68,THR	-	-	-	-	-	-	-	-	-
69,GLY	-	-	-	-	-	-	-	-	-
70,ASN	-	-	-	-	-	-	-	-	-
71,GLY	-	-	-	-	-	-	-	-	-
72,GLU	-	-	-	-	-	-	-	-	-
73,ARG	-	-	-	-	-	-	-	-	-
74,ASP	-	-	-	-	-	-	-	-	-
75,GLU	-	-	-	-	-	-	-	-	-
76,MET	-	-	-	-	-	-	-	-	-
77,ASP	-	-	-	-	-	-	-	-	-
78,LEU	-	-	-	-	-	-	-	-	-
79,LEU	-	-	-	-	-	-	-	-	-
80,GLY	-	-	-	-	-	-	-	-	-
81,ASP	-	-	-	-	-	-	-	-	-
82,HIS	-	-	-	-	-	-	-	-	-
83,GLU	-	-	-	-	-	-	-	-	-
84,GLU	-	-	-	-	-	-	-	-	-
85,ASN	-	-	-	-	-	-	-	-	-
86,LEU	-	-	-	-	-	-	-	-	-
87,ALA	-	-	-	-	-	-	-	-	-
88,GLU	-	-	-	-	-	-	-	-	-
89,ARG	-	-	-	-	-	-	-	-	-
90,LEU	-	-	-	-	-	-	-	-	-
91,SER	-	-	-	-	-	-	-	-	-
92,LYS	-	-	-	-	-	-	-	-	-
93,MET	-	-	-	-	-	-	-	-	-
94,VAL	-	-	-	-	-	-	-	-	-
95,ILE	-	-	-	-	-	-	-	-	-
96,GLU	-	-	-	-	-	-	-	-	-
97,ASN	-	-	-	-	-	-	-	-	-
98,GLU	-	-	-	-	-	-	-	-	-
99,LEU	-	-	-	-	-	-	-	-	-
100,GLU	-	-	-	-	-	-	-	-	-
101,ASP	-	-	-	-	-	-	-	-	-
102,PRO	-	-	-	-	-	-	-	-	-
103,ALA	-	-	-	-	-	-	-	-	-
104,ILE	-	-	-	-	-	-	-	-	-
105,MET	-	-	-	-	-	-	-	-	-
106,ARG	-	-	-	-	-	-	-	-	-
107,ALA	-	-	-	-	-	-	-	-	-
108,VAL	-	-	-	-	-	-	-	-	-
109,GLN	-	-	-	-	-	-	-	-	-
110,THR	-	-	-	-	-	-	-	-	-
111,ARG	-	-	-	-	-	-	-	-	-
112,PRO	-	-	-	-	-	-	-	-	-
113,VAL	-	-	-	-	-	-	-	-	-
114,LEU	-	-	-	-	-	-	-	-	-
115,GLN	-	-	-	-	-	-	-	-	-
116,PRO	-	-	-	-	-	-	-	-	-
117,GLN	-	-	-	-	-	-	-	-	-
118,PRO	-	-	-	-	-	-	-	-	-
119,GLY	-	-	-	-	-	-	-	-	-
120,SER	-	-	-	-	-	-	-	-	-
121,LEU	-	-	-	-	-	-	-	-	-
122,ASN	-	-	-	-	-	-	-	-	-
123,SER	-	-	-	-	-	-	-	-	-
124,SER	-	-	-	-	-	-	-	-	-
125,ILE	-	-	-	-	-	-	-	-	-
126,TRP	-	-	-	-	-	-	-	-	-
127,ASP	-	-	-	-	-	-	-	-	-
128,GLY	-	-	-	-	-	-	-	-	-
129,SER	-	-	-	-	-	-	-	-	-
130,GLU	-	-	-	-	-	-	-	-	-
131,VAL	-	-	-	-	-	-	-	-	-
132,LEU	-	-	-	-	-	-	-	-	-
133,ARG	-	-	-	-	-	-	-	-	-
134,ARG	-	-	-	-	-	-	-	-	-
135,ILE	-	-	-	-	-	-	-	-	-
136,ARG	-	-	-	-	-	-	-	-	-
137,GLY	-	-	-	-	-	-	-	-	-
138,PRO	-	-	-	-	-	-	-	-	-
139,LEU	-	-	-	-	-	-	-	-	-
140,LEU	-	-	-	-	-	-	-	-	-
141,ALA	-	-	-	-	-	-	-	-	-
142,GLN	-	-	-	-	-	-	-	-	-
143,GLU	-	-	-	-	-	-	-	-	-
144,MET	-	-	-	-	-	-	-	-	-
145,PRO	-	-	-	-	-	-	-	-	-
146,THR	-	-	-	-	-	-	-	-	-
147,VAL	-	-	-	-	-	-	-	-	-
148,SER	-	-	-	-	-	-	-	-	-
149,VAL	-	-	-	-	-	-	-	-	-
150,LEU	-	-	-	-	-	-	-	-	-
151,GLU	-	-	-	-	-	-	-	-	-
152,TYR	-	-	-	-	-	-	-	-	-
153,ALA	-	-	-	-	-	-	-	-	-
154,LEU	-	-	-	-	-	-	-	-	-
155,PRO	-	-	-	-	-	-	-	-	-
156,GLN	-	-	-	-	-	-	-	-	-
157,ARG	-	-	-	-	-	-	-	-	-
158,PRO	-	-	-	-	-	-	-	-	-
159,PRO	-	-	-	-	-	-	-	-	-
160,GLN	-	-	-	-	-	-	-	-	-
161,GLY	-	-	-	-	-	-	-	-	-
162,PRO	-	-	-	-	-	-	-	-	-
163,GLU	-	-	-	-	-	-	-	-	-
164,ASP	-	-	-	-	-	-	-	-	-
165,ASP	-	-	-	-	-	-	-	-	-
166,ARG	-	-	-	-	-	-	-	-	-
167,ASP	-	-	-	-	-	-	-	-	-
168,LEU	-	-	-	-	-	-	-	-	-
169,SER	-	-	-	-	-	-	-	-	-
170,GLU	-	-	-	-	-	-	-	-	-
171,ARG	-	-	-	-	-	-	-	-	-
172,ALA	-	-	-	-	-	-	-	-	-
173,LEU	-	-	-	-	-	-	-	-	-
174,PRO	-	-	-	-	-	-	-	-	-
175,ARG	-	-	-	-	-	-	-	-	-
176,ARG	-	-	-	-	-	-	-	-	-
177,SER	-	-	-	-	-	-	-	-	-
178,THR	-	-	-	-	-	-	-	-	-
179,SER	-	-	-	-	-	-	-	-	-
180,PRO	-	-	-	-	-	-	-	-	-
181,ILE	-	-	-	-	-	-	-	-	-
182,ILE	-	-	-	-	-	-	-	-	-
183,GLY	-	-	-	-	-	-	-	-	-
184,SER	-	-	-	-	-	-	-	-	-
185,PRO	-	-	-	-	-	-	-	-	-
186,PRO	-	-	-	-	-	-	-	-	-
187,VAL	-	-	-	-	-	-	-	-	-
188,ARG	-	-	-	-	-	-	-	-	-
189,ALA	-	-	-	-	-	-	-	-	-
190,VAL	-	-	-	-	-	-	-	-	-
191,PRO	-	-	-	-	-	-	-	-	-
192,ILE	-	-	-	-	-	-	-	-	-
193,GLY	-	-	-	-	-	-	-	-	-
194,THR	-	-	-	-	-	-	-	-	-
195,PRO	-	-	-	-	-	-	-	-	-
196,PRO	-	-	-	-	-	-	-	-	-
197,LYS	-	-	-	-	-	-	-	-	-
198,GLN	-	-	-	-	-	-	-	-	-
199,MET	-	-	-	-	-	-	-	-	-
200,ALA	-	-	-	-	-	-	-	-	-
201,VAL	-	-	-	-	-	-	-	-	-
202,PRO	-	-	-	-	-	-	-	-	-
203,SER	-	-	-	-	-	-	-	-	-
204,PHE	-	-	-	-	-	-	-	-	-
205,THR	-	-	-	-	-	-	-	-	-
206,GLN	-	-	-	-	-	-	-	-	-
207,GLN	-	-	-	-	-	-	-	-	-
208,ILE	-	-	-	-	-	-	-	-	-
209,LEU	-	-	-	-	-	-	-	-	-
210,CYS	-	-	-	-	-	-	-	-	-
211,PRO	-	-	-	-	-	-	-	-	-
212,LYS	-	-	-	-	-	-	-	-	-
213,PRO	-	-	-	-	-	-	-	-	-
214,VAL	-	-	-	-	-	-	-	-	-
215,HIS	-	-	-	-	-	-	-	-	-
216,VAL	-	-	-	-	-	-	-	-	-
217,ARG	-	-	-	-	-	-	-	-	-
218,PRO	-	-	-	-	-	-	-	-	-
219,PRO	-	-	-	-	-	-	-	-	-
220,MET	-	-	-	-	-	-	-	-	-
221,PRO	-	-	-	-	-	-	-	-	-
222,PRO	-	-	-	-	-	-	-	-	-
223,ARG	-	-	-	-	-	-	-	-	-
224,TYR	-	-	-	-	-	-	-	-	-
225,PRO	-	-	-	-	-	-	-	-	-
226,ALA	-	-	-	-	-	-	-	-	-
227,PRO	-	-	-	-	-	-	-	-	-
228,TYR	-	-	-	-	-	-	-	-	-
229,GLY	-	-	-	-	-	-	-	-	-
230,GLU	-	-	-	-	-	-	-	-	-
231,ARG	-	-	-	-	-	-	-	-	-
232,MET	-	-	-	-	-	-	-	-	-
233,SER	-	-	-	-	-	-	-	-	-
234,PRO	-	-	-	-	-	-	-	-	-
235,ASN	-	-	-	-	-	-	-	-	-
236,GLN	-	-	-	-	-	-	-	-	-
237,LEU	-	-	-	-	-	-	-	-	-
238,CYS	-	-	-	-	-	-	-	-	-
239,SER	-	-	-	-	-	-	-	-	-
240,VAL	-	-	-	-	-	-	-	-	-
241,PRO	-	-	-	-	-	-	-	-	-
242,ASN	-	-	-	-	-	-	-	-	-
243,SER	-	-	-	-	-	-	-	-	-
244,SER	-	-	-	-	-	-	-	-	-
245,LEU	-	-	-	-	-	-	-	-	-
246,LEU	-	-	-	-	-	-	-	-	-
247,GLY	-	-	-	-	-	-	-	-	-
248,HIS	-	-	-	-	-	-	-	-	-
249,PRO	-	-	-	-	-	-	-	-	-
250,PHE	-	-	-	-	-	-	-	-	-
251,PRO	-	-	-	-	-	-	-	-	-
252,PRO	-	-	-	-	-	-	-	-	-
253,SER	-	-	-	-	-	-	-	-	-
254,VAL	-	-	-	-	-	-	-	-	-
255,PRO	-	-	-	-	-	-	-	-	-
256,PRO	-	-	-	-	-	-	-	-	-
257,VAL	-	-	-	-	-	-	-	-	-
258,LEU	-	-	-	-	-	-	-	-	-
259,SER	-	-	-	-	-	-	-	-	-
260,PRO	-	-	-	-	-	-	-	-	-
261,LEU	-	-	-	-	-	-	-	-	-
262,GLN	-	-	-	-	-	-	-	-	-
263,ARG	-	-	-	-	-	-	-	-	-
264,ALA	-	-	-	-	-	-	-	-	-
265,GLN	-	-	-	-	-	-	-	-	-
266,LEU	-	-	-	-	-	-	-	-	-
267,LEU	-	-	-	-	-	-	-	-	-
268,GLY	-	-	-	-	-	-	-	-	-
269,GLY	-	-	-	-	-	-	-	-	-
270,ALA	-	-	-	-	-	-	-	-	-
271,GLN	-	-	-	-	-	-	-	-	-
272,LEU	-	-	-	-	-	-	-	-	-
273,GLN	-	-	-	-	-	-	-	-	-
274,PRO	-	-	-	-	-	-	-	-	-
275,GLY	-	-	-	-	-	-	-	-	-
276,ARG	-	-	-	-	-	-	-	-	-
277,MET	-	-	-	-	-	-	-	-	-
278,SER	-	-	-	-	-	-	-	-	-
279,PRO	-	-	-	-	-	-	-	-	-
280,SER	-	-	-	-	-	-	-	-	-
281,GLN	-	-	-	-	-	-	-	-	-
282,PHE	-	-	-	-	-	-	-	-	-
283,ALA	-	-	-	-	-	-	-	-	-
284,ARG	-	-	-	-	-	-	-	-	-
285,VAL	-	-	-	-	-	-	-	-	-
286,PRO	-	-	-	-	-	-	-	-	-
287,GLY	-	-	-	-	-	-	-	-	-
288,PHE	-	-	-	-	-	-	-	-	-
289,VAL	-	-	-	-	-	-	-	-	-
290,GLY	-	-	-	-	-	-	-	-	-
291,SER	-	-	-	-	-	-	-	-	-
292,PRO	-	-	-	-	-	-	-	-	-
293,LEU	-	-	-	-	-	-	-	-	-
294,ALA	-	-	-	-	-	-	-	-	-
295,ALA	-	-	-	-	-	-	-	-	-
296,MET	-	-	-	-	-	-	-	-	-
297,ASN	-	-	-	-	-	-	-	-	-
298,PRO	-	-	-	-	-	-	-	-	-
299,LYS	-	-	-	-	-	-	-	-	-
300,LEU	-	-	-	-	-	-	-	-	-
301,LEU	-	-	-	-	-	-	-	-	-
302,GLN	-	-	-	-	-	-	-	-	-
303,GLY	-	-	-	-	-	-	-	-	-
304,ARG	-	-	-	-	-	-	-	-	-
305,VAL	-	-	-	-	-	-	-	-	-
306,GLY	-	-	-	-	-	-	-	-	-
307,GLN	-	-	-	-	-	-	-	-	-
308,MET	-	-	-	-	-	-	-	-	-
309,LEU	-	-	-	-	-	-	-	-	-
310,PRO	-	-	-	-	-	-	-	-	-
311,PRO	-	-	-	-	-	-	-	-	-
312,ALA	-	-	-	-	-	-	-	-	-
313,PRO	-	-	-	-	-	-	-	-	-
314,GLY	-	-	-	-	-	-	-	-	-
315,PHE	-	-	-	-	-	-	-	-	-
316,ARG	-	-	-	-	-	-	-	-	-
317,ALA	-	-	-	-	-	-	-	-	-
318,PHE	-	-	-	-	-	-	-	-	-
319,PHE	-	-	-	-	-	-	-	-	-
320,SER	-	-	-	-	-	-	-	-	-
321,ALA	-	-	-	-	-	-	-	-	-
322,PRO	-	-	-	-	-	-	-	-	-
323,PRO	-	-	-	-	-	-	-	-	-
324,SER	-	-	-	-	-	-	-	-	-
325,ALA	-	-	-	-	-	-	-	-	-
326,THR	-	-	-	-	-	-	-	-	-
327,PRO	-	-	-	-	-	-	-	-	-
328,PRO	-	-	-	-	-	-	-	-	-
329,PRO	-	-	-	-	-	-	-	-	-
330,GLN	-	-	-	-	-	-	-	-	-
331,GLN	-	-	-	-	-	-	-	-	-
332,HIS	-	-	-	-	-	-	-	-	-
333,PRO	-	-	-	-	-	-	-	-	-
334,PRO	-	-	-	-	-	-	-	-	-
335,GLY	-	-	-	-	-	-	-	-	-
336,PRO	-	-	-	-	-	-	-	-	-
337,GLY	-	-	-	-	-	-	-	-	-
338,PRO	-	-	-	-	-	-	-	-	-
339,HIS	-	-	-	-	-	-	-	-	-
340,LEU	-	-	-	-	-	-	-	-	-
341,GLN	-	-	-	-	-	-	-	-	-
342,ASN	-	-	-	-	-	-	-	-	-
343,LEU	-	-	-	-	-	-	-	-	-
344,ARG	-	-	-	-	-	-	-	-	-
345,SER	-	-	-	-	-	-	-	-	-
346,GLN	-	-	-	-	-	-	-	-	-
347,ALA	-	-	-	-	-	-	-	-	-
348,PRO	-	-	-	-	-	-	-	-	-
349,MET	-	-	-	-	-	-	-	-	-
350,PHE	-	-	-	-	-	-	-	-	-
351,ARG	-	-	-	-	-	-	-	-	-
352,PRO	-	-	-	-	-	-	-	-	-
353,ASP	-	-	-	-	-	-	-	-	-
354,THR	-	-	-	-	-	-	-	-	-
355,THR	-	-	-	-	-	-	-	-	-
356,HIS	-	-	-	-	-	-	-	-	-
357,LEU	-	-	-	-	-	-	-	-	-
358,HIS	-	-	-	-	-	-	-	-	-
359,PRO	-	-	-	-	-	-	-	-	-
360,GLN	-	-	-	-	-	-	-	-	-
361,HIS	-	-	-	-	-	-	-	-	-
362,ARG	-	-	-	-	-	-	-	-	-
363,ARG	-	-	-	-	-	-	-	-	-
364,LEU	-	-	-	-	-	-	-	-	-
365,LEU	-	-	-	-	-	-	-	-	-
366,HIS	-	-	-	-	-	-	-	-	-
367,GLN	-	-	-	-	-	-	-	-	-
368,ARG	-	-	-	-	-	-	-	-	-
369,GLN	-	-	-	-	-	-	-	-	-
370,GLN	-	-	-	-	-	-	-	-	-
371,GLN	-	-	-	-	-	-	-	-	-
372,ASN	-	-	-	-	-	-	-	-	-
373,ARG	-	-	-	-	-	-	-	-	-
374,SER	-	-	-	-	-	-	-	-	-
375,GLN	-	-	-	-	-	-	-	-	-
376,HIS	-	-	-	-	-	-	-	-	-
377,ARG	-	-	-	-	-	-	-	-	-
378,ASN	-	-	-	-	-	-	-	-	-
379,LEU	-	-	-	-	-	-	-	-	-
380,ASN	-	-	-	-	-	-	-	-	-
381,GLY	-	-	-	-	-	-	-	-	-
382,ALA	-	-	-	-	-	-	-	-	-
383,GLY	-	-	-	-	-	-	-	-	-
384,ASP	-	-	-	-	-	-	-	-	-
385,ARG	-	-	-	-	-	-	-	-	-
386,GLY	-	-	-	-	-	-	-	-	-
387,SER	-	-	-	-	-	-	-	-	-
388,HIS	-	-	-	-	-	-	-	-	-
389,ARG	-	-	-	-	-	-	-	-	-
390,SER	-	-	-	-	-	-	-	-	-
391,SER	-	-	-	-	-	-	-	-	-
392,HIS	-	-	-	-	-	-	-	-	-
393,GLN	-	-	-	-	-	-	-	-	-
394,ASP	-	-	-	-	-	-	-	-	-
395,HIS	-	-	-	-	-	-	-	-	-
396,LEU	-	-	-	-	-	-	-	-	-
397,ARG	-	-	-	-	-	-	-	-	-
398,LYS	-	-	-	-	-	-	-	-	-
399,ASP	-	-	-	-	-	-	-	-	-
400,PRO	-	-	-	-	-	-	-	-	-
401,TYR	-	-	-	-	-	-	-	-	-
402,ALA	-	-	-	-	-	-	-	-	-
403,ASN	-	-	-	-	-	-	-	-	-
404,LEU	-	-	-	-	-	-	-	-	-
405,MET	-	-	-	-	-	-	-	-	-
406,LEU	-	-	-	-	-	-	-	-	-
407,GLN	-	-	-	-	-	-	-	-	-
408,ARG	-	-	-	-	-	-	-	-	-
409,GLU	-	-	-	-	-	-	-	-	-
410,LYS	-	-	-	-	-	-	-	-	-
411,ASP	-	-	-	-	-	-	-	-	-
412,TRP	-	-	-	-	-	-	-	-	-
413,VAL	-	-	-	-	-	-	-	-	-
414,SER	-	-	-	-	-	-	-	-	-
415,LYS	-	-	-	-	-	-	-	-	-
416,ILE	-	-	-	-	-	-	-	-	-
417,GLN	-	-	-	-	-	-	-	-	-
418,MET	-	-	-	-	-	-	-	-	-
419,MET	-	-	-	-	-	-	-	-	-
420,GLN	-	-	-	-	-	-	-	-	-
421,LEU	-	-	-	-	-	-	-	-	-
422,GLN	-	-	-	-	-	-	-	-	-
423,SER	-	-	-	-	-	-	-	-	-
424,THR	-	-	-	-	-	-	-	-	-
425,ASP	-	-	-	-	-	-	-	-	-
426,PRO	-	-	-	-	-	-	-	-	-
427,TYR	-	-	-	-	-	-	-	-	-
428,LEU	-	-	-	-	-	-	-	-	-
429,ASP	-	-	-	-	-	-	-	-	-
430,ASP	-	-	-	-	-	-	-	-	-
431,PHE	-	-	-	-	-	-	-	-	-
432,TYR	-	-	-	-	-	-	-	-	-
433,TYR	-	-	-	-	-	-	-	-	-
434,GLN	-	-	-	-	-	-	-	-	-
435,ASN	-	-	-	-	-	-	-	-	-
436,TYR	-	-	-	-	-	-	-	-	-
437,PHE	-	-	-	-	-	-	-	-	-
438,GLU	-	-	-	-	-	-	-	-	-
439,LYS	-	-	-	-	-	-	-	-	-
440,LEU	-	-	-	-	-	-	-	-	-
441,GLU	-	-	-	-	-	-	-	-	-
442,LYS	-	-	-	-	-	-	-	-	-
443,LEU	-	-	-	-	-	-	-	-	-
444,SER	-	-	-	-	-	-	-	-	-
445,ALA	-	-	-	-	-	-	-	-	-
446,ALA	-	-	-	-	-	-	-	-	-
447,GLU	-	-	-	-	-	-	-	-	-
448,GLU	-	-	-	-	-	-	-	-	-
449,ILE	-	-	-	-	-	-	-	-	-
450,GLN	-	-	-	-	-	-	-	-	-
451,GLY	-	-	-	-	-	-	-	-	-
452,ASP	-	-	-	-	-	-	-	-	-
453,GLY	-	-	-	-	-	-	-	-	-
454,PRO	-	-	-	-	-	-	-	-	-
455,LYS	-	-	-	-	-	-	-	-	-
456,LYS	-	-	-	-	-	-	-	-	-
457,GLU	-	-	-	-	-	-	-	-	-
458,ARG	-	-	-	-	-	-	-	-	-
459,THR	-	-	-	-	-	-	-	-	-
460,LYS	-	-	-	-	-	-	-	-	-
461,LEU	-	-	-	-	-	-	-	-	-
462,ILE	-	-	-	-	-	-	-	-	-
463,THR	-	-	-	-	-	-	-	-	-
464,PRO	-	-	-	-	-	-	-	-	-
465,GLN	-	-	-	-	-	-	-	-	-
466,VAL	-	-	-	-	-	-	-	-	-
467,ALA	-	-	-	-	-	-	-	-	-
468,LYS	-	-	-	-	-	-	-	-	-
469,LEU	-	-	-	-	-	-	-	-	-
470,GLU	-	-	-	-	-	-	-	-	-
471,HIS	-	-	-	-	-	-	-	-	-
472,ALA	-	-	-	-	-	-	-	-	-
473,TYR	-	-	-	-	-	-	-	-	-
474,LYS	-	-	-	-	-	-	-	-	-
475,PRO	-	-	-	-	-	-	-	-	-
476,VAL	-	-	-	-	-	-	-	-	-
477,GLN	-	-	-	-	-	-	-	-	-
478,PHE	-	-	-	-	-	-	-	-	-
479,GLU	-	-	-	-	-	-	-	-	-
480,GLY	-	-	-	-	-	-	-	-	-
481,SER	-	-	-	-	-	-	-	-	-
482,LEU	-	-	-	-	-	-	-	-	-
483,GLY	-	-	-	-	-	-	-	-	-
484,LYS	-	-	-	-	-	-	-	-	-
485,LEU	-	-	-	-	-	-	-	-	-
486,THR	-	-	-	-	-	-	-	-	-
487,VAL	-	-	-	-	-	-	-	-	-
488,SER	-	-	-	-	-	-	-	-	-
489,SER	-	-	-	-	-	-	-	-	-
490,VAL	-	-	-	-	-	-	-	-	-
491,ASN	-	-	-	-	-	-	-	-	-
492,ASN	-	-	-	-	-	-	-	-	-
493,PRO	-	-	-	-	-	-	-	-	-
494,ARG	-	-	-	-	-	-	-	-	-
495,LYS	-	-	-	-	-	-	-	-	-
496,MET	-	-	-	-	-	-	-	-	-
497,ILE	-	-	-	-	-	-	-	-	-
498,ASP	-	-	-	-	-	-	-	-	-
499,ALA	-	-	-	-	-	-	-	-	-
500,VAL	-	-	-	-	-	-	-	-	-
501,VAL	-	-	-	-	-	-	-	-	-
502,THR	-	-	-	-	-	-	-	-	-
503,SER	-	-	-	-	-	-	-	-	-
504,ARG	-	-	-	-	-	-	-	-	-
505,SER	-	-	-	-	-	-	-	-	-
506,GLU	-	-	-	-	-	-	-	-	-
507,ASP	-	-	-	-	-	-	-	-	-
508,ASP	-	-	-	-	-	-	-	-	-
509,GLU	-	-	-	-	-	-	-	-	-
510,THR	-	-	-	-	-	-	-	-	-
511,LYS	-	-	-	-	-	-	-	-	-
512,GLU	-	-	-	-	-	-	-	-	-
513,LYS	-	-	-	-	-	-	-	-	-
514,GLN	-	-	-	-	-	-	-	-	-
515,VAL	-	-	-	-	-	-	-	-	-
516,ARG	-	-	-	-	-	-	-	-	-
517,ASP	517,ASP	517,ASP	517,ASP	517,ASP	517,ASP	517,ASP	517,ASP	517,ASP	517,ASP
518,LYS	518,LYS	518,LYS	518,LYS	518,LYS	518,LYS	518,LYS	518,LYS	518,LYS	518,LYS
519,ARG	519,ARG	519,ARG	519,ARG	519,ARG	519,ARG	519,ARG	519,ARG	519,ARG	519,ARG
520,ARG	520,ARG	520,ARG	520,ARG	520,ARG	520,ARG	520,ARG	520,ARG	520,ARG	520,ARG
521,LYS	521,LYS	521,LYS	521,LYS	521,LYS	521,LYS	521,LYS	521,LYS	521,LYS	521,LYS
522,THR	522,THR	522,THR	522,THR	522,THR	522,THR	522,THR	522,THR	522,THR	522,THR
523,LEU	523,LEU	523,LEU	523,LEU	523,LEU	523,LEU	523,LEU	523,LEU	523,LEU	523,LEU
524,VAL	524,VAL	524,VAL	524,VAL	524,VAL	524,VAL	524,VAL	524,VAL	524,VAL	524,VAL
525,ILE	525,ILE	525,ILE	525,ILE	525,ILE	525,ILE	525,ILE	525,ILE	525,ILE	525,ILE
526,ILE	526,ILE	526,ILE	526,ILE	526,ILE	526,ILE	526,ILE	526,ILE	526,ILE	526,ILE
527,GLU	527,GLU	527,GLU	527,GLU	527,GLU	527,GLU	527,GLU	527,GLU	527,GLU	527,GLU
528,LYS	528,LYS	528,LYS	528,LYS	528,LYS	528,LYS	528,LYS	528,LYS	528,LYS	528,LYS
529,THR	529,THR	529,THR	529,THR	529,THR	529,THR	529,THR	529,THR	529,THR	529,THR
530,TYR	530,TYR	530,TYR	530,TYR	530,TYR	530,TYR	530,TYR	530,TYR	530,TYR	530,TYR
531,SER	531,SER	531,SER	531,SER	531,SER	531,SER	531,SER	531,SER	531,SER	531,SER
532,LEU	532,LEU	532,LEU	532,LEU	532,LEU	532,LEU	532,LEU	532,LEU	532,LEU	532,LEU
533,LEU	533,LEU	533,LEU	533,LEU	533,LEU	533,LEU	533,LEU	533,LEU	533,LEU	533,LEU
534,LEU	534,LEU	534,LEU	534,LEU	534,LEU	534,LEU	534,LEU	534,LEU	534,LEU	534,LEU
535,ASP	535,ASP	535,ASP	535,ASP	535,ASP	535,ASP	535,ASP	535,ASP	535,ASP	535,ASP
536,VAL	536,VAL	536,VAL	536,VAL	536,VAL	536,VAL	536,VAL	536,VAL	536,VAL	536,VAL
537,GLU	537,GLU	537,GLU	537,GLU	537,GLU	537,GLU	537,GLU	537,GLU	537,GLU	537,GLU
538,ASP	538,ASP	538,ASP	538,ASP	538,ASP	538,ASP	538,ASP	538,ASP	538,ASP	538,ASP
539,TYR	539,TYR	539,TYR	539,TYR	539,TYR	539,TYR	539,TYR	539,TYR	539,TYR	539,TYR
540,GLU	540,GLU	540,GLU	540,GLU	540,GLU	540,GLU	540,GLU	540,GLU	540,GLU	540,GLU
541,ARG	541,ARG	541,ARG	541,ARG	541,ARG	541,ARG	541,ARG	541,ARG	541,ARG	541,ARG
542,ARG	542,ARG	542,ARG	542,ARG	542,ARG	542,ARG	542,ARG	542,ARG	542,ARG	542,ARG
543,TYR	543,TYR	543,TYR	543,TYR	543,TYR	543,TYR	543,TYR	543,TYR	543,TYR	543,TYR
544,LEU	544,LEU	544,LEU	544,LEU	544,LEU	544,LEU	544,LEU	544,LEU	544,LEU	544,LEU
545,LEU	545,LEU	545,LEU	545,LEU	545,LEU	545,LEU	545,LEU	545,LEU	545,LEU	545,LEU
546,SER	546,SER	546,SER	546,SER	546,SER	546,SER	546,SER	546,SER	546,SER	546,SER
547,LEU	547,LEU	547,LEU	547,LEU	547,LEU	547,LEU	547,LEU	547,LEU	547,LEU	547,LEU
548,GLU	548,GLU	548,GLU	548,GLU	548,GLU	548,GLU	548,GLU	548,GLU	548,GLU	548,GLU
549,GLU	549,GLU	549,GLU	549,GLU	549,GLU	549,GLU	549,GLU	549,GLU	549,GLU	-
550,GLU	550,GLU	550,GLU	550,GLU	550,GLU	550,GLU	550,GLU	550,GLU	550,GLU	-
551,ARG	551,ARG	551,ARG	551,ARG	551,ARG	551,ARG	551,ARG	551,ARG	551,ARG	-
552,PRO	552,PRO	552,PRO	552,PRO	552,PRO	552,PRO	552,PRO	552,PRO	552,PRO	-
553,ALA	553,ALA	553,ALA	553,ALA	553,ALA	553,ALA	553,ALA	553,ALA	553,ALA	-
554,LEU	554,LEU	554,LEU	554,LEU	554,LEU	554,LEU	554,LEU	554,LEU	554,LEU	554,LEU
555,MET	555,MSE	555,MSE	555,MSE	555,MSE	555,MSE	555,MSE	555,MET	555,MET	555,MET
556,ASP	556,ASP	556,ASP	556,ASP	556,ASP	556,ASP	556,ASP	556,ASP	556,ASP	556,ASP
557,ASP	557,ASP	557,ASP	557,ASP	557,ASP	557,ASP	557,ASP	557,ASP	557,ASP	557,ASP
558,ARG	558,ARG	558,ARG	558,ARG	558,ARG	558,ARG	558,ARG	558,ARG	558,ARG	558,ARG
559,LYS	559,LYS	559,LYS	559,LYS	559,LYS	559,LYS	559,LYS	559,LYS	559,LYS	559,LYS
560,HIS	560,HIS	560,HIS	560,HIS	560,HIS	560,HIS	560,HIS	560,HIS	560,HIS	560,HIS
561,LYS	561,LYS	561,LYS	561,LYS	561,LYS	561,LYS	561,LYS	561,LYS	561,LYS	561,LYS
562,ILE	562,ILE	562,ILE	562,ILE	562,ILE	562,ILE	562,ILE	562,ILE	562,ILE	562,ILE
563,CYS	563,CYS	563,CYS	563,CYS	563,CYS	563,CYS	563,CYS	563,CYS	563,CYS	563,CYS
564,SER	564,SER	564,SER	564,SER	564,SER	564,SER	564,SER	564,SER	564,SER	564,SER
565,MET	565,MSE	565,MSE	565,MSE	565,MSE	565,MSE	565,MSE	565,MET	565,MET	565,MET
566,TYR	566,TYR	566,TYR	566,TYR	566,TYR	566,TYR	566,TYR	566,TYR	566,TYR	566,TYR
567,ASP	567,ASP	567,ASP	567,ASP	567,ASP	567,ASP	567,ASP	567,ASP	567,ASP	567,ASP
568,ASN	568,ASN	568,ASN	568,ASN	568,ASN	568,ASN	568,ASN	568,ASN	568,ASN	568,ASN
569,LEU	569,LEU	569,LEU	569,LEU	569,LEU	569,LEU	569,LEU	569,LEU	569,LEU	569,LEU
570,ARG	570,ARG	570,ARG	570,ARG	570,ARG	570,ARG	570,ARG	570,ARG	570,ARG	570,ARG
571,GLY	571,GLY	571,GLY	571,GLY	571,GLY	571,GLY	571,GLY	571,GLY	571,GLY	571,GLY
572,LYS	572,LYS	572,LYS	572,LYS	572,LYS	572,LYS	572,LYS	572,LYS	572,LYS	-
573,LEU	573,LEU	573,LEU	573,LEU	573,LEU	573,LEU	573,LEU	-	573,LEU	-
574,PRO	574,PRO	574,PRO	574,PRO	574,PRO	574,PRO	574,PRO	-	-	-
575,GLY	575,GLY	575,GLY	575,GLY	575,GLY	575,GLY	575,GLY	-	-	-
576,GLN	576,GLN	576,GLN	576,GLN	576,GLN	576,GLN	576,GLN	-	-	-
577,GLU	577,GLU	577,GLU	577,GLU	577,GLU	577,GLU	577,GLU	-	-	-
578,ARG	578,ARG	578,ARG	578,ARG	578,ARG	578,ARG	578,ARG	578,ARG	578,ARG	578,ARG
579,PRO	579,PRO	579,PRO	579,PRO	579,PRO	579,PRO	579,PRO	579,PRO	579,PRO	579,PRO
580,SER	580,SER	580,SER	580,SER	580,SER	580,SER	580,SER	580,SER	580,SER	580,SER
581,ASP	581,ASP	581,ASP	581,ASP	581,ASP	581,ASP	581,ASP	581,ASP	581,ASP	581,ASP
582,ASP	582,ASP	582,ASP	582,ASP	582,ASP	582,ASP	582,ASP	582,ASP	582,ASP	582,ASP
583,HIS	583,HIS	583,HIS	583,HIS	583,HIS	583,HIS	583,HIS	583,HIS	583,HIS	583,HIS
584,PHE	584,PHE	584,PHE	584,PHE	584,PHE	584,PHE	584,PHE	584,PHE	584,PHE	584,PHE
585,VAL	585,VAL	585,VAL	585,VAL	585,VAL	585,VAL	585,VAL	585,VAL	585,VAL	585,VAL
586,GLN	586,GLN	586,GLN	586,GLN	586,GLN	586,GLN	586,GLN	586,GLN	586,GLN	586,GLN
587,ILE	587,ILE	587,ILE	587,ILE	587,ILE	587,ILE	587,ILE	587,ILE	587,ILE	587,ILE
588,MET	588,MSE	588,MSE	588,MSE	588,MSE	588,MSE	588,MSE	588,MET	588,MET	588,MET
589,CYS	589,CYS	589,CYS	589,CYS	589,CYS	589,CYS	589,CYS	589,CYS	589,CYS	589,CYS
590,ILE	590,ILE	590,ILE	590,ILE	590,ILE	590,ILE	590,ILE	590,ILE	590,ILE	590,ILE
591,ARG	591,ARG	591,ARG	591,ARG	591,ARG	591,ARG	591,ARG	591,ARG	591,ARG	591,ARG
592,LYS	592,LYS	592,LYS	592,LYS	592,LYS	592,LYS	592,LYS	592,LYS	592,LYS	592,LYS
593,GLY	593,GLY	593,GLY	593,GLY	593,GLY	593,GLY	593,GLY	593,GLY	593,GLY	593,GLY
594,LYS	594,LYS	594,LYS	594,LYS	594,LYS	594,LYS	594,LYS	594,LYS	594,LYS	594,LYS
595,ARG	595,ARG	595,ARG	595,ARG	595,ARG	595,ARG	595,ARG	595,ARG	595,ARG	595,ARG
596,MET	596,MSE	596,MSE	596,MSE	596,MSE	596,MSE	596,MSE	596,MET	596,MET	596,MET
597,VAL	597,VAL	597,VAL	597,VAL	597,VAL	597,VAL	597,VAL	597,VAL	597,VAL	597,VAL
598,ALA	598,ALA	598,ALA	598,ALA	598,ALA	598,ALA	598,ALA	598,ALA	598,ALA	598,ALA
599,ARG	599,ARG	599,ARG	599,ARG	599,ARG	599,ARG	599,ARG	599,ARG	599,ARG	599,ARG
600,ILE	600,ILE	600,ILE	600,ILE	600,ILE	600,ILE	600,ILE	600,ILE	600,ILE	600,ILE
601,LEU	601,LEU	601,LEU	601,LEU	601,LEU	601,LEU	601,LEU	601,LEU	601,LEU	601,LEU
602,PRO	602,PRO	602,PRO	602,PRO	602,PRO	602,PRO	602,PRO	602,PRO	602,PRO	602,PRO
603,PHE	603,PHE	603,PHE	603,PHE	603,PHE	603,PHE	603,PHE	603,PHE	603,PHE	603,PHE
604,LEU	604,LEU	604,LEU	604,LEU	604,LEU	604,LEU	604,LEU	604,LEU	604,LEU	604,LEU
605,SER	605,SER	605,SER	605,SER	605,SER	605,SER	605,SER	605,SER	605,SER	605,SER
606,THR	606,THR	606,THR	606,THR	606,THR	606,THR	606,THR	606,THR	606,THR	606,THR
607,GLU	607,GLU	607,GLU	607,GLU	607,GLU	607,GLU	607,GLU	607,GLU	607,GLU	607,GLU
608,GLN	608,GLN	608,GLN	608,GLN	608,GLN	608,GLN	608,GLN	608,GLN	608,GLN	608,GLN
609,ALA	609,ALA	609,ALA	609,ALA	609,ALA	609,ALA	609,ALA	609,ALA	609,ALA	609,ALA
610,ALA	610,ALA	610,ALA	610,ALA	610,ALA	610,ALA	610,ALA	610,ALA	610,ALA	610,ALA
611,ASP	611,ASP	611,ASP	611,ASP	611,ASP	611,ASP	611,ASP	611,ASP	611,ASP	611,ASP
612,ILE	612,ILE	612,ILE	612,ILE	612,ILE	612,ILE	612,ILE	612,ILE	612,ILE	612,ILE
613,LEU	613,LEU	613,LEU	613,LEU	613,LEU	613,LEU	613,LEU	613,LEU	613,LEU	613,LEU
614,MET	614,MSE	614,MSE	614,MSE	614,MSE	614,MSE	614,MSE	614,MET	614,MET	614,MET
615,THR	615,THR	615,THR	615,THR	615,THR	615,THR	615,THR	615,THR	615,THR	615,THR
616,THR	616,THR	616,THR	616,THR	616,THR	616,THR	616,THR	616,THR	616,THR	616,THR
617,ALA	617,ALA	617,ALA	617,ALA	617,ALA	617,ALA	617,ALA	617,ALA	617,ALA	617,ALA
618,ARG	618,ARG	618,ARG	618,ARG	618,ARG	618,ARG	618,ARG	618,ARG	618,ARG	618,ARG
619,ASN	619,ASN	619,ASN	619,ASN	619,ASN	619,ASN	619,ASN	619,ASN	619,ASN	619,ASN
620,LEU	620,LEU	620,LEU	620,LEU	620,LEU	620,LEU	620,LEU	620,LEU	620,LEU	620,LEU
621,PRO	621,PRO	621,PRO	621,PRO	621,PRO	621,PRO	621,PRO	621,PRO	621,PRO	621,PRO
622,PHE	622,PHE	622,PHE	622,PHE	622,PHE	622,PHE	622,PHE	622,PHE	622,PHE	622,PHE
623,LEU	623,LEU	623,LEU	623,LEU	623,LEU	623,LEU	623,LEU	623,LEU	623,LEU	623,LEU
624,ILE	624,ILE	624,ILE	624,ILE	624,ILE	624,ILE	624,ILE	624,ILE	624,ILE	624,ILE
625,LYS	625,LYS	625,LYS	625,LYS	625,LYS	625,LYS	625,LYS	625,LYS	625,LYS	625,LYS
626,LYS	626,LYS	626,LYS	626,LYS	626,LYS	626,LYS	626,LYS	626,LYS	626,LYS	626,LYS
627,ASP	627,ASP	627,ASP	627,ASP	627,ASP	627,ASP	627,ASP	627,ASP	627,ASP	627,ASP
628,ALA	628,ALA	628,ALA	628,ALA	628,ALA	628,ALA	628,ALA	628,ALA	628,ALA	628,ALA
629,GLN	629,GLN	629,GLN	629,GLN	629,GLN	629,GLN	629,GLN	629,GLN	629,GLN	629,GLN
630,ASP	630,ASP	630,ASP	630,ASP	630,ASP	630,ASP	630,ASP	630,ASP	630,ASP	630,ASP
631,GLU	631,GLU	631,GLU	631,GLU	631,GLU	631,GLU	631,GLU	631,GLU	631,GLU	631,GLU
632,VAL	632,VAL	632,VAL	632,VAL	632,VAL	632,VAL	632,VAL	632,VAL	632,VAL	632,VAL
633,LEU	633,LEU	633,LEU	633,LEU	633,LEU	633,LEU	633,LEU	633,LEU	633,LEU	633,LEU
634,PRO	634,PRO	634,PRO	634,PRO	634,PRO	634,PRO	634,PRO	634,PRO	634,PRO	634,PRO
635,CYS	635,CYS	635,CYS	635,CYS	635,CYS	635,CYS	635,CYS	635,CYS	635,CYS	635,CYS
636,LEU	636,LEU	636,LEU	636,LEU	636,LEU	636,LEU	636,LEU	636,LEU	636,LEU	636,LEU
637,LEU	637,LEU	637,LEU	637,LEU	637,LEU	637,LEU	637,LEU	637,LEU	637,LEU	637,LEU
638,SER	638,SER	638,SER	638,SER	638,SER	638,SER	638,SER	638,SER	638,SER	638,SER
639,PRO	639,PRO	639,PRO	639,PRO	639,PRO	639,PRO	639,PRO	639,PRO	639,PRO	639,PRO
640,PHE	640,PHE	640,PHE	640,PHE	640,PHE	640,PHE	640,PHE	640,PHE	640,PHE	640,PHE
641,SER	641,SER	641,SER	641,SER	641,SER	641,SER	641,SER	641,SER	641,SER	641,SER
642,LEU	642,LEU	642,LEU	642,LEU	642,LEU	642,LEU	642,LEU	642,LEU	642,LEU	642,LEU
643,LEU	643,LEU	643,LEU	643,LEU	643,LEU	643,LEU	643,LEU	643,LEU	643,LEU	643,LEU
644,LEU	644,LEU	644,LEU	644,LEU	644,LEU	644,LEU	644,LEU	644,LEU	644,LEU	644,LEU
645,TYR	645,TYR	645,TYR	645,TYR	645,TYR	645,TYR	645,TYR	645,TYR	645,TYR	645,TYR
646,HIS	646,HIS	646,HIS	646,HIS	646,HIS	646,HIS	646,HIS	646,HIS	646,HIS	646,HIS
647,LEU	647,LEU	647,LEU	647,LEU	647,LEU	647,LEU	647,LEU	647,LEU	647,LEU	647,LEU
648,PRO	648,PRO	648,PRO	648,PRO	648,PRO	648,PRO	648,PRO	648,PRO	648,PRO	648,PRO
649,SER	649,SER	649,SER	649,SER	649,SER	649,SER	649,SER	649,SER	649,SER	649,SER
650,VAL	650,VAL	650,VAL	650,VAL	650,VAL	650,VAL	650,VAL	650,VAL	650,VAL	650,VAL
651,SER	651,SER	651,SER	651,SER	651,SER	651,SER	651,SER	651,SER	651,SER	651,SER
652,ILE	652,ILE	652,ILE	652,ILE	652,ILE	652,ILE	652,ILE	652,ILE	652,ILE	652,ILE
653,THR	653,THR	653,THR	653,THR	653,THR	653,THR	653,THR	653,THR	653,THR	653,THR
654,SER	654,SER	654,SER	654,SER	654,SER	654,SER	654,SER	654,SER	654,SER	654,SER
655,LEU	655,LEU	655,LEU	655,LEU	655,LEU	655,LEU	655,LEU	655,LEU	655,LEU	655,LEU
656,LEU	656,LEU	656,LEU	656,LEU	656,LEU	656,LEU	656,LEU	656,LEU	656,LEU	656,LEU
657,ARG	657,ARG	657,ARG	657,ARG	657,ARG	657,ARG	657,ARG	657,ARG	657,ARG	657,ARG
658,GLN	658,GLN	658,GLN	658,GLN	658,GLN	658,GLN	658,GLN	658,GLN	658,GLN	658,GLN
659,LEU	659,LEU	659,LEU	659,LEU	659,LEU	659,LEU	659,LEU	659,LEU	659,LEU	659,LEU
660,MET	660,MSE	660,MSE	660,MSE	660,MSE	660,MSE	660,MSE	660,MET	660,MET	660,MET
661,ASN	661,ASN	661,ASN	661,ASN	661,ASN	661,ASN	661,ASN	661,ASN	661,ASN	661,ASN
662,LEU	662,LEU	662,LEU	662,LEU	662,LEU	662,LEU	662,LEU	662,LEU	662,LEU	662,LEU
663,PRO	663,PRO	663,PRO	663,PRO	663,PRO	663,PRO	663,PRO	663,PRO	663,PRO	663,PRO
664,GLN	664,GLN	664,GLN	664,GLN	664,GLN	664,GLY	664,GLY	664,GLY	664,GLY	664,GLY
665,SER	665,SER	665,SER	665,SER	665,SER	665,SER	665,SER	665,SER	665,SER	665,SER
666,ALA	666,ALA	666,ALA	666,ALA	666,ALA	-	-	-	-	-
667,ALA	667,ALA	667,ALA	667,ALA	667,ALA	-	-	-	-	-
668,THR	668,THR	668,THR	668,THR	668,THR	-	-	-	-	-
669,PRO	669,PRO	669,PRO	669,PRO	669,PRO	-	-	-	-	-
670,ALA	670,ALA	670,ALA	670,ALA	670,ALA	-	-	-	-	-
671,LEU	671,LEU	671,LEU	671,LEU	671,LEU	-	-	-	-	-
672,SER	672,SER	672,SER	672,SER	672,SER	-	-	-	-	-
673,ASN	673,ASN	673,ASN	673,ASN	673,ASN	-	-	-	-	-
674,PRO	674,PRO	674,PRO	674,PRO	674,PRO	674,PRO	674,PRO	674,PRO	674,PRO	674,PRO
675,HIS	675,HIS	675,HIS	675,HIS	675,HIS	675,HIS	675,HIS	675,HIS	675,HIS	675,HIS
676,LEU	676,LEU	676,LEU	676,LEU	676,LEU	676,LEU	676,LEU	676,LEU	676,LEU	676,LEU
677,THR	677,THR	677,THR	677,THR	677,THR	677,THR	677,THR	677,THR	677,THR	677,THR
678,ALA	678,ALA	678,ALA	678,ALA	678,ALA	678,ALA	678,ALA	678,ALA	678,ALA	678,ALA
679,VAL	679,VAL	679,VAL	679,VAL	679,VAL	679,VAL	679,VAL	679,VAL	679,VAL	679,VAL
680,LEU	680,LEU	680,LEU	680,LEU	680,LEU	680,LEU	680,LEU	680,LEU	680,LEU	680,LEU
681,GLN	681,GLN	681,GLN	681,GLN	681,GLN	681,GLN	681,GLN	681,GLN	681,GLN	681,GLN
682,ASN	682,ASN	682,ASN	682,ASN	682,ASN	682,ASN	682,ASN	682,ASN	682,ASN	682,ASN
683,LYS	683,LYS	683,LYS	683,LYS	683,LYS	683,LYS	683,LYS	683,LYS	683,LYS	683,LYS
684,PHE	684,PHE	684,PHE	684,PHE	684,PHE	684,PHE	684,PHE	684,PHE	684,PHE	684,PHE
685,GLY	685,GLY	685,GLY	685,GLY	685,GLY	685,GLY	685,GLY	685,GLY	685,GLY	685,GLY
686,LEU	686,LEU	686,LEU	686,LEU	686,LEU	686,LEU	686,LEU	686,LEU	686,LEU	686,LEU
687,SER	687,SER	687,SER	687,SER	687,SER	687,SER	687,SER	687,SER	687,SER	687,SER
688,LEU	688,LEU	688,LEU	688,LEU	688,LEU	688,LEU	688,LEU	688,LEU	688,LEU	688,LEU
689,LEU	689,LEU	689,LEU	689,LEU	689,LEU	689,LEU	689,LEU	689,LEU	689,LEU	689,LEU
690,LEU	690,LEU	690,LEU	690,LEU	690,LEU	690,LEU	690,LEU	690,LEU	690,LEU	690,LEU
691,ILE	691,ILE	691,ILE	691,ILE	691,ILE	691,ILE	691,ILE	691,ILE	691,ILE	691,ILE
692,LEU	692,LEU	692,LEU	692,LEU	692,LEU	692,LEU	692,LEU	692,LEU	692,LEU	692,LEU
693,LEU	693,LEU	693,LEU	693,LEU	693,LEU	693,LEU	693,LEU	693,LEU	693,LEU	693,LEU
694,SER	694,SER	694,SER	694,SER	694,SER	694,SER	694,SER	694,SER	694,SER	694,SER
695,ARG	695,ARG	695,ARG	695,ARG	695,ARG	695,ARG	695,ARG	695,ARG	695,ARG	695,ARG
696,GLY	696,GLY	696,GLY	696,GLY	696,GLY	696,GLY	696,GLY	696,GLY	696,GLY	696,GLY
697,GLU	697,GLU	697,GLU	697,GLU	697,GLU	697,GLU	697,GLU	697,GLU	697,GLU	697,GLU
698,ASP	698,ASP	698,ASP	698,ASP	698,ASP	698,ASP	698,ASP	698,ASP	698,ASP	698,ASP
699,LEU	699,LEU	699,LEU	699,LEU	699,LEU	699,LEU	699,LEU	699,LEU	699,LEU	699,LEU
700,GLN	700,GLN	700,GLN	700,GLN	700,GLN	700,GLN	700,GLN	700,GLN	700,GLN	700,GLN
701,SER	701,SER	701,SER	701,SER	701,SER	701,SER	701,SER	701,SER	-	-
702,SER	702,SER	702,SER	702,SER	702,SER	702,SER	702,SER	702,SER	-	-
703,ASP	703,ASP	703,ASP	703,ASP	703,ASP	-	703,ASP	703,ASP	-	-
704,PRO	704,PRO	704,PRO	704,PRO	704,PRO	-	-	-	-	-
705,ALA	705,ALA	705,ALA	705,ALA	705,ALA	-	-	-	-	-
706,THR	706,THR	706,THR	706,THR	706,THR	-	-	-	-	-
707,GLU	707,GLU	707,GLU	707,GLU	707,GLU	-	-	-	-	-
708,SER	708,SER	708,SER	708,SER	708,SER	-	-	-	-	-
709,THR	709,THR	709,THR	709,THR	709,THR	-	709,THR	709,THR	-	-
710,GLN	710,GLN	710,GLN	710,GLN	710,GLN	-	710,GLN	710,GLN	710,GLN	-
711,ASN	711,ASN	711,ASN	711,ASN	711,ASN	711,ASN	711,ASN	711,ASN	711,ASN	711,ASN
712,ASN	712,ASN	712,ASN	712,ASN	712,ASN	712,ASN	712,ASN	712,ASN	712,ASN	712,ASN
713,GLN	713,GLN	713,GLN	713,GLN	713,GLN	713,GLN	713,GLN	713,GLN	713,GLN	713,GLN
714,TRP	714,TRP	714,TRP	714,TRP	714,TRP	714,TRP	714,TRP	714,TRP	714,TRP	714,TRP
715,THR	715,THR	715,THR	715,THR	715,THR	715,THR	715,THR	715,THR	715,THR	715,THR
716,GLU	716,GLU	716,GLU	716,GLU	716,GLU	716,GLU	716,GLU	716,GLU	716,GLU	716,GLU
717,VAL	717,VAL	717,VAL	717,VAL	717,VAL	717,VAL	717,VAL	717,VAL	717,VAL	717,VAL
718,MET	718,MSE	718,MSE	718,MSE	718,MSE	718,MSE	718,MSE	718,MET	718,MET	718,MET
719,PHE	719,PHE	719,PHE	719,PHE	719,PHE	719,PHE	719,PHE	719,PHE	719,PHE	719,PHE
720,MET	720,MSE	720,MSE	720,MSE	720,MSE	720,MSE	720,MSE	720,MET	720,MET	720,MET
721,ALA	721,ALA	721,ALA	721,ALA	721,ALA	721,ALA	721,ALA	721,ALA	721,ALA	721,ALA
722,THR	722,THR	722,THR	722,THR	722,THR	722,THR	722,THR	722,THR	722,THR	722,THR
723,ARG	723,ARG	723,ARG	723,ARG	723,ARG	723,ARG	723,ARG	723,ARG	723,ARG	723,ARG
724,GLU	724,GLU	724,GLU	724,GLU	724,GLU	724,GLU	724,GLU	724,GLU	724,GLU	724,GLU
725,LEU	725,LEU	725,LEU	725,LEU	725,LEU	725,LEU	725,LEU	725,LEU	725,LEU	725,LEU
726,LEU	726,LEU	726,LEU	726,LEU	726,LEU	726,LEU	726,LEU	726,LEU	726,LEU	726,LEU
727,ARG	727,ARG	727,ARG	727,ARG	727,ARG	727,ARG	727,ARG	727,ARG	727,ARG	727,ARG
728,ILE	728,ILE	728,ILE	728,ILE	728,ILE	728,ILE	728,ILE	728,ILE	728,ILE	728,ILE
729,PRO	729,PRO	729,PRO	729,PRO	729,PRO	729,PRO	729,PRO	729,PRO	729,PRO	729,PRO
730,GLN	730,GLN	730,GLN	730,GLN	730,GLN	730,GLN	730,GLN	730,GLN	730,GLN	730,GLN
731,ALA	731,ALA	731,ALA	731,ALA	731,ALA	731,ALA	731,ALA	731,ALA	731,ALA	731,ALA
732,ALA	732,ALA	732,ALA	732,ALA	732,ALA	732,ALA	732,ALA	732,ALA	732,ALA	732,ALA
733,LEU	733,LEU	733,LEU	733,LEU	736,PRO	733,LEU	733,LEU	733,LEU	733,LEU	733,LEU
734,ALA	734,ALA	734,ALA	734,ALA	733,LEU	734,ALA	734,ALA	734,ALA	734,ALA	734,ALA
735,LYS	735,LYS	735,LYS	735,LYS	734,ALA	735,LYS	735,LYS	735,LYS	735,LYS	735,LYS
736,PRO	736,PRO	736,PRO	736,PRO	735,LYS	736,PRO	736,PRO	736,PRO	736,PRO	736,PRO
737,ILE	737,ILE	737,ILE	737,ILE	737,ILE	737,ILE	737,ILE	737,ILE	737,ILE	737,ILE
738,SER	738,SER	738,SER	738,SER	738,SER	738,SER	738,SER	738,SER	738,SER	738,SER
739,ILE	739,ILE	739,ILE	739,ILE	739,ILE	739,ILE	739,ILE	739,ILE	739,ILE	739,ILE
740,PRO	740,PRO	740,PRO	740,PRO	740,PRO	740,PRO	740,PRO	740,PRO	740,PRO	740,PRO
741,THR	741,THR	741,THR	741,THR	741,THR	741,THR	741,THR	741,THR	741,THR	741,THR
742,ASN	742,ASN	742,ASN	742,ASN	742,ASN	742,ASN	742,ASN	742,ASN	742,ASN	742,ASN
743,LEU	743,LEU	743,LEU	743,LEU	743,LEU	743,LEU	743,LEU	743,LEU	743,LEU	743,LEU
744,VAL	744,VAL	744,VAL	744,VAL	747,PHE	744,VAL	744,VAL	744,VAL	744,VAL	744,VAL
745,SER	745,SER	745,SER	745,SER	744,VAL	745,SER	745,SER	745,SER	745,SER	745,SER
746,LEU	746,LEU	746,LEU	746,LEU	745,SER	746,LEU	746,LEU	746,LEU	746,LEU	746,LEU
747,PHE	747,PHE	747,PHE	747,PHE	746,LEU	747,PHE	747,PHE	747,PHE	747,PHE	747,PHE
748,SER	748,SER	748,SER	748,SER	748,SER	748,SER	748,SER	748,SER	748,SER	748,SER
749,ARG	749,ARG	749,ARG	749,ARG	749,ARG	749,ARG	749,ARG	749,ARG	749,ARG	749,ARG
750,TYR	750,TYR	750,TYR	750,TYR	750,TYR	750,TYR	750,TYR	750,TYR	750,TYR	750,TYR
751,VAL	751,VAL	751,VAL	751,VAL	751,VAL	751,VAL	751,VAL	751,VAL	751,VAL	751,VAL
752,ASP	752,ASP	752,ASP	752,ASP	752,ASP	752,ASP	752,ASP	752,ASP	752,ASP	752,ASP
753,ARG	753,ARG	753,ARG	753,ARG	753,ARG	753,ARG	753,ARG	753,ARG	753,ARG	753,ARG
754,GLN	754,GLN	754,GLN	754,GLN	754,GLN	754,GLN	754,GLN	754,GLN	754,GLN	754,GLN
755,LYS	755,LYS	755,LYS	755,LYS	755,LYS	755,LYS	755,LYS	755,LYS	755,LYS	755,LYS
756,LEU	756,LEU	756,LEU	756,LEU	756,LEU	756,LEU	756,LEU	756,LEU	756,LEU	756,LEU
757,ASN	757,ASN	757,ASN	757,ASN	757,ASN	757,ASN	757,ASN	757,ASN	757,ASN	757,ASN
758,LEU	758,LEU	758,LEU	758,LEU	758,LEU	758,LEU	758,LEU	758,LEU	758,LEU	758,LEU
759,LEU	759,LEU	759,LEU	759,LEU	759,LEU	759,LEU	759,LEU	759,LEU	759,LEU	759,LEU
760,GLU	760,GLU	760,GLU	760,GLU	760,GLU	760,GLU	760,GLU	760,GLU	760,GLU	760,GLU
761,THR	761,THR	761,THR	761,THR	761,THR	761,THR	761,THR	761,THR	761,THR	761,THR
762,LYS	762,LYS	762,LYS	762,LYS	762,LYS	762,LYS	762,LYS	762,LYS	762,LYS	762,LYS
763,LEU	763,LEU	763,LEU	763,LEU	763,LEU	763,LEU	763,LEU	763,LEU	763,LEU	763,LEU
764,GLN	764,GLN	764,GLN	764,GLN	764,GLN	764,GLN	764,GLN	764,GLN	764,GLN	764,GLN
765,LEU	765,LEU	765,LEU	765,LEU	765,LEU	765,LEU	765,LEU	765,LEU	-	765,LEU
766,VAL	766,VAL	766,VAL	766,VAL	766,VAL	766,VAL	766,VAL	766,VAL	-	766,VAL
767,GLN	767,GLN	767,GLN	767,GLN	767,GLN	-	767,GLN	-	-	-
768,GLY	-	-	-	-	-	-	-	-	-
769,ILE	-	-	-	-	-	-	-	-	-
770,ARG	-	-	-	-	-	-	-	-	-
