Q64374	4gn9A	4gn9B	4gnaA	4gnaB	4gn7A	4gn7B	4gn8A	4gn8B
1,MET	1,MET	1,MET	1,MET	1,MET	1,MET	1,MET	1,MET	1,MET
2,SER	2,SER	2,SER	2,SER	2,SER	2,SER	2,SER	2,SER	2,SER
3,SER	3,SER	3,SER	3,SER	3,SER	3,SER	3,SER	3,SER	3,SER
4,ILE	4,ILE	4,ILE	4,ILE	4,ILE	4,ILE	4,ILE	4,ILE	4,ILE
5,LYS	5,LYS	5,LYS	5,LYS	5,LYS	5,LYS	5,LYS	5,LYS	5,LYS
6,VAL	6,VAL	6,VAL	6,VAL	6,VAL	6,VAL	6,VAL	6,VAL	6,VAL
7,GLU	7,GLU	7,GLU	7,GLU	7,GLU	7,GLU	7,GLU	7,GLU	7,GLU
8,CYS	8,CYS	8,CYS	8,CYS	8,CYS	8,CYS	8,CYS	8,CYS	8,CYS
9,VAL	9,VAL	9,VAL	9,VAL	9,VAL	9,VAL	9,VAL	9,VAL	9,VAL
10,LEU	10,LEU	10,LEU	10,LEU	10,LEU	10,LEU	10,LEU	10,LEU	10,LEU
11,ARG	11,ARG	11,ARG	11,ARG	11,ARG	11,ARG	11,ARG	11,ARG	11,ARG
12,GLU	12,GLU	12,GLU	12,GLU	12,GLU	12,GLU	12,GLU	12,GLU	12,GLU
13,ASN	13,ASN	13,ASN	13,ASN	13,ASN	13,ASN	13,ASN	13,ASN	13,ASN
14,TYR	14,TYR	14,TYR	14,TYR	14,TYR	14,TYR	14,TYR	14,TYR	14,TYR
15,ARG	15,ARG	15,ARG	15,ARG	15,ARG	15,ARG	15,ARG	15,ARG	15,ARG
16,CYS	16,CYS	16,CYS	16,CYS	16,CYS	16,CYS	16,CYS	16,CYS	16,CYS
17,GLY	17,GLY	17,GLY	17,GLY	17,GLY	17,GLY	17,GLY	17,GLY	17,GLY
18,GLU	18,GLU	18,GLU	18,GLU	18,GLU	18,GLU	18,GLU	18,GLU	18,GLU
19,SER	19,SER	19,SER	19,SER	19,SER	19,SER	19,SER	19,SER	19,SER
20,PRO	20,PRO	20,PRO	20,PRO	20,PRO	20,PRO	20,PRO	20,PRO	20,PRO
21,VAL	21,VAL	21,VAL	21,VAL	21,VAL	21,VAL	21,VAL	21,VAL	21,VAL
22,TRP	22,TRP	22,TRP	22,TRP	22,TRP	22,TRP	22,TRP	22,TRP	22,TRP
23,GLU	23,GLU	23,GLU	23,GLU	23,GLU	23,GLU	23,GLU	23,GLU	23,GLU
24,GLU	24,GLU	24,GLU	24,GLU	24,GLU	24,GLU	24,GLU	24,GLU	24,GLU
25,ALA	25,ALA	25,ALA	25,ALA	25,ALA	25,ALA	25,ALA	25,ALA	25,ALA
26,SER	26,SER	26,SER	26,SER	26,SER	26,SER	26,SER	26,SER	26,SER
27,GLN	27,GLN	27,GLN	27,GLN	27,GLN	27,GLN	27,GLN	27,GLN	27,GLN
28,SER	28,SER	28,SER	28,SER	28,SER	28,SER	28,SER	28,SER	28,SER
29,LEU	29,LEU	29,LEU	29,LEU	29,LEU	29,LEU	29,LEU	29,LEU	29,LEU
30,LEU	30,LEU	30,LEU	30,LEU	30,LEU	30,LEU	30,LEU	30,LEU	30,LEU
31,PHE	31,PHE	31,PHE	31,PHE	31,PHE	31,PHE	31,PHE	31,PHE	31,PHE
32,VAL	32,VAL	32,VAL	32,VAL	32,VAL	32,VAL	32,VAL	32,VAL	32,VAL
33,ASP	33,ASP	33,ASP	33,ASP	33,ASP	33,ASP	33,ASP	33,ASP	33,ASP
34,ILE	34,ILE	34,ILE	34,ILE	34,ILE	34,ILE	34,ILE	34,ILE	34,ILE
35,PRO	35,PRO	35,PRO	35,PRO	35,PRO	35,PRO	35,PRO	35,PRO	35,PRO
36,SER	36,SER	36,SER	36,SER	36,SER	36,SER	36,SER	36,SER	36,SER
37,LYS	37,LYS	37,LYS	37,LYS	37,LYS	37,LYS	37,LYS	37,LYS	37,LYS
38,ILE	38,ILE	38,ILE	38,ILE	38,ILE	38,ILE	38,ILE	38,ILE	38,ILE
39,ILE	39,ILE	39,ILE	39,ILE	39,ILE	39,ILE	39,ILE	39,ILE	39,ILE
40,CYS	40,CYS	40,CYS	40,CYS	40,CYS	40,CYS	40,CYS	40,CYS	40,CYS
41,ARG	41,ARG	41,ARG	41,ARG	41,ARG	41,ARG	41,ARG	41,ARG	41,ARG
42,TRP	42,TRP	42,TRP	42,TRP	42,TRP	42,TRP	42,TRP	42,TRP	42,TRP
43,ASP	43,ASP	43,ASP	43,ASP	43,ASP	43,ASP	43,ASP	43,ASP	43,ASP
44,THR	44,THR	44,THR	44,THR	44,THR	44,THR	44,THR	44,THR	44,THR
45,VAL	45,VAL	45,VAL	45,VAL	45,VAL	45,VAL	45,VAL	45,VAL	45,VAL
46,SER	46,SER	46,SER	46,SER	46,SER	46,SER	46,SER	46,SER	46,SER
47,ASN	47,ASN	47,ASN	47,ASN	47,ASN	47,ASN	47,ASN	47,ASN	47,ASN
48,GLN	48,GLN	48,GLN	48,GLN	48,GLN	48,GLN	48,GLN	48,GLN	48,GLN
49,VAL	49,VAL	49,VAL	49,VAL	49,VAL	49,VAL	49,VAL	49,VAL	49,VAL
50,GLN	50,GLN	50,GLN	50,GLN	50,GLN	50,GLN	50,GLN	50,GLN	50,GLN
51,ARG	54,VAL	51,ARG	51,ARG	51,ARG	51,ARG	51,ARG	51,ARG	51,ARG
52,VAL	51,ARG	52,VAL	52,VAL	52,VAL	52,VAL	52,VAL	52,VAL	52,VAL
53,ALA	52,VAL	53,ALA	53,ALA	53,ALA	53,ALA	53,ALA	53,ALA	53,ALA
54,VAL	53,ALA	54,VAL	54,VAL	54,VAL	54,VAL	54,VAL	54,VAL	54,VAL
55,ASP	55,ASP	55,ASP	55,ASP	55,ASP	55,ASP	55,ASP	55,ASP	55,ASP
56,ALA	56,ALA	56,ALA	56,ALA	56,ALA	56,ALA	56,ALA	56,ALA	56,ALA
57,PRO	57,PRO	57,PRO	57,PRO	57,PRO	57,PRO	57,PRO	57,PRO	57,PRO
58,VAL	58,VAL	58,VAL	58,VAL	58,VAL	58,VAL	58,VAL	58,VAL	58,VAL
59,SER	59,SER	59,SER	59,SER	59,SER	59,SER	59,SER	59,SER	59,SER
60,SER	60,SER	60,SER	60,SER	60,SER	60,SER	60,SER	60,SER	60,SER
61,VAL	61,VAL	61,VAL	61,VAL	61,VAL	61,VAL	61,VAL	61,VAL	61,VAL
62,ALA	62,ALA	62,ALA	62,ALA	62,ALA	62,ALA	62,ALA	62,ALA	62,ALA
63,LEU	63,LEU	63,LEU	63,LEU	63,LEU	63,LEU	63,LEU	63,LEU	63,LEU
64,ARG	64,ARG	64,ARG	64,ARG	64,ARG	64,ARG	64,ARG	64,ARG	64,ARG
65,GLN	65,GLN	65,GLN	65,GLN	65,GLN	65,GLN	65,GLN	65,GLN	65,GLN
66,LEU	66,LEU	66,LEU	66,LEU	66,LEU	66,LEU	66,LEU	66,LEU	66,LEU
67,GLY	67,GLY	67,GLY	67,GLY	67,GLY	67,GLY	67,GLY	67,GLY	67,GLY
68,GLY	68,GLY	68,GLY	68,GLY	68,GLY	68,GLY	68,GLY	68,GLY	68,GLY
69,TYR	69,TYR	69,TYR	69,TYR	69,TYR	69,TYR	69,TYR	69,TYR	69,TYR
70,VAL	70,VAL	70,VAL	70,VAL	70,VAL	70,VAL	70,VAL	70,VAL	70,VAL
71,ALA	71,ALA	71,ALA	71,ALA	71,ALA	71,ALA	71,ALA	71,ALA	71,ALA
72,THR	72,THR	72,THR	72,THR	72,THR	72,THR	72,THR	72,THR	72,THR
73,ILE	73,ILE	73,ILE	73,ILE	73,ILE	73,ILE	73,ILE	73,ILE	73,ILE
74,GLY	74,GLY	74,GLY	74,GLY	74,GLY	74,GLY	74,GLY	74,GLY	74,GLY
75,THR	75,THR	75,THR	75,THR	75,THR	75,THR	75,THR	75,THR	75,THR
76,LYS	76,LYS	76,LYS	76,LYS	76,LYS	76,LYS	76,LYS	76,LYS	76,LYS
77,PHE	77,PHE	77,PHE	77,PHE	77,PHE	77,PHE	77,PHE	77,PHE	77,PHE
78,CYS	78,CYS	78,CYS	78,CYS	78,CYS	78,CYS	78,CYS	78,CYS	78,CYS
79,ALA	79,ALA	79,ALA	79,ALA	79,ALA	79,ALA	79,ALA	79,ALA	79,ALA
80,LEU	80,LEU	80,LEU	80,LEU	80,LEU	80,LEU	80,LEU	80,LEU	80,LEU
81,ASN	81,ASN	81,ASN	81,ASN	81,ASN	81,ASN	81,ASN	81,ASN	81,ASN
82,TRP	82,TRP	82,TRP	82,TRP	82,TRP	82,TRP	82,TRP	82,TRP	82,TRP
83,GLU	83,GLU	83,GLU	83,GLU	83,GLU	83,GLU	83,GLU	83,GLU	83,GLU
84,ASN	84,ASN	84,ASN	84,ASN	84,ASN	84,ASN	84,ASN	84,ASN	84,ASN
85,GLN	85,GLN	85,GLN	85,GLN	85,GLN	85,GLN	85,GLN	85,GLN	85,GLN
86,SER	86,SER	86,SER	86,SER	86,SER	86,SER	86,SER	86,SER	86,SER
87,VAL	87,VAL	87,VAL	87,VAL	87,VAL	87,VAL	87,VAL	87,VAL	87,VAL
88,PHE	88,PHE	88,PHE	88,PHE	88,PHE	88,PHE	88,PHE	88,PHE	88,PHE
89,VAL	89,VAL	89,VAL	89,VAL	89,VAL	89,VAL	89,VAL	89,VAL	89,VAL
90,LEU	90,LEU	90,LEU	90,LEU	90,LEU	90,LEU	90,LEU	90,LEU	90,LEU
91,ALA	91,ALA	91,ALA	91,ALA	91,ALA	91,ALA	91,ALA	91,ALA	91,ALA
92,MET	92,MET	92,MET	92,MET	92,MET	92,MET	92,MET	92,MET	92,MET
93,VAL	93,VAL	93,VAL	93,VAL	93,VAL	93,VAL	93,VAL	93,VAL	93,VAL
94,ASP	94,ASP	94,ASP	94,ASP	94,ASP	94,ASP	94,ASP	94,ASP	94,ASP
95,GLU	95,GLU	95,GLU	95,GLU	95,GLU	95,GLU	95,GLU	95,GLU	95,GLU
96,ASP	96,ASP	96,ASP	96,ASP	96,ASP	96,ASP	96,ASP	96,ASP	96,ASP
97,LYS	97,LYS	97,LYS	97,LYS	97,LYS	97,LYS	97,LYS	97,LYS	97,LYS
98,LYS	98,LYS	98,LYS	98,LYS	98,LYS	98,LYS	98,LYS	98,LYS	98,LYS
99,ASN	99,ASN	99,ASN	99,ASN	99,ASN	99,ASN	99,ASN	99,ASN	99,ASN
100,ASN	100,ASN	100,ASN	100,ASN	100,ASN	100,ASN	100,ASN	100,ASN	100,ASN
101,ARG	101,ARG	101,ARG	101,ARG	101,ARG	101,ARG	101,ARG	101,ARG	101,ARG
102,PHE	102,PHE	102,PHE	102,PHE	102,PHE	102,PHE	102,PHE	102,PHE	102,PHE
103,ASN	103,ASN	103,ASN	103,ASN	103,ASN	103,ASN	103,ASN	103,ASN	103,ASN
104,ASP	104,ASP	104,ASP	104,ASP	104,ASP	104,ASP	104,ASP	104,ASP	104,ASP
105,GLY	105,GLY	105,GLY	105,GLY	105,GLY	105,GLY	105,GLY	105,GLY	105,GLY
106,LYS	106,LYS	106,LYS	106,LYS	106,LYS	106,LYS	106,LYS	106,LYS	106,LYS
107,VAL	107,VAL	107,VAL	107,VAL	107,VAL	107,VAL	107,VAL	107,VAL	107,VAL
108,ASP	108,ASP	108,ASP	108,ASP	108,ASP	108,ASP	108,ASP	108,ASP	108,ASP
109,PRO	109,PRO	109,PRO	109,PRO	109,PRO	109,PRO	109,PRO	109,PRO	109,PRO
110,ALA	110,ALA	110,ALA	110,ALA	110,ALA	110,ALA	110,ALA	110,ALA	110,ALA
111,GLY	111,GLY	111,GLY	111,GLY	111,GLY	111,GLY	111,GLY	111,GLY	111,GLY
112,ARG	112,ARG	112,ARG	112,ARG	112,ARG	112,ARG	112,ARG	112,ARG	112,ARG
113,TYR	113,TYR	113,TYR	113,TYR	113,TYR	113,TYR	113,TYR	113,TYR	113,TYR
114,PHE	114,PHE	114,PHE	114,PHE	114,PHE	114,PHE	114,PHE	114,PHE	114,PHE
115,ALA	115,ALA	115,ALA	115,ALA	115,ALA	115,ALA	115,ALA	115,ALA	115,ALA
116,GLY	116,GLY	116,GLY	116,GLY	116,GLY	116,GLY	116,GLY	116,GLY	116,GLY
117,THR	117,THR	117,THR	117,THR	117,THR	117,THR	117,THR	117,THR	117,THR
118,MET	118,MET	118,MET	118,MET	118,MET	118,MET	118,MET	118,MET	118,MET
119,ALA	119,ALA	119,ALA	119,ALA	119,ALA	119,ALA	119,ALA	119,ALA	119,ALA
120,GLU	120,GLU	120,GLU	120,GLU	120,GLU	120,GLU	120,GLU	120,GLU	120,GLU
121,GLU	121,GLU	121,GLU	121,GLU	121,GLU	121,GLU	121,GLU	121,GLU	121,GLU
122,THR	122,THR	122,THR	122,THR	122,THR	122,THR	122,THR	122,THR	122,THR
123,ALA	123,ALA	123,ALA	123,ALA	123,ALA	123,ALA	123,ALA	123,ALA	123,ALA
124,PRO	124,PRO	124,PRO	124,PRO	124,PRO	124,PRO	124,PRO	124,PRO	124,PRO
125,ALA	125,ALA	125,ALA	125,ALA	125,ALA	125,ALA	125,ALA	125,ALA	125,ALA
126,VAL	126,VAL	126,VAL	126,VAL	126,VAL	126,VAL	126,VAL	126,VAL	126,VAL
127,LEU	127,LEU	127,LEU	127,LEU	127,LEU	127,LEU	127,LEU	127,LEU	127,LEU
128,GLU	128,GLU	128,GLU	128,GLU	128,GLU	128,GLU	128,GLU	128,GLU	128,GLU
129,ARG	129,ARG	129,ARG	129,ARG	129,ARG	129,ARG	129,ARG	129,ARG	129,ARG
130,HIS	130,HIS	130,HIS	130,HIS	130,HIS	130,HIS	130,HIS	130,HIS	130,HIS
131,GLN	131,GLN	131,GLN	131,GLN	131,GLN	131,GLN	131,GLN	131,GLN	131,GLN
132,GLY	132,GLY	132,GLY	132,GLY	132,GLY	132,GLY	132,GLY	132,GLY	132,GLY
133,SER	133,SER	133,SER	133,SER	133,SER	133,SER	133,SER	133,SER	133,SER
134,LEU	134,LEU	134,LEU	134,LEU	134,LEU	134,LEU	134,LEU	134,LEU	134,LEU
135,TYR	135,TYR	135,TYR	135,TYR	135,TYR	135,TYR	135,TYR	135,TYR	135,TYR
136,SER	136,SER	136,SER	136,SER	136,SER	136,SER	136,SER	136,SER	136,SER
137,LEU	137,LEU	137,LEU	137,LEU	137,LEU	137,LEU	137,LEU	137,LEU	137,LEU
138,PHE	138,PHE	138,PHE	138,PHE	138,PHE	138,PHE	138,PHE	138,PHE	138,PHE
139,PRO	139,PRO	139,PRO	139,PRO	139,PRO	139,PRO	139,PRO	139,PRO	139,PRO
140,ASP	140,ASP	140,ASP	140,ASP	140,ASP	140,ASP	140,ASP	140,ASP	140,ASP
141,HIS	141,HIS	141,HIS	141,HIS	141,HIS	141,HIS	141,HIS	141,HIS	141,HIS
142,SER	142,SER	142,SER	142,SER	142,SER	142,SER	142,SER	142,SER	142,SER
143,VAL	143,VAL	143,VAL	143,VAL	143,VAL	143,VAL	143,VAL	143,VAL	143,VAL
144,LYS	144,LYS	144,LYS	144,LYS	144,LYS	144,LYS	144,LYS	144,LYS	144,LYS
145,LYS	145,LYS	145,LYS	145,LYS	145,LYS	145,LYS	145,LYS	145,LYS	145,LYS
146,TYR	146,TYR	146,TYR	146,TYR	146,TYR	146,TYR	146,TYR	146,TYR	146,TYR
147,PHE	147,PHE	147,PHE	147,PHE	147,PHE	147,PHE	147,PHE	147,PHE	147,PHE
148,ASP	148,ASP	148,ASP	148,ASP	148,ASP	148,ASP	148,ASP	148,ASP	148,ASP
149,GLN	149,GLN	149,GLN	149,GLN	149,GLN	149,GLN	149,GLN	149,GLN	149,GLN
150,VAL	150,VAL	150,VAL	150,VAL	150,VAL	150,VAL	150,VAL	150,VAL	150,VAL
151,ASP	151,ASP	151,ASP	151,ASP	151,ASP	151,ASP	151,ASP	151,ASP	151,ASP
152,ILE	152,ILE	152,ILE	152,ILE	152,ILE	152,ILE	152,ILE	152,ILE	152,ILE
153,SER	153,SER	153,SER	153,SER	153,SER	153,SER	153,SER	153,SER	153,SER
154,ASN	154,ASN	154,ASN	154,ASN	154,ASN	154,ASN	154,ASN	154,ASN	154,ASN
155,GLY	155,GLY	155,GLY	155,GLY	155,GLY	155,GLY	155,GLY	155,GLY	155,GLY
156,LEU	156,LEU	156,LEU	156,LEU	156,LEU	156,LEU	156,LEU	156,LEU	156,LEU
157,ASP	157,ASP	157,ASP	157,ASP	157,ASP	157,ASP	157,ASP	157,ASP	157,ASP
158,TRP	158,TRP	158,TRP	158,TRP	158,TRP	158,TRP	158,TRP	158,TRP	158,TRP
159,SER	159,SER	159,SER	159,SER	159,SER	159,SER	159,SER	159,SER	159,SER
160,LEU	160,LEU	160,LEU	160,LEU	160,LEU	160,LEU	160,LEU	160,LEU	160,LEU
161,ASP	161,ASP	161,ASP	161,ASP	161,ASP	161,ASP	161,ASP	161,ASP	161,ASP
162,HIS	162,HIS	162,HIS	162,HIS	162,HIS	162,HIS	162,HIS	162,HIS	162,HIS
163,LYS	163,LYS	163,LYS	163,LYS	163,LYS	163,LYS	163,LYS	163,LYS	163,LYS
164,ILE	164,ILE	164,ILE	164,ILE	164,ILE	164,ILE	164,ILE	164,ILE	164,ILE
165,PHE	165,PHE	165,PHE	165,PHE	165,PHE	165,PHE	165,PHE	165,PHE	165,PHE
166,TYR	166,TYR	166,TYR	166,TYR	166,TYR	166,TYR	166,TYR	166,TYR	166,TYR
167,TYR	167,TYR	167,TYR	167,TYR	167,TYR	167,TYR	167,TYR	167,TYR	167,TYR
168,ILE	168,ILE	168,ILE	168,ILE	168,ILE	168,ILE	168,ILE	168,ILE	168,ILE
169,ASP	169,ASP	169,ASP	169,ASP	169,ASP	169,ASP	169,ASP	169,ASP	169,ASP
170,SER	170,SER	170,SER	170,SER	170,SER	170,SER	170,SER	170,SER	170,SER
171,LEU	171,LEU	171,LEU	171,LEU	171,LEU	171,LEU	171,LEU	171,LEU	171,LEU
172,SER	172,SER	172,SER	172,SER	172,SER	172,SER	172,SER	172,SER	172,SER
173,TYR	173,TYR	173,TYR	173,TYR	173,TYR	173,TYR	173,TYR	173,TYR	173,TYR
174,THR	174,THR	174,THR	174,THR	174,THR	174,THR	174,THR	174,THR	174,THR
175,VAL	175,VAL	175,VAL	175,VAL	175,VAL	175,VAL	175,VAL	175,VAL	175,VAL
176,ASP	176,ASP	176,ASP	176,ASP	176,ASP	176,ASP	176,ASP	176,ASP	176,ASP
177,ALA	177,ALA	177,ALA	177,ALA	177,ALA	177,ALA	177,ALA	177,ALA	177,ALA
178,PHE	178,PHE	178,PHE	178,PHE	178,PHE	178,PHE	178,PHE	178,PHE	178,PHE
179,ASP	179,ASP	179,ASP	179,ASP	179,ASP	179,ASP	179,ASP	179,ASP	179,ASP
180,TYR	180,TYR	180,TYR	180,TYR	180,TYR	180,TYR	180,TYR	180,TYR	180,TYR
181,ASP	181,ASP	181,ASP	181,ASP	181,ASP	181,ASP	181,ASP	181,ASP	181,ASP
182,LEU	182,LEU	182,LEU	182,LEU	182,LEU	182,LEU	182,LEU	182,LEU	182,LEU
183,GLN	183,GLN	183,GLN	183,GLN	183,GLN	183,GLN	183,GLN	183,GLN	183,GLN
184,THR	184,THR	184,THR	184,THR	184,THR	184,THR	184,THR	184,THR	184,THR
185,GLY	185,GLY	185,GLY	185,GLY	185,GLY	185,GLY	185,GLY	185,GLY	185,GLY
186,GLN	186,GLN	186,GLN	186,GLN	186,GLN	186,GLN	186,GLN	186,GLN	186,GLN
187,ILE	187,ILE	187,ILE	187,ILE	187,ILE	187,ILE	187,ILE	187,ILE	187,ILE
188,SER	188,SER	188,SER	188,SER	188,SER	188,SER	188,SER	188,SER	188,SER
189,ASN	189,ASN	189,ASN	189,ASN	189,ASN	189,ASN	189,ASN	189,ASN	189,ASN
190,ARG	190,ARG	190,ARG	190,ARG	190,ARG	190,ARG	190,ARG	190,ARG	190,ARG
191,ARG	191,ARG	191,ARG	191,ARG	191,ARG	191,ARG	191,ARG	191,ARG	191,ARG
192,ILE	192,ILE	192,ILE	192,ILE	192,ILE	192,ILE	192,ILE	192,ILE	192,ILE
193,VAL	193,VAL	193,VAL	193,VAL	193,VAL	193,VAL	193,VAL	193,VAL	193,VAL
194,TYR	194,TYR	194,TYR	194,TYR	194,TYR	194,TYR	194,TYR	194,TYR	194,TYR
195,LYS	195,LYS	195,LYS	195,LYS	195,LYS	195,LYS	195,LYS	195,LYS	195,LYS
196,MET	196,MET	196,MET	196,MET	196,MET	196,MET	196,MET	196,MET	196,MET
197,GLU	197,GLU	197,GLU	197,GLU	200,GLU	197,GLU	197,GLU	197,GLU	197,GLU
198,LYS	198,LYS	198,LYS	198,LYS	197,GLU	198,LYS	198,LYS	198,LYS	198,LYS
199,ASP	199,ASP	199,ASP	199,ASP	198,LYS	199,ASP	199,ASP	199,ASP	199,ASP
200,GLU	200,GLU	200,GLU	200,GLU	199,ASP	200,GLU	200,GLU	200,GLU	200,GLU
201,GLN	201,GLN	201,GLN	201,GLN	201,GLN	201,GLN	201,GLN	201,GLN	201,GLN
202,ILE	202,ILE	202,ILE	202,ILE	202,ILE	202,ILE	202,ILE	202,ILE	202,ILE
203,PRO	203,PRO	203,PRO	203,PRO	203,PRO	203,PRO	203,PRO	203,PRO	203,PRO
204,ASP	204,ASP	204,ASP	204,ASP	204,ASP	204,ASP	204,ASP	204,ASP	204,ASP
205,GLY	205,GLY	205,GLY	205,GLY	205,GLY	205,GLY	205,GLY	205,GLY	205,GLY
206,MET	206,MET	206,MET	206,MET	206,MET	206,MET	206,MET	206,MET	206,MET
207,CYS	207,CYS	207,CYS	207,CYS	207,CYS	207,CYS	207,CYS	207,CYS	207,CYS
208,ILE	208,ILE	208,ILE	208,ILE	208,ILE	208,ILE	208,ILE	208,ILE	208,ILE
209,ASP	209,ASP	209,ASP	209,ASP	209,ASP	209,ASP	209,ASP	209,ASP	209,ASP
210,ALA	210,ALA	210,ALA	210,ALA	210,ALA	210,ALA	210,ALA	210,ALA	210,ALA
211,GLU	211,GLU	211,GLU	211,GLU	211,GLU	211,GLU	211,GLU	211,GLU	211,GLU
212,GLY	212,GLY	212,GLY	212,GLY	212,GLY	212,GLY	212,GLY	212,GLY	212,GLY
213,LYS	213,LYS	213,LYS	213,LYS	213,LYS	213,LYS	213,LYS	213,LYS	213,LYS
214,LEU	214,LEU	214,LEU	214,LEU	214,LEU	214,LEU	214,LEU	214,LEU	214,LEU
215,TRP	218,CYS	215,TRP	215,TRP	215,TRP	215,TRP	215,TRP	215,TRP	215,TRP
216,VAL	215,TRP	216,VAL	216,VAL	216,VAL	216,VAL	216,VAL	216,VAL	216,VAL
217,ALA	216,VAL	217,ALA	217,ALA	217,ALA	217,ALA	217,ALA	217,ALA	217,ALA
218,CYS	217,ALA	218,CYS	218,CYS	218,CYS	218,CYS	218,CYS	218,CYS	218,CYS
219,TYR	219,TYR	219,TYR	219,TYR	219,TYR	219,TYR	219,TYR	219,TYR	219,TYR
220,ASN	220,ASN	220,ASN	220,ASN	220,ASN	220,ASN	220,ASN	220,ASN	220,ASN
221,GLY	221,GLY	221,GLY	221,GLY	221,GLY	221,GLY	221,GLY	221,GLY	221,GLY
222,GLY	222,GLY	222,GLY	222,GLY	222,GLY	222,GLY	222,GLY	222,GLY	222,GLY
223,ARG	223,ARG	223,ARG	223,ARG	223,ARG	223,ARG	223,ARG	223,ARG	223,ARG
224,VAL	224,VAL	224,VAL	224,VAL	224,VAL	224,VAL	224,VAL	224,VAL	224,VAL
225,ILE	225,ILE	225,ILE	225,ILE	225,ILE	225,ILE	225,ILE	225,ILE	225,ILE
226,ARG	226,ARG	226,ARG	226,ARG	226,ARG	226,ARG	226,ARG	226,ARG	226,ARG
227,LEU	227,LEU	227,LEU	227,LEU	227,LEU	227,LEU	227,LEU	227,LEU	227,LEU
228,ASP	228,ASP	228,ASP	228,ASP	228,ASP	228,ASP	228,ASP	228,ASP	228,ASP
229,PRO	229,PRO	229,PRO	229,PRO	229,PRO	229,PRO	229,PRO	229,PRO	229,PRO
230,GLU	230,GLU	230,GLU	230,GLU	230,GLU	230,GLU	230,GLU	230,GLU	230,GLU
231,THR	231,THR	231,THR	231,THR	231,THR	231,THR	231,THR	231,THR	231,THR
232,GLY	232,GLY	232,GLY	232,GLY	232,GLY	232,GLY	232,GLY	232,GLY	232,GLY
233,LYS	233,LYS	233,LYS	233,LYS	233,LYS	233,LYS	233,LYS	233,LYS	233,LYS
234,ARG	234,ARG	234,ARG	234,ARG	234,ARG	234,ARG	234,ARG	234,ARG	234,ARG
235,LEU	235,LEU	235,LEU	235,LEU	235,LEU	235,LEU	235,LEU	235,LEU	235,LEU
236,GLN	236,GLN	236,GLN	236,GLN	236,GLN	236,GLN	236,GLN	236,GLN	236,GLN
237,THR	237,THR	237,THR	237,THR	237,THR	237,THR	237,THR	237,THR	237,THR
238,VAL	238,VAL	238,VAL	238,VAL	238,VAL	238,VAL	238,VAL	238,VAL	238,VAL
239,LYS	239,LYS	239,LYS	239,LYS	239,LYS	239,LYS	239,LYS	239,LYS	239,LYS
240,LEU	240,LEU	240,LEU	240,LEU	240,LEU	240,LEU	240,LEU	240,LEU	240,LEU
241,PRO	241,PRO	241,PRO	241,PRO	241,PRO	241,PRO	241,PRO	241,PRO	241,PRO
242,VAL	242,VAL	242,VAL	242,VAL	242,VAL	242,VAL	242,VAL	242,VAL	242,VAL
243,ASP	243,ASP	243,ASP	243,ASP	243,ASP	243,ASP	243,ASP	243,ASP	243,ASP
244,LYS	244,LYS	244,LYS	244,LYS	244,LYS	244,LYS	244,LYS	244,LYS	244,LYS
245,THR	245,THR	245,THR	245,THR	245,THR	245,THR	245,THR	245,THR	245,THR
246,THR	246,THR	246,THR	246,THR	246,THR	246,THR	246,THR	246,THR	246,THR
247,SER	247,SER	247,SER	247,SER	247,SER	247,SER	247,SER	247,SER	247,SER
248,CYS	248,CYS	248,CYS	248,CYS	248,CYS	248,CYS	248,CYS	248,CYS	248,CYS
249,CYS	249,CYS	249,CYS	249,CYS	249,CYS	249,CYS	249,CYS	249,CYS	249,CYS
250,PHE	250,PHE	250,PHE	250,PHE	250,PHE	250,PHE	250,PHE	250,PHE	250,PHE
251,GLY	251,GLY	251,GLY	251,GLY	251,GLY	251,GLY	251,GLY	251,GLY	251,GLY
252,GLY	252,GLY	252,GLY	252,GLY	252,GLY	252,GLY	252,GLY	252,GLY	252,GLY
253,LYS	253,LYS	253,LYS	253,LYS	253,LYS	253,LYS	253,LYS	253,LYS	253,LYS
254,ASP	254,ASP	254,ASP	254,ASP	254,ASP	254,ASP	254,ASP	254,ASP	254,ASP
255,TYR	255,TYR	255,TYR	255,TYR	255,TYR	255,TYR	255,TYR	255,TYR	255,TYR
256,SER	256,SER	256,SER	256,SER	256,SER	256,SER	256,SER	256,SER	256,SER
257,GLU	257,GLU	257,GLU	257,GLU	257,GLU	257,GLU	257,GLU	257,GLU	257,GLU
258,MET	258,MET	258,MET	258,MET	258,MET	258,MET	258,MET	258,MET	258,MET
259,TYR	259,TYR	259,TYR	259,TYR	259,TYR	259,TYR	259,TYR	259,TYR	259,TYR
260,VAL	260,VAL	260,VAL	260,VAL	260,VAL	260,VAL	260,VAL	260,VAL	260,VAL
261,THR	261,THR	261,THR	261,THR	261,THR	261,THR	261,THR	261,THR	261,THR
262,CYS	262,CYS	262,CYS	262,CYS	262,CYS	262,CYS	262,CYS	262,CYS	262,CYS
263,ALA	263,ALA	263,ALA	263,ALA	263,ALA	263,ALA	263,ALA	263,ALA	263,ALA
264,ARG	264,ARG	264,ARG	264,ARG	264,ARG	264,ARG	264,ARG	264,ARG	264,ARG
265,ASP	265,ASP	265,ASP	265,ASP	265,ASP	265,ASP	265,ASP	265,ASP	265,ASP
266,GLY	266,GLY	266,GLY	266,GLY	266,GLY	266,GLY	266,GLY	266,GLY	266,GLY
267,LEU	267,LEU	267,LEU	267,LEU	267,LEU	267,LEU	267,LEU	267,LEU	267,LEU
268,ASN	268,ASN	268,ASN	268,ASN	268,ASN	268,ASN	268,ASN	268,ASN	268,ASN
269,ALA	269,ALA	269,ALA	269,ALA	269,ALA	269,ALA	269,ALA	269,ALA	269,ALA
270,GLU	270,GLU	270,GLU	270,GLU	270,GLU	270,GLU	270,GLU	270,GLU	270,GLU
271,GLY	271,GLY	271,GLY	271,GLY	271,GLY	271,GLY	271,GLY	271,GLY	271,GLY
272,LEU	272,LEU	272,LEU	272,LEU	272,LEU	272,LEU	272,LEU	272,LEU	272,LEU
273,LEU	273,LEU	273,LEU	273,LEU	273,LEU	273,LEU	273,LEU	273,LEU	273,LEU
274,ARG	274,ARG	274,ARG	274,ARG	274,ARG	274,ARG	274,ARG	274,ARG	274,ARG
275,GLN	275,GLN	275,GLN	275,GLN	275,GLN	275,GLN	275,GLN	275,GLN	275,GLN
276,PRO	276,PRO	276,PRO	276,PRO	276,PRO	276,PRO	276,PRO	276,PRO	276,PRO
277,ASP	277,ASP	277,ASP	277,ASP	277,ASP	277,ASP	277,ASP	277,ASP	277,ASP
278,ALA	278,ALA	278,ALA	278,ALA	278,ALA	278,ALA	278,ALA	278,ALA	278,ALA
279,GLY	279,GLY	279,GLY	279,GLY	279,GLY	279,GLY	279,GLY	279,GLY	279,GLY
280,ASN	280,ASN	280,ASN	280,ASN	280,ASN	280,ASN	283,LYS	280,ASN	280,ASN
281,ILE	281,ILE	281,ILE	281,ILE	281,ILE	281,ILE	280,ASN	281,ILE	281,ILE
282,PHE	282,PHE	285,THR	282,PHE	282,PHE	282,PHE	281,ILE	282,PHE	282,PHE
283,LYS	283,LYS	282,PHE	283,LYS	283,LYS	283,LYS	282,PHE	283,LYS	283,LYS
284,ILE	284,ILE	283,LYS	284,ILE	284,ILE	284,ILE	284,ILE	284,ILE	284,ILE
285,THR	285,THR	284,ILE	285,THR	285,THR	285,THR	285,THR	285,THR	285,THR
286,GLY	286,GLY	286,GLY	286,GLY	286,GLY	286,GLY	286,GLY	286,GLY	286,GLY
287,LEU	287,LEU	287,LEU	287,LEU	287,LEU	287,LEU	287,LEU	287,LEU	287,LEU
288,GLY	288,GLY	288,GLY	288,GLY	288,GLY	288,GLY	288,GLY	288,GLY	288,GLY
289,VAL	289,VAL	289,VAL	289,VAL	289,VAL	289,VAL	289,VAL	289,VAL	289,VAL
290,LYS	290,LYS	290,LYS	290,LYS	290,LYS	290,LYS	290,LYS	290,LYS	290,LYS
291,GLY	291,GLY	291,GLY	291,GLY	291,GLY	291,GLY	291,GLY	291,GLY	291,GLY
292,ILE	292,ILE	292,ILE	292,ILE	292,ILE	292,ILE	292,ILE	292,ILE	292,ILE
293,ALA	293,ALA	293,ALA	293,ALA	293,ALA	293,ALA	293,ALA	293,ALA	293,ALA
294,PRO	294,PRO	294,PRO	294,PRO	294,PRO	294,PRO	294,PRO	294,PRO	294,PRO
295,TYR	295,TYR	295,TYR	295,TYR	295,TYR	295,TYR	295,TYR	295,TYR	295,TYR
296,SER	296,SER	296,SER	296,SER	296,SER	296,SER	296,SER	296,SER	296,SER
297,TYR	297,TYR	297,TYR	297,TYR	297,TYR	297,TYR	297,TYR	297,TYR	297,TYR
298,ALA	298,ALA	298,ALA	298,ALA	298,ALA	298,ALA	298,ALA	298,ALA	298,ALA
299,GLY	299,GLY	299,GLY	299,GLY	299,GLY	299,GLY	299,GLY	299,GLY	299,GLY
