uniprot_isoform	location_id	ENSEMBL ID	uniprot_start	uniprot_end	2ac1A_start	2ac1A_end	2xqrA_start	2xqrA_end	2xqrC_start	2xqrC_end	2xqrE_start	2xqrE_end	2xqrG_start	2xqrG_end	2xqrI_start	2xqrI_end	2xqrK_start	2xqrK_end	2oxbA_start	2oxbA_end	2qquA_start	2qquA_end	2qqvA_start	2qqvA_end	2qqwA_start	2qqwA_end
1	3_4535831_4533087_-1	AT3G13790.1.exon1	1	66	-	23	-	23	-	23	-	23	-	23	-	23	-	23	-	23	-	23	-	23	-	23
1	3_4535831_4533087_-1	AT3G13790.1.exon2	66	69	23	26	23	26	23	26	23	26	23	26	23	26	23	26	23	26	23	26	23	26	23	26
1	3_4535831_4533087_-1	AT3G13790.1.exon3	69	359	26	316	26	316	26	316	26	316	26	316	26	316	26	316	26	316	26	316	26	316	26	316
1	3_4535831_4533087_-1	AT3G13790.3.exon2	360	413	317	370	317	370	317	370	317	370	317	370	317	370	317	370	317	370	317	370	317	370	317	370
1	3_4535831_4533087_-1	AT3G13790.3.exon3	414	496	371	453	371	453	371	453	371	453	371	453	371	453	371	453	371	453	371	453	371	453	371	453
1	3_4535831_4533087_-1	AT3G13790.3.exon4	496	525	453	482	453	482	453	482	453	482	453	482	453	482	453	482	453	482	453	482	453	482	453	482
1	3_4535831_4533087_-1	AT3G13790.1.exon7	526	584	483	541	483	541	483	541	483	541	483	541	483	541	483	541	483	541	483	-	483	541	483	541
