uniprot_isoform	location_id	ENSEMBL ID	uniprot_start	uniprot_end	3vh8H_start	3vh8H_end
1	19_54802867_54816638_1	ENSE00003820913	1	12	-	-
1	19_54802867_54816638_1	ENSE00003807558	12	24	-	3
1	19_54802867_54816638_1	ENSE00003803180	24	119	3	98
1	19_54802867_54816638_1	ENSE00003809980	119	219	98	198
1	19_54802867_54816638_1	ENSE00003810093	219	317	198	296
1	19_54802867_54816638_1	ENSE00003810908	317	334	296	-
1	19_54802867_54816638_1	ENSE00003809230	334	369	-	-
1	19_54802867_54816638_1	ENSE00003804011	369	386	-	-
1	19_54802867_54816638_1	ENSE00003826862	387	444	-	-
2	19_54802878_54816649_1	ENSE00003719362	1	12	-	-
2	19_54802878_54816649_1	ENSE00003754282	12	24	-	3
2	19_54802878_54816649_1	ENSE00003729445	24	119	3	98
2	19_54802878_54816649_1	ENSE00003718529	119	219	98	198
2	19_54802878_54816649_1	ENSE00003727720	219	317	198	296
2	19_54802878_54816649_1	ENSE00003734069	317	334	296	-
2	19_54802878_54816649_1	ENSE00003733921	334	369	-	-
2	19_54802878_54816649_1	ENSE00003751801	369	386	-	-
2	19_54802878_54816649_1	ENSE00003745147	387	444	-	-
3	19_54816501_54830272_1	ENSE00003752474	1	12	-	-
3	19_54816501_54830272_1	ENSE00003724802	12	24	-	3
3	19_54816501_54830272_1	ENSE00003740560	24	119	3	98
3	19_54816501_54830272_1	ENSE00003719874	119	219	98	198
3	19_54816501_54830272_1	ENSE00003718176	219	317	198	296
3	19_54816501_54830272_1	ENSE00003753125	317	334	296	-
3	19_54816501_54830272_1	ENSE00003745862	334	369	-	-
3	19_54816501_54830272_1	ENSE00003751281	369	386	-	-
3	19_54816501_54830272_1	ENSE00003741341	387	444	-	-
4	19_54816501_54830272_1	ENSE00002481952	1	12	-	-
4	19_54816501_54830272_1	ENSE00002494103	12	24	-	3
4	19_54816501_54830272_1	ENSE00002461639	24	119	3	98
4	19_54816501_54830272_1	ENSE00002522415	119	219	98	198
4	19_54816501_54830272_1	ENSE00002505780	219	317	198	296
4	19_54816501_54830272_1	ENSE00002436240	317	334	296	-
4	19_54816501_54830272_1	ENSE00002436696	334	369	-	-
4	19_54816501_54830272_1	ENSE00002513303	369	386	-	-
4	19_54816501_54830272_1	ENSE00001432610	387	444	-	-
5	19_54816520_54830291_1	ENSE00003805365	1	12	-	-
5	19_54816520_54830291_1	ENSE00003801463	12	24	-	3
5	19_54816520_54830291_1	ENSE00003807111	24	119	3	98
5	19_54816520_54830291_1	ENSE00003808998	119	219	98	198
5	19_54816520_54830291_1	ENSE00003807910	219	317	198	296
5	19_54816520_54830291_1	ENSE00003806115	317	334	296	-
5	19_54816520_54830291_1	ENSE00003801414	334	369	-	-
5	19_54816520_54830291_1	ENSE00003807569	369	386	-	-
5	19_54816520_54830291_1	ENSE00003804715	387	444	-	-
6	19_54824703_54838474_1	ENSE00003724934	1	12	-	-
6	19_54824703_54838474_1	ENSE00003730312	12	24	-	3
6	19_54824703_54838474_1	ENSE00003754260	24	119	3	98
6	19_54824703_54838474_1	ENSE00003743635	119	219	98	198
6	19_54824703_54838474_1	ENSE00003720464	219	317	198	296
6	19_54824703_54838474_1	ENSE00003737672	317	334	296	-
6	19_54824703_54838474_1	ENSE00003724335	334	369	-	-
6	19_54824703_54838474_1	ENSE00003715706	369	386	-	-
6	19_54824703_54838474_1	ENSE00003737983	387	444	-	-
