uniprot_isoform	location_id	ENSEMBL ID	uniprot_start	uniprot_end	2c91C_start	2c91C_end	2c91B_start	2c91B_end	2c91E_start	2c91E_end	2c91D_start	2c91D_end	2c91G_start	2c91G_end	2c91F_start	2c91F_end	2c91I_start	2c91I_end	2c91A_start	2c91A_end	2c91H_start	2c91H_end	2c91J_start	2c91J_end
1	4_139310755_139318250_1	ENSMUSE00000460676	1	108	-	68	-	68	-	68	-	68	-	67	-	68	-	68	-	68	-	68	-	68
1	4_139310755_139318250_1	ENSMUSE00000283630	108	170	68	130	68	130	68	130	68	130	67	130	68	130	68	130	68	130	68	130	68	133
1	4_139310755_139318250_1	ENSMUSE00000283623	171	205	131	165	131	165	131	165	131	165	131	165	131	165	131	165	131	165	131	165	134	168
1	4_139310755_139318250_1	ENSMUSE00000283614	206	238	166	198	166	198	166	198	166	198	166	198	166	198	166	198	166	198	166	198	169	201
1	4_139310755_139318250_1	ENSMUSE00000181766	238	271	198	231	198	231	198	231	198	231	198	231	198	231	198	231	198	231	198	231	201	234
1	4_139310755_139318250_1	ENSMUSE00000181763	271	314	231	274	231	274	231	274	231	274	231	274	231	274	231	274	231	274	231	274	234	277
1	4_139310755_139318250_1	ENSMUSE00000630825	315	367	275	327	275	327	275	327	275	327	275	327	275	327	275	327	275	327	275	327	278	116
