Q8TBZ3	5k1cC	6jlqC	5k19A	5k19C	5k19B
1,MET	1,MET	-	1,MET	1,MET	1,MET
2,ALA	2,ALA	-	2,ALA	2,ALA	2,ALA
3,THR	3,THR	-	3,THR	3,THR	3,THR
4,GLU	4,GLU	-	4,GLU	4,GLU	4,GLU
5,GLY	5,GLY	-	5,GLY	5,GLY	5,GLY
6,GLY	6,GLY	-	6,GLY	6,GLY	6,GLY
7,GLY	7,GLY	-	7,GLY	7,GLY	7,GLY
8,LYS	8,LYS	-	8,LYS	8,LYS	8,LYS
9,GLU	9,GLU	-	9,GLU	9,GLU	9,GLU
10,MET	10,MET	-	10,MET	10,MET	10,MET
11,ASN	11,ASN	-	11,ASN	11,ASN	11,ASN
12,GLU	12,GLU	-	12,GLU	12,GLU	12,GLU
13,ILE	13,ILE	-	13,ILE	13,ILE	13,ILE
14,LYS	14,LYS	-	14,LYS	14,LYS	14,LYS
15,THR	15,THR	-	15,THR	15,THR	15,THR
16,GLN	16,GLN	-	16,GLN	16,GLN	16,GLN
17,PHE	17,PHE	-	17,PHE	17,PHE	17,PHE
18,THR	18,THR	-	18,THR	18,THR	18,THR
19,THR	19,THR	-	19,THR	19,THR	19,THR
20,ARG	20,ARG	-	20,ARG	20,ARG	20,ARG
21,GLU	21,GLU	-	21,GLU	21,GLU	21,GLU
22,GLY	22,GLY	-	22,GLY	22,GLY	22,GLY
23,LEU	23,LEU	-	23,LEU	23,LEU	23,LEU
24,TYR	24,TYR	-	24,TYR	24,TYR	24,TYR
25,LYS	25,LYS	-	25,LYS	25,LYS	25,LYS
26,LEU	26,LEU	-	26,LEU	26,LEU	26,LEU
27,LEU	27,LEU	-	27,LEU	27,LEU	27,LEU
28,PRO	28,PRO	-	28,PRO	28,PRO	28,PRO
29,HIS	29,HIS	-	29,HIS	29,HIS	29,HIS
30,SER	30,SER	-	30,SER	30,SER	30,SER
31,GLU	31,GLU	-	31,GLU	31,GLU	31,GLU
32,TYR	32,TYR	-	32,TYR	32,TYR	32,TYR
33,SER	33,SER	-	33,SER	33,SER	33,SER
34,ARG	34,ARG	-	34,ARG	34,ARG	34,ARG
35,PRO	35,PRO	-	35,PRO	35,PRO	35,PRO
36,ASN	36,ASN	-	36,ASN	36,ASN	36,ASN
37,ARG	37,ARG	-	37,ARG	37,ARG	37,ARG
38,VAL	38,VAL	-	38,VAL	38,VAL	38,VAL
39,PRO	39,PRO	-	39,PRO	39,PRO	39,PRO
40,PHE	40,PHE	-	40,PHE	40,PHE	40,PHE
41,ASN	41,ASN	-	41,ASN	41,ASN	41,ASN
42,SER	42,SER	-	42,SER	42,SER	42,SER
43,GLN	43,GLN	-	43,GLN	43,GLN	43,GLN
44,GLY	44,GLY	-	44,GLY	44,GLY	44,GLY
45,SER	45,SER	-	45,SER	45,SER	45,SER
46,ASN	46,ASN	-	46,ASN	46,ASN	46,ASN
47,PRO	47,PRO	-	47,PRO	47,PRO	47,PRO
48,VAL	48,VAL	-	48,VAL	48,VAL	48,VAL
49,ARG	49,ARG	-	49,ARG	49,ARG	49,ARG
50,VAL	50,VAL	-	50,VAL	50,VAL	50,VAL
51,SER	51,SER	-	51,SER	51,SER	51,SER
52,PHE	52,PHE	-	52,PHE	52,PHE	52,PHE
53,VAL	53,VAL	-	53,VAL	53,VAL	53,VAL
54,ASN	54,ASN	-	54,ASN	54,ASN	54,ASN
55,LEU	55,LEU	-	55,LEU	55,LEU	55,LEU
56,ASN	56,ASN	-	56,ASN	56,ASN	56,ASN
57,ASP	57,ASP	-	57,ASP	57,ASP	57,ASP
58,GLN	58,GLN	-	58,GLN	58,GLN	58,GLN
59,SER	59,SER	-	59,SER	59,SER	59,SER
60,GLY	60,GLY	-	60,GLY	60,GLY	60,GLY
61,ASN	61,ASN	-	61,ASN	61,ASN	61,ASN
62,GLY	62,GLY	-	62,GLY	62,GLY	62,GLY
63,ASP	63,ASP	-	63,ASP	63,ASP	63,ASP
64,ARG	64,ARG	-	64,ARG	64,ARG	64,ARG
65,LEU	65,LEU	-	65,LEU	65,LEU	65,LEU
66,CYS	66,CYS	-	66,CYS	66,CYS	66,CYS
67,PHE	67,PHE	-	67,PHE	67,PHE	67,PHE
68,ASN	68,ASN	-	68,ASN	68,ASN	68,ASN
69,VAL	69,VAL	-	69,VAL	69,VAL	69,VAL
70,GLY	70,GLY	-	70,GLY	70,GLY	70,GLY
71,ARG	71,ARG	-	71,ARG	71,ARG	71,ARG
72,GLU	72,GLU	-	72,GLU	72,GLU	72,GLU
73,LEU	73,LEU	-	73,LEU	73,LEU	73,LEU
74,TYR	74,TYR	-	74,TYR	74,TYR	74,TYR
75,PHE	75,PHE	-	75,PHE	75,PHE	75,PHE
76,TYR	76,TYR	-	76,TYR	76,TYR	76,TYR
77,ILE	77,ILE	-	77,ILE	77,ILE	77,ILE
78,TYR	78,TYR	-	78,TYR	78,TYR	78,TYR
79,LYS	79,LYS	-	79,LYS	79,LYS	79,LYS
80,GLY	80,GLY	-	80,GLY	80,GLY	80,GLY
81,VAL	81,VAL	-	81,VAL	81,VAL	81,VAL
82,ARG	82,ARG	-	82,ARG	82,ARG	82,ARG
83,LYS	83,LYS	-	83,LYS	83,LYS	83,LYS
84,ALA	84,ALA	-	84,ALA	84,ALA	84,ALA
85,ALA	85,ALA	-	85,ALA	85,ALA	85,ALA
86,ASP	86,ASP	-	86,ASP	86,ASP	86,ASP
87,LEU	87,LEU	-	87,LEU	87,LEU	87,LEU
88,SER	88,SER	-	88,SER	88,SER	88,SER
89,LYS	89,LYS	-	89,LYS	89,LYS	89,LYS
90,PRO	90,PRO	-	90,PRO	90,PRO	90,PRO
91,ILE	91,ILE	-	91,ILE	91,ILE	91,ILE
92,ASP	92,ASP	-	92,ASP	92,ASP	92,ASP
93,LYS	93,LYS	-	93,LYS	93,LYS	93,LYS
94,ARG	94,ARG	-	94,ARG	94,ARG	94,ARG
95,ILE	95,ILE	-	95,ILE	95,ILE	95,ILE
96,TYR	96,TYR	-	96,TYR	96,TYR	96,TYR
97,LYS	97,LYS	-	97,LYS	97,LYS	97,LYS
98,GLY	98,GLY	-	98,GLY	98,GLY	101,PRO
99,THR	99,THR	-	99,THR	99,THR	98,GLY
100,GLN	100,GLN	-	100,GLN	100,GLN	99,THR
101,PRO	101,PRO	-	101,PRO	101,PRO	100,GLN
102,THR	102,THR	-	102,THR	102,THR	102,THR
103,CYS	103,CYS	-	103,CYS	103,CYS	103,CYS
104,HIS	104,HIS	-	104,HIS	104,HIS	104,HIS
105,ASP	105,ASP	-	105,ASP	105,ASP	105,ASP
106,PHE	106,PHE	-	106,PHE	106,PHE	106,PHE
107,ASN	107,ASN	-	107,ASN	107,ASN	107,ASN
108,HIS	108,HIS	-	108,HIS	108,HIS	108,HIS
109,LEU	109,LEU	-	109,LEU	109,LEU	109,LEU
110,THR	110,THR	-	110,THR	110,THR	110,THR
111,ALA	111,ALA	-	111,ALA	111,ALA	111,ALA
112,THR	112,THR	-	112,THR	112,THR	112,THR
113,ALA	113,ALA	-	113,ALA	113,ALA	113,ALA
114,GLU	114,GLU	-	114,GLU	114,GLU	114,GLU
115,SER	115,SER	-	115,SER	115,SER	115,SER
116,VAL	116,VAL	-	116,VAL	116,VAL	116,VAL
117,SER	117,SER	-	117,SER	117,SER	117,SER
118,LEU	118,LEU	-	118,LEU	118,LEU	118,LEU
119,LEU	119,LEU	-	119,LEU	119,LEU	119,LEU
120,VAL	120,VAL	-	120,VAL	120,VAL	120,VAL
121,GLY	121,GLY	-	121,GLY	121,GLY	121,GLY
122,PHE	122,PHE	-	122,PHE	122,PHE	122,PHE
123,SER	123,SER	-	123,SER	123,SER	123,SER
124,ALA	124,ALA	-	124,ALA	124,ALA	124,ALA
125,GLY	125,GLY	-	125,GLY	125,GLY	125,GLY
126,GLN	126,GLN	-	126,GLN	126,GLN	126,GLN
127,VAL	127,VAL	-	127,VAL	127,VAL	127,VAL
128,GLN	128,GLN	-	128,GLN	128,GLN	128,GLN
129,LEU	129,LEU	-	129,LEU	129,LEU	129,LEU
130,ILE	130,ILE	-	130,ILE	130,ILE	130,ILE
131,ASP	131,ASP	-	131,ASP	131,ASP	131,ASP
132,PRO	132,PRO	-	132,PRO	132,PRO	132,PRO
133,ILE	133,ILE	-	133,ILE	133,ILE	133,ILE
134,LYS	134,LYS	-	134,LYS	134,LYS	134,LYS
135,LYS	135,LYS	-	135,LYS	135,LYS	135,LYS
136,GLU	136,GLU	-	136,GLU	136,GLU	136,GLU
137,THR	137,THR	-	137,THR	137,THR	137,THR
138,SER	138,SER	-	138,SER	138,SER	138,SER
139,LYS	139,LYS	-	139,LYS	139,LYS	139,LYS
140,LEU	140,LEU	-	140,LEU	140,LEU	140,LEU
141,PHE	141,PHE	-	141,PHE	141,PHE	141,PHE
142,ASN	142,ASN	-	142,ASN	142,ASN	142,ASN
143,GLU	143,GLU	-	143,GLU	143,GLU	143,GLU
144,GLU	144,GLU	-	144,GLU	144,GLU	144,GLU
145,ARG	145,ARG	-	145,ARG	145,ARG	145,ARG
146,LEU	146,LEU	-	146,LEU	146,LEU	146,LEU
147,ILE	147,ILE	-	147,ILE	147,ILE	147,ILE
148,ASP	148,ASP	-	148,ASP	148,ASP	148,ASP
149,LYS	149,LYS	-	149,LYS	149,LYS	149,LYS
150,SER	150,SER	-	150,SER	150,SER	150,SER
151,ARG	151,ARG	-	151,ARG	151,ARG	151,ARG
152,VAL	152,VAL	-	152,VAL	152,VAL	152,VAL
153,THR	153,THR	-	153,THR	153,THR	153,THR
154,CYS	154,CYS	-	154,CYS	154,CYS	154,CYS
155,VAL	155,VAL	-	155,VAL	155,VAL	155,VAL
156,LYS	156,LYS	-	156,LYS	156,LYS	156,LYS
157,TRP	157,TRP	-	157,TRP	157,TRP	157,TRP
158,VAL	158,VAL	-	158,VAL	158,VAL	158,VAL
159,PRO	159,PRO	-	159,PRO	159,PRO	159,PRO
160,GLY	160,GLY	-	160,GLY	160,GLY	160,GLY
161,SER	161,SER	-	161,SER	161,SER	161,SER
162,GLU	162,GLU	-	162,GLU	162,GLU	162,GLU
163,SER	163,SER	-	163,SER	163,SER	163,SER
164,LEU	164,LEU	-	164,LEU	164,LEU	164,LEU
165,PHE	165,PHE	-	165,PHE	165,PHE	165,PHE
166,LEU	166,LEU	-	166,LEU	166,LEU	166,LEU
167,VAL	167,VAL	-	167,VAL	167,VAL	167,VAL
168,ALA	168,ALA	-	168,ALA	168,ALA	168,ALA
169,HIS	169,HIS	-	169,HIS	169,HIS	169,HIS
170,SER	170,SER	-	170,SER	170,SER	170,SER
171,SER	171,SER	-	171,SER	171,SER	171,SER
172,GLY	172,GLY	-	172,GLY	172,GLY	172,GLY
173,ASN	173,ASN	-	173,ASN	173,ASN	173,ASN
174,MET	174,MET	-	174,MET	174,MET	174,MET
175,TYR	175,TYR	-	175,TYR	175,TYR	175,TYR
176,LEU	176,LEU	-	176,LEU	176,LEU	176,LEU
177,TYR	177,TYR	-	177,TYR	177,TYR	177,TYR
178,ASN	178,ASN	-	178,ASN	178,ASN	178,ASN
179,VAL	179,VAL	-	179,VAL	179,VAL	179,VAL
180,GLU	180,GLU	-	180,GLU	180,GLU	180,GLU
181,HIS	181,HIS	-	181,HIS	181,HIS	181,HIS
182,THR	182,THR	-	182,THR	182,THR	182,THR
183,CYS	183,CYS	-	183,CYS	183,CYS	183,CYS
184,GLY	184,GLY	-	184,GLY	184,GLY	184,GLY
185,THR	185,THR	-	185,THR	185,THR	185,THR
186,THR	186,THR	-	186,THR	186,THR	186,THR
187,ALA	187,ALA	-	187,ALA	187,ALA	187,ALA
188,PRO	188,PRO	-	188,PRO	188,PRO	188,PRO
189,HIS	189,HIS	-	189,HIS	189,HIS	189,HIS
190,TYR	190,TYR	-	190,TYR	190,TYR	190,TYR
191,GLN	191,GLN	-	191,GLN	191,GLN	191,GLN
192,LEU	192,LEU	-	192,LEU	192,LEU	192,LEU
193,LEU	193,LEU	-	193,LEU	193,LEU	193,LEU
194,LYS	194,LYS	-	194,LYS	194,LYS	194,LYS
195,GLN	195,GLN	-	195,GLN	195,GLN	195,GLN
196,GLY	196,GLY	-	196,GLY	196,GLY	196,GLY
197,GLU	197,GLU	-	197,GLU	197,GLU	197,GLU
198,SER	198,SER	-	198,SER	198,SER	198,SER
199,PHE	199,PHE	-	199,PHE	199,PHE	199,PHE
200,ALA	200,ALA	-	200,ALA	200,ALA	200,ALA
201,VAL	201,VAL	-	201,VAL	201,VAL	201,VAL
202,HIS	202,HIS	-	202,HIS	202,HIS	202,HIS
203,THR	203,THR	-	203,THR	203,THR	203,THR
204,CYS	204,CYS	-	204,CYS	204,CYS	204,CYS
205,LYS	205,LYS	-	205,LYS	205,LYS	205,LYS
206,SER	206,SER	-	206,SER	206,SER	206,SER
207,LYS	207,LYS	-	207,LYS	207,LYS	207,LYS
208,SER	208,SER	-	208,SER	208,SER	208,SER
209,THR	209,THR	-	209,THR	209,THR	209,THR
210,ARG	210,ARG	-	210,ARG	210,ARG	210,ARG
211,ASN	211,ASN	-	211,ASN	211,ASN	211,ASN
212,PRO	212,PRO	-	212,PRO	212,PRO	212,PRO
213,LEU	213,LEU	-	213,LEU	213,LEU	213,LEU
214,LEU	214,LEU	-	214,LEU	214,LEU	214,LEU
215,LYS	215,LYS	-	215,LYS	215,LYS	215,LYS
216,TRP	216,TRP	-	216,TRP	216,TRP	216,TRP
217,THR	217,THR	-	217,THR	217,THR	217,THR
218,VAL	218,VAL	-	218,VAL	218,VAL	218,VAL
219,GLY	219,GLY	-	219,GLY	219,GLY	219,GLY
220,GLU	220,GLU	-	220,GLU	220,GLU	220,GLU
221,GLY	221,GLY	-	221,GLY	221,GLY	221,GLY
222,ALA	222,ALA	-	222,ALA	222,ALA	222,ALA
223,LEU	223,LEU	-	223,LEU	223,LEU	223,LEU
224,ASN	224,ASN	-	224,ASN	224,ASN	224,ASN
225,GLU	225,GLU	-	225,GLU	225,GLU	225,GLU
226,PHE	226,PHE	-	226,PHE	226,PHE	226,PHE
227,ALA	227,ALA	-	227,ALA	227,ALA	227,ALA
228,PHE	228,PHE	-	228,PHE	228,PHE	228,PHE
229,SER	229,SER	-	229,SER	229,SER	229,SER
230,PRO	230,PRO	-	230,PRO	230,PRO	230,PRO
231,ASP	231,ASP	-	231,ASP	231,ASP	231,ASP
232,GLY	232,GLY	-	232,GLY	232,GLY	232,GLY
233,LYS	233,LYS	-	233,LYS	233,LYS	233,LYS
234,PHE	234,PHE	-	234,PHE	234,PHE	234,PHE
235,LEU	235,LEU	-	235,LEU	235,LEU	235,LEU
236,ALA	236,ALA	-	236,ALA	236,ALA	236,ALA
237,CYS	237,CYS	-	237,CYS	237,CYS	237,CYS
238,VAL	238,VAL	-	238,VAL	238,VAL	238,VAL
239,SER	239,SER	-	239,SER	239,SER	239,SER
240,GLN	240,GLN	-	240,GLN	240,GLN	240,GLN
241,ASP	241,ASP	-	241,ASP	241,ASP	241,ASP
242,GLY	242,GLY	-	242,GLY	242,GLY	242,GLY
243,PHE	243,PHE	-	243,PHE	243,PHE	243,PHE
244,LEU	244,LEU	-	244,LEU	244,LEU	244,LEU
245,ARG	245,ARG	-	245,ARG	245,ARG	245,ARG
246,VAL	246,VAL	-	246,VAL	246,VAL	246,VAL
247,PHE	247,PHE	-	247,PHE	247,PHE	247,PHE
248,ASN	248,ASN	-	248,ASN	248,ASN	248,ASN
249,PHE	249,PHE	-	249,PHE	249,PHE	249,PHE
250,ASP	250,ASP	-	250,ASP	250,ASP	250,ASP
251,SER	251,SER	-	251,SER	251,SER	251,SER
252,VAL	252,VAL	-	252,VAL	252,VAL	252,VAL
253,GLU	253,GLU	-	253,GLU	253,GLU	253,GLU
254,LEU	254,LEU	-	254,LEU	254,LEU	254,LEU
255,HIS	255,HIS	-	255,HIS	255,HIS	255,HIS
256,GLY	256,GLY	-	256,GLY	256,GLY	256,GLY
257,THR	257,THR	-	257,THR	257,THR	257,THR
258,MET	258,MET	-	258,MET	258,MET	258,MET
259,LYS	259,LYS	-	259,LYS	259,LYS	259,LYS
260,SER	260,SER	-	260,SER	260,SER	260,SER
261,TYR	261,TYR	-	261,TYR	261,TYR	261,TYR
262,PHE	262,PHE	-	262,PHE	262,PHE	262,PHE
263,GLY	263,GLY	-	263,GLY	263,GLY	263,GLY
264,GLY	264,GLY	-	264,GLY	264,GLY	264,GLY
265,LEU	265,LEU	-	265,LEU	265,LEU	265,LEU
266,LEU	266,LEU	-	266,LEU	266,LEU	266,LEU
267,CYS	267,CYS	-	267,CYS	267,CYS	267,CYS
268,VAL	268,VAL	-	268,VAL	268,VAL	268,VAL
269,CYS	269,CYS	-	269,CYS	269,CYS	269,CYS
270,TRP	270,TRP	-	270,TRP	270,TRP	270,TRP
271,SER	271,SER	-	271,SER	271,SER	271,SER
272,PRO	272,PRO	-	272,PRO	272,PRO	272,PRO
273,ASP	273,ASP	-	273,ASP	273,ASP	273,ASP
274,GLY	277,ILE	-	274,GLY	274,GLY	274,GLY
275,LYS	274,GLY	-	275,LYS	275,LYS	275,LYS
276,TYR	275,LYS	-	276,TYR	276,TYR	276,TYR
277,ILE	276,TYR	-	277,ILE	277,ILE	277,ILE
278,VAL	278,VAL	-	278,VAL	278,VAL	278,VAL
279,THR	279,THR	279,THR	279,THR	279,THR	279,THR
280,GLY	280,GLY	280,GLY	280,GLY	280,GLY	280,GLY
281,GLY	281,GLY	281,GLY	281,GLY	281,GLY	281,GLY
282,GLU	282,GLU	282,GLU	282,GLU	282,GLU	282,GLU
283,ASP	286,VAL	283,ASP	283,ASP	283,ASP	283,ASP
284,ASP	283,ASP	284,ASP	284,ASP	284,ASP	284,ASP
285,LEU	284,ASP	285,LEU	285,LEU	285,LEU	285,LEU
286,VAL	285,LEU	286,VAL	286,VAL	286,VAL	286,VAL
287,THR	287,THR	287,THR	287,THR	287,THR	287,THR
288,VAL	288,VAL	288,VAL	288,VAL	288,VAL	288,VAL
289,TRP	289,TRP	289,TRP	289,TRP	289,TRP	289,TRP
290,SER	290,SER	290,SER	290,SER	290,SER	290,SER
291,PHE	291,PHE	291,PHE	291,PHE	291,PHE	291,PHE
292,VAL	292,VAL	292,VAL	292,VAL	292,VAL	292,VAL
293,ASP	293,ASP	293,ASP	293,ASP	293,ASP	293,ASP
294,CYS	294,CYS	294,CYS	294,CYS	294,CYS	294,CYS
295,ARG	295,ARG	295,ARG	295,ARG	295,ARG	295,ARG
296,VAL	296,VAL	296,VAL	296,VAL	296,VAL	296,VAL
297,ILE	297,ILE	297,ILE	297,ILE	297,ILE	297,ILE
298,ALA	298,ALA	298,ALA	298,ALA	298,ALA	298,ALA
299,ARG	299,ARG	299,ARG	299,ARG	299,ARG	299,ARG
300,GLY	300,GLY	300,GLY	300,GLY	300,GLY	300,GLY
301,HIS	301,HIS	301,HIS	301,HIS	301,HIS	301,HIS
302,GLY	302,GLY	302,GLY	302,GLY	302,GLY	302,GLY
303,HIS	303,HIS	303,HIS	303,HIS	303,HIS	303,HIS
304,LYS	304,LYS	304,LYS	304,LYS	304,LYS	304,LYS
305,SER	305,SER	305,SER	305,SER	305,SER	305,SER
306,TRP	306,TRP	306,TRP	306,TRP	306,TRP	306,TRP
307,VAL	307,VAL	307,VAL	307,VAL	307,VAL	307,VAL
308,SER	308,SER	308,SER	308,SER	308,SER	308,SER
309,VAL	309,VAL	309,VAL	309,VAL	309,VAL	309,VAL
310,VAL	310,VAL	310,VAL	310,VAL	310,VAL	310,VAL
311,ALA	311,ALA	311,ALA	311,ALA	311,ALA	311,ALA
312,PHE	312,PHE	312,PHE	312,PHE	312,PHE	312,PHE
313,ASP	313,ASP	313,ASP	313,ASP	313,ASP	313,ASP
314,PRO	314,PRO	314,PRO	314,PRO	314,PRO	314,PRO
315,TYR	315,TYR	315,TYR	315,TYR	315,TYR	315,TYR
316,THR	316,THR	316,THR	316,THR	316,THR	316,THR
317,THR	317,THR	317,THR	317,THR	317,THR	317,THR
318,SER	318,SER	318,SER	318,SER	318,SER	318,SER
319,VAL	319,VAL	-	319,VAL	319,VAL	319,VAL
320,GLU	320,GLU	-	320,GLU	320,GLU	320,GLU
321,GLU	321,GLU	-	321,GLU	321,GLU	321,GLU
322,GLY	322,GLY	-	322,GLY	322,GLY	322,GLY
323,ASP	323,ASP	-	323,ASP	323,ASP	323,ASP
324,PRO	324,PRO	-	324,PRO	324,PRO	324,PRO
325,MET	325,MET	-	325,MET	325,MET	325,MET
326,GLU	326,GLU	-	326,GLU	326,GLU	326,GLU
327,PHE	327,PHE	-	327,PHE	327,PHE	327,PHE
328,SER	328,SER	-	328,SER	328,SER	328,SER
329,GLY	329,GLY	-	329,GLY	329,GLY	329,GLY
330,SER	330,SER	-	330,SER	333,ASP	330,SER
331,ASP	331,ASP	-	331,ASP	330,SER	331,ASP
332,GLU	332,GLU	-	332,GLU	331,ASP	332,GLU
333,ASP	333,ASP	-	333,ASP	332,GLU	333,ASP
334,PHE	334,PHE	-	334,PHE	334,PHE	334,PHE
335,GLN	335,GLN	-	335,GLN	335,GLN	335,GLN
336,ASP	336,ASP	-	336,ASP	336,ASP	336,ASP
337,LEU	337,LEU	-	337,LEU	337,LEU	337,LEU
338,LEU	338,LEU	-	338,LEU	338,LEU	338,LEU
339,HIS	339,HIS	-	339,HIS	339,HIS	339,HIS
340,PHE	340,PHE	-	340,PHE	340,PHE	340,PHE
341,GLY	341,GLY	-	341,GLY	341,GLY	341,GLY
342,ARG	342,ARG	-	342,ARG	342,ARG	342,ARG
343,ASP	343,ASP	-	343,ASP	343,ASP	343,ASP
344,ARG	344,ARG	-	344,ARG	344,ARG	344,ARG
345,ALA	345,ALA	-	345,ALA	345,ALA	345,ALA
346,ASN	346,ASN	-	346,ASN	346,ASN	346,ASN
347,SER	347,SER	-	347,SER	347,SER	347,SER
348,THR	348,THR	-	348,THR	348,THR	348,THR
349,GLN	349,GLN	-	349,GLN	349,GLN	349,GLN
350,SER	350,SER	-	350,SER	350,SER	350,SER
351,ARG	351,ARG	-	351,ARG	351,ARG	351,ARG
352,LEU	352,LEU	-	352,LEU	352,LEU	352,LEU
353,SER	353,SER	-	353,SER	353,SER	353,SER
354,LYS	354,LYS	-	354,LYS	354,LYS	354,LYS
355,ARG	355,ARG	-	355,ARG	355,ARG	355,ARG
356,ASN	356,ASN	-	356,ASN	356,ASN	356,ASN
357,SER	357,SER	-	357,SER	357,SER	357,SER
358,THR	358,THR	-	358,THR	358,THR	358,THR
359,ASP	359,ASP	-	359,ASP	359,ASP	359,ASP
360,SER	360,SER	-	360,SER	360,SER	360,SER
361,ARG	361,ARG	-	361,ARG	361,ARG	361,ARG
362,PRO	362,PRO	-	362,PRO	362,PRO	362,PRO
363,VAL	363,VAL	-	363,VAL	363,VAL	363,VAL
364,SER	364,SER	-	364,SER	364,SER	364,SER
365,VAL	365,VAL	-	365,VAL	365,VAL	365,VAL
366,THR	366,THR	-	366,THR	366,THR	366,THR
367,TYR	367,TYR	-	367,TYR	367,TYR	367,TYR
368,ARG	368,ARG	-	368,ARG	368,ARG	371,SER
369,PHE	369,PHE	-	369,PHE	369,PHE	368,ARG
370,GLY	370,GLY	-	370,GLY	370,GLY	369,PHE
371,SER	371,SER	-	371,SER	371,SER	370,GLY
372,VAL	372,VAL	-	372,VAL	372,VAL	372,VAL
373,GLY	373,GLY	-	373,GLY	373,GLY	373,GLY
374,GLN	374,GLN	-	374,GLN	374,GLN	374,GLN
375,ASP	375,ASP	-	375,ASP	375,ASP	375,ASP
376,THR	376,THR	-	376,THR	376,THR	376,THR
377,GLN	377,GLN	-	377,GLN	377,GLN	377,GLN
378,LEU	378,LEU	-	378,LEU	378,LEU	378,LEU
379,CYS	379,CYS	-	379,CYS	379,CYS	379,CYS
380,LEU	380,LEU	-	380,LEU	380,LEU	380,LEU
381,TRP	381,TRP	-	381,TRP	381,TRP	381,TRP
382,ASP	382,ASP	-	382,ASP	382,ASP	382,ASP
383,LEU	383,LEU	-	383,LEU	383,LEU	383,LEU
384,THR	384,THR	-	384,THR	384,THR	384,THR
385,GLU	385,GLU	-	385,GLU	385,GLU	385,GLU
386,ASP	386,ASP	-	386,ASP	386,ASP	386,ASP
387,ILE	387,ILE	-	387,ILE	387,ILE	387,ILE
388,LEU	388,LEU	-	388,LEU	388,LEU	388,LEU
389,PHE	389,PHE	-	389,PHE	389,PHE	389,PHE
390,PRO	390,PRO	-	390,PRO	390,PRO	390,PRO
391,HIS	391,HIS	-	391,HIS	391,HIS	391,HIS
392,GLN	392,GLN	-	392,GLN	392,GLN	392,GLN
393,PRO	393,PRO	-	393,PRO	393,PRO	393,PRO
394,LEU	394,LEU	-	394,LEU	394,LEU	394,LEU
395,SER	395,SER	-	395,SER	395,SER	395,SER
396,ARG	396,ARG	-	396,ARG	396,ARG	396,ARG
397,ALA	397,ALA	-	397,ALA	397,ALA	397,ALA
398,ARG	398,ARG	-	398,ARG	398,ARG	398,ARG
399,THR	399,THR	-	399,THR	399,THR	399,THR
400,HIS	400,HIS	-	400,HIS	400,HIS	400,HIS
401,THR	401,THR	-	401,THR	401,THR	401,THR
402,ASN	402,ASN	-	402,ASN	402,ASN	402,ASN
403,VAL	403,VAL	-	403,VAL	403,VAL	403,VAL
404,MET	404,MET	-	404,MET	404,MET	404,MET
405,ASN	405,ASN	-	405,ASN	405,ASN	405,ASN
406,ALA	406,ALA	-	406,ALA	406,ALA	406,ALA
407,THR	407,THR	-	407,THR	407,THR	407,THR
408,SER	408,SER	-	408,SER	408,SER	408,SER
409,PRO	409,PRO	-	409,PRO	409,PRO	409,PRO
410,PRO	410,PRO	-	410,PRO	410,PRO	410,PRO
411,ALA	411,ALA	-	411,ALA	411,ALA	411,ALA
412,GLY	412,GLY	-	412,GLY	412,GLY	412,GLY
413,SER	413,SER	-	413,SER	413,SER	413,SER
414,ASN	414,ASN	-	414,ASN	414,ASN	414,ASN
415,GLY	415,GLY	-	415,GLY	415,GLY	415,GLY
416,ASN	416,ASN	-	416,ASN	416,ASN	416,ASN
417,SER	417,SER	-	417,SER	417,SER	417,SER
418,VAL	418,VAL	-	418,VAL	418,VAL	418,VAL
419,THR	419,THR	-	419,THR	419,THR	419,THR
420,THR	420,THR	-	420,THR	420,THR	420,THR
421,PRO	421,PRO	-	421,PRO	421,PRO	421,PRO
422,GLY	422,GLY	-	422,GLY	422,GLY	422,GLY
423,ASN	423,ASN	-	423,ASN	423,ASN	423,ASN
424,SER	424,SER	-	424,SER	424,SER	424,SER
425,VAL	425,VAL	-	425,VAL	425,VAL	425,VAL
426,PRO	426,PRO	-	426,PRO	426,PRO	426,PRO
427,PRO	427,PRO	-	427,PRO	427,PRO	427,PRO
428,PRO	428,PRO	-	428,PRO	428,PRO	428,PRO
429,LEU	429,LEU	-	429,LEU	429,LEU	429,LEU
430,PRO	430,PRO	-	430,PRO	430,PRO	430,PRO
431,ARG	431,ARG	-	431,ARG	431,ARG	431,ARG
432,SER	432,SER	-	432,SER	432,SER	432,SER
433,ASN	433,ASN	-	433,ASN	433,ASN	433,ASN
434,SER	434,SER	-	434,SER	434,SER	434,SER
435,LEU	435,LEU	-	435,LEU	435,LEU	435,LEU
436,PRO	436,PRO	-	436,PRO	436,PRO	436,PRO
437,HIS	437,HIS	-	437,HIS	437,HIS	437,HIS
438,SER	438,SER	-	438,SER	438,SER	438,SER
439,ALA	439,ALA	-	439,ALA	439,ALA	439,ALA
440,VAL	440,VAL	-	440,VAL	440,VAL	440,VAL
441,SER	441,SER	-	441,SER	441,SER	441,SER
442,ASN	442,ASN	-	442,ASN	442,ASN	442,ASN
443,ALA	443,ALA	-	443,ALA	443,ALA	443,ALA
444,GLY	444,GLY	-	444,GLY	444,GLY	444,GLY
445,SER	445,SER	-	445,SER	445,SER	445,SER
446,LYS	446,LYS	-	446,LYS	446,LYS	446,LYS
447,SER	447,SER	-	447,SER	447,SER	447,SER
448,SER	448,SER	-	448,SER	448,SER	448,SER
449,VAL	449,VAL	-	449,VAL	449,VAL	449,VAL
450,MET	450,MET	-	450,MET	450,MET	450,MET
451,ASP	451,ASP	-	451,ASP	451,ASP	451,ASP
452,GLY	452,GLY	-	452,GLY	452,GLY	452,GLY
453,ALA	453,ALA	-	453,ALA	453,ALA	453,ALA
454,ILE	454,ILE	-	454,ILE	454,ILE	454,ILE
455,ALA	455,ALA	-	455,ALA	455,ALA	455,ALA
456,SER	456,SER	-	456,SER	456,SER	456,SER
457,GLY	457,GLY	-	457,GLY	457,GLY	457,GLY
458,VAL	458,VAL	-	458,VAL	458,VAL	458,VAL
459,SER	459,SER	-	459,SER	459,SER	459,SER
460,LYS	460,LYS	-	460,LYS	460,LYS	460,LYS
461,PHE	461,PHE	-	461,PHE	461,PHE	461,PHE
462,ALA	462,ALA	-	462,ALA	462,ALA	462,ALA
463,THR	463,THR	-	463,THR	466,LEU	463,THR
464,LEU	464,LEU	-	464,LEU	463,THR	464,LEU
465,SER	465,SER	-	465,SER	464,LEU	465,SER
466,LEU	466,LEU	-	466,LEU	465,SER	466,LEU
467,HIS	467,HIS	-	467,HIS	467,HIS	467,HIS
468,ASP	468,ASP	-	468,ASP	468,ASP	468,ASP
469,ARG	469,ARG	-	469,ARG	472,ARG	469,ARG
470,LYS	470,LYS	-	470,LYS	469,ARG	470,LYS
471,GLU	471,GLU	-	471,GLU	470,LYS	471,GLU
472,ARG	472,ARG	-	472,ARG	471,GLU	472,ARG
473,HIS	473,HIS	-	473,HIS	473,HIS	473,HIS
474,HIS	474,HIS	-	474,HIS	474,HIS	474,HIS
475,GLU	475,GLU	-	475,GLU	475,GLU	475,GLU
476,LYS	476,LYS	-	476,LYS	476,LYS	476,LYS
477,ASP	477,ASP	-	477,ASP	477,ASP	477,ASP
478,HIS	478,HIS	-	478,HIS	478,HIS	478,HIS
479,LYS	479,LYS	-	479,LYS	479,LYS	479,LYS
480,ARG	480,ARG	-	480,ARG	480,ARG	480,ARG
481,ASN	481,ASN	-	481,ASN	481,ASN	481,ASN
482,HIS	482,HIS	-	482,HIS	482,HIS	482,HIS
483,SER	486,HIS	-	483,SER	483,SER	483,SER
484,MET	483,SER	-	484,MET	484,MET	484,MET
485,GLY	484,MET	-	485,GLY	485,GLY	485,GLY
486,HIS	485,GLY	-	486,HIS	486,HIS	486,HIS
487,ILE	487,ILE	-	487,ILE	487,ILE	487,ILE
488,SER	488,SER	-	488,SER	488,SER	488,SER
489,SER	489,SER	-	489,SER	489,SER	489,SER
490,LYS	490,LYS	-	490,LYS	490,LYS	490,LYS
491,SER	491,SER	-	491,SER	491,SER	491,SER
492,SER	492,SER	-	492,SER	492,SER	492,SER
493,ASP	493,ASP	-	493,ASP	493,ASP	493,ASP
494,LYS	494,LYS	-	494,LYS	494,LYS	494,LYS
495,LEU	495,LEU	-	495,LEU	495,LEU	495,LEU
496,ASN	496,ASN	-	496,ASN	496,ASN	496,ASN
497,LEU	497,LEU	-	497,LEU	497,LEU	497,LEU
498,VAL	498,VAL	-	498,VAL	498,VAL	498,VAL
499,THR	499,THR	-	499,THR	499,THR	499,THR
500,LYS	500,LYS	-	500,LYS	500,LYS	500,LYS
501,THR	501,THR	-	501,THR	501,THR	501,THR
502,LYS	502,LYS	-	502,LYS	502,LYS	502,LYS
503,THR	503,THR	-	503,THR	503,THR	503,THR
504,ASP	504,ASP	-	504,ASP	504,ASP	504,ASP
505,PRO	505,PRO	-	505,PRO	505,PRO	505,PRO
506,ALA	506,ALA	-	506,ALA	506,ALA	506,ALA
507,LYS	507,LYS	-	507,LYS	507,LYS	507,LYS
508,THR	508,THR	-	508,THR	508,THR	508,THR
509,LEU	509,LEU	-	509,LEU	509,LEU	509,LEU
510,GLY	510,GLY	-	510,GLY	510,GLY	510,GLY
511,THR	511,THR	-	511,THR	511,THR	511,THR
512,PRO	512,PRO	-	512,PRO	512,PRO	512,PRO
513,LEU	513,LEU	-	513,LEU	513,LEU	513,LEU
514,CYS	514,CYS	-	514,CYS	514,CYS	514,CYS
515,PRO	515,PRO	-	515,PRO	515,PRO	515,PRO
516,ARG	516,ARG	-	516,ARG	516,ARG	516,ARG
517,MET	517,MET	-	517,MET	517,MET	517,MET
518,GLU	518,GLU	-	518,GLU	518,GLU	518,GLU
519,ASP	519,ASP	-	519,ASP	519,ASP	519,ASP
520,VAL	520,VAL	-	520,VAL	520,VAL	520,VAL
521,PRO	521,PRO	-	521,PRO	521,PRO	521,PRO
522,LEU	522,LEU	-	522,LEU	522,LEU	522,LEU
523,LEU	523,LEU	-	523,LEU	523,LEU	523,LEU
524,GLU	524,GLU	-	524,GLU	524,GLU	524,GLU
525,PRO	525,PRO	-	525,PRO	525,PRO	525,PRO
526,LEU	526,LEU	-	526,LEU	526,LEU	526,LEU
527,ILE	527,ILE	-	527,ILE	527,ILE	527,ILE
528,CYS	528,CYS	-	528,CYS	528,CYS	528,CYS
529,LYS	529,LYS	-	529,LYS	529,LYS	529,LYS
530,LYS	530,LYS	-	530,LYS	530,LYS	530,LYS
531,ILE	531,ILE	-	531,ILE	531,ILE	531,ILE
532,ALA	532,ALA	-	532,ALA	532,ALA	532,ALA
533,HIS	533,HIS	-	533,HIS	533,HIS	533,HIS
534,GLU	534,GLU	-	534,GLU	534,GLU	534,GLU
535,ARG	535,ARG	-	535,ARG	535,ARG	535,ARG
536,LEU	536,LEU	-	536,LEU	536,LEU	536,LEU
537,THR	537,THR	-	537,THR	537,THR	537,THR
538,VAL	538,VAL	-	538,VAL	538,VAL	538,VAL
539,LEU	539,LEU	-	539,LEU	539,LEU	539,LEU
540,ILE	540,ILE	-	540,ILE	540,ILE	540,ILE
541,PHE	541,PHE	-	541,PHE	541,PHE	541,PHE
542,LEU	542,LEU	-	542,LEU	542,LEU	542,LEU
543,GLU	543,GLU	-	543,GLU	543,GLU	543,GLU
544,ASP	544,ASP	-	544,ASP	544,ASP	544,ASP
545,CYS	545,CYS	-	545,CYS	545,CYS	545,CYS
546,ILE	546,ILE	-	546,ILE	546,ILE	546,ILE
547,VAL	547,VAL	-	547,VAL	547,VAL	547,VAL
548,THR	548,THR	-	548,THR	548,THR	548,THR
549,ALA	549,ALA	-	549,ALA	549,ALA	549,ALA
550,CYS	550,CYS	-	550,CYS	550,CYS	550,CYS
551,GLN	551,GLN	-	551,GLN	551,GLN	551,GLN
552,GLU	552,GLU	-	552,GLU	552,GLU	552,GLU
553,GLY	553,GLY	-	553,GLY	553,GLY	553,GLY
554,PHE	554,PHE	-	554,PHE	554,PHE	554,PHE
555,ILE	555,ILE	-	555,ILE	555,ILE	555,ILE
556,CYS	556,CYS	-	556,CYS	556,CYS	556,CYS
557,THR	557,THR	-	557,THR	557,THR	557,THR
558,TRP	558,TRP	-	558,TRP	558,TRP	558,TRP
559,GLY	559,GLY	-	559,GLY	559,GLY	562,GLY
560,ARG	560,ARG	-	560,ARG	560,ARG	559,GLY
561,PRO	561,PRO	-	561,PRO	561,PRO	560,ARG
562,GLY	562,GLY	-	562,GLY	562,GLY	561,PRO
563,LYS	563,LYS	-	563,LYS	563,LYS	563,LYS
564,VAL	564,VAL	-	564,VAL	564,VAL	564,VAL
565,VAL	565,VAL	-	565,VAL	565,VAL	565,VAL
566,SER	566,SER	-	566,SER	566,SER	566,SER
567,PHE	567,PHE	-	567,PHE	567,PHE	567,PHE
568,ASN	568,ASN	-	568,ASN	568,ASN	568,ASN
569,PRO	569,PRO	-	569,PRO	569,PRO	569,PRO
