
 **************************************************************************
 *                        TM-align (Version 20150914)                     *
 * An algorithm for protein structure alignment and comparison            *
 * Based on statistics:                                                   *
 *       0.0 < TM-score < 0.30, random structural similarity              *
 *       0.5 < TM-score < 1.00, in about the same fold                    *
 * Reference: Y Zhang and J Skolnick, Nucl Acids Res 33, 2302-9 (2005)    *
 * Please email your comments and suggestions to: zhng@umich.edu          *
 **************************************************************************

Name of Chain_1: data/pdb/4hmyB_254-295.pdb                        
Name of Chain_2: data/pdb/4hmyB_332-366.pdb                        
Length of Chain_1:   42 residues
Length of Chain_2:   35 residues

Aligned length=   32, RMSD=   2.09, Seq_ID=n_identical/n_aligned= 0.094
TM-score= 0.45853 (if normalized by length of Chain_1)
TM-score= 0.48286 (if normalized by length of Chain_2)
(You should use TM-score normalized by length of the reference protein)

(":" denotes aligned residue pairs of d < 5.0 A, "." denotes other aligned residues)
AVVLSAVKVLMK-FM-EMLSKDL-DYYGTLLKKLAPPLVTLLSAE
:  ::: ::::: :: :: :::. :::::::::::::  ::    
I--YVK-LEKLDIMIRLA-SQANIAQVLAELREYATE--VD----

