uniprot_isoform	location_id	ENSEMBL ID	uniprot_start	uniprot_end	4uadA_start	4uadA_end
1	1_32108131_32170891_1	ENSE00001836098	1	2	-	-
1	1_32108131_32170891_1	ENSE00003475758	2	46	-	-
1	1_32108131_32170891_1	ENSE00003462921	47	77	-	77
1	1_32108131_32170891_1	ENSE00003557133	78	111	78	111
1	1_32108131_32170891_1	ENSE00003610496	111	142	111	142
1	1_32108131_32170891_1	ENSE00003657679	143	186	143	186
1	1_32108131_32170891_1	ENSE00003611208	187	216	187	216
1	1_32108131_32170891_1	ENSE00003612900	216	249	216	249
1	1_32108131_32170891_1	ENSE00003554140	250	304	250	304
1	1_32108131_32170891_1	ENSE00003496372	304	330	304	330
1	1_32108131_32170891_1	ENSE00003508692	331	372	331	372
1	1_32108131_32170891_1	ENSE00003790681	373	415	373	415
1	1_32108131_32170891_1	ENSE00003483526	415	475	415	475
1	1_32108131_32170891_1	ENSE00001677479	475	536	475	536
