P39081	4oi4D	4c0bC	4c0bD	4c0hD	4c0hC	2npiC	2npiD	2naxA	1szaA	1szaC	1szaB	1sz9A	1sz9C	1sz9B	5m9zA
1,MET	-	-	-	-	-	-	-	-	1,MET	1,MET	1,MET	1,MET	1,MET	1,MET	-
2,ASP	-	-	-	-	-	-	-	-	2,ASP	2,ASP	2,ASP	2,ASP	2,ASP	2,ASP	-
3,HIS	-	-	-	-	-	-	-	-	3,HIS	3,HIS	3,HIS	3,HIS	3,HIS	3,HIS	-
4,ASP	-	-	-	-	-	-	-	-	4,ASP	4,ASP	4,ASP	4,ASP	4,ASP	4,ASP	-
5,THR	-	-	-	-	-	-	-	-	5,THR	5,THR	5,THR	5,THR	5,THR	5,THR	-
6,GLU	-	-	-	-	-	-	-	-	6,GLU	6,GLU	6,GLU	6,GLU	6,GLU	6,GLU	-
7,VAL	-	-	-	-	-	-	-	-	7,VAL	7,VAL	7,VAL	7,VAL	7,VAL	7,VAL	-
8,ILE	-	-	-	-	-	-	-	-	8,ILE	8,ILE	8,ILE	8,ILE	8,ILE	8,ILE	-
9,VAL	-	-	-	-	-	-	-	-	9,VAL	9,VAL	9,VAL	9,VAL	9,VAL	9,VAL	-
10,LYS	-	-	-	-	-	-	-	-	10,LYS	10,LYS	10,LYS	10,LYS	10,LYS	10,LYS	-
11,ASP	-	-	-	-	-	-	-	-	11,ASP	11,ASP	11,ASP	11,ASP	11,ASP	11,ASP	-
12,PHE	-	-	-	-	-	-	-	-	12,PHE	12,PHE	12,PHE	12,PHE	12,PHE	12,PHE	-
13,ASN	-	-	-	-	-	-	-	-	13,ASN	13,ASN	13,ASN	13,ASN	13,ASN	13,ASN	-
14,SER	-	-	-	-	-	-	-	-	14,SER	14,SER	14,SER	14,SER	14,SER	14,SER	-
15,ILE	-	-	-	-	-	-	-	-	15,ILE	15,ILE	15,ILE	15,ILE	15,ILE	15,ILE	-
16,LEU	-	-	-	-	-	-	-	-	16,LEU	16,LEU	16,LEU	16,LEU	16,LEU	16,LEU	-
17,GLU	-	-	-	-	-	-	-	-	17,GLU	17,GLU	17,GLU	17,GLU	17,GLU	17,GLU	-
18,GLU	-	-	-	-	-	-	-	-	18,GLU	18,GLU	18,GLU	18,GLU	18,GLU	18,GLU	-
19,LEU	-	-	-	-	-	-	-	-	19,LEU	19,LEU	19,LEU	19,LEU	19,LEU	19,LEU	-
20,THR	-	-	-	-	-	-	-	-	20,THR	20,THR	20,THR	20,THR	20,THR	20,THR	-
21,PHE	-	-	-	-	-	-	-	-	21,PHE	21,PHE	21,PHE	21,PHE	21,PHE	21,PHE	-
22,ASN	-	-	-	-	-	-	-	-	22,ASN	22,ASN	22,ASN	22,ASN	22,ASN	22,ASN	-
23,SER	-	-	-	-	-	-	-	-	23,SER	23,SER	23,SER	23,SER	23,SER	23,SER	-
24,ARG	-	-	-	-	-	-	-	-	24,ARG	24,ARG	24,ARG	24,ARG	24,ARG	24,ARG	-
25,PRO	-	-	-	-	-	-	-	-	25,PRO	25,PRO	25,PRO	25,PRO	25,PRO	25,PRO	-
26,ILE	-	-	-	-	-	-	-	-	26,ILE	26,ILE	26,ILE	26,ILE	26,ILE	26,ILE	-
27,ILE	-	-	-	-	-	-	-	-	27,ILE	27,ILE	27,ILE	27,ILE	27,ILE	27,ILE	-
28,THR	-	-	-	-	-	-	-	-	28,THR	28,THR	28,THR	28,THR	28,THR	28,THR	-
29,THR	-	-	-	-	-	-	-	-	29,THR	29,THR	29,THR	29,THR	29,THR	29,THR	-
30,LEU	-	-	-	-	-	-	-	-	30,LEU	30,LEU	30,LEU	30,LEU	30,LEU	30,LEU	-
31,THR	-	-	-	-	-	-	-	-	31,THR	31,THR	31,THR	31,THR	31,THR	31,THR	-
32,LYS	-	-	-	-	-	-	-	-	32,LYS	32,LYS	32,LYS	32,LYS	32,LYS	32,LYS	-
33,LEU	-	-	-	-	-	-	-	-	33,LEU	33,LEU	33,LEU	33,LEU	33,LEU	33,LEU	-
34,ALA	-	-	-	-	-	-	-	-	34,ALA	34,ALA	34,ALA	34,ALA	34,ALA	34,ALA	-
35,GLU	-	-	-	-	-	-	-	-	35,GLU	35,GLU	35,GLU	35,GLU	35,GLU	35,GLU	-
36,GLU	-	-	-	-	-	-	-	-	36,GLU	36,GLU	36,GLU	36,GLU	36,GLU	36,GLU	-
37,ASN	-	-	-	-	-	-	-	-	37,ASN	37,ASN	37,ASN	37,ASN	37,ASN	37,ASN	-
38,ILE	-	-	-	-	-	-	-	-	38,ILE	38,ILE	38,ILE	38,ILE	38,ILE	38,ILE	-
39,SER	-	-	-	-	-	-	-	-	39,SER	39,SER	39,SER	39,SER	39,SER	39,SER	-
40,CYS	-	-	-	-	-	-	-	-	40,CYS	40,CYS	40,CYS	40,CYS	40,CYS	40,CYS	-
41,ALA	-	-	-	-	-	-	-	-	41,ALA	41,ALA	41,ALA	41,ALA	41,ALA	41,ALA	-
42,GLN	-	-	-	-	-	-	-	-	42,GLN	42,GLN	42,GLN	42,GLN	42,GLN	42,GLN	-
43,TYR	-	-	-	-	-	-	-	-	43,TYR	43,TYR	43,TYR	43,TYR	43,TYR	43,TYR	-
44,PHE	-	-	-	-	-	-	-	-	44,PHE	44,PHE	44,PHE	44,PHE	44,PHE	44,PHE	-
45,VAL	-	-	-	-	-	-	-	-	45,VAL	45,VAL	45,VAL	45,VAL	45,VAL	45,VAL	-
46,ASP	-	-	-	-	-	-	-	-	46,ASP	46,ASP	46,ASP	46,ASP	46,ASP	46,ASP	-
47,ALA	-	-	-	-	-	-	-	-	47,ALA	47,ALA	47,ALA	47,ALA	47,ALA	47,ALA	-
48,ILE	-	-	-	-	-	-	-	-	48,ILE	48,ILE	48,ILE	48,ILE	48,ILE	48,ILE	-
49,GLU	-	-	-	-	-	-	-	-	49,GLU	49,GLU	49,GLU	49,GLU	49,GLU	49,GLU	-
50,SER	-	-	-	-	-	-	-	-	50,SER	50,SER	50,SER	50,SER	50,SER	50,SER	-
51,ARG	-	-	-	-	-	-	-	-	51,ARG	51,ARG	51,ARG	51,ARG	51,ARG	51,ARG	-
52,ILE	-	-	-	-	-	-	-	-	52,ILE	52,ILE	52,ILE	52,ILE	52,ILE	52,ILE	-
53,GLU	-	-	-	-	-	-	-	-	53,GLU	53,GLU	53,GLU	53,GLU	53,GLU	53,GLU	-
54,LYS	-	-	-	-	-	-	-	-	54,LYS	54,LYS	54,LYS	54,LYS	54,LYS	54,LYS	-
55,CYS	-	-	-	-	-	-	-	-	55,CYS	55,CYS	55,CYS	55,CYS	55,CYS	55,CYS	-
56,MET	-	-	-	-	-	-	-	-	56,MET	56,MET	56,MET	56,MET	56,MET	56,MET	-
57,PRO	-	-	-	-	-	-	-	-	57,PRO	57,PRO	57,PRO	57,PRO	57,PRO	57,PRO	-
58,LYS	-	-	-	-	-	-	-	-	58,LYS	58,LYS	58,LYS	58,LYS	58,LYS	58,LYS	-
59,GLN	-	-	-	-	-	-	-	-	59,GLN	59,GLN	59,GLN	59,GLN	59,GLN	59,GLN	-
60,LYS	-	-	-	-	-	-	-	-	60,LYS	60,LYS	60,LYS	60,LYS	60,LYS	60,LYS	-
61,LEU	-	-	-	-	-	-	-	-	61,LEU	61,LEU	61,LEU	61,LEU	61,LEU	61,LEU	-
62,TYR	-	-	-	-	-	-	-	-	62,TYR	62,TYR	62,TYR	62,TYR	62,TYR	62,TYR	-
63,ALA	-	-	-	-	-	-	-	-	63,ALA	63,ALA	63,ALA	63,ALA	63,ALA	63,ALA	-
64,PHE	-	-	-	-	-	-	-	-	64,PHE	64,PHE	64,PHE	64,PHE	64,PHE	64,PHE	-
65,TYR	-	-	-	-	-	-	-	-	65,TYR	65,TYR	65,TYR	65,TYR	65,TYR	65,TYR	-
66,ALA	-	-	-	-	-	-	-	-	66,ALA	66,ALA	66,ALA	66,ALA	66,ALA	66,ALA	-
67,LEU	-	-	-	-	-	-	-	-	67,LEU	67,LEU	67,LEU	67,LEU	67,LEU	67,LEU	-
68,ASP	-	-	-	-	-	-	-	-	68,ASP	68,ASP	68,ASP	68,ASP	68,ASP	68,ASP	-
69,SER	-	-	-	-	-	-	-	-	69,SER	69,SER	69,SER	69,SER	69,SER	69,SER	-
70,ILE	-	-	-	-	-	-	-	-	70,ILE	70,ILE	70,ILE	70,ILE	70,ILE	70,ILE	-
71,CYS	-	-	-	-	-	-	-	-	71,CYS	71,CYS	71,CYS	71,CYS	71,CYS	71,CYS	-
72,LYS	-	-	-	-	-	-	-	-	72,LYS	72,LYS	72,LYS	72,LYS	72,LYS	72,LYS	-
73,ASN	-	-	-	-	-	-	-	-	73,ASN	73,ASN	73,ASN	73,ASN	73,ASN	73,ASN	-
74,VAL	-	-	-	-	-	-	-	-	74,VAL	74,VAL	74,VAL	74,VAL	74,VAL	74,VAL	-
75,GLY	-	-	-	-	-	-	-	-	75,GLY	75,GLY	75,GLY	75,GLY	75,GLY	75,GLY	-
76,SER	-	-	-	-	-	-	-	-	76,SER	76,SER	76,SER	76,SER	76,SER	76,SER	-
77,PRO	-	-	-	-	-	-	-	-	77,PRO	77,PRO	77,PRO	77,PRO	77,PRO	77,PRO	-
78,TYR	-	-	-	-	-	-	-	-	78,TYR	78,TYR	78,TYR	78,TYR	78,TYR	78,TYR	-
79,THR	-	-	-	-	-	-	-	-	79,THR	79,THR	79,THR	79,THR	79,THR	79,THR	-
80,ILE	-	-	-	-	-	-	-	-	80,ILE	80,ILE	80,ILE	80,ILE	80,ILE	80,ILE	-
81,TYR	-	-	-	-	-	-	-	-	81,TYR	81,TYR	81,TYR	81,TYR	81,TYR	81,TYR	-
82,PHE	-	-	-	-	-	-	-	-	82,PHE	82,PHE	82,PHE	82,PHE	82,PHE	82,PHE	-
83,SER	-	-	-	-	-	-	-	-	83,SER	83,SER	83,SER	83,SER	83,SER	83,SER	-
84,ARG	-	-	-	-	-	-	-	-	84,ARG	84,ARG	84,ARG	84,ARG	84,ARG	84,ARG	-
85,ASN	-	-	-	-	-	-	-	-	85,ASN	85,ASN	85,ASN	85,ASN	85,ASN	85,ASN	-
86,LEU	-	-	-	-	-	-	-	-	86,LEU	86,LEU	86,LEU	86,LEU	86,LEU	86,LEU	-
87,PHE	-	-	-	-	-	-	-	-	87,PHE	87,PHE	87,PHE	87,PHE	87,PHE	87,PHE	-
88,ASN	-	-	-	-	-	-	-	-	88,ASN	88,ASN	88,ASN	88,ASN	88,ASN	88,ASN	-
89,LEU	-	-	-	-	-	-	-	-	89,LEU	89,LEU	89,LEU	89,LEU	89,LEU	89,LEU	-
90,TYR	-	-	-	-	-	-	-	-	90,TYR	90,TYR	90,TYR	90,TYR	90,TYR	90,TYR	-
91,LYS	-	-	-	-	-	-	-	-	91,LYS	91,LYS	91,LYS	91,LYS	91,LYS	91,LYS	-
92,ARG	-	-	-	-	-	-	-	-	92,ARG	92,ARG	92,ARG	92,ARG	92,ARG	92,ARG	-
93,THR	-	-	-	-	-	-	-	-	93,THR	93,THR	93,THR	93,THR	93,THR	93,THR	-
94,TYR	-	-	-	-	-	-	-	-	94,TYR	94,TYR	94,TYR	94,TYR	94,TYR	94,TYR	-
95,LEU	-	-	-	-	-	-	-	-	95,LEU	95,LEU	95,LEU	95,LEU	95,LEU	95,LEU	-
96,LEU	-	-	-	-	-	-	-	-	96,LEU	96,LEU	96,LEU	96,LEU	96,LEU	96,LEU	-
97,VAL	-	-	-	-	-	-	-	-	97,VAL	97,VAL	97,VAL	97,VAL	97,VAL	97,VAL	-
98,ASP	-	-	-	-	-	-	-	-	98,ASP	98,ASP	98,ASP	98,ASP	98,ASP	98,ASP	-
99,ASN	-	-	-	-	-	-	-	-	99,ASN	99,ASN	99,ASN	99,ASN	99,ASN	99,ASN	-
100,THR	-	-	-	-	-	-	-	-	100,THR	100,THR	100,THR	100,THR	100,THR	100,THR	-
101,THR	-	-	-	-	-	-	-	-	101,THR	101,THR	101,THR	101,THR	101,THR	101,THR	-
102,ARG	-	-	-	-	-	-	-	-	102,ARG	102,ARG	102,ARG	102,ARG	102,ARG	102,ARG	-
103,THR	-	-	-	-	-	-	-	-	103,THR	106,ILE	103,THR	103,THR	103,THR	103,THR	-
104,LYS	-	-	-	-	-	-	-	-	104,LYS	103,THR	104,LYS	104,LYS	104,LYS	104,LYS	-
105,LEU	-	-	-	-	-	-	-	-	105,LEU	104,LYS	105,LEU	105,LEU	105,LEU	105,LEU	-
106,ILE	-	-	-	-	-	-	-	-	106,ILE	105,LEU	106,ILE	106,ILE	106,ILE	106,ILE	-
107,ASN	-	-	-	-	-	-	-	-	107,ASN	107,ASN	107,ASN	107,ASN	107,ASN	107,ASN	-
108,MET	-	-	-	-	-	-	-	-	108,MET	108,MET	108,MET	108,MET	108,MET	108,MET	-
109,PHE	-	-	-	-	-	-	-	-	109,PHE	109,PHE	109,PHE	109,PHE	109,PHE	109,PHE	-
110,LYS	-	-	-	-	-	-	-	-	110,LYS	110,LYS	110,LYS	110,LYS	110,LYS	110,LYS	-
111,LEU	-	-	-	-	-	-	-	-	111,LEU	111,LEU	111,LEU	111,LEU	111,LEU	111,LEU	-
112,TRP	-	-	-	-	-	-	-	-	112,TRP	112,TRP	112,TRP	112,TRP	112,TRP	112,TRP	-
113,LEU	-	-	-	-	-	-	-	-	113,LEU	113,LEU	113,LEU	113,LEU	113,LEU	113,LEU	-
114,ASN	-	-	-	-	-	-	-	-	114,ASN	114,ASN	114,ASN	114,ASN	114,ASN	114,ASN	-
115,PRO	-	-	-	-	-	-	-	-	115,PRO	115,PRO	115,PRO	115,PRO	115,PRO	115,PRO	-
116,ASN	-	-	-	-	-	-	-	-	116,ASN	116,ASN	116,ASN	116,ASN	116,ASN	116,ASN	-
117,ASP	-	-	-	-	-	-	-	-	117,ASP	117,ASP	117,ASP	117,ASP	117,ASP	117,ASP	-
118,THR	-	-	-	-	-	-	-	-	118,THR	118,THR	118,THR	118,THR	118,THR	118,THR	-
119,GLY	-	-	-	-	-	-	-	-	119,GLY	119,GLY	119,GLY	119,GLY	119,GLY	119,GLY	-
120,LEU	-	-	-	-	-	-	-	-	120,LEU	120,LEU	120,LEU	120,LEU	120,LEU	120,LEU	-
121,PRO	-	-	-	-	-	-	-	-	121,PRO	121,PRO	121,PRO	121,PRO	121,PRO	121,PRO	-
122,LEU	-	-	-	-	-	-	-	-	122,LEU	122,LEU	122,LEU	122,LEU	122,LEU	122,LEU	-
123,PHE	-	-	-	-	-	-	-	-	123,PHE	123,PHE	123,PHE	123,PHE	123,PHE	123,PHE	-
124,GLU	-	-	-	-	-	-	-	-	124,GLU	124,GLU	124,GLU	124,GLU	124,GLU	124,GLU	-
125,GLY	-	-	-	-	-	-	-	-	125,GLY	125,GLY	125,GLY	125,GLY	125,GLY	125,GLY	-
126,SER	-	-	-	-	-	-	-	-	126,SER	126,SER	126,SER	126,SER	126,SER	126,SER	-
127,ALA	-	-	-	-	-	-	-	-	127,ALA	127,ALA	127,ALA	127,ALA	127,ALA	127,ALA	-
128,LEU	-	-	-	-	-	-	-	-	128,LEU	128,LEU	128,LEU	128,LEU	128,LEU	128,LEU	-
129,GLU	-	-	-	-	-	-	-	-	129,GLU	129,GLU	129,GLU	129,GLU	129,GLU	129,GLU	-
130,LYS	-	-	-	-	-	-	-	-	130,LYS	130,LYS	130,LYS	130,LYS	130,LYS	130,LYS	-
131,ILE	-	-	-	-	-	-	-	-	131,ILE	131,ILE	131,ILE	131,ILE	131,ILE	131,ILE	-
132,GLU	-	-	-	-	-	-	-	-	132,GLU	132,GLU	132,GLU	132,GLU	132,GLU	132,GLU	-
133,GLN	-	-	-	-	-	-	-	-	133,GLN	133,GLN	133,GLN	133,GLN	133,GLN	133,GLN	-
134,PHE	-	-	-	-	-	-	-	-	134,PHE	134,PHE	134,PHE	134,PHE	134,PHE	134,PHE	-
135,LEU	-	-	-	-	-	-	-	-	135,LEU	135,LEU	135,LEU	135,LEU	135,LEU	135,LEU	-
136,ILE	-	-	-	-	-	-	-	-	136,ILE	136,ILE	136,ILE	136,ILE	136,ILE	136,ILE	-
137,LYS	-	-	-	-	-	-	-	-	137,LYS	137,LYS	137,LYS	137,LYS	137,LYS	137,LYS	-
138,ALA	-	-	-	-	-	-	-	-	138,ALA	138,ALA	138,ALA	138,ALA	138,ALA	138,ALA	-
139,SER	-	-	-	-	-	-	-	-	139,SER	139,SER	139,SER	139,SER	139,SER	139,SER	-
140,ALA	-	-	-	-	-	-	-	-	140,ALA	140,ALA	140,ALA	140,ALA	140,ALA	140,ALA	-
141,LEU	-	-	-	-	-	-	-	-	-	-	-	-	-	-	-
142,HIS	-	-	-	-	-	-	-	-	-	-	-	-	-	-	-
143,GLN	-	-	-	-	-	-	-	-	-	-	-	-	-	-	-
144,LYS	-	-	-	-	-	-	-	-	-	-	-	-	-	-	-
145,ASN	-	-	-	-	-	-	-	-	-	-	-	-	-	-	-
146,LEU	-	-	-	-	-	-	-	-	-	-	-	-	-	-	-
147,GLN	-	-	-	-	-	-	-	-	-	-	-	-	-	-	-
148,ALA	-	-	-	-	-	-	-	-	-	-	-	-	-	-	-
149,MET	-	-	-	-	-	-	-	-	-	-	-	-	-	-	-
150,LEU	-	-	-	-	-	-	-	-	-	-	-	-	-	-	-
151,PRO	-	-	-	-	-	-	-	-	-	-	-	-	-	-	-
152,THR	-	-	-	-	-	-	-	-	-	-	-	-	-	-	-
153,PRO	-	-	-	-	-	-	-	-	-	-	-	-	-	-	-
154,THR	-	-	-	-	-	-	-	-	-	-	-	-	-	-	-
155,VAL	-	-	-	-	-	-	-	-	-	-	-	-	-	-	-
156,PRO	-	-	-	-	-	-	-	-	-	-	-	-	-	-	-
157,LEU	-	-	-	-	-	-	-	-	-	-	-	-	-	-	-
158,LEU	-	-	-	-	-	-	-	-	-	-	-	-	-	-	-
159,LEU	-	-	-	-	-	-	-	-	-	-	-	-	-	-	-
160,ARG	-	-	-	-	-	-	-	-	-	-	-	-	-	-	-
161,ASP	-	-	-	-	-	-	-	-	-	-	-	-	-	-	-
162,ILE	-	-	-	-	-	-	-	-	-	-	-	-	-	-	-
163,ASP	-	-	-	-	-	-	-	-	-	-	-	-	-	-	-
164,LYS	-	-	-	-	-	-	-	-	-	-	-	-	-	-	-
165,LEU	-	-	-	-	-	-	-	-	-	-	-	-	-	-	-
166,THR	-	-	-	-	-	-	-	-	-	-	-	-	-	-	-
167,CYS	-	-	-	-	-	-	-	-	-	-	-	-	-	-	-
168,LEU	-	-	-	-	-	-	-	-	-	-	-	-	-	-	-
169,THR	-	-	-	-	-	-	-	-	-	-	-	-	-	-	-
170,SER	-	-	-	-	-	-	-	-	-	-	-	-	-	-	-
171,GLU	-	-	-	-	-	-	-	-	-	-	-	-	-	-	-
172,ARG	-	-	-	-	-	-	-	-	-	-	-	-	-	-	-
173,LEU	-	-	-	-	-	-	-	-	-	-	-	-	-	-	-
174,LYS	-	-	-	-	-	-	-	-	-	-	-	-	-	-	-
175,ASN	-	-	-	-	-	-	-	-	-	-	-	-	-	-	-
176,GLN	-	-	-	-	-	-	-	-	-	-	-	-	-	-	-
177,PRO	-	-	-	-	-	-	-	-	-	-	-	-	-	-	-
178,ASN	-	-	-	-	-	-	-	-	-	-	-	-	-	-	-
179,ASP	-	-	-	-	-	-	-	-	-	-	-	-	-	-	-
180,GLU	-	-	-	-	-	-	-	-	-	-	-	-	-	-	-
181,LYS	-	-	-	-	-	-	-	-	-	-	-	-	-	-	-
182,LEU	-	-	-	-	-	-	-	-	-	-	-	-	-	-	-
183,LYS	-	-	-	-	-	-	-	-	-	-	-	-	-	-	-
184,MET	-	-	-	-	-	-	-	-	-	-	-	-	-	-	-
185,LYS	-	-	-	-	-	-	-	-	-	-	-	-	-	-	-
186,LEU	-	-	-	-	-	-	-	-	-	-	-	-	-	-	-
187,LEU	-	-	-	-	-	-	-	-	-	-	-	-	-	-	-
188,VAL	-	-	-	-	-	-	-	-	-	-	-	-	-	-	-
189,LEU	-	-	-	-	-	-	-	-	-	-	-	-	-	-	-
190,SER	-	-	-	-	-	-	-	-	-	-	-	-	-	-	-
191,GLN	-	-	-	-	-	-	-	-	-	-	-	-	-	-	-
192,LEU	-	-	-	-	-	-	-	-	-	-	-	-	-	-	-
193,LYS	-	-	-	-	-	-	-	-	-	-	-	-	-	-	-
194,GLN	-	-	-	-	-	-	-	-	-	-	-	-	-	-	-
195,GLU	-	-	-	-	-	-	-	-	-	-	-	-	-	-	-
196,LEU	-	-	-	-	-	-	-	-	-	-	-	-	-	-	-
197,LYS	-	-	-	-	-	-	-	-	-	-	-	-	-	-	-
198,ARG	-	-	-	-	-	-	-	-	-	-	-	-	-	-	-
199,GLU	-	-	-	-	-	-	-	-	-	-	-	-	-	-	-
200,LYS	-	-	-	-	-	-	-	-	-	-	-	-	-	-	-
201,LEU	-	-	-	-	-	-	-	-	-	-	-	-	-	-	-
202,THR	-	-	-	-	-	-	-	-	-	-	-	-	-	-	-
203,LEU	-	-	-	-	-	-	-	-	-	-	-	-	-	-	-
204,ASN	-	-	-	-	-	-	-	-	-	-	-	-	-	-	-
205,ALA	-	-	-	-	-	-	-	-	-	-	-	-	-	-	-
206,LEU	-	-	-	-	-	-	-	-	-	-	-	-	-	-	-
207,LYS	-	-	-	-	-	-	-	-	-	-	-	-	-	-	-
208,GLN	-	-	-	-	-	-	-	-	-	-	-	-	-	-	-
209,VAL	-	-	-	-	-	-	-	-	-	-	-	-	-	-	-
210,GLN	-	-	-	-	-	-	-	-	-	-	-	-	-	-	-
211,MET	-	-	-	-	-	-	-	-	-	-	-	-	-	-	-
212,GLN	-	-	-	-	-	-	-	-	-	-	-	-	-	-	-
213,LEU	-	-	-	-	-	-	-	-	-	-	-	-	-	-	-
214,ARG	-	-	-	-	-	-	-	-	-	-	-	-	-	-	-
215,GLN	-	-	-	-	-	-	-	-	-	-	-	-	-	-	-
216,VAL	-	-	-	-	-	-	-	-	-	-	-	-	-	-	-
217,PHE	-	-	-	-	-	-	-	-	-	-	-	-	-	-	-
218,SER	-	-	-	-	-	-	-	-	-	-	-	-	-	-	-
219,GLN	-	-	-	-	-	-	-	-	-	-	-	-	-	-	-
220,ASP	-	-	-	-	-	-	-	-	-	-	-	-	-	-	-
221,GLN	-	-	-	-	-	-	-	-	-	-	-	-	-	-	-
222,GLN	-	-	-	-	-	-	-	-	-	-	-	-	-	-	-
223,VAL	-	-	-	-	-	-	-	-	-	-	-	-	-	-	-
224,LEU	-	-	-	-	-	-	-	-	-	-	-	-	-	-	-
225,GLN	-	-	-	-	-	-	-	-	-	-	-	-	-	-	-
226,GLU	-	-	-	-	-	-	-	-	-	-	-	-	-	-	-
227,ARG	-	-	-	-	-	-	-	-	-	-	-	-	-	-	-
228,MET	-	-	-	-	-	-	-	-	-	-	-	-	-	-	-
229,ARG	-	-	-	-	-	-	-	-	-	-	-	-	-	-	-
230,TYR	-	-	-	-	-	-	-	-	-	-	-	-	-	-	-
231,HIS	-	-	-	-	-	-	-	-	-	-	-	-	-	-	-
232,GLU	-	-	-	-	-	-	-	-	-	-	-	-	-	-	-
233,LEU	-	-	-	-	-	-	-	-	-	-	-	-	-	-	-
234,GLN	-	-	-	-	-	-	-	-	-	-	-	-	-	-	-
235,GLN	-	-	-	-	-	-	-	-	-	-	-	-	-	-	-
236,GLN	-	-	-	-	-	-	-	-	-	-	-	-	-	-	-
237,GLN	-	-	-	-	-	-	-	-	-	-	-	-	-	-	-
238,GLN	-	-	-	-	-	-	-	-	-	-	-	-	-	-	-
239,GLN	-	-	-	-	-	-	-	-	-	-	-	-	-	-	-
240,GLN	-	-	-	-	-	-	-	-	-	-	-	-	-	-	-
241,GLN	-	-	-	-	-	-	-	-	-	-	-	-	-	-	-
242,GLN	-	-	-	-	-	-	-	-	-	-	-	-	-	-	-
243,GLN	-	-	-	-	-	-	-	-	-	-	-	-	-	-	-
244,GLN	-	-	-	-	-	-	-	-	-	-	-	-	-	-	-
245,GLN	-	-	-	-	-	-	-	-	-	-	-	-	-	-	-
246,GLN	-	-	-	-	-	-	-	-	-	-	-	-	-	-	-
247,GLN	-	-	-	-	-	-	-	-	-	-	-	-	-	-	-
248,GLN	-	-	-	-	-	-	-	-	-	-	-	-	-	-	-
249,GLN	-	-	-	-	-	-	-	-	-	-	-	-	-	-	-
250,GLN	-	-	-	-	-	-	-	-	-	-	-	-	-	-	-
251,GLN	-	-	-	-	-	-	-	-	-	-	-	-	-	-	-
252,GLN	-	-	-	-	-	-	-	-	-	-	-	-	-	-	-
253,GLN	-	-	-	-	-	-	-	-	-	-	-	-	-	-	-
254,TYR	-	-	-	-	-	-	-	-	-	-	-	-	-	-	-
255,HIS	-	-	-	-	-	-	-	-	-	-	-	-	-	-	-
256,GLU	-	-	-	-	-	-	-	-	-	-	-	-	-	-	-
257,THR	-	-	-	-	-	-	-	-	-	-	-	-	-	-	-
258,LYS	-	-	-	-	-	-	-	-	-	-	-	-	-	-	-
259,ASP	-	-	-	-	-	-	-	-	-	-	-	-	-	-	-
260,MET	-	-	-	-	-	-	-	-	-	-	-	-	-	-	-
261,VAL	-	-	-	-	-	-	-	-	-	-	-	-	-	-	-
262,GLY	-	-	-	-	-	-	-	-	-	-	-	-	-	-	-
263,SER	-	-	-	-	-	-	-	-	-	-	-	-	-	-	-
264,TYR	-	-	-	-	-	-	-	-	-	-	-	-	-	-	-
265,THR	-	-	-	-	-	-	-	-	-	-	-	-	-	-	-
266,GLN	-	-	-	-	-	-	-	-	-	-	-	-	-	-	-
267,ASN	-	-	-	-	-	-	-	-	-	-	-	-	-	-	-
268,SER	-	-	-	-	-	-	-	-	-	-	-	-	-	-	-
269,ASN	-	-	-	-	-	-	-	-	-	-	-	-	-	-	-
270,SER	-	-	-	-	-	-	-	-	-	-	-	-	-	-	-
271,ALA	-	-	-	-	-	-	-	-	-	-	-	-	-	-	-
272,ILE	-	-	-	-	-	-	-	-	-	-	-	-	-	-	-
273,PRO	-	-	-	-	-	-	-	-	-	-	-	-	-	-	-
274,LEU	-	-	-	-	-	-	-	-	-	-	-	-	-	-	-
275,PHE	-	-	-	-	-	-	-	-	-	-	-	-	-	-	-
276,GLY	-	-	-	-	-	-	-	-	-	-	-	-	-	-	-
277,ASN	-	-	-	-	-	-	-	-	-	-	-	-	-	-	-
278,ASN	-	-	-	-	-	-	-	-	-	-	-	-	-	-	-
279,SER	-	-	-	-	-	-	-	-	-	-	-	-	-	-	-
280,ASP	-	-	-	-	-	-	-	-	-	-	-	-	-	-	-
281,THR	-	-	-	-	-	-	-	-	-	-	-	-	-	-	-
282,THR	-	-	-	-	-	-	-	-	-	-	-	-	-	-	-
283,ASN	-	-	-	-	-	-	-	-	-	-	-	-	-	-	-
284,GLN	-	-	-	-	-	-	-	-	-	-	-	-	-	-	-
285,GLN	-	-	-	-	-	-	-	-	-	-	-	-	-	-	-
286,ASN	-	-	-	-	-	-	-	-	-	-	-	-	-	-	-
287,SER	-	-	-	-	-	-	-	-	-	-	-	-	-	-	-
288,LEU	-	-	-	-	-	-	-	-	-	-	-	-	-	-	-
289,SER	-	-	-	-	-	-	-	-	-	-	-	-	-	-	-
290,SER	-	-	-	-	-	-	-	-	-	-	-	-	-	-	-
291,SER	-	-	-	-	-	-	-	-	-	-	-	-	-	-	-
292,LEU	-	-	-	-	-	-	-	-	-	-	-	-	-	-	-
293,PHE	-	-	-	-	-	-	-	-	-	-	-	-	-	-	-
294,GLY	-	-	-	-	-	-	-	-	-	-	-	-	-	-	-
295,ASN	-	-	-	-	-	-	-	-	-	-	-	-	-	-	-
296,ILE	-	-	-	-	-	-	-	-	-	-	-	-	-	-	-
297,SER	-	-	-	-	-	-	-	-	-	-	-	-	-	-	-
298,GLY	-	-	-	-	-	-	-	-	-	-	-	-	-	-	-
299,VAL	-	-	-	-	-	-	-	-	-	-	-	-	-	-	-
300,GLU	-	-	-	-	-	-	-	-	-	-	-	-	-	-	-
301,SER	-	-	-	-	-	-	-	-	-	-	-	-	-	-	-
302,PHE	-	-	-	-	-	-	-	-	-	-	-	-	-	-	-
303,GLN	-	-	-	-	-	-	-	-	-	-	-	-	-	-	-
304,GLU	-	-	-	-	-	-	-	-	-	-	-	-	-	-	-
305,ILE	-	-	-	-	-	-	-	-	-	-	-	-	-	-	-
306,GLU	-	-	-	-	-	-	-	-	-	-	-	-	-	-	-
307,LYS	-	-	-	-	-	-	-	-	-	-	-	-	-	-	-
308,LYS	-	-	-	-	-	-	-	-	-	-	-	-	-	-	-
309,LYS	-	-	-	-	-	-	-	-	-	-	-	-	-	-	-
310,SER	-	-	-	-	-	-	-	-	-	-	-	-	-	-	-
311,LEU	-	-	-	-	-	-	-	-	-	-	-	-	-	-	-
312,ASN	-	-	-	-	-	-	-	-	-	-	-	-	-	-	-
313,LYS	-	-	-	-	-	-	-	-	-	-	-	-	-	-	-
314,ILE	-	-	-	-	-	-	-	-	-	-	-	-	-	-	-
315,ASN	-	-	-	-	-	-	-	-	-	-	-	-	-	-	-
316,ASN	-	-	-	-	-	-	-	-	-	-	-	-	-	-	-
317,LEU	-	-	-	-	-	-	-	-	-	-	-	-	-	-	-
318,TYR	-	-	-	-	-	-	-	-	-	-	-	-	-	-	-
319,ALA	-	-	-	-	-	-	-	-	-	-	-	-	-	-	-
320,SER	-	-	-	-	-	-	-	-	-	-	-	-	-	-	-
321,LEU	-	-	-	-	-	-	-	-	-	-	-	-	-	-	-
322,LYS	-	-	-	-	-	-	-	-	-	-	-	-	-	-	-
323,ALA	-	-	-	-	-	-	-	-	-	-	-	-	-	-	-
324,GLU	-	-	-	-	-	-	-	-	-	-	-	-	-	-	-
325,GLY	-	-	-	-	-	-	-	-	-	-	-	-	-	-	-
326,LEU	-	-	-	-	-	-	-	-	-	-	-	-	-	-	-
327,ILE	-	-	-	-	-	-	-	-	-	-	-	-	-	-	-
328,TYR	-	-	-	-	-	-	-	-	-	-	-	-	-	-	-
329,THR	-	-	-	-	-	-	-	-	-	-	-	-	-	-	-
330,PRO	-	-	-	-	-	-	-	-	-	-	-	-	-	-	-
331,PRO	-	-	-	-	-	-	-	-	-	-	-	-	-	-	-
332,LYS	-	-	-	-	-	-	-	-	-	-	-	-	-	-	-
333,GLU	-	-	-	-	-	-	-	-	-	-	-	-	-	-	-
334,SER	-	-	-	-	-	-	-	-	-	-	-	-	-	-	-
335,ILE	-	-	-	-	-	-	-	-	-	-	-	-	-	-	-
336,VAL	-	-	-	-	-	-	-	-	-	-	-	-	-	-	-
337,THR	-	-	-	-	-	-	-	-	-	-	-	-	-	-	-
338,LEU	-	-	-	-	-	-	-	-	-	-	-	-	-	-	-
339,TYR	-	-	-	-	-	-	-	-	-	-	-	-	-	-	-
340,LYS	-	-	-	-	-	-	-	-	-	-	-	-	-	-	-
341,LYS	-	-	-	-	-	-	-	-	-	-	-	-	-	-	-
342,LEU	-	-	-	-	-	-	-	-	-	-	-	-	-	-	-
343,ASN	-	-	-	-	-	-	-	-	-	-	-	-	-	-	-
344,GLY	-	-	-	-	-	-	-	-	-	-	-	-	-	-	-
345,HIS	-	-	-	-	-	-	-	-	-	-	-	-	-	-	-
346,SER	-	-	-	-	-	-	-	-	-	-	-	-	-	-	-
347,ASN	-	-	-	-	-	-	-	-	-	-	-	-	-	-	-
348,TYR	-	-	-	-	-	-	-	-	-	-	-	-	-	-	-
349,SER	-	-	-	-	-	-	-	-	-	-	-	-	-	-	-
350,LEU	-	-	-	-	-	-	-	-	-	-	-	-	-	-	-
351,ASP	-	-	-	-	-	-	-	-	-	-	-	-	-	-	-
352,SER	-	-	-	-	-	-	-	-	-	-	-	-	-	-	-
353,HIS	-	-	-	-	-	-	-	-	-	-	-	-	-	-	-
354,GLU	-	-	-	-	-	-	-	-	-	-	-	-	-	-	-
355,LYS	-	-	-	-	-	-	-	-	-	-	-	-	-	-	-
356,GLN	-	-	-	-	-	-	-	-	-	-	-	-	-	-	-
357,LEU	-	-	-	-	-	-	-	-	-	-	-	-	-	-	-
358,MET	-	-	-	-	-	-	-	-	-	-	-	-	-	-	-
359,LYS	-	-	-	-	-	-	-	-	-	-	-	-	-	-	-
360,ASN	-	-	-	-	-	-	-	-	-	-	-	-	-	-	-
361,LEU	-	-	-	-	-	-	-	-	-	-	-	-	-	-	-
362,PRO	-	-	-	-	-	-	-	-	-	-	-	-	-	-	-
363,LYS	-	-	-	-	-	-	-	-	-	-	-	-	-	-	-
364,ILE	-	-	-	-	-	-	-	-	-	-	-	-	-	-	-
365,PRO	-	-	-	-	-	-	-	-	-	-	-	-	-	-	-
366,LEU	-	-	-	-	-	-	-	-	-	-	-	-	-	-	-
367,LEU	-	-	-	-	-	-	-	-	-	-	-	-	-	-	-
368,ASN	-	-	-	-	-	-	-	-	-	-	-	-	-	-	-
369,ASP	-	-	-	-	-	-	-	-	-	-	-	-	-	-	-
370,ILE	-	-	-	-	-	-	-	-	-	-	-	-	-	-	-
371,LEU	-	-	-	-	-	-	-	-	-	-	-	-	-	-	-
372,SER	-	-	-	-	-	-	-	-	-	-	-	-	-	-	-
373,ASP	-	-	-	-	-	-	-	-	-	-	-	-	-	-	-
374,CYS	-	-	-	-	-	-	-	-	-	-	-	-	-	-	-
375,LYS	-	-	-	-	-	-	-	-	-	-	-	-	-	-	-
376,ALA	-	-	-	-	-	-	-	-	-	-	-	-	-	-	-
377,TYR	-	-	-	-	-	-	-	-	-	-	-	-	-	-	-
378,PHE	-	-	-	-	-	-	-	-	-	-	-	-	-	-	-
379,ALA	-	-	-	-	-	-	-	-	-	-	-	-	-	-	-
380,THR	-	-	-	-	-	-	-	-	-	-	-	-	-	-	-
381,VAL	-	-	-	-	-	-	-	-	-	-	-	-	-	-	-
382,ASN	-	-	-	-	-	-	-	-	-	-	-	-	-	-	-
383,ILE	-	-	-	-	-	-	-	-	-	-	-	-	-	-	-
384,ASP	-	-	-	-	-	-	-	-	-	-	-	-	-	-	-
385,VAL	-	-	-	-	-	-	-	-	-	-	-	-	-	-	-
386,LEU	-	-	-	-	-	-	-	-	-	-	-	-	-	-	-
387,ASN	-	-	-	-	-	-	-	-	-	-	-	-	-	-	-
388,ASN	-	-	-	-	-	-	-	-	-	-	-	-	-	-	-
389,PRO	-	-	-	-	-	-	-	-	-	-	-	-	-	-	-
390,SER	-	-	-	-	-	-	-	-	-	-	-	-	-	-	-
391,LEU	-	-	-	-	-	-	-	-	-	-	-	-	-	-	-
392,GLN	-	-	-	-	-	-	-	-	-	-	-	-	-	-	-
393,LEU	-	-	-	-	-	-	-	-	-	-	-	-	-	-	-
394,SER	-	-	-	-	-	-	-	-	-	-	-	-	-	-	-
395,GLU	-	-	-	-	-	-	-	-	-	-	-	-	-	-	-
396,GLN	-	-	-	-	-	-	-	-	-	-	-	-	-	-	-
397,THR	-	-	-	-	-	-	-	-	-	-	-	-	-	-	-
398,LEU	-	-	-	-	-	-	-	-	-	-	-	-	-	-	-
399,LEU	-	-	-	-	-	-	-	-	-	-	-	-	-	-	-
400,GLN	-	-	-	-	-	-	-	-	-	-	-	-	-	-	-
401,GLU	-	-	-	-	-	-	-	-	-	-	-	-	-	-	-
402,ASN	-	-	-	-	-	-	-	-	-	-	-	-	-	-	-
403,PRO	-	-	-	-	-	-	-	-	-	-	-	-	-	-	-
404,ILE	-	-	-	-	-	-	-	-	-	-	-	-	-	-	-
405,VAL	-	-	-	-	-	-	-	-	-	-	-	-	-	-	-
406,GLN	-	-	-	-	-	-	-	-	-	-	-	-	-	-	-
407,ASN	-	-	-	-	-	-	-	-	-	-	-	-	-	-	-
408,ASN	-	-	-	-	-	-	-	-	-	-	-	-	-	-	-
409,LEU	-	-	-	-	-	-	-	-	-	-	-	-	-	-	-
410,ILE	-	-	-	-	-	-	-	-	-	-	-	-	-	-	-
411,HIS	-	-	-	-	-	-	-	-	-	-	-	-	-	-	-
412,LEU	-	-	-	-	-	-	-	-	-	-	-	-	-	-	-
413,LEU	-	-	-	-	-	-	-	-	-	-	-	-	-	-	-
414,TYR	-	-	-	-	-	-	-	-	-	-	-	-	-	-	-
415,ARG	-	-	-	-	-	-	-	-	-	-	-	-	-	-	-
416,SER	-	-	-	-	-	-	-	-	-	-	-	-	-	-	-
417,LYS	-	-	-	-	-	-	-	-	-	-	-	-	-	-	-
418,PRO	-	-	-	-	-	-	-	-	-	-	-	-	-	-	-
419,ASN	-	-	-	-	-	-	-	-	-	-	-	-	-	-	-
420,LYS	-	-	-	-	-	-	-	-	-	-	-	-	-	-	-
421,CYS	-	-	-	-	-	-	-	-	-	-	-	-	-	-	-
422,SER	-	-	-	-	-	-	-	-	-	-	-	-	-	-	-
423,VAL	-	-	-	-	-	-	-	-	-	-	-	-	-	-	-
424,CYS	-	-	-	-	-	-	-	-	-	-	-	-	-	-	-
425,GLY	-	-	-	-	-	-	-	-	-	-	-	-	-	-	-
426,LYS	-	-	-	-	-	-	-	-	-	-	-	-	-	-	-
427,ARG	-	-	-	-	-	-	-	-	-	-	-	-	-	-	-
428,PHE	-	-	-	-	-	-	-	-	-	-	-	-	-	-	-
429,GLY	-	-	-	-	-	-	-	-	-	-	-	-	-	-	-
430,ASN	-	-	-	-	-	-	-	-	-	-	-	-	-	-	-
431,SER	-	-	-	-	-	-	-	-	-	-	-	-	-	-	-
432,GLU	-	-	-	-	-	-	-	-	-	-	-	-	-	-	-
433,SER	-	-	-	-	-	-	-	-	-	-	-	-	-	-	-
434,GLU	-	-	-	-	-	-	-	-	-	-	-	-	-	-	-
435,LYS	-	-	-	-	-	-	-	-	-	-	-	-	-	-	-
436,LEU	-	-	-	-	-	-	-	-	-	-	-	-	-	-	-
437,LEU	-	-	-	-	-	-	-	-	-	-	-	-	-	-	-
438,GLN	-	-	-	-	-	-	-	-	-	-	-	-	-	-	-
439,ASN	-	-	-	-	-	-	-	-	-	-	-	-	-	-	-
440,GLU	-	-	-	-	-	-	-	-	-	-	-	-	-	-	-
441,HIS	-	-	-	-	-	-	-	-	-	-	-	-	-	-	-
442,LEU	-	-	-	-	-	-	-	-	-	-	-	-	-	-	-
443,ASP	-	-	-	-	-	-	-	-	-	-	-	-	-	-	-
444,TRP	-	-	-	-	-	-	-	-	-	-	-	-	-	-	-
445,HIS	-	-	-	-	-	-	-	-	-	-	-	-	-	-	-
446,PHE	-	-	-	-	-	-	-	-	-	-	-	-	-	-	-
447,ARG	-	-	-	-	-	-	-	-	-	-	-	-	-	-	-
448,ILE	-	-	-	-	-	-	-	-	-	-	-	-	-	-	-
449,ASN	-	-	-	-	-	-	-	-	-	-	-	-	-	-	-
450,THR	-	-	-	-	-	-	-	-	-	-	-	-	-	-	-
451,ARG	-	-	-	-	-	-	-	-	-	-	-	-	-	-	-
452,ILE	-	-	-	-	-	-	-	-	-	-	-	-	-	-	-
453,LYS	-	-	-	-	-	-	-	-	-	-	-	-	-	-	-
454,GLY	454,GLY	454,GLY	454,GLY	454,GLY	454,GLY	454,GLY	454,GLY	-	-	-	-	-	-	-	-
455,SER	455,SER	455,SER	455,SER	455,SER	455,SER	455,SER	455,SER	-	-	-	-	-	-	-	-
456,GLN	456,GLN	456,GLN	456,GLN	456,GLN	456,GLN	456,GLN	456,GLN	-	-	-	-	-	-	-	-
457,ASN	457,ASN	457,ASN	457,ASN	457,ASN	457,ASN	457,ASN	457,ASN	-	-	-	-	-	-	-	-
458,THR	458,THR	458,THR	458,THR	458,THR	458,THR	458,THR	458,THR	-	-	-	-	-	-	-	-
459,ALA	459,ALA	459,ALA	459,ALA	459,ALA	459,ALA	459,ALA	459,ALA	-	-	-	-	-	-	-	-
460,ASN	460,ASN	460,ASN	460,ASN	460,ASN	460,ASN	460,ASN	460,ASN	-	-	-	-	-	-	-	-
461,THR	461,THR	461,THR	461,THR	461,THR	461,THR	461,THR	461,THR	-	-	-	-	-	-	-	-
462,GLY	462,GLY	462,GLY	462,GLY	462,GLY	462,GLY	462,GLY	462,GLY	-	-	-	-	-	-	-	-
463,ILE	463,ILE	463,ILE	463,ILE	463,ILE	463,ILE	463,ILE	463,ILE	-	-	-	-	-	-	-	-
464,SER	464,SER	464,SER	464,SER	464,SER	464,SER	464,SER	464,SER	-	-	-	-	-	-	-	-
465,ASN	465,ASN	465,ASN	465,ASN	465,ASN	465,ASN	465,ASN	465,ASN	-	-	-	-	-	-	-	-
466,SER	466,SER	466,SER	466,SER	466,SER	466,SER	466,SER	466,SER	-	-	-	-	-	-	-	-
467,ASN	467,ASN	467,ASN	467,ASN	467,ASN	467,ASN	467,ASN	467,ASN	-	-	-	-	-	-	-	-
468,LEU	468,LEU	468,LEU	468,LEU	468,LEU	468,LEU	468,LEU	468,LEU	-	-	-	-	-	-	-	-
469,ASN	469,ASN	469,ASN	469,ASN	469,ASN	469,ASN	469,ASN	469,ASN	-	-	-	-	-	-	-	-
470,THR	470,THR	470,THR	470,THR	470,THR	470,THR	470,THR	470,THR	-	-	-	-	-	-	-	-
471,THR	471,THR	471,THR	471,THR	471,THR	471,THR	471,THR	471,THR	-	-	-	-	-	-	-	-
472,THR	472,THR	472,THR	472,THR	472,THR	472,THR	472,THR	472,THR	-	-	-	-	-	-	-	-
473,THR	473,THR	473,THR	473,THR	473,THR	473,THR	473,THR	473,THR	-	-	-	-	-	-	-	-
474,ARG	474,ARG	474,ARG	474,ARG	474,ARG	474,ARG	474,ARG	474,ARG	-	-	-	-	-	-	-	-
475,LYS	475,LYS	475,LYS	475,LYS	475,LYS	475,LYS	475,LYS	475,LYS	-	-	-	-	-	-	-	-
476,ASN	476,ASN	476,ASN	476,ASN	476,ASN	476,ASN	476,ASN	476,ASN	-	-	-	-	-	-	-	-
477,ILE	477,ILE	477,ILE	477,ILE	477,ILE	477,ILE	477,ILE	477,ILE	-	-	-	-	-	-	-	-
478,GLN	478,GLN	478,GLN	478,GLN	478,GLN	478,GLN	478,GLN	478,GLN	-	-	-	-	-	-	-	-
479,SER	479,SER	479,SER	479,SER	479,SER	479,SER	479,SER	479,SER	-	-	-	-	-	-	-	-
480,ARG	480,ARG	480,ARG	480,ARG	480,ARG	480,ARG	480,ARG	480,ARG	-	-	-	-	-	-	-	-
481,ASN	481,ASN	481,ASN	481,ASN	481,ASN	481,ASN	481,ASN	484,LEU	-	-	-	-	-	-	-	-
482,TRP	482,TRP	482,TRP	482,TRP	482,TRP	482,TRP	482,TRP	481,ASN	-	-	-	-	-	-	-	-
483,TYR	483,TYR	483,TYR	483,TYR	483,TYR	483,TYR	483,TYR	482,TRP	-	-	-	-	-	-	-	-
484,LEU	484,LEU	484,LEU	484,LEU	484,LEU	484,LEU	484,LEU	483,TYR	-	-	-	-	-	-	-	-
485,SER	485,SER	485,SER	485,SER	485,SER	485,SER	485,SER	485,SER	-	-	-	-	-	-	-	-
486,ASP	486,ASP	486,ASP	486,ASP	486,ASP	486,ASP	486,ASP	486,ASP	-	-	-	-	-	-	-	-
487,SER	487,SER	487,SER	487,SER	487,SER	487,SER	487,SER	487,SER	-	-	-	-	-	-	-	-
488,GLN	488,GLN	488,GLN	488,GLN	488,GLN	488,GLN	488,GLN	488,GLN	-	-	-	-	-	-	-	-
489,TRP	489,TRP	489,TRP	489,TRP	489,TRP	489,TRP	489,TRP	489,TRP	-	-	-	-	-	-	-	-
490,ALA	490,ALA	490,ALA	490,ALA	490,ALA	490,ALA	490,ALA	490,ALA	-	-	-	-	-	-	-	-
491,ALA	491,ALA	491,ALA	491,ALA	491,ALA	494,ASP	491,ALA	491,ALA	-	-	-	-	-	-	-	-
492,PHE	492,PHE	492,PHE	492,PHE	492,PHE	491,ALA	492,PHE	492,PHE	-	-	-	-	-	-	-	-
493,LYS	493,LYS	493,LYS	493,LYS	493,LYS	492,PHE	493,LYS	493,LYS	-	-	-	-	-	-	-	-
494,ASP	494,ASP	494,ASP	494,ASP	494,ASP	493,LYS	494,ASP	494,ASP	-	-	-	-	-	-	-	-
495,ASP	495,ASP	495,ASP	495,ASP	495,ASP	495,ASP	495,ASP	495,ASP	-	-	-	-	-	-	-	-
496,GLU	496,GLU	496,GLU	496,GLU	496,GLU	496,GLU	496,GLU	496,GLU	-	-	-	-	-	-	-	-
497,ILE	497,ILE	497,ILE	497,ILE	497,ILE	497,ILE	497,ILE	497,ILE	-	-	-	-	-	-	-	-
498,THR	498,THR	498,THR	498,THR	498,THR	498,THR	498,THR	498,THR	-	-	-	-	-	-	-	-
499,SER	499,SER	499,SER	499,SER	499,SER	499,SER	499,SER	499,SER	-	-	-	-	-	-	-	-
500,THR	500,THR	500,THR	500,THR	500,THR	500,THR	500,THR	500,THR	-	-	-	-	-	-	-	-
501,LYS	501,LYS	504,ASN	501,LYS	501,LYS	501,LYS	501,LYS	501,LYS	-	-	-	-	-	-	-	-
502,HIS	502,HIS	501,LYS	502,HIS	502,HIS	502,HIS	502,HIS	505,ASP	-	-	-	-	-	-	-	-
503,LYS	503,LYS	502,HIS	503,LYS	503,LYS	503,LYS	503,LYS	502,HIS	-	-	-	-	-	-	-	-
504,ASN	504,ASN	503,LYS	504,ASN	504,ASN	504,ASN	504,ASN	503,LYS	-	-	-	-	-	-	-	-
505,ASP	505,ASP	505,ASP	505,ASP	508,ASP	505,ASP	505,ASP	504,ASN	-	-	-	-	-	-	-	-
506,TYR	506,TYR	506,TYR	506,TYR	505,ASP	506,TYR	506,TYR	506,TYR	-	-	-	-	-	-	-	-
507,THR	507,THR	507,THR	507,THR	506,TYR	507,THR	507,THR	507,THR	-	-	-	-	-	-	-	-
508,ASP	508,ASP	508,ASP	508,ASP	507,THR	508,ASP	508,ASP	508,ASP	-	-	-	-	-	-	-	-
509,PRO	509,PRO	509,PRO	509,PRO	509,PRO	509,PRO	509,PRO	509,PRO	-	-	-	-	-	-	-	-
510,HIS	510,HIS	510,HIS	510,HIS	510,HIS	510,HIS	510,HIS	510,HIS	-	-	-	-	-	-	-	-
511,ALA	511,ALA	511,ALA	511,ALA	511,ALA	511,ALA	511,ALA	511,ALA	-	-	-	-	-	-	-	-
512,ASN	512,ASN	512,ASN	512,ASN	512,ASN	512,ASN	512,ASN	515,ILE	-	-	-	-	-	-	-	-
513,LYS	513,LYS	513,LYS	513,LYS	513,LYS	513,LYS	513,LYS	512,ASN	-	-	-	-	-	-	-	-
514,ASN	514,ASN	514,ASN	514,ASN	514,ASN	514,ASN	514,ASN	513,LYS	-	-	-	-	-	-	-	-
515,ILE	515,ILE	515,ILE	515,ILE	515,ILE	515,ILE	515,ILE	514,ASN	-	-	-	-	-	-	-	-
516,ASP	516,ASP	516,ASP	516,ASP	516,ASP	516,ASP	516,ASP	516,ASP	-	-	-	-	-	-	-	-
517,LYS	517,LYS	517,LYS	517,LYS	517,LYS	517,LYS	517,LYS	517,LYS	-	-	-	-	-	-	-	-
518,SER	518,SER	518,SER	518,SER	518,SER	518,SER	518,SER	518,SER	-	-	-	-	-	-	-	-
519,ALA	519,ALA	519,ALA	519,ALA	519,ALA	519,ALA	519,ALA	519,ALA	-	-	-	-	-	-	-	-
520,LEU	520,LEU	520,LEU	520,LEU	520,LEU	520,LEU	520,LEU	520,LEU	-	-	-	-	-	-	-	-
521,ASN	521,ASN	521,ASN	521,ASN	521,ASN	521,ASN	521,ASN	521,ASN	-	-	-	-	-	-	-	-
522,ILE	522,ILE	522,ILE	522,ILE	522,ILE	522,ILE	522,ILE	522,ILE	-	-	-	-	-	-	-	-
523,HIS	523,HIS	523,HIS	523,HIS	523,HIS	523,HIS	523,HIS	523,HIS	-	-	-	-	-	-	-	-
524,ALA	524,ALA	524,ALA	524,ALA	524,ALA	524,ALA	524,ALA	524,ALA	-	-	-	-	-	-	-	-
525,ASP	525,ASP	525,ASP	525,ASP	525,ASP	525,ASP	525,ASP	525,ASP	-	-	-	-	-	-	-	-
526,GLU	526,GLU	526,GLU	526,GLU	526,GLU	526,GLU	526,GLU	526,GLU	-	-	-	-	-	-	-	-
527,ASN	527,ASN	527,ASN	527,ASN	527,ASN	527,ASN	527,ASN	527,ASN	-	-	-	-	-	-	-	-
528,ASP	528,ASP	528,ASP	528,ASP	528,ASP	528,ASP	528,ASP	528,ASP	-	-	-	-	-	-	-	-
529,GLU	529,GLU	529,GLU	529,GLU	529,GLU	529,GLU	529,GLU	529,GLU	-	-	-	-	-	-	-	-
530,GLY	530,GLY	530,GLY	530,GLY	530,GLY	530,GLY	530,GLY	530,GLY	-	-	-	-	-	-	-	530,GLY
531,SER	531,SER	531,SER	531,SER	531,SER	531,SER	531,SER	531,SER	-	-	-	-	-	-	-	531,SER
532,VAL	532,VAL	532,VAL	532,VAL	532,VAL	532,VAL	532,VAL	532,VAL	-	-	-	-	-	-	-	532,VAL
533,ASP	533,ASP	533,ASP	533,ASP	533,ASP	533,ASP	533,ASP	533,ASP	-	-	-	-	-	-	-	533,ASP
534,ASN	534,ASN	534,ASN	534,ASN	534,ASN	534,ASN	534,ASN	537,GLY	-	-	-	-	-	-	-	534,ASN
535,THR	535,THR	535,THR	535,THR	535,THR	535,THR	535,THR	534,ASN	-	-	-	-	-	-	-	535,THR
536,LEU	536,LEU	536,LEU	536,LEU	536,LEU	536,LEU	536,LEU	535,THR	-	-	-	-	-	-	-	536,LEU
537,GLY	537,GLY	537,GLY	537,GLY	537,GLY	537,GLY	537,GLY	536,LEU	-	-	-	-	-	-	-	537,GLY
538,SER	538,SER	538,SER	538,SER	538,SER	538,SER	538,SER	541,SER	538,SER	-	-	-	-	-	-	538,SER
539,ASP	539,ASP	539,ASP	539,ASP	539,ASP	539,ASP	539,ASP	538,SER	539,ASP	-	-	-	-	-	-	539,ASP
540,ARG	540,ARG	540,ARG	540,ARG	540,ARG	540,ARG	540,ARG	539,ASP	540,ARG	-	-	-	-	-	-	540,ARG
541,SER	541,SER	541,SER	541,SER	541,SER	541,SER	541,SER	540,ARG	541,SER	-	-	-	-	-	-	541,SER
542,ASN	542,ASN	542,ASN	542,ASN	542,ASN	542,ASN	542,ASN	542,ASN	542,ASN	-	-	-	-	-	-	542,ASN
543,GLU	543,GLU	543,GLU	543,GLU	543,GLU	543,GLU	543,GLU	543,GLU	543,GLU	-	-	-	-	-	-	543,GLU
544,LEU	544,LEU	544,LEU	544,LEU	544,LEU	544,LEU	544,LEU	544,LEU	544,LEU	-	-	-	-	-	-	544,LEU
545,GLU	545,GLU	545,GLU	545,GLU	545,GLU	545,GLU	545,GLU	545,GLU	545,GLU	-	-	-	-	-	-	545,GLU
546,ILE	546,ILE	546,ILE	546,ILE	546,ILE	546,ILE	546,ILE	546,ILE	546,ILE	-	-	-	-	-	-	546,ILE
547,ARG	547,ARG	547,ARG	547,ARG	547,ARG	547,ARG	547,ARG	547,ARG	547,ARG	-	-	-	-	-	-	547,ARG
548,GLY	548,GLY	548,GLY	548,GLY	548,GLY	548,GLY	548,GLY	548,GLY	548,GLY	-	-	-	-	-	-	548,GLY
549,LYS	549,LYS	549,LYS	549,LYS	549,LYS	549,LYS	549,LYS	549,LYS	549,LYS	-	-	-	-	-	-	549,LYS
550,TYR	550,TYR	550,TYR	550,TYR	550,TYR	550,TYR	550,TYR	550,TYR	550,TYR	-	-	-	-	-	-	550,TYR
551,VAL	551,VAL	551,VAL	551,VAL	551,VAL	551,VAL	551,VAL	551,VAL	551,VAL	-	-	-	-	-	-	551,VAL
552,VAL	552,VAL	552,VAL	552,VAL	552,VAL	552,VAL	552,VAL	552,VAL	552,VAL	-	-	-	-	-	-	552,VAL
553,VAL	553,VAL	553,VAL	553,VAL	553,VAL	553,VAL	553,VAL	553,VAL	553,VAL	-	-	-	-	-	-	553,VAL
554,PRO	554,PRO	554,PRO	554,PRO	554,PRO	554,PRO	554,PRO	554,PRO	554,PRO	-	-	-	-	-	-	554,PRO
555,GLU	555,GLU	555,GLU	555,GLU	555,GLU	555,GLU	555,GLU	555,GLU	555,GLU	-	-	-	-	-	-	555,GLU
556,THR	556,THR	556,THR	556,THR	556,THR	556,THR	556,THR	556,THR	556,THR	-	-	-	-	-	-	556,THR
557,SER	557,SER	557,SER	557,SER	557,SER	557,SER	557,SER	557,SER	557,SER	-	-	-	-	-	-	557,SER
558,GLN	558,GLN	558,GLN	558,GLN	558,GLN	558,GLN	558,GLN	558,GLN	558,GLN	-	-	-	-	-	-	558,GLN
559,ASP	559,ASP	559,ASP	559,ASP	559,ASP	559,ASP	559,ASP	559,ASP	559,ASP	-	-	-	-	-	-	559,ASP
560,MET	560,MET	560,MET	560,MET	560,MET	560,MET	560,MSE	563,LYS	560,MET	-	-	-	-	-	-	560,MET
561,ALA	561,ALA	561,ALA	561,ALA	561,ALA	561,ALA	561,ALA	560,MSE	561,ALA	-	-	-	-	-	-	561,ALA
562,PHE	562,PHE	562,PHE	562,PHE	562,PHE	562,PHE	562,PHE	561,ALA	562,PHE	-	-	-	-	-	-	562,PHE
563,LYS	563,LYS	563,LYS	563,LYS	563,LYS	563,LYS	563,LYS	562,PHE	563,LYS	-	-	-	-	-	-	563,LYS
564,CYS	-	-	-	-	-	-	-	564,CYS	-	-	-	-	-	-	564,CYS
565,PRO	-	-	-	-	-	-	-	565,PRO	-	-	-	-	-	-	565,PRO
566,ILE	-	-	-	-	-	-	-	566,ILE	-	-	-	-	-	-	566,ILE
567,CYS	-	-	-	-	-	-	-	567,CYS	-	-	-	-	-	-	567,CYS
568,LYS	-	-	-	-	-	-	-	568,LYS	-	-	-	-	-	-	568,LYS
569,GLU	-	-	-	-	-	-	-	569,GLU	-	-	-	-	-	-	569,GLU
570,THR	-	-	-	-	-	-	-	570,THR	-	-	-	-	-	-	570,THR
571,VAL	-	-	-	-	-	-	-	571,VAL	-	-	-	-	-	-	571,VAL
572,THR	-	-	-	-	-	-	-	572,THR	-	-	-	-	-	-	572,THR
573,GLY	-	-	-	-	-	-	-	573,GLY	-	-	-	-	-	-	573,GLY
574,VAL	-	-	-	-	-	-	-	574,VAL	-	-	-	-	-	-	574,VAL
575,TYR	-	-	-	-	-	-	-	575,TYR	-	-	-	-	-	-	575,TYR
576,ASP	-	-	-	-	-	-	-	576,ASP	-	-	-	-	-	-	576,ASP
577,GLU	-	-	-	-	-	-	-	577,GLU	-	-	-	-	-	-	577,GLU
578,GLU	-	-	-	-	-	-	-	578,GLU	-	-	-	-	-	-	578,GLU
579,SER	-	-	-	-	-	-	-	579,SER	-	-	-	-	-	-	579,SER
580,GLY	-	-	-	-	-	-	-	580,GLY	-	-	-	-	-	-	580,GLY
581,GLU	-	-	-	-	-	-	-	581,GLU	-	-	-	-	-	-	581,GLU
582,TRP	-	-	-	-	-	-	-	582,TRP	-	-	-	-	-	-	582,TRP
583,VAL	-	-	-	-	-	-	-	583,VAL	-	-	-	-	-	-	583,VAL
584,TRP	-	-	-	-	-	-	-	584,TRP	-	-	-	-	-	-	584,TRP
585,LYS	-	-	-	-	-	-	-	585,LYS	-	-	-	-	-	-	585,LYS
586,ASN	-	-	-	-	-	-	-	586,ASN	-	-	-	-	-	-	586,ASN
587,THR	-	-	-	-	-	-	-	587,THR	-	-	-	-	-	-	587,THR
588,ILE	-	-	-	-	-	-	-	588,ILE	-	-	-	-	-	-	588,ILE
589,GLU	-	-	-	-	-	-	-	589,GLU	-	-	-	-	-	-	589,GLU
590,VAL	-	-	-	-	-	-	-	590,VAL	-	-	-	-	-	-	590,VAL
591,ASN	-	-	-	-	-	-	-	591,ASN	-	-	-	-	-	-	591,ASN
592,GLY	-	-	-	-	-	-	-	592,GLY	-	-	-	-	-	-	592,GLY
593,LYS	-	-	-	-	-	-	-	593,LYS	-	-	-	-	-	-	593,LYS
594,TYR	-	-	-	-	-	-	-	594,TYR	-	-	-	-	-	-	594,TYR
595,PHE	-	-	-	-	-	-	-	595,PHE	-	-	-	-	-	-	595,PHE
596,HIS	-	-	-	-	-	-	-	596,HIS	-	-	-	-	-	-	596,HIS
597,SER	-	-	-	-	-	-	-	597,SER	-	-	-	-	-	-	597,SER
598,THR	-	-	-	-	-	-	-	598,THR	-	-	-	-	-	-	598,THR
599,CYS	-	-	-	-	-	-	-	599,CYS	-	-	-	-	-	-	599,CYS
600,TYR	-	-	-	-	-	-	-	600,TYR	-	-	-	-	-	-	600,TYR
601,HIS	-	-	-	-	-	-	-	601,HIS	-	-	-	-	-	-	601,HIS
602,GLU	-	-	-	-	-	-	-	602,GLU	-	-	-	-	-	-	602,GLU
603,THR	-	-	-	-	-	-	-	603,THR	-	-	-	-	-	-	603,THR
604,SER	-	-	-	-	-	-	-	604,SER	-	-	-	-	-	-	604,SER
605,GLN	-	-	-	-	-	-	-	605,GLN	-	-	-	-	-	-	605,GLN
606,ASN	-	-	-	-	-	-	-	606,ASN	-	-	-	-	-	-	606,ASN
607,SER	-	-	-	-	-	-	-	607,SER	-	-	-	-	-	-	607,SER
608,SER	-	-	-	-	-	-	-	608,SER	-	-	-	-	-	-	608,SER
609,LYS	-	-	-	-	-	-	-	-	-	-	-	-	-	-	609,LYS
610,SER	-	-	-	-	-	-	-	-	-	-	-	-	-	-	610,SER
611,ASN	-	-	-	-	-	-	-	-	-	-	-	-	-	-	611,ASN
612,SER	-	-	-	-	-	-	-	-	-	-	-	-	-	-	612,SER
613,GLY	-	-	-	-	-	-	-	-	-	-	-	-	-	-	613,GLY
614,LYS	-	-	-	-	-	-	-	-	-	-	-	-	-	-	614,LYS
615,VAL	-	-	-	-	-	-	-	-	-	-	-	-	-	-	615,VAL
616,GLY	-	-	-	-	-	-	-	-	-	-	-	-	-	-	616,GLY
617,LEU	-	-	-	-	-	-	-	-	-	-	-	-	-	-	617,LEU
618,ASP	-	-	-	-	-	-	-	-	-	-	-	-	-	-	618,ASP
619,ASP	-	-	-	-	-	-	-	-	-	-	-	-	-	-	619,ASP
620,LEU	-	-	-	-	-	-	-	-	-	-	-	-	-	-	620,LEU
621,LYS	-	-	-	-	-	-	-	-	-	-	-	-	-	-	621,LYS
622,LYS	-	-	-	-	-	-	-	-	-	-	-	-	-	-	622,LYS
623,LEU	-	-	-	-	-	-	-	-	-	-	-	-	-	-	623,LEU
624,VAL	-	-	-	-	-	-	-	-	-	-	-	-	-	-	624,VAL
625,THR	-	-	-	-	-	-	-	-	-	-	-	-	-	-	625,THR
626,LYS	-	-	-	-	-	-	-	-	-	-	-	-	-	-	626,LYS
