Q680B9	5ft9A	5ft9B	5dizA	5dizB
1,MET	-	-	1,MET	1,MET
2,ALA	2,ALA	2,ALA	2,ALA	2,ALA
3,ALA	3,ALA	3,ALA	3,ALA	3,ALA
4,SER	4,SER	4,SER	4,SER	4,SER
5,ASP	5,ASP	5,ASP	5,ASP	5,ASP
6,GLN	6,GLN	6,GLN	6,GLN	6,GLN
7,HIS	7,HIS	7,HIS	7,HIS	7,HIS
8,ARG	8,ARG	8,ARG	8,ARG	8,ARG
9,SER	9,SER	9,SER	9,SER	9,SER
10,ARG	10,ARG	10,ARG	10,ARG	10,ARG
11,ARG	11,ARG	11,ARG	11,ARG	11,ARG
12,HIS	12,HIS	12,HIS	12,HIS	12,HIS
13,ASP	13,ASP	13,ASP	13,ASP	13,ASP
14,GLU	14,GLU	14,GLU	14,GLU	14,GLU
15,SER	15,SER	15,SER	15,SER	15,SER
16,SER	16,SER	16,SER	16,SER	16,SER
17,SER	17,SER	17,SER	17,SER	17,SER
18,ARG	18,ARG	18,ARG	18,ARG	18,ARG
19,PRO	19,PRO	19,PRO	19,PRO	19,PRO
20,ASN	20,ASN	20,ASN	20,ASN	20,ASN
21,LYS	21,LYS	21,LYS	21,LYS	21,LYS
22,LYS	22,LYS	22,LYS	22,LYS	22,LYS
23,LYS	23,LYS	23,LYS	23,LYS	23,LYS
24,LYS	24,LYS	24,LYS	24,LYS	24,LYS
25,VAL	25,VAL	25,VAL	25,VAL	25,VAL
26,SER	26,SER	26,SER	26,SER	26,SER
27,ARG	27,ARG	27,ARG	27,ARG	27,ARG
28,ASN	28,ASN	28,ASN	28,ASN	28,ASN
29,PRO	29,PRO	29,PRO	29,PRO	29,PRO
30,GLU	30,GLU	30,GLU	30,GLU	30,GLU
31,THR	31,THR	31,THR	31,THR	31,THR
32,ASN	32,ASN	32,ASN	32,ASN	32,ASN
33,LEU	33,LEU	33,LEU	33,LEU	33,LEU
34,LEU	37,LEU	34,LEU	34,LEU	34,LEU
35,PHE	34,LEU	38,ASN	35,PHE	35,PHE
36,ASN	35,PHE	35,PHE	36,ASN	36,ASN
37,LEU	36,ASN	36,ASN	37,LEU	37,LEU
38,ASN	38,ASN	37,LEU	38,ASN	38,ASN
39,SER	39,SER	39,SER	39,SER	39,SER
40,CYS	40,CYS	40,CYS	40,CYS	40,CYS
41,SER	41,SER	41,SER	41,SER	41,SER
42,LYS	42,LYS	42,LYS	42,LYS	42,LYS
43,SER	43,SER	43,SER	43,SER	43,SER
44,LYS	44,LYS	44,LYS	44,LYS	44,LYS
45,ASP	45,ASP	45,ASP	45,ASP	45,ASP
46,LEU	46,LEU	46,LEU	46,LEU	46,LEU
47,SER	47,SER	47,SER	47,SER	47,SER
48,ALA	48,ALA	51,ALA	48,ALA	48,ALA
49,ALA	49,ALA	48,ALA	49,ALA	49,ALA
50,LEU	50,LEU	49,ALA	50,LEU	50,LEU
51,ALA	54,ASP	50,LEU	51,ALA	51,ALA
52,LEU	51,ALA	52,LEU	52,LEU	52,LEU
53,TYR	52,LEU	53,TYR	53,TYR	53,TYR
54,ASP	53,TYR	54,ASP	54,ASP	54,ASP
55,ALA	55,ALA	55,ALA	55,ALA	55,ALA
56,ALA	56,ALA	56,ALA	56,ALA	56,ALA
57,ILE	57,ILE	57,ILE	57,ILE	57,ILE
58,THR	58,THR	58,THR	58,THR	58,THR
59,SER	59,SER	59,SER	59,SER	59,SER
60,SER	60,SER	60,SER	60,SER	60,SER
61,GLU	61,GLU	61,GLU	61,GLU	61,GLU
62,VAL	62,VAL	62,VAL	62,VAL	62,VAL
63,ARG	63,ARG	63,ARG	63,ARG	63,ARG
64,LEU	64,LEU	64,LEU	64,LEU	64,LEU
65,SER	65,SER	65,SER	65,SER	65,SER
66,GLN	66,GLN	66,GLN	66,GLN	66,GLN
67,GLN	67,GLN	67,GLN	67,GLN	67,GLN
68,HIS	68,HIS	68,HIS	68,HIS	68,HIS
69,PHE	69,PHE	72,LEU	69,PHE	69,PHE
70,GLN	70,GLN	69,PHE	70,GLN	70,GLN
71,THR	71,THR	70,GLN	71,THR	71,THR
72,LEU	72,LEU	71,THR	72,LEU	72,LEU
73,LEU	73,LEU	73,LEU	73,LEU	73,LEU
74,TYR	74,TYR	74,TYR	74,TYR	74,TYR
75,LEU	75,LEU	75,LEU	75,LEU	75,LEU
76,CYS	76,CYS	76,CYS	76,CYS	76,CYS
77,SER	77,SER	77,SER	77,SER	77,SER
78,ALA	78,ALA	78,ALA	78,ALA	78,ALA
79,SER	79,SER	79,SER	79,SER	79,SER
80,ILE	80,ILE	80,ILE	80,ILE	80,ILE
81,THR	81,THR	81,THR	81,THR	81,THR
82,ASP	82,ASP	82,ASP	82,ASP	82,ASP
83,ILE	83,ILE	83,ILE	83,ILE	83,ILE
84,SER	84,SER	84,SER	84,SER	84,SER
85,LEU	85,LEU	85,LEU	85,LEU	85,LEU
86,GLN	86,GLN	86,GLN	86,GLN	86,GLN
87,TYR	87,TYR	87,TYR	87,TYR	87,TYR
88,LEU	88,LEU	88,LEU	88,LEU	88,LEU
89,ALA	89,ALA	89,ALA	89,ALA	89,ALA
90,ILE	90,ILE	90,ILE	90,ILE	90,ILE
91,ASP	91,ASP	91,ASP	91,ASP	91,ASP
92,ARG	92,ARG	92,ARG	92,ARG	92,ARG
93,GLY	93,GLY	93,GLY	93,GLY	93,GLY
94,PHE	94,PHE	97,PHE	94,PHE	94,PHE
95,GLU	95,GLU	94,PHE	95,GLU	95,GLU
96,ILE	96,ILE	95,GLU	96,ILE	96,ILE
97,PHE	97,PHE	96,ILE	97,PHE	97,PHE
98,ASP	98,ASP	98,ASP	98,ASP	98,ASP
99,ARG	99,ARG	99,ARG	99,ARG	99,ARG
100,MET	100,MET	100,MET	100,MET	100,MET
101,VAL	101,VAL	101,VAL	101,VAL	101,VAL
102,SER	102,SER	102,SER	102,SER	102,SER
103,SER	103,SER	103,SER	103,SER	103,SER
104,GLY	104,GLY	104,GLY	104,GLY	104,GLY
105,ILE	105,ILE	105,ILE	105,ILE	105,ILE
106,SER	106,SER	106,SER	106,SER	106,SER
107,PRO	107,PRO	107,PRO	107,PRO	107,PRO
108,ASN	108,ASN	108,ASN	108,ASN	108,ASN
109,GLU	109,GLU	109,GLU	109,GLU	109,GLU
110,ALA	110,ALA	110,ALA	110,ALA	110,ALA
111,SER	111,SER	111,SER	111,SER	111,SER
112,VAL	112,VAL	112,VAL	112,VAL	112,VAL
113,THR	113,THR	113,THR	113,THR	113,THR
114,SER	114,SER	114,SER	114,SER	114,SER
115,VAL	115,VAL	118,LEU	115,VAL	115,VAL
116,ALA	116,ALA	115,VAL	116,ALA	116,ALA
117,ARG	117,ARG	116,ALA	117,ARG	117,ARG
118,LEU	118,LEU	117,ARG	118,LEU	118,LEU
119,ALA	119,ALA	119,ALA	119,ALA	122,LYS
120,ALA	120,ALA	120,ALA	120,ALA	119,ALA
121,ALA	121,ALA	121,ALA	121,ALA	120,ALA
122,LYS	122,LYS	122,LYS	122,LYS	121,ALA
123,GLY	123,GLY	123,GLY	123,GLY	126,ASP
124,ASN	124,ASN	124,ASN	124,ASN	123,GLY
125,GLY	125,GLY	125,GLY	125,GLY	124,ASN
126,ASP	126,ASP	126,ASP	126,ASP	125,GLY
127,TYR	127,TYR	127,TYR	127,TYR	127,TYR
128,ALA	128,ALA	128,ALA	128,ALA	128,ALA
129,PHE	129,PHE	129,PHE	129,PHE	129,PHE
130,LYS	130,LYS	130,LYS	130,LYS	130,LYS
131,VAL	131,VAL	131,VAL	131,VAL	131,VAL
132,VAL	132,VAL	132,VAL	132,VAL	132,VAL
133,LYS	133,LYS	133,LYS	133,LYS	133,LYS
134,GLU	134,GLU	134,GLU	134,GLU	134,GLU
135,PHE	135,PHE	135,PHE	135,PHE	135,PHE
136,VAL	136,VAL	136,VAL	136,VAL	136,VAL
137,SER	137,SER	137,SER	137,SER	137,SER
138,VAL	138,VAL	138,VAL	138,VAL	138,VAL
139,GLY	139,GLY	139,GLY	139,GLY	139,GLY
140,GLY	140,GLY	140,GLY	140,GLY	140,GLY
141,VAL	141,VAL	141,VAL	141,VAL	141,VAL
142,SER	142,SER	142,SER	142,SER	142,SER
143,ILE	143,ILE	143,ILE	143,ILE	143,ILE
144,PRO	144,PRO	144,PRO	144,PRO	144,PRO
145,ARG	145,ARG	145,ARG	145,ARG	145,ARG
146,LEU	146,LEU	146,LEU	146,LEU	146,LEU
147,ARG	147,ARG	147,ARG	147,ARG	147,ARG
148,THR	148,THR	148,THR	148,THR	148,THR
149,TYR	149,TYR	149,TYR	149,TYR	149,TYR
150,ALA	150,ALA	150,ALA	150,ALA	150,ALA
151,PRO	151,PRO	151,PRO	151,PRO	151,PRO
152,ALA	152,ALA	152,ALA	152,ALA	152,ALA
153,LEU	153,LEU	153,LEU	153,LEU	153,LEU
154,LEU	154,LEU	154,LEU	154,LEU	154,LEU
155,CYS	155,CYS	155,CYS	155,CYS	155,CYS
156,PHE	156,PHE	156,PHE	156,PHE	156,PHE
157,CYS	157,CYS	157,CYS	157,CYS	157,CYS
158,GLU	158,GLU	158,GLU	158,GLU	158,GLU
159,LYS	159,LYS	159,LYS	159,LYS	159,LYS
160,LEU	160,LEU	160,LEU	160,LEU	160,LEU
161,GLU	161,GLU	161,GLU	161,GLU	161,GLU
162,ALA	162,ALA	162,ALA	162,ALA	162,ALA
163,GLU	163,GLU	163,GLU	163,GLU	163,GLU
164,LYS	164,LYS	164,LYS	164,LYS	164,LYS
165,GLY	165,GLY	165,GLY	165,GLY	165,GLY
166,TYR	166,TYR	166,TYR	166,TYR	166,TYR
167,GLU	167,GLU	167,GLU	167,GLU	167,GLU
168,VAL	168,VAL	168,VAL	168,VAL	168,VAL
169,GLU	169,GLU	169,GLU	169,GLU	169,GLU
170,GLU	170,GLU	170,GLU	170,GLU	170,GLU
171,HIS	171,HIS	171,HIS	171,HIS	171,HIS
172,MET	172,MET	172,MET	172,MET	172,MET
173,GLU	173,GLU	173,GLU	173,GLU	173,GLU
174,ALA	174,ALA	174,ALA	174,ALA	174,ALA
175,ALA	175,ALA	175,ALA	175,ALA	175,ALA
176,GLY	176,GLY	176,GLY	176,GLY	176,GLY
177,ILE	177,ILE	177,ILE	177,ILE	177,ILE
178,ALA	178,ALA	178,ALA	178,ALA	178,ALA
179,LEU	179,LEU	179,LEU	179,LEU	179,LEU
180,GLU	180,GLU	180,GLU	180,GLU	180,GLU
181,GLU	181,GLU	181,GLU	181,GLU	181,GLU
182,ALA	182,ALA	182,ALA	182,ALA	182,ALA
183,GLU	183,GLU	183,GLU	183,GLU	183,GLU
184,ILE	184,ILE	184,ILE	184,ILE	184,ILE
185,SER	185,SER	185,SER	185,SER	185,SER
186,ALA	186,ALA	186,ALA	186,ALA	186,ALA
187,LEU	187,LEU	187,LEU	187,LEU	187,LEU
188,LEU	188,LEU	188,LEU	188,LEU	188,LEU
189,LYS	189,LYS	189,LYS	189,LYS	189,LYS
190,VAL	190,VAL	190,VAL	190,VAL	190,VAL
191,SER	191,SER	191,SER	191,SER	191,SER
192,ALA	192,ALA	192,ALA	192,ALA	192,ALA
193,ALA	193,ALA	193,ALA	193,ALA	193,ALA
194,THR	194,THR	194,THR	194,THR	194,THR
195,GLY	195,GLY	198,ASN	195,GLY	195,GLY
196,ARG	196,ARG	195,GLY	196,ARG	196,ARG
197,GLU	197,GLU	196,ARG	197,GLU	197,GLU
198,ASN	198,ASN	197,GLU	198,ASN	198,ASN
199,LYS	199,LYS	199,LYS	199,LYS	199,LYS
200,VAL	200,VAL	200,VAL	200,VAL	200,VAL
201,TYR	201,TYR	201,TYR	201,TYR	201,TYR
202,ARG	202,ARG	202,ARG	202,ARG	202,ARG
203,TYR	203,TYR	203,TYR	203,TYR	203,TYR
204,LEU	204,LEU	204,LEU	204,LEU	204,LEU
205,HIS	205,HIS	205,HIS	205,HIS	205,HIS
206,LYS	206,LYS	206,LYS	206,LYS	206,LYS
207,LEU	207,LEU	207,LEU	207,LEU	207,LEU
208,ARG	208,ARG	208,ARG	208,ARG	208,ARG
209,GLU	209,GLU	209,GLU	209,GLU	209,GLU
210,TYR	210,TYR	210,TYR	210,TYR	210,TYR
211,VAL	211,VAL	211,VAL	211,VAL	211,VAL
212,GLY	212,GLY	212,GLY	212,GLY	212,GLY
213,CYS	213,CYS	213,CYS	213,CYS	213,CYS
214,VAL	214,VAL	214,VAL	214,VAL	214,VAL
215,SER	215,SER	215,SER	215,SER	215,SER
216,GLU	216,GLU	216,GLU	216,GLU	216,GLU
217,GLU	217,GLU	217,GLU	217,GLU	217,GLU
218,THR	218,THR	218,THR	218,THR	218,THR
219,LEU	219,LEU	219,LEU	219,LEU	219,LEU
220,LYS	220,LYS	220,LYS	220,LYS	220,LYS
221,ILE	221,ILE	221,ILE	221,ILE	221,ILE
222,ILE	222,ILE	222,ILE	222,ILE	222,ILE
223,GLU	223,GLU	223,GLU	223,GLU	223,GLU
224,GLU	224,GLU	224,GLU	224,GLU	224,GLU
225,TRP	225,TRP	225,TRP	225,TRP	225,TRP
226,PHE	226,PHE	226,PHE	226,PHE	226,PHE
227,CYS	227,CYS	227,CYS	227,CYS	227,CYS
228,GLY	228,GLY	228,GLY	228,GLY	228,GLY
229,GLU	229,GLU	229,GLU	229,GLU	229,GLU
230,LYS	230,LYS	230,LYS	230,LYS	230,LYS
231,ALA	231,ALA	231,ALA	231,ALA	231,ALA
232,GLY	232,GLY	232,GLY	232,GLY	232,GLY
233,GLU	233,GLU	233,GLU	233,GLU	233,GLU
234,VAL	234,VAL	234,VAL	234,VAL	234,VAL
235,GLY	235,GLY	235,GLY	235,GLY	235,GLY
236,ASP	236,ASP	236,ASP	236,ASP	236,ASP
237,ASN	237,ASN	237,ASN	237,ASN	237,ASN
238,GLY	238,GLY	238,GLY	238,GLY	238,GLY
239,ILE	239,ILE	239,ILE	239,ILE	239,ILE
240,GLY	240,GLY	240,GLY	240,GLY	240,GLY
241,SER	241,SER	241,SER	241,SER	241,SER
242,ASP	242,ASP	242,ASP	242,ASP	242,ASP
243,VAL	243,VAL	243,VAL	243,VAL	243,VAL
244,GLY	244,GLY	244,GLY	244,GLY	244,GLY
245,MET	245,MET	245,MET	245,MET	245,MET
246,LEU	246,LEU	246,LEU	246,LEU	246,LEU
247,ARG	247,ARG	247,ARG	247,ARG	247,ARG
248,GLU	248,GLU	248,GLU	248,GLU	248,GLU
249,ALA	249,ALA	249,ALA	249,ALA	249,ALA
250,VAL	250,VAL	250,VAL	250,VAL	250,VAL
251,LEU	251,LEU	251,LEU	251,LEU	251,LEU
252,ASN	252,ASN	252,ASN	252,ASN	252,ASN
253,ASN	253,ASN	253,ASN	253,ASN	253,ASN
254,GLY	254,GLY	254,GLY	254,GLY	254,GLY
255,GLY	255,GLY	255,GLY	255,GLY	255,GLY
256,GLY	256,GLY	256,GLY	256,GLY	256,GLY
257,TRP	257,TRP	257,TRP	257,TRP	257,TRP
258,HIS	258,HIS	258,HIS	258,HIS	258,HIS
259,GLY	259,GLY	259,GLY	259,GLY	259,GLY
260,HIS	260,HIS	260,HIS	260,HIS	260,HIS
261,GLY	261,GLY	261,GLY	261,GLY	261,GLY
262,TRP	262,TRP	262,TRP	262,TRP	262,TRP
263,VAL	263,VAL	263,VAL	263,VAL	263,VAL
264,GLY	264,GLY	264,GLY	264,GLY	264,GLY
265,GLU	265,GLU	265,GLU	265,GLU	265,GLU
266,GLY	266,GLY	266,GLY	266,GLY	266,GLY
267,LYS	267,LYS	267,LYS	267,LYS	270,VAL
268,TRP	268,TRP	268,TRP	268,TRP	267,LYS
269,THR	269,THR	269,THR	269,THR	268,TRP
270,VAL	270,VAL	270,VAL	270,VAL	269,THR
271,LYS	271,LYS	271,LYS	271,LYS	271,LYS
272,LYS	272,LYS	272,LYS	272,LYS	272,LYS
273,GLY	273,GLY	273,GLY	273,GLY	273,GLY
274,ASN	274,ASN	274,ASN	274,ASN	274,ASN
275,VAL	275,VAL	275,VAL	275,VAL	275,VAL
276,SER	276,SER	276,SER	276,SER	276,SER
277,SER	277,SER	277,SER	277,SER	277,SER
278,THR	278,THR	278,THR	278,THR	278,THR
279,GLY	279,GLY	279,GLY	279,GLY	279,GLY
280,ARG	280,ARG	280,ARG	280,ARG	280,ARG
281,CYS	281,CYS	281,CYS	281,CYS	281,CYS
282,LEU	282,LEU	282,LEU	282,LEU	282,LEU
283,SER	283,SER	283,SER	283,SER	283,SER
284,CYS	284,CYS	284,CYS	284,CYS	284,CYS
285,SER	285,SER	285,SER	285,SER	285,SER
286,GLU	286,GLU	286,GLU	286,GLU	286,GLU
287,GLN	287,GLN	287,GLN	287,GLN	287,GLN
288,LEU	288,LEU	288,LEU	288,LEU	288,LEU
289,ALA	289,ALA	289,ALA	289,ALA	289,ALA
290,CYS	290,CYS	290,CYS	290,CYS	290,CYS
291,VAL	291,VAL	291,VAL	291,VAL	291,VAL
292,ASP	292,ASP	292,ASP	292,ASP	292,ASP
293,THR	293,THR	293,THR	293,THR	293,THR
294,ASN	294,ASN	294,ASN	294,ASN	294,ASN
295,GLU	295,GLU	295,GLU	295,GLU	295,GLU
296,VAL	296,VAL	296,VAL	296,VAL	296,VAL
297,GLU	297,GLU	297,GLU	297,GLU	297,GLU
298,THR	298,THR	298,THR	298,THR	298,THR
299,GLN	299,GLN	299,GLN	299,GLN	299,GLN
300,LYS	300,LYS	300,LYS	300,LYS	300,LYS
301,PHE	301,PHE	301,PHE	301,PHE	301,PHE
302,VAL	302,VAL	302,VAL	302,VAL	302,VAL
303,ASP	303,ASP	303,ASP	303,ASP	303,ASP
304,SER	304,SER	304,SER	304,SER	304,SER
305,LEU	305,LEU	305,LEU	305,LEU	305,LEU
306,VAL	306,VAL	306,VAL	306,VAL	306,VAL
307,ALA	307,ALA	307,ALA	307,ALA	307,ALA
308,LEU	308,LEU	308,LEU	308,LEU	308,LEU
309,ALA	309,ALA	309,ALA	309,ALA	309,ALA
310,MET	310,MET	310,MET	310,MET	310,MET
311,ASP	311,ASP	311,ASP	311,ASP	311,ASP
312,ARG	312,ARG	312,ARG	312,ARG	312,ARG
313,LYS	313,LYS	313,LYS	313,LYS	313,LYS
314,THR	314,THR	314,THR	314,THR	314,THR
315,LYS	315,LYS	315,LYS	315,LYS	315,LYS
316,MET	316,MET	316,MET	316,MET	316,MET
317,ASN	317,ASN	317,ASN	317,ASN	317,ASN
318,SER	318,SER	318,SER	318,SER	318,SER
319,CYS	319,CYS	319,CYS	319,CYS	319,CYS
320,GLU	320,GLU	320,GLU	320,GLU	320,GLU
321,THR	321,THR	321,THR	321,THR	321,THR
322,ASN	322,ASN	322,ASN	322,ASN	322,ASN
323,VAL	323,VAL	323,VAL	323,VAL	323,VAL
324,VAL	324,VAL	324,VAL	324,VAL	324,VAL
325,PHE	325,PHE	325,PHE	325,PHE	325,PHE
326,SER	326,SER	326,SER	326,SER	326,SER
327,GLU	327,GLU	327,GLU	327,GLU	327,GLU
328,PHE	328,PHE	328,PHE	328,PHE	328,PHE
329,GLN	329,GLN	329,GLN	329,GLN	329,GLN
330,ASP	330,ASP	330,ASP	330,ASP	330,ASP
331,TRP	331,TRP	331,TRP	331,TRP	331,TRP
332,LEU	332,LEU	332,LEU	332,LEU	332,LEU
333,GLU	333,GLU	333,GLU	333,GLU	333,GLU
334,LYS	334,LYS	334,LYS	334,LYS	334,LYS
335,HIS	335,HIS	335,HIS	335,HIS	335,HIS
336,GLY	336,GLY	336,GLY	336,GLY	336,GLY
337,ASP	337,ASP	340,ALA	337,ASP	337,ASP
338,TYR	338,TYR	337,ASP	338,TYR	338,TYR
339,GLU	339,GLU	338,TYR	339,GLU	339,GLU
340,ALA	340,ALA	339,GLU	340,ALA	340,ALA
341,ILE	341,ILE	341,ILE	341,ILE	341,ILE
342,VAL	342,VAL	342,VAL	342,VAL	342,VAL
343,ASP	343,ASP	343,ASP	343,ASP	343,ASP
344,GLY	344,GLY	344,GLY	344,GLY	344,GLY
345,ALA	345,ALA	345,ALA	345,ALA	345,ALA
346,ASN	346,ASN	346,ASN	346,ASN	346,ASN
347,ILE	347,ILE	347,ILE	347,ILE	347,ILE
348,GLY	348,GLY	348,GLY	348,GLY	348,GLY
349,LEU	349,LEU	349,LEU	349,LEU	349,LEU
350,TYR	350,TYR	350,TYR	350,TYR	350,TYR
351,GLN	351,GLN	351,GLN	351,GLN	351,GLN
352,GLN	352,GLN	352,GLN	352,GLN	352,GLN
353,ASN	353,ASN	353,ASN	353,ASN	353,ASN
354,PHE	354,PHE	354,PHE	354,PHE	354,PHE
355,VAL	355,VAL	355,VAL	355,VAL	355,VAL
356,ASP	356,ASP	356,ASP	356,ASP	356,ASP
357,GLY	357,GLY	357,GLY	357,GLY	357,GLY
358,SER	358,SER	358,SER	358,SER	358,SER
359,PHE	359,PHE	359,PHE	359,PHE	359,PHE
360,SER	360,SER	360,SER	360,SER	360,SER
361,LEU	361,LEU	361,LEU	361,LEU	361,LEU
362,SER	362,SER	362,SER	362,SER	362,SER
363,GLN	363,GLN	363,GLN	363,GLN	363,GLN
364,LEU	364,LEU	364,LEU	364,LEU	364,LEU
365,GLU	365,GLU	365,GLU	365,GLU	365,GLU
366,SER	366,SER	366,SER	366,SER	366,SER
367,VAL	367,VAL	367,VAL	367,VAL	367,VAL
368,MET	368,MET	368,MET	368,MET	368,MET
369,LYS	369,LYS	369,LYS	369,LYS	369,LYS
370,GLU	370,GLU	370,GLU	370,GLU	370,GLU
371,LEU	371,LEU	371,LEU	371,LEU	371,LEU
372,TYR	372,TYR	372,TYR	372,TYR	372,TYR
373,ARG	373,ARG	373,ARG	373,ARG	373,ARG
374,GLU	374,GLU	374,GLU	374,GLU	374,GLU
375,SER	375,SER	375,SER	375,SER	375,SER
376,GLY	376,GLY	376,GLY	376,GLY	376,GLY
377,ASN	377,ASN	377,ASN	377,ASN	377,ASN
378,ASN	378,ASN	378,ASN	378,ASN	378,ASN
379,LYS	379,LYS	379,LYS	379,LYS	379,LYS
380,TRP	380,TRP	380,TRP	380,TRP	380,TRP
381,PRO	381,PRO	381,PRO	381,PRO	381,PRO
382,LEU	382,LEU	382,LEU	382,LEU	382,LEU
383,ILE	383,ILE	383,ILE	383,ILE	383,ILE
384,LEU	384,LEU	384,LEU	384,LEU	384,LEU
385,LEU	385,LEU	385,LEU	385,LEU	385,LEU
386,HIS	386,HIS	386,HIS	386,HIS	386,HIS
387,LYS	387,LYS	387,LYS	387,LYS	387,LYS
388,ARG	388,ARG	388,ARG	388,ARG	388,ARG
389,ARG	389,ARG	389,ARG	389,ARG	389,ARG
390,VAL	390,VAL	390,VAL	390,VAL	390,VAL
391,LYS	391,LYS	391,LYS	391,LYS	391,LYS
392,THR	392,THR	392,THR	392,THR	392,THR
393,LEU	393,LEU	393,LEU	393,LEU	393,LEU
394,LEU	394,LEU	394,LEU	394,LEU	394,LEU
395,GLU	395,GLU	395,GLU	395,GLU	395,GLU
396,ASN	396,ASN	396,ASN	396,ASN	396,ASN
397,PRO	397,PRO	397,PRO	397,PRO	397,PRO
398,THR	398,THR	398,THR	398,THR	398,THR
399,HIS	399,HIS	399,HIS	399,HIS	402,LEU
400,ARG	400,ARG	400,ARG	400,ARG	399,HIS
401,ASN	401,ASN	401,ASN	401,ASN	400,ARG
402,LEU	402,LEU	402,LEU	402,LEU	401,ASN
403,VAL	403,VAL	403,VAL	403,VAL	403,VAL
404,GLU	404,GLU	404,GLU	404,GLU	404,GLU
405,GLU	405,GLU	405,GLU	405,GLU	405,GLU
406,TRP	406,TRP	406,TRP	406,TRP	406,TRP
407,ILE	407,ILE	407,ILE	407,ILE	407,ILE
408,SER	408,SER	408,SER	408,SER	408,SER
409,ASN	409,ASN	409,ASN	409,ASN	409,ASN
410,GLY	410,GLY	410,GLY	410,GLY	410,GLY
411,VAL	411,VAL	411,VAL	411,VAL	411,VAL
412,LEU	412,LEU	412,LEU	412,LEU	412,LEU
413,TYR	413,TYR	413,TYR	413,TYR	413,TYR
414,ALA	414,ALA	414,ALA	414,ALA	414,ALA
415,THR	415,THR	415,THR	415,THR	415,THR
416,PRO	416,PRO	416,PRO	416,PRO	416,PRO
417,PRO	417,PRO	417,PRO	417,PRO	417,PRO
418,GLY	418,GLY	418,GLY	418,GLY	418,GLY
419,SER	419,SER	419,SER	419,SER	419,SER
420,ASN	420,ASN	420,ASN	420,ASN	420,ASN
421,ASP	421,ASP	421,ASP	421,ASP	421,ASP
422,ASP	422,ASP	422,ASP	422,ASP	422,ASP
423,TRP	423,TRP	423,TRP	423,TRP	423,TRP
424,TYR	424,TYR	424,TYR	424,TYR	424,TYR
425,TRP	425,TRP	425,TRP	425,TRP	425,TRP
426,LEU	426,LEU	426,LEU	426,LEU	426,LEU
427,TYR	427,TYR	427,TYR	427,TYR	427,TYR
428,ALA	428,ALA	428,ALA	428,ALA	428,ALA
429,ALA	429,ALA	429,ALA	429,ALA	429,ALA
430,ALA	430,ALA	430,ALA	430,ALA	430,ALA
431,LYS	431,LYS	431,LYS	431,LYS	431,LYS
432,LEU	432,LEU	432,LEU	432,LEU	432,LEU
433,LYS	433,LYS	433,LYS	433,LYS	433,LYS
434,CYS	434,CYS	434,CYS	434,CYS	434,CYS
435,LEU	435,LEU	435,LEU	435,LEU	435,LEU
436,LEU	436,LEU	436,LEU	436,LEU	436,LEU
437,VAL	437,VAL	437,VAL	437,VAL	437,VAL
438,THR	438,THR	438,THR	438,THR	438,THR
439,ASN	439,ASN	439,ASN	439,ASN	439,ASN
440,ASP	440,ASP	440,ASP	440,ASP	440,ASP
441,GLU	441,GLU	441,GLU	441,GLU	441,GLU
442,MET	442,MET	442,MET	442,MET	442,MET
443,ARG	443,ARG	443,ARG	443,ARG	443,ARG
444,ASP	444,ASP	444,ASP	444,ASP	444,ASP
445,HIS	445,HIS	445,HIS	445,HIS	445,HIS
446,ILE	446,ILE	446,ILE	446,ILE	446,ILE
447,PHE	447,PHE	447,PHE	447,PHE	447,PHE
448,GLU	448,GLU	448,GLU	448,GLU	448,GLU
449,LEU	449,LEU	449,LEU	449,LEU	449,LEU
450,LEU	450,LEU	450,LEU	450,LEU	450,LEU
451,GLY	451,GLY	451,GLY	451,GLY	451,GLY
452,SER	452,SER	452,SER	452,SER	452,SER
453,THR	453,THR	453,THR	453,THR	453,THR
454,PHE	454,PHE	454,PHE	454,PHE	454,PHE
455,PHE	455,PHE	455,PHE	455,PHE	455,PHE
456,GLN	456,GLN	456,GLN	456,GLN	456,GLN
457,LYS	457,LYS	457,LYS	457,LYS	457,LYS
458,TRP	458,TRP	458,TRP	458,TRP	458,TRP
459,LYS	459,LYS	459,LYS	459,LYS	459,LYS
460,GLU	460,GLU	460,GLU	460,GLU	460,GLU
461,ARG	461,ARG	461,ARG	461,ARG	461,ARG
462,HIS	462,HIS	462,HIS	462,HIS	462,HIS
463,GLN	463,GLN	466,TYR	463,GLN	463,GLN
464,VAL	464,VAL	463,GLN	464,VAL	464,VAL
465,ARG	465,ARG	464,VAL	465,ARG	465,ARG
466,TYR	466,TYR	465,ARG	466,TYR	466,TYR
467,THR	467,THR	467,THR	467,THR	467,THR
468,PHE	468,PHE	468,PHE	468,PHE	468,PHE
469,VAL	469,VAL	469,VAL	469,VAL	469,VAL
470,LYS	470,LYS	470,LYS	470,LYS	470,LYS
471,GLY	471,GLY	471,GLY	471,GLY	471,GLY
472,ASN	472,ASN	472,ASN	472,ASN	472,ASN
473,LEU	473,LEU	473,LEU	473,LEU	473,LEU
474,LYS	474,LYS	474,LYS	474,LYS	474,LYS
475,LEU	475,LEU	475,LEU	475,LEU	475,LEU
476,GLU	476,GLU	476,GLU	476,GLU	476,GLU
477,MET	477,MET	477,MET	477,MET	477,MET
478,PRO	478,PRO	478,PRO	478,PRO	478,PRO
479,SER	479,SER	479,SER	479,SER	479,SER
480,PRO	480,PRO	480,PRO	480,PRO	480,PRO
481,PHE	481,PHE	481,PHE	481,PHE	481,PHE
482,SER	482,SER	482,SER	482,SER	482,SER
483,VAL	483,VAL	483,VAL	483,VAL	483,VAL
484,VAL	484,VAL	484,VAL	484,VAL	484,VAL
485,ILE	485,ILE	485,ILE	485,ILE	485,ILE
486,GLN	486,GLN	486,GLN	486,GLN	486,GLN
487,GLU	487,GLU	487,GLU	487,GLU	487,GLU
488,SER	488,SER	488,SER	488,SER	488,SER
489,GLU	489,GLU	489,GLU	489,GLU	489,GLU
490,LYS	490,LYS	490,LYS	490,LYS	490,LYS
491,GLY	491,GLY	491,GLY	491,GLY	491,GLY
492,SER	492,SER	492,SER	492,SER	492,SER
493,TRP	493,TRP	493,TRP	493,TRP	493,TRP
494,HIS	494,HIS	494,HIS	494,HIS	494,HIS
495,PHE	495,PHE	495,PHE	495,PHE	495,PHE
496,PRO	496,PRO	496,PRO	496,PRO	496,PRO
497,VAL	497,VAL	497,VAL	497,VAL	497,VAL
498,SER	498,SER	498,SER	498,SER	498,SER
499,CYS	499,CYS	499,CYS	499,CYS	499,CYS
500,GLU	500,GLU	500,GLU	500,GLU	500,GLU
501,ASN	501,ASN	504,GLU	501,ASN	501,ASN
502,ASN	502,ASN	501,ASN	502,ASN	502,ASN
503,GLU	503,GLU	502,ASN	503,GLU	503,GLU
504,GLU	504,GLU	503,GLU	504,GLU	504,GLU
505,SER	505,SER	505,SER	505,SER	505,SER
506,SER	506,SER	506,SER	506,SER	506,SER
507,ARG	507,ARG	507,ARG	507,ARG	507,ARG
508,THR	508,THR	508,THR	508,THR	508,THR
509,TRP	509,TRP	509,TRP	509,TRP	509,TRP
510,MET	510,MET	510,MET	510,MET	510,MET
511,CYS	511,CYS	511,CYS	511,CYS	511,CYS
512,ILE	512,ILE	512,ILE	512,ILE	512,ILE
513,SER	513,SER	513,SER	513,SER	513,SER
514,ARG	514,ARG	514,ARG	514,ARG	514,ARG
515,GLN	515,GLN	515,GLN	515,GLN	515,GLN
516,SER	516,SER	516,SER	516,SER	516,SER
517,ILE	517,ILE	517,ILE	517,ILE	517,ILE
518,LEU	518,LEU	518,LEU	518,LEU	518,LEU
519,ASP	519,ASP	519,ASP	519,ASP	519,ASP
520,SER	520,SER	520,SER	520,SER	520,SER
521,PRO	521,PRO	521,PRO	521,PRO	521,PRO
522,LYS	522,LYS	522,LYS	522,LYS	522,LYS
523,SER	523,SER	523,SER	523,SER	523,SER
524,ASN	524,ASN	524,ASN	524,ASN	524,ASN
525,GLY	525,GLY	525,GLY	525,GLY	525,GLY
526,LYS	526,LYS	526,LYS	526,LYS	526,LYS
527,ILE	527,ILE	527,ILE	527,ILE	527,ILE
528,PRO	528,PRO	528,PRO	528,PRO	528,PRO
