uniprot_isoform	location_id	ENSEMBL ID	uniprot_start	uniprot_end	1ew3A_start	1ew3A_end
1	25_18319212_18316357_-1	ENSECAE00000002520	1	32	-	32
1	25_18319212_18316357_-1	ENSECAE00000311430	33	78	33	78
1	25_18319212_18316357_-1	ENSECAE00000003210	78	103	78	103
1	25_18319212_18316357_-1	ENSECAE00000003509	103	140	103	140
1	25_18319212_18316357_-1	ENSECAE00000306432	140	174	140	174
1	25_18319212_18316357_-1	ENSECAE00000004360	174	187	174	-
