uniprot_isoform	location_id	ENSEMBL ID	uniprot_start	uniprot_end	2o7qA_start	2o7qA_end	6bmbA_start	6bmbA_end	6bmqA_start	6bmqA_end	2o7sA_start	2o7sA_end	2gptA_start	2gptA_end
1	3_1927701_1924539_-1	AT3G06350.1.exon1	1	74	-	-	-	-	-	-	-	-	-	-
1	3_1927701_1924539_-1	AT3G06350.1.exon2	75	155	-	155	-	157	-	155	-	155	-	155
1	3_1927701_1924539_-1	AT3G06350.1.exon3	155	190	155	190	157	192	155	190	155	190	155	190
1	3_1927701_1924539_-1	AT3G06350.1.exon4	191	263	191	263	193	265	191	263	191	263	191	263
1	3_1927701_1924539_-1	AT3G06350.1.exon5	264	379	264	379	266	379	264	379	264	379	264	379
1	3_1927701_1924539_-1	AT3G06350.1.exon6	379	400	379	400	379	400	379	400	379	400	379	400
1	3_1927701_1924539_-1	AT3G06350.1.exon7	401	437	401	437	401	437	401	437	401	437	401	437
1	3_1927701_1924539_-1	AT3G06350.1.exon8	437	487	437	487	437	487	437	487	437	487	437	487
1	3_1927701_1924539_-1	AT3G06350.1.exon9	487	536	487	536	487	536	487	536	487	536	487	536
1	3_1927701_1924539_-1	AT3G06350.1.exon10	537	591	537	591	537	591	537	591	537	591	537	591
1	3_1927701_1924539_-1	AT3G06350.1.exon11	591	603	591	603	591	603	591	603	591	603	591	603
