uniprot_isoform	location_id	ENSEMBL ID	uniprot_start	uniprot_end	3edtB_start	3edtB_end	3edtD_start	3edtD_end	3ceqA_start	3ceqA_end	3ceqB_start	3ceqB_end
1	11_66258595_66266953_1	ENSE00002230251	1	76	-	-	-	-	-	-	-	-
1	11_66258595_66266953_1	ENSE00001770804	77	153	-	-	-	-	-	-	-	-
1	11_66258595_66266953_1	ENSE00003526529	154	177	-	-	-	-	-	-	-	-
1	11_66258595_66266953_1	ENSE00001189548	177	251	-	251	-	251	-	251	-	251
1	11_66258595_66266953_1	ENSE00001189540	251	280	251	280	251	280	251	280	251	280
1	11_66258595_66266953_1	ENSE00002456733	281	314	281	314	281	314	281	314	281	314
1	11_66258595_66266953_1	ENSE00001189529	315	372	315	372	315	372	315	372	315	372
1	11_66258595_66266953_1	ENSE00001189523	373	406	373	406	373	406	373	406	373	406
1	11_66258595_66266953_1	ENSE00001189517	406	422	406	422	406	422	406	422	406	422
1	11_66258595_66266953_1	ENSE00001189512	423	445	423	445	423	445	423	445	423	445
1	11_66258595_66266953_1	ENSE00001189502	445	481	445	-	445	-	445	-	445	-
1	11_66258595_66266953_1	ENSE00001189491	482	534	-	-	-	-	-	-	-	-
1	11_66258595_66266953_1	ENSE00001189478	535	576	-	-	-	-	-	-	-	-
1	11_66258595_66266953_1	ENSE00001189471	576	595	-	-	-	-	-	-	-	-
1	11_66258595_66266953_1	ENSE00001275997	596	622	-	-	-	-	-	-	-	-
2	11_66258595_66266953_1	ENSE00002230251	1	76	-	-	-	-	-	-	-	-
2	11_66258595_66266953_1	ENSE00001770804	77	153	-	-	-	-	-	-	-	-
2	11_66258595_66266953_1	ENSE00003526529	154	177	-	-	-	-	-	-	-	-
2	11_66258595_66266953_1	ENSE00001189548	177	251	-	251	-	251	-	251	-	251
2	11_66258595_66266953_1	ENSE00001189540	251	280	251	280	251	280	251	280	251	280
2	11_66258595_66266953_1	ENSE00002456733	281	314	281	314	281	314	281	314	281	314
2	11_66258595_66266953_1	ENSE00001189529	315	372	315	372	315	372	315	372	315	372
2	11_66258595_66266953_1	ENSE00001189523	373	406	373	406	373	406	373	406	373	406
2	11_66258595_66266953_1	ENSE00001189517	406	422	406	422	406	422	406	422	406	422
2	11_66258595_66266953_1	ENSE00001189512	423	445	423	445	423	445	423	445	423	445
2	11_66258595_66266953_1	ENSE00001189502	445	481	445	-	445	-	445	-	445	-
2	11_66258595_66266953_1	ENSE00001189491	482	534	-	-	-	-	-	-	-	-
2	11_66258595_66266953_1	ENSE00001189478	535	576	-	-	-	-	-	-	-	-
2	11_66258595_66266953_1	ENSE00001189471	576	595	-	-	-	-	-	-	-	-
2	11_66258595_66266953_1	ENSE00001517426	596	622	-	-	-	-	-	-	-	-
3	11_66258595_66266953_1	ENSE00002180680	1	76	-	-	-	-	-	-	-	-
3	11_66258595_66266953_1	ENSE00001770804	77	153	-	-	-	-	-	-	-	-
3	11_66258595_66266953_1	ENSE00003526529	154	177	-	-	-	-	-	-	-	-
3	11_66258595_66266953_1	ENSE00001189548	177	251	-	251	-	251	-	251	-	251
3	11_66258595_66266953_1	ENSE00001189540	251	280	251	280	251	280	251	280	251	280
3	11_66258595_66266953_1	ENSE00002456733	281	314	281	314	281	314	281	314	281	314
3	11_66258595_66266953_1	ENSE00001189529	315	372	315	372	315	372	315	372	315	372
3	11_66258595_66266953_1	ENSE00001189523	373	406	373	406	373	406	373	406	373	406
3	11_66258595_66266953_1	ENSE00001189517	406	422	406	422	406	422	406	422	406	422
3	11_66258595_66266953_1	ENSE00001189512	423	445	423	445	423	445	423	445	423	445
3	11_66258595_66266953_1	ENSE00001189502	445	481	445	-	445	-	445	-	445	-
3	11_66258595_66266953_1	ENSE00001189491	482	534	-	-	-	-	-	-	-	-
3	11_66258595_66266953_1	ENSE00001189478	535	576	-	-	-	-	-	-	-	-
3	11_66258595_66266953_1	ENSE00001189471	576	595	-	-	-	-	-	-	-	-
3	11_66258595_66266953_1	ENSE00002180238	596	622	-	-	-	-	-	-	-	-
