Q12395	3o2pA	2is9A	2l4fA	2l4eA	3bq3A	3tdiA	3tdiB	3o6bA	3o6bC	3o6bE	3o6bG	3o6bI
1,MET	-	-	-	-	1,MET	-	-	-	-	-	-	-
2,SER	-	-	-	-	2,SER	-	-	-	-	-	-	-
3,ASN	-	-	-	-	3,ASN	-	-	-	-	-	-	-
4,ASN	-	-	-	-	4,ASN	-	-	-	-	-	-	-
5,LYS	-	-	-	-	5,LYS	-	-	-	-	-	-	-
6,ILE	-	-	62,VAL	62,VAL	6,ILE	-	-	-	-	-	-	-
7,LYS	-	-	6,ILE	6,ILE	7,LYS	-	-	-	-	-	-	-
8,ARG	-	-	7,LYS	7,LYS	8,ARG	-	-	-	-	-	-	-
9,LYS	-	-	8,ARG	8,ARG	9,LYS	-	-	-	-	-	-	-
10,ASP	-	-	9,LYS	9,LYS	10,ASP	-	-	-	-	-	-	-
11,ALA	-	-	10,ASP	10,ASP	11,ALA	-	-	-	-	-	-	-
12,SER	-	-	11,ALA	11,ALA	12,SER	-	-	-	-	-	-	-
13,PRO	-	-	12,SER	12,SER	13,PRO	-	-	-	-	-	-	-
14,GLU	-	-	13,PRO	13,PRO	14,GLU	-	-	-	-	-	-	-
15,GLN	-	-	14,GLU	14,GLU	15,GLN	-	-	-	-	-	-	-
16,GLU	-	-	15,GLN	15,GLN	16,GLU	-	-	-	-	-	-	-
17,ALA	-	-	16,GLU	16,GLU	17,ALA	-	-	-	-	-	-	-
18,ILE	-	-	17,ALA	17,ALA	18,ILE	-	-	-	-	-	-	-
19,GLU	-	-	18,ILE	18,ILE	19,GLU	-	-	-	-	-	-	-
20,SER	-	-	19,GLU	19,GLU	20,SER	-	-	-	-	-	-	-
21,PHE	-	-	20,SER	20,SER	21,PHE	-	-	-	-	-	-	-
22,THR	-	-	21,PHE	21,PHE	22,THR	-	-	-	-	-	-	-
23,SER	-	-	22,THR	22,THR	23,SER	-	-	-	-	-	-	-
24,LEU	-	-	23,SER	23,SER	24,LEU	-	-	-	-	-	-	-
25,THR	-	-	24,LEU	24,LEU	25,THR	-	-	-	-	-	-	-
26,LYS	-	-	25,THR	25,THR	26,LYS	-	-	-	-	-	-	-
27,CYS	-	-	26,LYS	26,LYS	27,CYS	-	-	-	-	-	-	-
28,ASP	-	-	27,CYS	27,CYS	28,ASP	-	-	-	-	-	-	-
29,PRO	-	-	28,ASP	28,ASP	29,PRO	-	-	-	-	-	-	-
30,LYS	-	-	29,PRO	29,PRO	30,LYS	-	-	-	-	-	-	-
31,VAL	-	-	30,LYS	30,LYS	31,VAL	-	-	-	-	-	-	-
32,SER	-	-	31,VAL	31,VAL	32,SER	-	-	-	-	-	-	-
33,ARG	-	-	32,SER	32,SER	33,ARG	-	-	-	-	-	-	-
34,LYS	-	-	33,ARG	33,ARG	34,LYS	-	-	-	-	-	-	-
35,TYR	-	-	34,LYS	34,LYS	35,TYR	-	-	-	-	-	-	-
36,LEU	-	-	35,TYR	35,TYR	36,LEU	-	-	-	-	-	-	-
37,GLN	-	-	36,LEU	36,LEU	37,GLN	-	-	-	-	-	-	-
38,ARG	-	-	37,GLN	37,GLN	38,ARG	-	-	-	-	-	-	-
39,ASN	-	-	38,ARG	38,ARG	39,ASN	-	-	-	-	-	-	-
40,HIS	-	-	39,ASN	39,ASN	40,HIS	-	-	-	-	-	-	-
41,TRP	-	-	40,HIS	40,HIS	41,TRP	-	-	-	-	-	-	-
42,ASN	-	-	41,TRP	41,TRP	42,ASN	-	-	-	-	-	-	-
43,ILE	-	-	42,ASN	42,ASN	43,ILE	-	-	-	-	-	-	-
44,ASN	-	-	43,ILE	43,ILE	44,ASN	-	-	-	-	-	-	-
45,TYR	-	-	44,ASN	44,ASN	45,TYR	-	-	-	-	-	-	-
46,ALA	-	-	45,TYR	45,TYR	46,ALA	-	-	-	-	-	-	-
47,LEU	-	-	46,ALA	46,ALA	47,LEU	-	-	-	-	-	-	-
48,ASN	-	-	47,LEU	47,LEU	48,ASN	-	-	-	-	-	-	-
49,ASP	-	-	48,ASN	48,ASN	49,ASP	-	-	-	-	-	-	-
50,TYR	-	-	49,ASP	49,ASP	50,TYR	-	-	-	-	-	-	-
51,TYR	-	-	50,TYR	50,TYR	51,TYR	-	-	-	-	-	-	-
52,ASP	-	-	51,TYR	51,TYR	52,ASP	-	-	-	-	-	-	-
53,LYS	-	-	52,ASP	52,ASP	53,LYS	-	-	-	-	-	-	-
54,GLU	-	-	53,LYS	53,LYS	54,GLU	-	-	-	-	-	-	-
55,ILE	-	-	54,GLU	54,GLU	55,ILE	-	-	-	-	-	-	-
56,GLY	-	-	55,ILE	55,ILE	56,GLY	-	-	-	-	-	-	-
57,THR	-	-	56,GLY	56,GLY	57,THR	-	-	-	-	-	-	-
58,PHE	-	-	57,THR	57,THR	58,PHE	-	-	-	-	-	-	-
59,THR	-	-	58,PHE	58,PHE	59,THR	-	-	-	-	-	-	-
60,ASP	-	-	59,THR	59,THR	60,ASP	-	-	-	-	-	-	-
61,GLU	-	-	60,ASP	60,ASP	61,GLU	-	-	-	-	-	-	-
62,VAL	-	-	61,GLU	61,GLU	62,VAL	-	-	-	-	-	-	-
63,SER	-	-	-	-	63,SER	-	-	-	-	-	-	-
64,THR	-	-	-	-	64,THR	-	-	-	-	-	-	-
65,VAL	-	-	-	-	65,VAL	-	-	-	-	-	-	-
66,ALA	-	66,ALA	-	-	66,ALA	-	-	-	-	-	-	-
67,HIS	-	67,HIS	-	-	67,HIS	-	-	-	-	-	-	-
68,PRO	-	68,PRO	-	-	68,PRO	-	-	-	-	-	-	-
69,PRO	-	69,PRO	-	-	69,PRO	-	-	-	-	-	-	-
70,VAL	70,VAL	70,VAL	-	-	70,VAL	70,VAL	70,VAL	70,VAL	70,VAL	70,VAL	70,VAL	70,VAL
71,TYR	71,TYR	71,TYR	-	-	71,TYR	71,TYR	71,TYR	71,TYR	71,TYR	71,TYR	71,TYR	71,TYR
72,PRO	72,PRO	72,PRO	-	-	72,PRO	72,PRO	72,PRO	72,PRO	72,PRO	72,PRO	72,PRO	72,PRO
73,LYS	73,LYS	73,LYS	-	-	73,LYS	73,LYS	73,LYS	73,LYS	73,LYS	73,LYS	73,LYS	73,LYS
74,GLU	74,GLU	74,GLU	-	-	74,GLU	74,GLU	74,GLU	74,GLU	74,GLU	74,GLU	74,GLU	74,GLU
75,LEU	75,LEU	75,LEU	-	-	75,LEU	75,LEU	75,LEU	75,LEU	75,LEU	75,LEU	75,LEU	75,LEU
76,THR	76,THR	76,THR	-	-	76,THR	76,THR	76,THR	76,THR	76,THR	76,THR	76,THR	76,THR
77,GLN	77,GLN	77,GLN	-	-	77,GLN	77,GLN	77,GLN	77,GLN	77,GLN	77,GLN	77,GLN	77,GLN
78,VAL	78,VAL	78,VAL	-	-	78,VAL	78,VAL	78,VAL	78,VAL	78,VAL	78,VAL	78,VAL	78,VAL
79,PHE	79,PHE	79,PHE	-	-	79,PHE	79,PHE	79,PHE	79,PHE	79,PHE	79,PHE	79,PHE	79,PHE
80,GLU	80,GLU	80,GLU	-	-	80,GLU	80,GLU	80,GLU	80,GLU	80,GLU	80,GLU	80,GLU	80,GLU
81,HIS	81,HIS	81,HIS	-	-	81,HIS	81,HIS	81,HIS	81,HIS	81,HIS	81,HIS	81,HIS	81,HIS
82,TYR	82,TYR	82,TYR	-	-	82,TYR	82,TYR	82,TYR	82,TYR	82,TYR	82,TYR	82,TYR	82,TYR
83,ILE	83,ILE	83,ILE	-	-	83,ILE	83,ILE	83,ILE	83,ILE	83,ILE	83,ILE	83,ILE	83,ILE
84,ASN	84,ASN	84,ASN	-	-	84,ASN	84,ASN	84,ASN	84,ASN	84,ASN	84,ASN	84,ASN	84,ASN
85,ASN	85,ASN	85,ASN	-	-	85,ASN	85,ASN	85,ASN	85,ASN	85,ASN	85,ASN	85,ASN	85,ASN
86,ASN	86,ASN	86,ASN	-	-	86,ASN	86,ASN	86,ASN	86,ASN	86,ASN	86,ASN	86,ASN	86,ASN
87,LEU	87,LEU	87,LEU	-	-	87,LEU	87,LEU	87,LEU	87,LEU	87,LEU	87,LEU	87,LEU	87,LEU
88,PHE	88,PHE	88,PHE	-	-	88,PHE	88,PHE	88,PHE	88,PHE	88,PHE	88,PHE	88,PHE	88,PHE
89,ASP	89,ASP	89,ASP	-	-	89,ASP	89,ASP	89,ASP	89,ASP	89,ASP	89,ASP	89,ASP	89,ASP
90,ILE	90,ILE	90,ILE	-	-	90,ILE	90,ILE	90,ILE	90,ILE	90,ILE	90,ILE	90,ILE	90,ILE
91,ASP	91,ASP	91,ASP	-	-	91,ASP	91,ASP	91,ASP	91,ASP	91,ASP	91,ASP	91,ASP	91,ASP
92,SER	92,SER	92,SER	-	-	92,SER	92,SER	92,SER	92,SER	92,SER	92,SER	92,SER	92,SER
93,LEU	93,LEU	93,LEU	-	-	93,LEU	93,LEU	93,LEU	93,LEU	93,LEU	93,LEU	93,LEU	93,LEU
94,VAL	94,VAL	94,VAL	-	-	94,VAL	94,VAL	94,VAL	94,VAL	94,VAL	94,VAL	94,VAL	94,VAL
95,LYS	95,LYS	95,LYS	-	-	95,LYS	95,LYS	95,LYS	95,LYS	95,LYS	95,LYS	95,LYS	95,LYS
96,PHE	96,PHE	96,PHE	-	-	96,PHE	96,PHE	96,PHE	96,PHE	96,PHE	96,PHE	96,PHE	96,PHE
97,ILE	97,ILE	97,ILE	-	-	97,ILE	97,ILE	97,ILE	97,ILE	97,ILE	97,ILE	97,ILE	97,ILE
98,GLU	98,GLU	98,GLU	-	-	98,GLU	98,GLU	98,GLU	98,GLU	98,GLU	98,GLU	98,GLU	98,GLU
99,GLU	99,GLU	99,GLU	-	-	99,GLU	99,GLU	99,GLU	99,GLU	99,GLU	99,GLU	99,GLU	99,GLU
100,LEU	100,LEU	100,LEU	-	-	100,LEU	100,LEU	100,LEU	100,LEU	100,LEU	100,LEU	100,LEU	100,LEU
101,GLY	101,GLY	101,GLY	-	-	101,GLY	101,GLY	101,GLY	101,GLY	101,GLY	101,GLY	101,GLY	101,GLY
102,TYR	102,TYR	102,TYR	-	-	102,TYR	102,TYR	102,TYR	102,TYR	102,TYR	102,TYR	102,TYR	102,TYR
103,ASN	103,ASN	103,ASN	-	-	103,ASN	103,ASN	103,ASN	103,ASN	103,ASN	103,ASN	103,ASN	103,ASN
104,LEU	104,LEU	104,LEU	-	-	104,LEU	104,LEU	104,LEU	104,LEU	104,LEU	104,LEU	104,LEU	104,LEU
105,GLU	105,GLU	105,GLU	-	-	105,GLU	105,GLU	105,GLU	105,GLU	105,GLU	105,GLU	105,GLU	105,GLU
106,ASP	106,ASP	106,ASP	-	-	106,ASP	106,ASP	106,ASP	106,ASP	106,ASP	106,ASP	106,ASP	106,ASP
107,LEU	107,LEU	107,LEU	-	-	107,LEU	107,LEU	107,LEU	107,LEU	107,LEU	107,LEU	107,LEU	107,LEU
108,ALA	108,ALA	108,ALA	-	-	108,ALA	108,ALA	108,ALA	108,ALA	108,ALA	108,ALA	108,ALA	108,ALA
109,THR	109,THR	109,THR	-	-	109,THR	109,THR	109,THR	109,THR	109,THR	109,THR	109,THR	109,THR
110,LEU	110,LEU	110,LEU	-	-	110,LEU	110,LEU	110,LEU	110,LEU	110,LEU	110,LEU	110,LEU	110,LEU
111,CYS	111,CYS	111,CYS	-	-	111,CYS	111,CYS	111,CYS	111,CYS	111,CYS	111,CYS	111,CYS	111,CYS
112,LEU	112,LEU	112,LEU	-	-	112,LEU	112,LEU	112,LEU	112,LEU	112,LEU	112,LEU	112,LEU	112,LEU
113,ALA	113,ALA	113,ALA	-	-	113,ALA	113,ALA	113,ALA	113,ALA	113,ALA	113,ALA	113,ALA	113,ALA
114,HIS	114,HIS	114,HIS	-	-	114,HIS	114,HIS	114,HIS	114,HIS	114,HIS	114,HIS	114,HIS	114,HIS
115,LEU	115,LEU	115,LEU	-	-	115,LEU	115,LEU	115,LEU	115,LEU	115,LEU	115,LEU	115,LEU	115,LEU
116,LEU	116,LEU	116,LEU	-	-	116,LEU	116,LEU	116,LEU	116,LEU	116,LEU	116,LEU	116,LEU	116,LEU
117,GLY	117,GLY	117,GLY	-	-	117,GLY	117,GLY	117,GLY	117,GLY	117,GLY	117,GLY	117,GLY	117,GLY
118,TYR	118,TYR	118,TYR	-	-	118,TYR	118,TYR	118,TYR	118,TYR	118,TYR	118,TYR	118,TYR	118,TYR
119,LYS	119,LYS	119,LYS	-	-	119,LYS	119,LYS	119,LYS	119,LYS	119,LYS	119,LYS	119,LYS	119,LYS
120,LYS	120,LYS	120,LYS	-	-	120,LYS	120,LYS	120,LYS	120,LYS	120,LYS	120,LYS	120,LYS	120,LYS
121,LEU	121,LEU	121,LEU	-	-	121,LEU	121,LEU	121,LEU	121,LEU	121,LEU	121,LEU	121,LEU	121,LEU
122,GLU	122,GLU	122,GLU	-	-	122,GLU	122,GLU	122,GLU	122,GLU	122,GLU	122,GLU	122,GLU	122,GLU
123,GLU	123,GLU	123,GLU	-	-	123,GLU	123,GLU	123,GLU	123,GLU	123,GLU	123,GLU	123,GLU	123,GLU
124,PRO	124,PRO	124,PRO	-	-	124,PRO	124,PRO	124,PRO	124,PRO	124,PRO	124,PRO	124,PRO	124,PRO
125,LEU	125,LEU	125,LEU	-	-	125,LEU	125,LEU	125,LEU	125,LEU	125,LEU	125,LEU	125,LEU	125,LEU
126,LYS	126,LYS	126,LYS	-	-	126,LYS	126,LYS	126,LYS	126,LYS	126,LYS	126,LYS	126,LYS	126,LYS
127,ARG	127,ARG	127,ARG	-	-	127,ARG	127,ARG	127,ARG	127,ARG	127,ARG	127,ARG	127,ARG	127,ARG
128,GLU	128,GLU	128,GLU	-	-	128,GLU	128,GLU	128,GLU	128,GLU	128,GLU	128,GLU	128,GLU	128,GLU
129,ASP	129,ASP	129,ASP	-	-	129,ASP	129,ASP	129,ASP	129,ASP	129,ASP	129,ASP	129,ASP	129,ASP
130,PHE	130,PHE	130,PHE	-	-	130,PHE	130,PHE	130,PHE	130,PHE	130,PHE	130,PHE	130,PHE	130,PHE
131,LEU	131,LEU	131,LEU	-	-	131,LEU	131,LEU	131,LEU	131,LEU	131,LEU	131,LEU	131,LEU	131,LEU
132,SER	132,SER	132,SER	-	-	132,SER	132,SER	132,SER	132,SER	132,SER	132,SER	132,SER	132,SER
133,THR	133,THR	133,THR	-	-	133,THR	133,THR	133,THR	133,THR	133,THR	133,THR	133,THR	133,THR
134,TRP	134,TRP	134,TRP	-	-	134,TRP	134,TRP	134,TRP	134,TRP	134,TRP	134,TRP	134,TRP	134,TRP
135,PHE	135,PHE	135,PHE	-	-	135,PHE	135,PHE	135,PHE	135,PHE	135,PHE	135,PHE	135,PHE	135,PHE
136,MET	136,MET	136,MET	-	-	136,MSE	136,MET	136,MET	136,MET	136,MET	136,MET	136,MET	136,MET
137,GLN	137,GLN	137,GLN	-	-	137,GLN	137,GLN	137,GLN	137,GLN	137,GLN	137,GLN	137,GLN	137,GLN
138,GLY	138,GLY	138,GLY	-	-	138,GLY	138,GLY	138,GLY	138,GLY	138,GLY	138,GLY	138,GLY	138,GLY
139,CYS	139,CYS	139,CYS	-	-	139,CYS	139,CYS	139,CYS	139,CYS	139,CYS	139,CYS	139,CYS	139,CYS
140,SER	140,SER	140,SER	-	-	140,SER	140,SER	140,SER	140,SER	140,SER	140,SER	140,SER	140,SER
141,THR	141,THR	141,THR	-	-	141,THR	141,THR	141,THR	141,THR	141,THR	141,THR	141,THR	141,THR
142,ILE	142,ILE	142,ILE	-	-	142,ILE	142,ILE	142,ILE	142,ILE	142,ILE	142,ILE	142,ILE	142,ILE
143,SER	143,SER	143,SER	-	-	143,SER	143,SER	143,SER	143,SER	143,SER	143,SER	143,SER	143,SER
144,ASP	144,ASP	144,ASP	-	-	144,ASP	144,ASP	144,ASP	144,ASP	144,ASP	144,ASP	144,ASP	144,ASP
145,MET	145,MET	145,MET	-	-	145,MSE	145,MET	145,MET	145,MET	145,MET	145,MET	145,MET	145,MET
146,GLN	146,GLN	146,GLN	-	-	146,GLN	146,GLN	146,GLN	146,GLN	146,GLN	146,GLN	146,GLN	146,GLN
147,GLU	147,GLU	147,GLU	-	-	147,GLU	147,GLU	147,GLU	147,GLU	147,GLU	147,GLU	147,GLU	147,GLU
148,CYS	148,CYS	148,CYS	-	-	148,CYS	148,CYS	148,CYS	148,CYS	148,CYS	148,CYS	148,CYS	148,CYS
149,ILE	149,ILE	149,ILE	-	-	149,ILE	149,ILE	149,ILE	149,ILE	149,ILE	149,ILE	149,ILE	149,ILE
150,LYS	150,LYS	150,LYS	-	-	150,LYS	150,LYS	150,LYS	150,LYS	150,LYS	150,LYS	150,LYS	150,LYS
151,THR	151,THR	151,THR	-	-	151,THR	151,THR	151,THR	151,THR	151,THR	151,THR	151,THR	151,THR
152,LEU	152,LEU	152,LEU	-	-	152,LEU	152,LEU	152,LEU	152,LEU	152,LEU	152,LEU	152,LEU	152,LEU
153,ASP	153,ASP	153,ASP	-	-	153,ASP	153,ASP	153,ASP	153,ASP	153,ASP	153,ASP	153,ASP	153,ASP
154,VAL	154,VAL	154,VAL	-	-	154,VAL	154,VAL	154,VAL	154,VAL	154,VAL	154,VAL	154,VAL	154,VAL
155,LYS	155,LYS	155,LYS	-	-	155,LYS	155,LYS	155,LYS	155,LYS	155,LYS	155,LYS	155,LYS	155,LYS
156,LEU	156,LEU	156,LEU	-	-	156,LEU	156,LEU	156,LEU	156,LEU	156,LEU	156,LEU	156,LEU	156,LEU
157,HIS	157,HIS	157,HIS	-	-	157,HIS	157,HIS	157,HIS	157,HIS	157,HIS	157,HIS	157,HIS	157,HIS
158,GLU	158,GLU	158,GLU	-	-	158,GLU	158,GLU	158,GLU	158,GLU	158,GLU	158,GLU	158,GLU	158,GLU
159,ASP	159,ASP	159,ASP	-	-	159,ASP	159,ASP	159,ASP	159,ASP	159,ASP	159,ASP	159,ASP	159,ASP
160,LEU	160,LEU	160,LEU	-	-	160,LEU	160,LEU	160,LEU	160,LEU	160,LEU	160,LEU	160,LEU	160,LEU
161,GLN	161,GLN	161,GLN	-	-	161,GLN	161,GLN	161,GLN	161,GLN	161,GLN	161,GLN	161,GLN	161,GLN
162,TYR	162,TYR	162,TYR	-	-	162,TYR	162,TYR	162,TYR	162,TYR	162,TYR	162,TYR	162,TYR	162,TYR
163,PHE	163,PHE	163,PHE	-	-	163,PHE	163,PHE	163,PHE	163,PHE	163,PHE	163,PHE	163,PHE	163,PHE
164,THR	164,THR	164,THR	-	-	164,THR	164,THR	164,THR	164,THR	164,THR	164,THR	164,THR	164,THR
165,GLN	165,GLN	165,GLN	-	-	165,GLN	165,GLN	165,GLN	165,GLN	165,GLN	165,GLN	165,GLN	165,GLN
166,ILE	166,ILE	166,ILE	-	-	166,ILE	166,ILE	166,ILE	166,ILE	166,ILE	166,ILE	166,ILE	166,ILE
167,TYR	167,TYR	167,TYR	-	-	167,TYR	167,TYR	167,TYR	167,TYR	167,TYR	167,TYR	167,TYR	167,TYR
168,ASN	168,ASN	168,ASN	-	-	168,ASN	168,ASN	168,ASN	168,ASN	168,ASN	168,ASN	168,ASN	168,ASN
169,TYR	169,TYR	169,TYR	-	-	169,TYR	169,TYR	169,TYR	169,TYR	169,TYR	169,TYR	169,TYR	169,TYR
170,ALA	170,ALA	170,ALA	-	-	170,ALA	170,ALA	170,ALA	170,ALA	170,ALA	170,ALA	170,ALA	170,ALA
171,PHE	171,PHE	171,PHE	-	-	171,PHE	171,PHE	171,PHE	171,PHE	171,PHE	171,PHE	171,PHE	171,PHE
172,ASN	172,ASN	172,ASN	-	-	172,ASN	172,ASN	172,ASN	172,ASN	172,ASN	172,ASN	172,ASN	172,ASN
173,LEU	173,LEU	173,LEU	-	-	173,LEU	173,LEU	173,LEU	173,LEU	173,LEU	173,LEU	173,LEU	173,LEU
174,ILE	174,ILE	174,ILE	-	-	174,ILE	174,ILE	174,ILE	174,ILE	174,ILE	174,ILE	174,ILE	174,ILE
175,LEU	175,LEU	175,LEU	-	-	175,LEU	175,LEU	175,LEU	175,LEU	175,LEU	175,LEU	175,LEU	175,LEU
176,ASP	176,ASP	176,ASP	-	-	176,ASP	176,ASP	176,ASP	176,ASP	176,ASP	176,ASP	176,ASP	176,ASP
177,PRO	177,PRO	177,PRO	-	-	177,PRO	177,PRO	177,PRO	177,PRO	177,PRO	177,PRO	177,PRO	177,PRO
178,ASN	178,ASN	178,ASN	-	-	178,ASN	178,ASN	178,ASN	178,ASN	178,ASN	178,ASN	178,ASN	178,ASN
179,ARG	179,ARG	179,ARG	-	-	179,ARG	179,ARG	179,ARG	179,ARG	179,ARG	179,ARG	179,ARG	179,ARG
180,LYS	180,LYS	180,LYS	-	-	180,LYS	180,LYS	180,LYS	180,LYS	180,LYS	180,LYS	180,LYS	180,LYS
181,ASP	181,ASP	181,ASP	-	-	181,ASP	181,ASP	181,ASP	181,ASP	181,ASP	181,ASP	181,ASP	181,ASP
182,ILE	182,ILE	182,ILE	-	-	182,ILE	182,ILE	182,ILE	182,ILE	182,ILE	182,ILE	182,ILE	182,ILE
183,ASP	183,ASP	183,ASP	-	-	183,ASP	183,ASP	183,ASP	183,ASP	183,ASP	183,ASP	183,ASP	183,ASP
184,THR	184,THR	184,THR	-	-	184,THR	184,THR	184,THR	184,THR	184,THR	184,THR	184,THR	184,THR
185,ASP	185,ASP	185,ASP	-	-	185,ASP	185,ASP	185,ASP	185,ASP	185,ASP	185,ASP	185,ASP	185,ASP
186,GLU	186,GLU	186,GLU	-	-	186,GLU	186,GLU	186,GLU	186,GLU	186,GLU	186,GLU	186,GLU	186,GLU
187,GLY	187,GLY	187,GLY	-	-	187,GLY	187,GLY	187,GLY	187,GLY	187,GLY	187,GLY	187,GLY	187,GLY
188,ILE	188,ILE	188,ILE	-	-	188,ILE	188,ILE	188,ILE	188,ILE	188,ILE	188,ILE	188,ILE	188,ILE
189,GLN	189,GLN	189,GLN	-	-	189,GLN	189,GLN	189,GLN	189,GLN	189,GLN	189,GLN	189,GLN	189,GLN
190,TYR	190,TYR	190,TYR	-	-	190,TYR	190,TYR	190,TYR	190,TYR	190,TYR	190,TYR	190,TYR	190,TYR
191,TRP	191,TRP	191,TRP	-	-	191,TRP	191,TRP	191,TRP	191,TRP	191,TRP	191,TRP	191,TRP	191,TRP
192,LYS	192,LYS	192,LYS	-	-	192,LYS	192,LYS	192,LYS	192,LYS	192,LYS	192,LYS	192,LYS	192,LYS
193,LEU	193,LEU	193,LEU	-	-	193,LEU	193,LEU	193,LEU	193,LEU	193,LEU	193,LEU	193,LEU	193,LEU
194,PHE	194,PHE	194,PHE	-	-	194,PHE	194,PHE	194,PHE	194,PHE	194,PHE	194,PHE	194,PHE	194,PHE
195,PHE	195,PHE	195,PHE	-	-	195,PHE	195,PHE	195,PHE	195,PHE	195,PHE	195,PHE	195,PHE	195,PHE
196,GLN	196,GLN	196,GLN	-	-	196,GLN	196,GLN	196,GLN	196,GLN	196,GLN	196,GLN	196,GLN	196,GLN
197,PRO	197,PRO	197,PRO	-	-	197,PRO	197,PRO	197,PRO	197,PRO	197,PRO	197,PRO	197,PRO	197,PRO
198,GLU	198,GLU	198,GLU	-	-	198,GLU	198,GLU	198,GLU	198,GLU	198,GLU	198,GLU	198,GLU	198,GLU
199,TYR	199,TYR	199,TYR	-	-	199,TYR	199,TYR	199,TYR	199,TYR	199,TYR	199,TYR	199,TYR	199,TYR
200,PRO	200,PRO	200,PRO	-	-	203,MSE	200,PRO	200,PRO	200,PRO	200,PRO	200,PRO	200,PRO	200,PRO
201,VAL	201,VAL	201,VAL	-	-	200,PRO	201,VAL	201,VAL	201,VAL	201,VAL	201,VAL	201,VAL	201,VAL
202,ARG	202,ARG	202,ARG	-	-	201,VAL	202,ARG	202,ARG	202,ARG	202,ARG	202,ARG	202,ARG	202,ARG
203,MET	203,MET	203,MET	-	-	202,ARG	203,MET	203,MET	203,MET	203,MET	203,MET	203,MET	203,MET
204,GLU	204,GLU	204,GLU	-	-	204,GLU	204,GLU	204,GLU	204,GLU	204,GLU	204,GLU	204,GLU	204,GLU
205,PRO	205,PRO	205,PRO	-	-	205,PRO	205,PRO	205,PRO	205,PRO	205,PRO	205,PRO	205,PRO	205,PRO
206,ASP	206,ASP	206,ASP	-	-	206,ASP	206,ASP	206,ASP	206,ASP	206,ASP	206,ASP	206,ASP	206,ASP
207,LEU	207,LEU	207,LEU	-	-	207,LEU	207,LEU	207,LEU	207,LEU	207,LEU	207,LEU	207,LEU	207,LEU
208,LEU	208,LEU	208,LEU	-	-	208,LEU	208,LEU	208,LEU	208,LEU	208,LEU	208,LEU	208,LEU	208,LEU
209,GLU	209,GLU	209,GLU	-	-	209,GLU	209,GLU	209,GLU	209,GLU	209,GLU	209,GLU	209,GLU	209,GLU
210,ALA	210,ALA	210,ALA	-	-	210,ALA	210,ALA	210,ALA	210,ALA	210,ALA	210,ALA	210,ALA	210,ALA
211,TRP	211,TRP	211,TRP	-	-	211,TRP	211,TRP	211,TRP	211,TRP	211,TRP	211,TRP	211,TRP	211,TRP
212,PHE	212,PHE	212,PHE	-	-	212,PHE	212,PHE	212,PHE	212,PHE	212,PHE	212,PHE	212,PHE	212,PHE
213,ARG	213,ARG	213,ARG	-	-	213,ARG	213,ARG	213,ARG	213,ARG	213,ARG	213,ARG	213,ARG	213,ARG
214,PHE	214,PHE	214,PHE	-	-	214,PHE	214,PHE	214,PHE	214,PHE	214,PHE	214,PHE	214,PHE	214,PHE
215,LEU	215,LEU	215,LEU	-	-	215,LEU	215,LEU	215,LEU	215,LEU	215,LEU	215,LEU	215,LEU	215,LEU
216,ARG	216,ARG	216,ARG	-	-	216,ARG	216,ARG	216,ARG	216,ARG	216,ARG	216,ARG	216,ARG	216,ARG
217,ASP	217,ASP	217,ASP	-	-	217,ASP	217,ASP	217,ASP	217,ASP	217,ASP	217,ASP	217,ASP	217,ASP
218,GLU	218,GLU	218,GLU	-	-	218,GLU	218,GLU	218,GLU	218,GLU	218,GLU	218,GLU	218,GLU	218,GLU
219,GLY	219,GLY	219,GLY	-	-	219,GLY	219,GLY	219,GLY	219,GLY	219,GLY	219,GLY	219,GLY	219,GLY
220,LYS	220,LYS	220,LYS	-	-	220,LYS	220,LYS	220,LYS	220,LYS	220,LYS	220,LYS	220,LYS	220,LYS
221,THR	221,THR	221,THR	-	-	221,THR	221,THR	221,THR	221,THR	221,THR	221,THR	221,THR	221,THR
222,THR	222,THR	222,THR	-	-	222,THR	222,THR	222,THR	222,THR	222,THR	222,THR	222,THR	222,THR
223,ILE	223,ILE	223,ILE	-	-	223,ILE	223,ILE	223,ILE	223,ILE	223,ILE	223,ILE	223,ILE	223,ILE
224,SER	224,SER	224,SER	-	-	224,SER	224,SER	224,SER	224,SER	224,SER	224,SER	224,SER	224,SER
225,LYS	225,LYS	225,LYS	-	-	225,LYS	225,LYS	225,LYS	225,LYS	225,LYS	225,LYS	225,LYS	225,LYS
226,ASP	226,ASP	226,ASP	-	-	226,ASP	226,ASP	226,ASP	226,ASP	226,ASP	226,ASP	226,ASP	226,ASP
227,THR	227,THR	227,THR	-	-	227,THR	227,THR	227,THR	227,THR	227,THR	227,THR	227,THR	227,THR
228,TRP	228,TRP	228,TRP	-	-	228,TRP	228,TRP	228,TRP	228,TRP	228,TRP	228,TRP	228,TRP	228,TRP
229,ARG	229,ARG	229,ARG	-	-	229,ARG	229,ARG	229,ARG	229,ARG	229,ARG	229,ARG	229,ARG	229,ARG
230,MET	230,MET	230,MET	-	-	230,MSE	230,MET	230,MET	230,MET	230,MET	230,MET	230,MET	230,MET
231,LEU	231,LEU	231,LEU	-	-	231,LEU	231,LEU	231,LEU	231,LEU	231,LEU	231,LEU	231,LEU	231,LEU
232,LEU	232,LEU	232,LEU	-	-	232,LEU	232,LEU	232,LEU	232,LEU	232,LEU	232,LEU	232,LEU	232,LEU
233,LEU	233,LEU	233,LEU	-	-	233,LEU	233,LEU	233,LEU	233,LEU	233,LEU	233,LEU	233,LEU	233,LEU
234,PHE	234,PHE	234,PHE	-	-	234,PHE	234,PHE	234,PHE	234,PHE	234,PHE	234,PHE	234,PHE	234,PHE
235,PHE	235,PHE	235,PHE	-	-	235,PHE	235,PHE	235,PHE	235,PHE	235,PHE	235,PHE	235,PHE	235,PHE
236,LYS	236,LYS	236,LYS	-	-	236,LYS	236,LYS	236,LYS	236,LYS	236,LYS	236,LYS	236,LYS	236,LYS
237,ARG	237,ARG	240,THR	-	-	237,ARG	237,ARG	237,ARG	237,ARG	237,ARG	237,ARG	237,ARG	237,ARG
238,TYR	238,TYR	237,ARG	-	-	238,TYR	238,TYR	238,TYR	238,TYR	238,TYR	238,TYR	238,TYR	238,TYR
239,PRO	239,PRO	238,TYR	-	-	239,PRO	239,PRO	239,PRO	239,PRO	239,PRO	239,PRO	239,PRO	239,PRO
240,THR	240,THR	239,PRO	-	-	240,THR	240,THR	240,THR	240,THR	240,THR	240,THR	240,THR	240,THR
241,ILE	241,ILE	241,ILE	-	-	241,ILE	241,ILE	241,ILE	241,ILE	241,ILE	241,ILE	241,ILE	241,ILE
242,GLN	242,GLN	242,GLN	-	-	242,GLN	242,GLN	242,GLN	242,GLN	242,GLN	242,GLN	242,GLN	242,GLN
243,LYS	243,LYS	243,LYS	-	-	243,LYS	243,LYS	243,LYS	243,LYS	243,LYS	243,LYS	243,LYS	243,LYS
244,ILE	244,ILE	244,ILE	-	-	244,ILE	244,ILE	244,ILE	244,ILE	244,ILE	244,ILE	244,ILE	244,ILE
245,ILE	245,ILE	245,ILE	-	-	245,ILE	245,ILE	245,ILE	245,ILE	245,ILE	245,ILE	245,ILE	245,ILE
246,SER	246,SER	246,SER	-	-	246,SER	246,SER	246,SER	246,SER	246,SER	246,SER	246,SER	246,SER
247,ASP	247,ASP	247,ASP	-	-	247,ASP	247,ASP	247,ASP	247,ASP	247,ASP	247,ASP	247,ASP	247,ASP
248,TYR	248,TYR	248,TYR	-	-	248,TYR	248,TYR	248,TYR	248,TYR	248,TYR	248,TYR	248,TYR	248,TYR
249,ASP	249,ASP	249,ASP	-	-	249,ASP	249,ASP	249,ASP	249,ASP	249,ASP	249,ASP	249,ASP	249,ASP
250,GLU	250,GLU	250,GLU	-	-	250,GLU	250,GLU	250,GLU	250,GLU	250,GLU	250,GLU	250,GLU	250,GLU
251,THR	251,THR	251,THR	-	-	251,THR	251,THR	251,THR	251,THR	251,THR	251,THR	251,THR	251,THR
252,ALA	252,ALA	252,ALA	-	-	252,ALA	252,ALA	252,ALA	252,ALA	252,ALA	252,ALA	252,ALA	252,ALA
253,ALA	253,ALA	253,ALA	-	-	253,ALA	253,ALA	253,ALA	253,ALA	253,ALA	253,ALA	253,ALA	253,ALA
254,TRP	254,TRP	254,TRP	-	-	254,TRP	254,TRP	254,TRP	254,TRP	254,TRP	254,TRP	254,TRP	254,TRP
255,PRO	255,PRO	255,PRO	-	-	255,PRO	255,PRO	255,PRO	255,PRO	255,PRO	255,PRO	255,PRO	255,PRO
256,PHE	256,PHE	256,PHE	-	-	256,PHE	256,PHE	256,PHE	256,PHE	256,PHE	256,PHE	256,PHE	256,PHE
257,ILE	257,ILE	257,ILE	-	-	257,ILE	257,ILE	257,ILE	257,ILE	257,ILE	257,ILE	257,ILE	257,ILE
258,ILE	258,ILE	258,ILE	-	-	258,ILE	258,ILE	258,ILE	258,ILE	258,ILE	258,ILE	258,ILE	258,ILE
259,ASP	259,ASP	259,ASP	-	-	259,ASP	259,ASP	259,ASP	259,ASP	259,ASP	259,ASP	259,ASP	259,ASP
260,GLU	260,GLU	260,GLU	-	-	260,GLU	260,GLU	260,GLU	260,GLU	260,GLU	260,GLU	260,GLU	260,GLU
261,PHE	261,PHE	261,PHE	-	-	261,PHE	261,PHE	261,PHE	261,PHE	261,PHE	261,PHE	261,PHE	261,PHE
262,TYR	262,TYR	262,TYR	-	-	262,TYR	262,TYR	262,TYR	262,TYR	262,TYR	262,TYR	262,TYR	262,TYR
263,GLU	263,GLU	263,GLU	-	-	263,GLU	263,GLU	263,GLU	263,GLU	263,GLU	263,GLU	263,GLU	263,GLU
264,CYS	264,CYS	264,CYS	-	-	264,CYS	264,CYS	264,CYS	264,CYS	264,CYS	264,CYS	264,CYS	264,CYS
265,LEU	265,LEU	265,LEU	-	-	265,LEU	265,LEU	265,LEU	265,LEU	265,LEU	265,LEU	265,LEU	265,LEU
266,GLN	266,GLN	266,GLN	-	-	266,GLN	266,GLN	266,GLN	266,GLN	266,GLN	266,GLN	266,GLN	266,GLN
267,ASP	267,ASP	267,ASP	-	-	267,ASP	267,ASP	267,ASP	267,ASP	267,ASP	267,ASP	267,ASP	267,ASP
268,GLN	268,GLN	268,GLN	-	-	268,GLN	268,GLN	268,GLN	268,GLN	268,GLN	268,GLN	268,GLN	268,GLN
269,GLN	269,GLN	269,GLN	-	-	269,GLN	269,GLN	269,GLN	269,GLN	269,GLN	269,GLN	269,GLN	269,GLN
