P25382	4wjuA	4wjuB	4wjvA	4wjvC	4wjvB	4wjvD
1,MET	1,MET	1,MET	-	-	-	-
2,SER	2,SER	2,SER	-	-	-	-
3,THR	3,THR	3,THR	-	-	-	-
4,LEU	4,LEU	4,LEU	-	-	-	-
5,ILE	5,ILE	5,ILE	-	-	-	-
6,PRO	6,PRO	6,PRO	-	-	-	-
7,PRO	7,PRO	7,PRO	-	-	-	-
8,PRO	8,PRO	8,PRO	-	-	-	-
9,SER	9,SER	9,SER	-	-	-	-
10,LYS	10,LYS	10,LYS	-	-	-	-
11,LYS	11,LYS	11,LYS	-	-	-	-
12,GLN	12,GLN	12,GLN	-	-	-	-
13,LYS	13,LYS	13,LYS	-	-	-	-
14,LYS	14,LYS	14,LYS	-	-	-	-
15,GLU	15,GLU	15,GLU	-	-	-	-
16,ALA	16,ALA	16,ALA	-	-	-	-
17,GLN	17,GLN	17,GLN	-	-	-	-
18,LEU	18,LEU	18,LEU	-	-	-	-
19,PRO	19,PRO	19,PRO	-	-	-	-
20,ARG	20,ARG	20,ARG	-	-	-	-
21,GLU	21,GLU	21,GLU	-	-	-	-
22,VAL	22,VAL	22,VAL	-	-	-	-
23,ALA	23,ALA	23,ALA	-	-	-	-
24,ILE	24,ILE	24,ILE	-	-	-	-
25,ILE	25,ILE	25,ILE	-	-	-	-
26,PRO	26,PRO	26,PRO	-	-	-	-
27,LYS	27,LYS	27,LYS	-	-	-	-
28,ASP	28,ASP	28,ASP	-	-	-	-
29,LEU	29,LEU	29,LEU	-	-	-	-
30,PRO	30,PRO	30,PRO	-	-	-	-
31,ASN	31,ASN	31,ASN	-	-	-	-
32,VAL	32,VAL	32,VAL	-	-	-	-
33,SER	33,SER	33,SER	-	-	-	-
34,ILE	34,ILE	34,ILE	-	-	-	-
35,LYS	35,LYS	35,LYS	-	-	-	-
36,PHE	36,PHE	36,PHE	-	-	-	-
37,GLN	37,GLN	37,GLN	-	-	-	-
38,ALA	38,ALA	38,ALA	-	-	-	-
39,LEU	39,LEU	39,LEU	-	-	-	-
40,ASP	40,ASP	40,ASP	-	-	-	-
41,THR	41,THR	41,THR	-	-	-	-
42,GLY	42,GLY	42,GLY	-	-	-	-
43,ASP	43,ASP	43,ASP	-	-	-	-
44,ASN	44,ASN	44,ASN	-	-	-	-
45,VAL	45,VAL	45,VAL	-	-	-	-
46,GLY	46,GLY	46,GLY	-	-	-	-
47,GLY	47,GLY	47,GLY	-	-	-	-
48,ALA	48,ALA	48,ALA	-	-	-	-
49,LEU	49,LEU	49,LEU	-	-	-	-
50,ARG	50,ARG	50,ARG	-	-	-	-
51,VAL	51,VAL	51,VAL	-	-	-	-
52,PRO	52,PRO	52,PRO	-	-	-	-
53,GLY	53,GLY	53,GLY	-	-	-	-
54,ALA	54,ALA	54,ALA	-	-	-	-
55,ILE	55,ILE	55,ILE	-	-	-	-
56,SER	56,SER	56,SER	-	-	-	-
57,GLU	57,GLU	57,GLU	-	-	-	-
58,LYS	58,LYS	58,LYS	-	-	-	-
59,GLN	59,GLN	59,GLN	-	-	-	-
60,LEU	60,LEU	60,LEU	-	-	-	-
61,GLU	61,GLU	61,GLU	-	-	-	-
62,GLU	62,GLU	62,GLU	-	-	-	-
63,LEU	63,LEU	63,LEU	-	-	-	-
64,LEU	64,LEU	64,LEU	-	-	-	-
65,ASN	65,ASN	65,ASN	-	-	-	-
66,GLN	66,GLN	66,GLN	-	-	-	-
67,LEU	67,LEU	67,LEU	-	-	-	-
68,ASN	68,ASN	68,ASN	-	-	-	-
69,GLY	69,GLY	69,GLY	-	-	-	-
70,THR	70,THR	70,THR	-	-	-	-
71,SER	71,SER	71,SER	-	-	-	-
72,ASP	72,ASP	72,ASP	-	-	-	-
73,ASP	73,ASP	73,ASP	-	-	-	-
74,PRO	74,PRO	74,PRO	-	-	-	-
75,VAL	75,VAL	75,VAL	-	-	-	-
76,PRO	76,PRO	76,PRO	-	-	-	-
77,TYR	77,TYR	77,TYR	-	-	-	-
78,THR	78,THR	78,THR	-	-	-	-
79,PHE	79,PHE	79,PHE	-	-	-	-
80,SER	80,SER	80,SER	-	-	-	-
81,CYS	81,CYS	81,CYS	-	-	-	-
82,THR	82,THR	82,THR	-	-	-	-
83,ILE	83,ILE	83,ILE	-	-	-	-
84,GLN	84,GLN	84,GLN	-	-	-	-
85,GLY	85,GLY	85,GLY	-	-	-	-
86,LYS	86,LYS	89,SER	-	-	-	-
87,LYS	87,LYS	86,LYS	-	-	-	-
88,ALA	88,ALA	87,LYS	-	-	-	-
89,SER	89,SER	88,ALA	-	-	-	-
90,ASP	90,ASP	90,ASP	-	-	-	-
91,PRO	91,PRO	91,PRO	-	-	-	-
92,VAL	92,VAL	92,VAL	-	-	-	-
93,LYS	93,LYS	93,LYS	-	-	-	-
94,THR	94,THR	94,THR	-	-	-	-
95,ILE	95,ILE	95,ILE	-	-	-	-
96,ASP	96,ASP	96,ASP	-	-	-	-
97,ILE	97,ILE	97,ILE	-	-	-	-
98,THR	98,THR	98,THR	-	-	-	-
99,ASP	99,ASP	99,ASP	-	-	-	-
100,ASN	100,ASN	100,ASN	-	-	-	-
101,LEU	101,LEU	101,LEU	-	-	-	-
102,TYR	102,TYR	102,TYR	-	-	-	-
103,SER	103,SER	103,SER	-	-	-	-
104,SER	104,SER	104,SER	-	-	-	-
105,LEU	105,LEU	105,LEU	-	-	-	-
106,ILE	106,ILE	106,ILE	-	-	-	-
107,LYS	107,LYS	107,LYS	-	-	-	-
108,PRO	108,PRO	108,PRO	-	-	-	-
109,GLY	109,GLY	109,GLY	-	-	-	-
110,TYR	110,TYR	110,TYR	-	-	-	-
111,ASN	111,ASN	111,ASN	-	-	-	-
112,SER	112,SER	112,SER	-	-	-	-
113,THR	113,THR	113,THR	-	-	-	-
114,GLU	114,GLU	114,GLU	-	-	-	-
115,ASP	115,ASP	115,ASP	-	-	-	-
116,GLN	116,GLN	116,GLN	-	-	-	-
117,ILE	117,ILE	117,ILE	-	-	-	-
118,THR	118,THR	118,THR	-	-	-	-
119,LEU	119,LEU	119,LEU	-	-	-	-
120,LEU	120,LEU	120,LEU	-	-	-	-
121,TYR	121,TYR	121,TYR	-	-	-	-
122,THR	122,THR	122,THR	-	-	-	-
123,PRO	123,PRO	123,PRO	-	-	-	-
124,ARG	124,ARG	124,ARG	-	-	-	-
125,ALA	125,ALA	125,ALA	-	-	-	-
126,VAL	126,VAL	126,VAL	-	-	-	-
127,PHE	127,PHE	127,PHE	-	-	-	-
128,LYS	128,LYS	128,LYS	-	-	-	-
129,VAL	129,VAL	129,VAL	-	-	-	-
130,LYS	130,LYS	130,LYS	-	-	-	-
131,PRO	131,PRO	131,PRO	-	-	-	-
132,VAL	132,VAL	132,VAL	-	-	-	-
133,THR	133,THR	133,THR	-	-	-	-
134,ARG	134,ARG	134,ARG	-	-	-	-
135,SER	135,SER	135,SER	-	-	-	-
136,SER	136,SER	136,SER	-	-	-	-
137,SER	137,SER	137,SER	137,SER	137,SER	137,SER	137,SER
138,ALA	138,ALA	138,ALA	138,ALA	138,ALA	138,ALA	138,ALA
139,ILE	139,ILE	139,ILE	139,ILE	139,ILE	139,ILE	139,ILE
140,ALA	140,ALA	140,ALA	140,ALA	140,ALA	140,ALA	140,ALA
141,GLY	141,GLY	141,GLY	141,GLY	141,GLY	141,GLY	141,GLY
142,HIS	142,HIS	142,HIS	142,HIS	142,HIS	142,HIS	142,HIS
143,GLY	143,GLY	143,GLY	143,GLY	143,GLY	143,GLY	143,GLY
144,SER	144,SER	144,SER	144,SER	144,SER	144,SER	144,SER
145,THR	145,THR	145,THR	145,THR	145,THR	145,THR	145,THR
146,ILE	146,ILE	146,ILE	146,ILE	146,ILE	146,ILE	146,ILE
147,LEU	147,LEU	147,LEU	147,LEU	147,LEU	147,LEU	147,LEU
148,CYS	148,CYS	148,CYS	148,CYS	148,CYS	148,CYS	148,CYS
149,SER	149,SER	149,SER	149,SER	149,SER	149,SER	149,SER
150,ALA	150,ALA	150,ALA	150,ALA	150,ALA	150,ALA	150,ALA
151,PHE	151,PHE	151,PHE	151,PHE	151,PHE	151,PHE	151,PHE
152,ALA	152,ALA	152,ALA	152,ALA	152,ALA	152,ALA	152,ALA
153,PRO	153,PRO	153,PRO	153,PRO	153,PRO	153,PRO	153,PRO
154,HIS	154,HIS	154,HIS	154,HIS	154,HIS	154,HIS	154,HIS
155,THR	155,THR	155,THR	155,THR	155,THR	155,THR	155,THR
156,SER	156,SER	156,SER	156,SER	156,SER	156,SER	156,SER
157,SER	157,SER	157,SER	157,SER	157,SER	157,SER	157,SER
158,ARG	158,ARG	158,ARG	158,ARG	158,ARG	158,ARG	158,ARG
159,MET	159,MET	159,MET	159,MET	159,MET	159,MET	159,MET
160,VAL	160,VAL	160,VAL	160,VAL	160,VAL	160,VAL	160,VAL
161,THR	161,THR	161,THR	161,THR	161,THR	161,THR	161,THR
162,GLY	162,GLY	162,GLY	162,GLY	162,GLY	162,GLY	162,GLY
163,ALA	163,ALA	163,ALA	163,ALA	163,ALA	163,ALA	163,ALA
164,GLY	164,GLY	164,GLY	164,GLY	164,GLY	164,GLY	164,GLY
165,ASP	165,ASP	165,ASP	165,ASP	165,ASP	165,ASP	165,ASP
166,ASN	166,ASN	166,ASN	166,ASN	166,ASN	166,ASN	166,ASN
167,THR	167,THR	167,THR	167,THR	167,THR	167,THR	167,THR
168,ALA	168,ALA	168,ALA	168,ALA	168,ALA	168,ALA	168,ALA
169,ARG	169,ARG	169,ARG	169,ARG	169,ARG	169,ARG	169,ARG
170,ILE	170,ILE	170,ILE	170,ILE	170,ILE	170,ILE	170,ILE
171,TRP	171,TRP	171,TRP	171,TRP	171,TRP	171,TRP	171,TRP
172,ASP	172,ASP	172,ASP	172,ASP	172,ASP	172,ASP	172,ASP
173,CYS	173,CYS	173,CYS	173,CYS	173,CYS	173,CYS	173,CYS
174,ASP	174,ASP	174,ASP	174,ASP	174,ASP	174,ASP	174,ASP
175,THR	175,THR	175,THR	175,THR	175,THR	175,THR	175,THR
176,GLN	176,GLN	176,GLN	176,GLN	176,GLN	176,GLN	176,GLN
177,THR	177,THR	177,THR	177,THR	177,THR	177,THR	177,THR
178,PRO	178,PRO	178,PRO	178,PRO	178,PRO	178,PRO	178,PRO
179,MET	179,MET	179,MET	179,MET	179,MET	179,MET	179,MET
180,HIS	180,HIS	180,HIS	180,HIS	180,HIS	180,HIS	180,HIS
181,THR	181,THR	181,THR	181,THR	181,THR	181,THR	181,THR
182,LEU	182,LEU	182,LEU	182,LEU	182,LEU	182,LEU	182,LEU
183,LYS	183,LYS	183,LYS	183,LYS	183,LYS	183,LYS	183,LYS
184,GLY	184,GLY	184,GLY	184,GLY	184,GLY	184,GLY	184,GLY
185,HIS	185,HIS	185,HIS	185,HIS	185,HIS	185,HIS	185,HIS
186,TYR	186,TYR	186,TYR	186,TYR	186,TYR	186,TYR	186,TYR
187,ASN	187,ASN	187,ASN	187,ASN	187,ASN	187,ASN	187,ASN
188,TRP	188,TRP	188,TRP	188,TRP	188,TRP	188,TRP	188,TRP
189,VAL	189,VAL	189,VAL	189,VAL	189,VAL	189,VAL	189,VAL
190,LEU	190,LEU	190,LEU	190,LEU	190,LEU	190,LEU	190,LEU
191,CYS	191,CYS	191,CYS	191,CYS	191,CYS	191,CYS	191,CYS
192,VAL	192,VAL	192,VAL	192,VAL	192,VAL	192,VAL	192,VAL
193,SER	193,SER	193,SER	193,SER	193,SER	193,SER	193,SER
194,TRP	194,TRP	194,TRP	194,TRP	194,TRP	194,TRP	194,TRP
195,SER	195,SER	195,SER	195,SER	195,SER	195,SER	195,SER
196,PRO	196,PRO	196,PRO	196,PRO	196,PRO	196,PRO	196,PRO
197,ASP	197,ASP	197,ASP	197,ASP	197,ASP	197,ASP	197,ASP
198,GLY	198,GLY	198,GLY	198,GLY	198,GLY	198,GLY	198,GLY
199,GLU	199,GLU	199,GLU	199,GLU	199,GLU	199,GLU	199,GLU
200,VAL	200,VAL	200,VAL	200,VAL	200,VAL	200,VAL	200,VAL
201,ILE	201,ILE	201,ILE	201,ILE	201,ILE	201,ILE	201,ILE
202,ALA	202,ALA	202,ALA	202,ALA	202,ALA	202,ALA	202,ALA
203,THR	203,THR	203,THR	203,THR	203,THR	203,THR	203,THR
204,GLY	204,GLY	204,GLY	204,GLY	204,GLY	204,GLY	204,GLY
205,SER	205,SER	205,SER	205,SER	205,SER	205,SER	205,SER
206,MET	206,MET	206,MET	206,MET	206,MET	206,MET	206,MET
207,ASP	207,ASP	207,ASP	207,ASP	207,ASP	207,ASP	207,ASP
208,ASN	208,ASN	208,ASN	208,ASN	208,ASN	208,ASN	208,ASN
209,THR	209,THR	209,THR	209,THR	209,THR	209,THR	209,THR
210,ILE	210,ILE	210,ILE	210,ILE	210,ILE	210,ILE	210,ILE
211,ARG	211,ARG	211,ARG	211,ARG	211,ARG	211,ARG	211,ARG
212,LEU	212,LEU	212,LEU	212,LEU	212,LEU	212,LEU	212,LEU
213,TRP	213,TRP	213,TRP	213,TRP	213,TRP	213,TRP	213,TRP
214,ASP	214,ASP	214,ASP	214,ASP	214,ASP	214,ASP	214,ASP
215,PRO	215,PRO	215,PRO	215,PRO	215,PRO	215,PRO	215,PRO
216,LYS	216,LYS	216,LYS	216,LYS	216,LYS	216,LYS	216,LYS
217,SER	217,SER	217,SER	217,SER	217,SER	217,SER	217,SER
218,GLY	218,GLY	218,GLY	218,GLY	218,GLY	218,GLY	218,GLY
219,GLN	219,GLN	219,GLN	219,GLN	219,GLN	219,GLN	219,GLN
220,CYS	220,CYS	220,CYS	220,CYS	220,CYS	220,CYS	220,CYS
221,LEU	221,LEU	221,LEU	221,LEU	221,LEU	221,LEU	221,LEU
222,GLY	222,GLY	222,GLY	222,GLY	222,GLY	222,GLY	222,GLY
223,ASP	223,ASP	223,ASP	223,ASP	223,ASP	223,ASP	223,ASP
224,ALA	224,ALA	224,ALA	224,ALA	224,ALA	224,ALA	224,ALA
225,LEU	225,LEU	225,LEU	225,LEU	225,LEU	225,LEU	225,LEU
226,ARG	226,ARG	226,ARG	226,ARG	226,ARG	226,ARG	229,SER
227,GLY	227,GLY	227,GLY	227,GLY	227,GLY	227,GLY	226,ARG
228,HIS	228,HIS	228,HIS	228,HIS	228,HIS	228,HIS	227,GLY
229,SER	229,SER	229,SER	229,SER	229,SER	229,SER	228,HIS
230,LYS	230,LYS	230,LYS	230,LYS	230,LYS	230,LYS	230,LYS
231,TRP	231,TRP	231,TRP	231,TRP	231,TRP	231,TRP	231,TRP
232,ILE	232,ILE	232,ILE	232,ILE	232,ILE	232,ILE	232,ILE
233,THR	233,THR	233,THR	233,THR	233,THR	233,THR	233,THR
234,SER	234,SER	234,SER	234,SER	234,SER	234,SER	234,SER
235,LEU	235,LEU	235,LEU	235,LEU	235,LEU	235,LEU	235,LEU
236,SER	236,SER	236,SER	236,SER	236,SER	236,SER	236,SER
237,TRP	237,TRP	237,TRP	237,TRP	237,TRP	237,TRP	237,TRP
238,GLU	238,GLU	238,GLU	238,GLU	238,GLU	238,GLU	238,GLU
239,PRO	239,PRO	239,PRO	239,PRO	239,PRO	239,PRO	239,PRO
240,ILE	240,ILE	240,ILE	240,ILE	240,ILE	240,ILE	240,ILE
241,HIS	241,HIS	241,HIS	241,HIS	241,HIS	241,HIS	241,HIS
242,LEU	242,LEU	242,LEU	242,LEU	242,LEU	242,LEU	242,LEU
243,VAL	243,VAL	243,VAL	243,VAL	243,VAL	243,VAL	243,VAL
244,LYS	244,LYS	244,LYS	244,LYS	244,LYS	244,LYS	244,LYS
245,PRO	245,PRO	245,PRO	245,PRO	245,PRO	245,PRO	245,PRO
246,GLY	246,GLY	246,GLY	246,GLY	246,GLY	246,GLY	246,GLY
247,SER	247,SER	247,SER	247,SER	247,SER	247,SER	247,SER
248,LYS	248,LYS	248,LYS	248,LYS	248,LYS	248,LYS	248,LYS
249,PRO	249,PRO	249,PRO	249,PRO	249,PRO	249,PRO	249,PRO
250,ARG	250,ARG	250,ARG	250,ARG	250,ARG	250,ARG	250,ARG
251,LEU	251,LEU	251,LEU	251,LEU	251,LEU	251,LEU	251,LEU
252,ALA	252,ALA	252,ALA	252,ALA	252,ALA	252,ALA	252,ALA
253,SER	253,SER	253,SER	253,SER	253,SER	253,SER	253,SER
254,SER	254,SER	254,SER	254,SER	254,SER	254,SER	254,SER
255,SER	255,SER	255,SER	255,SER	255,SER	255,SER	255,SER
256,LYS	256,LYS	256,LYS	256,LYS	256,LYS	256,LYS	256,LYS
257,ASP	257,ASP	257,ASP	257,ASP	257,ASP	257,ASP	257,ASP
258,GLY	258,GLY	258,GLY	258,GLY	258,GLY	258,GLY	258,GLY
259,THR	259,THR	259,THR	259,THR	259,THR	259,THR	259,THR
260,ILE	260,ILE	260,ILE	260,ILE	260,ILE	260,ILE	260,ILE
261,LYS	261,LYS	261,LYS	261,LYS	261,LYS	261,LYS	261,LYS
262,ILE	262,ILE	262,ILE	262,ILE	262,ILE	262,ILE	262,ILE
263,TRP	263,TRP	263,TRP	263,TRP	263,TRP	263,TRP	263,TRP
264,ASP	264,ASP	264,ASP	264,ASP	264,ASP	264,ASP	264,ASP
265,THR	265,THR	265,THR	265,THR	265,THR	265,THR	265,THR
266,VAL	266,VAL	266,VAL	266,VAL	266,VAL	266,VAL	266,VAL
267,SER	267,SER	267,SER	267,SER	267,SER	267,SER	267,SER
268,ARG	268,ARG	268,ARG	268,ARG	268,ARG	268,ARG	268,ARG
269,VAL	269,VAL	269,VAL	269,VAL	269,VAL	269,VAL	269,VAL
270,CYS	270,CYS	270,CYS	270,CYS	270,CYS	270,CYS	270,CYS
271,GLN	271,GLN	271,GLN	271,GLN	271,GLN	271,GLN	271,GLN
272,TYR	272,TYR	272,TYR	272,TYR	272,TYR	272,TYR	272,TYR
273,THR	273,THR	273,THR	273,THR	273,THR	273,THR	273,THR
274,MET	274,MET	274,MET	274,MET	274,MET	274,MET	274,MET
275,SER	275,SER	275,SER	275,SER	275,SER	275,SER	275,SER
276,GLY	276,GLY	276,GLY	276,GLY	276,GLY	276,GLY	276,GLY
277,HIS	277,HIS	277,HIS	277,HIS	277,HIS	277,HIS	277,HIS
278,THR	278,THR	278,THR	278,THR	278,THR	278,THR	278,THR
279,ASN	279,ASN	279,ASN	279,ASN	279,ASN	279,ASN	279,ASN
280,SER	280,SER	280,SER	280,SER	280,SER	280,SER	280,SER
281,VAL	281,VAL	281,VAL	281,VAL	281,VAL	281,VAL	281,VAL
282,SER	282,SER	282,SER	282,SER	282,SER	282,SER	282,SER
283,CYS	283,CYS	283,CYS	283,CYS	283,CYS	283,CYS	283,CYS
284,VAL	284,VAL	284,VAL	284,VAL	284,VAL	284,VAL	284,VAL
285,LYS	285,LYS	285,LYS	285,LYS	285,LYS	285,LYS	285,LYS
286,TRP	286,TRP	286,TRP	286,TRP	286,TRP	286,TRP	286,TRP
287,GLY	287,GLY	287,GLY	287,GLY	287,GLY	287,GLY	287,GLY
288,GLY	288,GLY	288,GLY	288,GLY	288,GLY	288,GLY	288,GLY
289,GLN	289,GLN	289,GLN	289,GLN	289,GLN	289,GLN	289,GLN
290,GLY	290,GLY	290,GLY	290,GLY	290,GLY	290,GLY	290,GLY
291,LEU	291,LEU	291,LEU	291,LEU	291,LEU	291,LEU	291,LEU
292,LEU	292,LEU	292,LEU	292,LEU	292,LEU	292,LEU	292,LEU
293,TYR	293,TYR	293,TYR	293,TYR	293,TYR	293,TYR	293,TYR
294,SER	294,SER	294,SER	294,SER	294,SER	294,SER	294,SER
295,GLY	295,GLY	295,GLY	295,GLY	295,GLY	295,GLY	295,GLY
296,SER	296,SER	296,SER	296,SER	296,SER	296,SER	296,SER
297,HIS	297,HIS	297,HIS	297,HIS	297,HIS	297,HIS	297,HIS
298,ASP	298,ASP	298,ASP	298,ASP	298,ASP	298,ASP	298,ASP
299,ARG	299,ARG	299,ARG	299,ARG	299,ARG	299,ARG	299,ARG
300,THR	300,THR	300,THR	300,THR	300,THR	300,THR	300,THR
301,VAL	301,VAL	301,VAL	301,VAL	301,VAL	301,VAL	301,VAL
302,ARG	302,ARG	302,ARG	302,ARG	302,ARG	302,ARG	302,ARG
303,VAL	303,VAL	303,VAL	303,VAL	303,VAL	303,VAL	303,VAL
304,TRP	304,TRP	304,TRP	304,TRP	304,TRP	304,TRP	304,TRP
305,ASP	305,ASP	305,ASP	305,ASP	305,ASP	305,ASP	305,ASP
306,ILE	306,ILE	306,ILE	306,ILE	306,ILE	306,ILE	306,ILE
307,ASN	307,ASN	307,ASN	307,ASN	307,ASN	307,ASN	307,ASN
308,SER	308,SER	308,SER	308,SER	308,SER	308,SER	308,SER
309,GLN	309,GLN	309,GLN	309,GLN	309,GLN	309,GLN	309,GLN
310,GLY	310,GLY	310,GLY	310,GLY	310,GLY	310,GLY	310,GLY
311,ARG	311,ARG	311,ARG	311,ARG	311,ARG	311,ARG	311,ARG
312,CYS	312,CYS	312,CYS	312,CYS	312,CYS	312,CYS	312,CYS
313,ILE	313,ILE	313,ILE	313,ILE	313,ILE	313,ILE	313,ILE
314,ASN	314,ASN	314,ASN	314,ASN	314,ASN	314,ASN	314,ASN
315,ILE	315,ILE	315,ILE	315,ILE	315,ILE	315,ILE	315,ILE
316,LEU	316,LEU	316,LEU	316,LEU	316,LEU	316,LEU	316,LEU
317,LYS	317,LYS	317,LYS	317,LYS	317,LYS	317,LYS	317,LYS
318,SER	318,SER	318,SER	318,SER	318,SER	318,SER	318,SER
319,HIS	319,HIS	319,HIS	319,HIS	319,HIS	319,HIS	319,HIS
320,ALA	320,ALA	320,ALA	320,ALA	320,ALA	320,ALA	320,ALA
321,HIS	321,HIS	321,HIS	321,HIS	321,HIS	321,HIS	321,HIS
322,TRP	322,TRP	322,TRP	322,TRP	322,TRP	322,TRP	322,TRP
323,VAL	323,VAL	323,VAL	323,VAL	323,VAL	323,VAL	323,VAL
324,ASN	324,ASN	324,ASN	324,ASN	324,ASN	324,ASN	324,ASN
325,HIS	325,HIS	325,HIS	325,HIS	325,HIS	325,HIS	325,HIS
326,LEU	326,LEU	326,LEU	326,LEU	326,LEU	326,LEU	326,LEU
327,SER	327,SER	327,SER	327,SER	327,SER	327,SER	327,SER
328,LEU	328,LEU	328,LEU	328,LEU	328,LEU	328,LEU	328,LEU
329,SER	329,SER	329,SER	329,SER	329,SER	329,SER	329,SER
330,THR	330,THR	330,THR	330,THR	330,THR	330,THR	330,THR
331,ASP	331,ASP	331,ASP	331,ASP	331,ASP	331,ASP	331,ASP
332,TYR	332,TYR	332,TYR	332,TYR	332,TYR	332,TYR	332,TYR
333,ALA	333,ALA	333,ALA	333,ALA	333,ALA	333,ALA	333,ALA
334,LEU	334,LEU	334,LEU	334,LEU	334,LEU	334,LEU	334,LEU
335,ARG	335,ARG	335,ARG	335,ARG	335,ARG	335,ARG	335,ARG
336,ILE	336,ILE	336,ILE	336,ILE	336,ILE	336,ILE	336,ILE
337,GLY	337,GLY	337,GLY	337,GLY	337,GLY	337,GLY	337,GLY
338,ALA	338,ALA	338,ALA	338,ALA	338,ALA	338,ALA	338,ALA
339,PHE	339,PHE	339,PHE	339,PHE	339,PHE	339,PHE	339,PHE
340,ASP	340,ASP	340,ASP	340,ASP	340,ASP	340,ASP	340,ASP
341,HIS	341,HIS	341,HIS	341,HIS	341,HIS	341,HIS	341,HIS
342,THR	342,THR	342,THR	342,THR	342,THR	342,THR	342,THR
343,GLY	343,GLY	343,GLY	343,GLY	343,GLY	343,GLY	343,GLY
344,LYS	344,LYS	344,LYS	344,LYS	344,LYS	344,LYS	344,LYS
345,LYS	345,LYS	345,LYS	345,LYS	345,LYS	345,LYS	345,LYS
346,PRO	346,PRO	346,PRO	346,PRO	346,PRO	346,PRO	346,PRO
347,SER	347,SER	347,SER	347,SER	347,SER	347,SER	347,SER
348,THR	348,THR	348,THR	348,THR	348,THR	348,THR	348,THR
349,PRO	349,PRO	349,PRO	349,PRO	349,PRO	349,PRO	349,PRO
350,GLU	350,GLU	350,GLU	350,GLU	350,GLU	350,GLU	350,GLU
351,GLU	351,GLU	351,GLU	351,GLU	351,GLU	351,GLU	351,GLU
352,ALA	352,ALA	352,ALA	352,ALA	352,ALA	352,ALA	352,ALA
353,GLN	353,GLN	353,GLN	353,GLN	353,GLN	353,GLN	353,GLN
354,LYS	354,LYS	354,LYS	354,LYS	354,LYS	354,LYS	354,LYS
355,LYS	355,LYS	355,LYS	355,LYS	355,LYS	355,LYS	355,LYS
356,ALA	356,ALA	356,ALA	356,ALA	356,ALA	356,ALA	356,ALA
357,LEU	357,LEU	357,LEU	357,LEU	357,LEU	357,LEU	357,LEU
358,GLU	358,GLU	358,GLU	358,GLU	358,GLU	358,GLU	358,GLU
359,ASN	359,ASN	359,ASN	359,ASN	359,ASN	359,ASN	359,ASN
360,TYR	360,TYR	360,TYR	360,TYR	360,TYR	360,TYR	360,TYR
361,GLU	361,GLU	361,GLU	361,GLU	361,GLU	361,GLU	361,GLU
362,LYS	362,LYS	362,LYS	362,LYS	362,LYS	362,LYS	362,LYS
363,ILE	363,ILE	363,ILE	363,ILE	363,ILE	363,ILE	363,ILE
364,CYS	364,CYS	364,CYS	364,CYS	364,CYS	364,CYS	364,CYS
365,LYS	365,LYS	365,LYS	365,LYS	365,LYS	365,LYS	365,LYS
366,LYS	366,LYS	366,LYS	366,LYS	366,LYS	366,LYS	366,LYS
367,ASN	367,ASN	367,ASN	367,ASN	367,ASN	367,ASN	367,ASN
368,GLY	368,GLY	368,GLY	368,GLY	368,GLY	368,GLY	368,GLY
369,ASN	369,ASN	369,ASN	369,ASN	369,ASN	369,ASN	369,ASN
370,SER	370,SER	370,SER	370,SER	370,SER	370,SER	370,SER
371,GLU	371,GLU	371,GLU	371,GLU	371,GLU	371,GLU	371,GLU
372,GLU	372,GLU	372,GLU	372,GLU	372,GLU	372,GLU	372,GLU
373,MET	373,MET	373,MET	373,MET	373,MET	373,MET	373,MET
374,MET	374,MET	374,MET	374,MET	374,MET	374,MET	374,MET
375,VAL	375,VAL	375,VAL	375,VAL	375,VAL	375,VAL	375,VAL
376,THR	376,THR	376,THR	376,THR	376,THR	376,THR	376,THR
377,ALA	377,ALA	377,ALA	377,ALA	377,ALA	377,ALA	377,ALA
378,SER	378,SER	378,SER	378,SER	378,SER	378,SER	378,SER
379,ASP	379,ASP	379,ASP	379,ASP	379,ASP	379,ASP	379,ASP
380,ASP	380,ASP	380,ASP	380,ASP	380,ASP	380,ASP	380,ASP
381,TYR	381,TYR	381,TYR	381,TYR	381,TYR	381,TYR	381,TYR
382,THR	382,THR	385,LEU	382,THR	382,THR	382,THR	382,THR
383,MET	383,MET	382,THR	383,MET	383,MET	383,MET	383,MET
384,PHE	384,PHE	383,MET	384,PHE	384,PHE	384,PHE	384,PHE
385,LEU	385,LEU	384,PHE	385,LEU	385,LEU	385,LEU	385,LEU
386,TRP	386,TRP	386,TRP	386,TRP	386,TRP	386,TRP	386,TRP
387,ASN	387,ASN	387,ASN	387,ASN	387,ASN	387,ASN	387,ASN
388,PRO	388,PRO	388,PRO	388,PRO	388,PRO	388,PRO	388,PRO
389,LEU	389,LEU	389,LEU	389,LEU	389,LEU	389,LEU	389,LEU
390,LYS	390,LYS	393,LYS	390,LYS	390,LYS	390,LYS	390,LYS
391,SER	391,SER	390,LYS	391,SER	391,SER	391,SER	391,SER
392,THR	392,THR	391,SER	392,THR	392,THR	392,THR	395,ILE
393,LYS	393,LYS	392,THR	393,LYS	393,LYS	393,LYS	392,THR
394,PRO	394,PRO	394,PRO	394,PRO	394,PRO	394,PRO	393,LYS
395,ILE	395,ILE	395,ILE	395,ILE	395,ILE	395,ILE	394,PRO
396,ALA	396,ALA	396,ALA	396,ALA	396,ALA	396,ALA	396,ALA
397,ARG	397,ARG	397,ARG	397,ARG	397,ARG	397,ARG	397,ARG
398,MET	398,MET	398,MET	398,MET	398,MET	398,MET	398,MET
399,THR	399,THR	399,THR	399,THR	399,THR	399,THR	399,THR
400,GLY	400,GLY	400,GLY	400,GLY	400,GLY	400,GLY	400,GLY
401,HIS	404,LEU	401,HIS	401,HIS	401,HIS	401,HIS	401,HIS
402,GLN	401,HIS	402,GLN	402,GLN	402,GLN	402,GLN	402,GLN
403,LYS	402,GLN	403,LYS	403,LYS	403,LYS	403,LYS	403,LYS
404,LEU	403,LYS	404,LEU	404,LEU	404,LEU	404,LEU	404,LEU
405,VAL	405,VAL	405,VAL	405,VAL	405,VAL	405,VAL	405,VAL
406,ASN	406,ASN	406,ASN	406,ASN	406,ASN	406,ASN	406,ASN
407,HIS	407,HIS	407,HIS	407,HIS	407,HIS	407,HIS	407,HIS
408,VAL	408,VAL	408,VAL	408,VAL	408,VAL	408,VAL	408,VAL
409,ALA	409,ALA	409,ALA	409,ALA	409,ALA	409,ALA	409,ALA
410,PHE	410,PHE	410,PHE	410,PHE	410,PHE	410,PHE	410,PHE
411,SER	411,SER	411,SER	411,SER	411,SER	411,SER	411,SER
412,PRO	412,PRO	415,ARG	412,PRO	412,PRO	412,PRO	412,PRO
413,ASP	413,ASP	412,PRO	413,ASP	413,ASP	413,ASP	413,ASP
414,GLY	414,GLY	413,ASP	414,GLY	414,GLY	414,GLY	414,GLY
415,ARG	415,ARG	414,GLY	415,ARG	415,ARG	415,ARG	415,ARG
416,TYR	416,TYR	416,TYR	416,TYR	416,TYR	416,TYR	416,TYR
417,ILE	417,ILE	417,ILE	417,ILE	417,ILE	417,ILE	417,ILE
418,VAL	418,VAL	418,VAL	418,VAL	418,VAL	418,VAL	418,VAL
419,SER	419,SER	419,SER	419,SER	419,SER	419,SER	419,SER
420,ALA	420,ALA	420,ALA	420,ALA	420,ALA	420,ALA	420,ALA
421,SER	421,SER	421,SER	421,SER	421,SER	421,SER	421,SER
422,PHE	422,PHE	422,PHE	422,PHE	422,PHE	422,PHE	422,PHE
423,ASP	423,ASP	423,ASP	423,ASP	423,ASP	423,ASP	423,ASP
424,ASN	424,ASN	424,ASN	424,ASN	424,ASN	424,ASN	424,ASN
425,SER	425,SER	425,SER	425,SER	425,SER	425,SER	425,SER
426,ILE	426,ILE	426,ILE	426,ILE	426,ILE	426,ILE	426,ILE
427,LYS	427,LYS	427,LYS	427,LYS	427,LYS	427,LYS	427,LYS
428,LEU	428,LEU	431,GLY	428,LEU	428,LEU	428,LEU	428,LEU
429,TRP	429,TRP	428,LEU	429,TRP	429,TRP	429,TRP	429,TRP
430,ASP	430,ASP	429,TRP	430,ASP	430,ASP	430,ASP	430,ASP
431,GLY	431,GLY	430,ASP	431,GLY	431,GLY	431,GLY	431,GLY
432,ARG	432,ARG	432,ARG	432,ARG	432,ARG	432,ARG	432,ARG
433,ASP	433,ASP	433,ASP	433,ASP	433,ASP	433,ASP	433,ASP
434,GLY	434,GLY	434,GLY	434,GLY	434,GLY	434,GLY	434,GLY
435,LYS	435,LYS	435,LYS	435,LYS	435,LYS	435,LYS	435,LYS
436,PHE	436,PHE	436,PHE	436,PHE	436,PHE	436,PHE	436,PHE
437,ILE	437,ILE	437,ILE	437,ILE	437,ILE	437,ILE	437,ILE
438,SER	438,SER	438,SER	438,SER	438,SER	438,SER	438,SER
439,THR	439,THR	439,THR	439,THR	439,THR	439,THR	439,THR
440,PHE	440,PHE	440,PHE	440,PHE	440,PHE	440,PHE	440,PHE
441,ARG	441,ARG	441,ARG	441,ARG	441,ARG	441,ARG	441,ARG
442,GLY	442,GLY	442,GLY	442,GLY	442,GLY	442,GLY	442,GLY
443,HIS	443,HIS	443,HIS	443,HIS	443,HIS	443,HIS	443,HIS
444,VAL	444,VAL	444,VAL	444,VAL	444,VAL	444,VAL	444,VAL
445,ALA	445,ALA	445,ALA	445,ALA	445,ALA	445,ALA	445,ALA
446,SER	446,SER	446,SER	446,SER	446,SER	446,SER	446,SER
447,VAL	447,VAL	447,VAL	447,VAL	447,VAL	447,VAL	447,VAL
448,TYR	448,TYR	448,TYR	448,TYR	448,TYR	448,TYR	448,TYR
449,GLN	449,GLN	449,GLN	449,GLN	449,GLN	449,GLN	449,GLN
450,VAL	450,VAL	450,VAL	450,VAL	450,VAL	450,VAL	450,VAL
451,ALA	451,ALA	451,ALA	451,ALA	451,ALA	451,ALA	451,ALA
452,TRP	452,TRP	452,TRP	452,TRP	452,TRP	452,TRP	452,TRP
453,SER	453,SER	453,SER	453,SER	453,SER	453,SER	453,SER
454,SER	454,SER	454,SER	454,SER	454,SER	454,SER	454,SER
455,ASP	455,ASP	455,ASP	455,ASP	455,ASP	455,ASP	455,ASP
456,CYS	456,CYS	456,CYS	456,CYS	456,CYS	456,CYS	456,CYS
457,ARG	457,ARG	457,ARG	457,ARG	457,ARG	457,ARG	457,ARG
458,LEU	458,LEU	458,LEU	458,LEU	458,LEU	458,LEU	458,LEU
459,LEU	459,LEU	459,LEU	459,LEU	459,LEU	459,LEU	459,LEU
460,VAL	460,VAL	460,VAL	460,VAL	460,VAL	460,VAL	460,VAL
461,SER	461,SER	461,SER	461,SER	461,SER	461,SER	461,SER
462,CYS	462,CYS	462,CYS	462,CYS	462,CYS	462,CYS	462,CYS
463,SER	463,SER	463,SER	463,SER	463,SER	463,SER	463,SER
464,LYS	464,LYS	464,LYS	464,LYS	464,LYS	464,LYS	464,LYS
465,ASP	465,ASP	465,ASP	465,ASP	465,ASP	465,ASP	465,ASP
466,THR	466,THR	466,THR	466,THR	466,THR	466,THR	466,THR
467,THR	467,THR	467,THR	467,THR	467,THR	467,THR	467,THR
468,LEU	468,LEU	468,LEU	468,LEU	468,LEU	468,LEU	468,LEU
469,LYS	469,LYS	469,LYS	469,LYS	469,LYS	469,LYS	469,LYS
470,VAL	470,VAL	470,VAL	470,VAL	470,VAL	470,VAL	470,VAL
471,TRP	471,TRP	471,TRP	471,TRP	471,TRP	471,TRP	471,TRP
472,ASP	472,ASP	472,ASP	472,ASP	472,ASP	472,ASP	472,ASP
473,VAL	473,VAL	473,VAL	473,VAL	473,VAL	473,VAL	473,VAL
474,ARG	474,ARG	474,ARG	474,ARG	474,ARG	474,ARG	474,ARG
475,THR	475,THR	475,THR	475,THR	475,THR	475,THR	475,THR
476,ARG	476,ARG	476,ARG	476,ARG	476,ARG	476,ARG	476,ARG
477,LYS	477,LYS	477,LYS	477,LYS	477,LYS	477,LYS	477,LYS
478,LEU	478,LEU	478,LEU	478,LEU	478,LEU	478,LEU	478,LEU
479,SER	479,SER	479,SER	479,SER	479,SER	479,SER	479,SER
480,VAL	480,VAL	480,VAL	480,VAL	480,VAL	480,VAL	480,VAL
481,ASP	481,ASP	481,ASP	481,ASP	481,ASP	481,ASP	481,ASP
482,LEU	482,LEU	482,LEU	482,LEU	482,LEU	482,LEU	482,LEU
483,PRO	483,PRO	483,PRO	483,PRO	483,PRO	483,PRO	483,PRO
484,GLY	484,GLY	484,GLY	484,GLY	484,GLY	484,GLY	484,GLY
485,HIS	485,HIS	485,HIS	485,HIS	485,HIS	485,HIS	485,HIS
486,LYS	486,LYS	489,VAL	486,LYS	486,LYS	486,LYS	486,LYS
487,ASP	487,ASP	486,LYS	487,ASP	487,ASP	487,ASP	487,ASP
488,GLU	488,GLU	487,ASP	488,GLU	488,GLU	488,GLU	488,GLU
489,VAL	489,VAL	488,GLU	489,VAL	489,VAL	489,VAL	489,VAL
490,TYR	490,TYR	490,TYR	490,TYR	490,TYR	490,TYR	490,TYR
491,THR	491,THR	491,THR	491,THR	491,THR	491,THR	491,THR
492,VAL	492,VAL	492,VAL	492,VAL	492,VAL	492,VAL	492,VAL
493,ASP	493,ASP	493,ASP	493,ASP	493,ASP	493,ASP	493,ASP
494,TRP	494,TRP	494,TRP	494,TRP	494,TRP	494,TRP	494,TRP
495,SER	495,SER	495,SER	495,SER	495,SER	495,SER	495,SER
496,VAL	496,VAL	496,VAL	496,VAL	496,VAL	496,VAL	496,VAL
497,ASP	497,ASP	497,ASP	497,ASP	497,ASP	497,ASP	497,ASP
498,GLY	498,GLY	498,GLY	498,GLY	498,GLY	498,GLY	498,GLY
499,LYS	499,LYS	499,LYS	499,LYS	499,LYS	499,LYS	499,LYS
500,ARG	500,ARG	500,ARG	500,ARG	500,ARG	500,ARG	500,ARG
501,VAL	501,VAL	501,VAL	501,VAL	501,VAL	501,VAL	501,VAL
502,CYS	502,CYS	502,CYS	502,CYS	502,CYS	502,CYS	502,CYS
503,SER	503,SER	503,SER	503,SER	503,SER	503,SER	503,SER
504,GLY	504,GLY	504,GLY	504,GLY	504,GLY	504,GLY	504,GLY
505,GLY	505,GLY	505,GLY	505,GLY	505,GLY	505,GLY	505,GLY
506,LYS	506,LYS	506,LYS	506,LYS	506,LYS	506,LYS	506,LYS
507,ASP	507,ASP	507,ASP	507,ASP	507,ASP	507,ASP	507,ASP
508,LYS	508,LYS	508,LYS	508,LYS	508,LYS	508,LYS	508,LYS
509,MET	509,MET	509,MET	509,MET	509,MET	509,MET	509,MET
510,VAL	510,VAL	510,VAL	510,VAL	510,VAL	510,VAL	510,VAL
511,ARG	511,ARG	511,ARG	511,ARG	511,ARG	511,ARG	511,ARG
512,LEU	512,LEU	512,LEU	512,LEU	512,LEU	512,LEU	512,LEU
513,TRP	513,TRP	513,TRP	513,TRP	513,TRP	513,TRP	513,TRP
514,THR	514,THR	514,THR	514,THR	514,THR	514,THR	514,THR
515,HIS	515,HIS	515,HIS	515,HIS	515,HIS	515,HIS	515,HIS
