uniprot_isoform	location_id	ENSEMBL ID	uniprot_start	uniprot_end	5v4bB_start	5v4bB_end	2ovrB_start	2ovrB_end	2ovqB_start	2ovqB_end	2ovpB_start	2ovpB_end	5ibkB_start	5ibkB_end
1	4_152411803_152322884_-1	ENSE00003592076	1	167	-	-	-	-	-	-	-	-	-	-
1	4_152411803_152322884_-1	ENSE00003667952	168	195	-	-	-	-	-	-	-	-	-	-
1	4_152411803_152322884_-1	ENSE00000740036	195	242	-	-	-	-	-	-	-	-	-	-
1	4_152411803_152322884_-1	ENSE00001002596	243	287	-	2287	-	2287	-	2287	-	2287	-	287
1	4_152411803_152322884_-1	ENSE00000821077	288	329	2288	2329	2288	2329	2288	2329	2288	2329	288	-
1	4_152411803_152322884_-1	ENSE00003495121	329	374	2329	2374	2329	2374	2329	2374	2329	2374	-	-
1	4_152411803_152322884_-1	ENSE00003629197	375	412	2375	2412	2375	2412	2375	2412	2375	2412	-	-
1	4_152411803_152322884_-1	ENSE00003478818	413	473	2413	2473	2413	2473	2413	2473	2413	2473	-	-
1	4_152411803_152322884_-1	ENSE00000821073	473	548	2473	2548	2473	2548	2473	2548	2473	2548	-	-
1	4_152411803_152322884_-1	ENSE00000821072	549	619	2549	2619	2549	2619	2549	2619	2549	2619	-	-
1	4_152411803_152322884_-1	ENSE00002210390	619	707	2619	-	2619	2707	2619	2707	2619	2707	-	-
2	4_152411803_152322884_-1	ENSE00001200526	1	167	-	-	-	-	-	-	-	-	-	-
2	4_152411803_152322884_-1	ENSE00003667952	168	195	-	-	-	-	-	-	-	-	-	-
2	4_152411803_152322884_-1	ENSE00000740036	195	242	-	-	-	-	-	-	-	-	-	-
2	4_152411803_152322884_-1	ENSE00001002596	243	287	-	2287	-	2287	-	2287	-	2287	-	287
2	4_152411803_152322884_-1	ENSE00000821077	288	329	2288	2329	2288	2329	2288	2329	2288	2329	288	-
2	4_152411803_152322884_-1	ENSE00003495121	329	374	2329	2374	2329	2374	2329	2374	2329	2374	-	-
2	4_152411803_152322884_-1	ENSE00003629197	375	412	2375	2412	2375	2412	2375	2412	2375	2412	-	-
2	4_152411803_152322884_-1	ENSE00003478818	413	473	2413	2473	2413	2473	2413	2473	2413	2473	-	-
2	4_152411803_152322884_-1	ENSE00000821073	473	548	2473	2548	2473	2548	2473	2548	2473	2548	-	-
2	4_152411803_152322884_-1	ENSE00000821072	549	619	2549	2619	2549	2619	2549	2619	2549	2619	-	-
2	4_152411803_152322884_-1	ENSE00003539732	619	707	2619	-	2619	2707	2619	2707	2619	2707	-	-
3	4_152411803_152322884_-1	ENSE00001200526	1	167	-	-	-	-	-	-	-	-	-	-
3	4_152411803_152322884_-1	ENSE00003667952	168	195	-	-	-	-	-	-	-	-	-	-
3	4_152411803_152322884_-1	ENSE00000740036	195	242	-	-	-	-	-	-	-	-	-	-
3	4_152411803_152322884_-1	ENSE00001002596	243	287	-	2287	-	2287	-	2287	-	2287	-	287
3	4_152411803_152322884_-1	ENSE00000821077	288	329	2288	2329	2288	2329	2288	2329	2288	2329	288	-
3	4_152411803_152322884_-1	ENSE00003495121	329	374	2329	2374	2329	2374	2329	2374	2329	2374	-	-
3	4_152411803_152322884_-1	ENSE00003629197	375	412	2375	2412	2375	2412	2375	2412	2375	2412	-	-
3	4_152411803_152322884_-1	ENSE00003478818	413	473	2413	2473	2413	2473	2413	2473	2413	2473	-	-
3	4_152411803_152322884_-1	ENSE00000821073	473	548	2473	2548	2473	2548	2473	2548	2473	2548	-	-
3	4_152411803_152322884_-1	ENSE00000821072	549	619	2549	2619	2549	2619	2549	2619	2549	2619	-	-
3	4_152411803_152322884_-1	ENSE00003539732	619	707	2619	-	2619	2707	2619	2707	2619	2707	-	-
