P15090	3p6cA	3q6lA	3p6gA	3p6fA	3p6eA	3p6dA	3p6hA	3rzyA	5hz8A	5y0fA	5y0gA	5hz6A	5d48A	5edbA	5edcA	5y0xA	5d47A	5d45A	5y12A	2hnxA	6aylA	4nntA	3fr2A	3fr5A	3fr4A	4nnsA	2nnqA	5d4aA	5y13A	1towA	1touA
1,MET	0,MET	1,MET	0,MET	0,MET	0,MET	0,MET	0,MET	0,MET	1,MET	0,MET	0,MET	-	0,MET	1,MET	0,MET	0,MET	0,MET	0,MET	0,MET	0,MET	0,MET	0,MET	-	-	0,MET	0,MET	-	0,MET	0,MET	-	-
2,CYS	1,CYS	2,CYS	1,CYS	1,CYS	1,CYS	1,CYS	1,CYS	1,CYS	2,CYS	1,CYS	1,CYS	-	1,CYS	2,CYS	1,CYS	1,CYS	1,CYS	1,CYS	1,CYS	1,CYS	1,CYS	1,CYS	1,CYS	1,CYS	1,CYS	1,CYS	1,CYS	1,CYS	1,CYS	1,CYS	1,CYS
3,ASP	2,ASP	3,ASP	2,ASP	2,ASP	2,ASP	2,ASP	2,ASP	2,ASP	3,ASP	2,ASP	2,ASP	-	2,ASP	3,ASP	2,ASP	2,ASP	2,ASP	2,ASP	2,ASP	2,ASP	2,ASP	2,ASP	2,ASP	2,ASP	2,ASP	2,ASP	2,ASP	2,ASP	2,ASP	2,ASP	2,ASP
4,ALA	3,ALA	4,ALA	3,ALA	3,ALA	3,ALA	3,ALA	3,ALA	3,ALA	4,ALA	3,ALA	3,ALA	4,ALA	3,ALA	4,ALA	3,ALA	3,ALA	3,ALA	3,ALA	3,ALA	3,ALA	3,ALA	3,ALA	3,ALA	3,ALA	3,ALA	3,ALA	3,ALA	3,ALA	3,ALA	3,ALA	3,ALA
5,PHE	4,PHE	5,PHE	4,PHE	4,PHE	4,PHE	4,PHE	4,PHE	4,PHE	5,PHE	4,PHE	4,PHE	5,PHE	4,PHE	5,PHE	4,PHE	4,PHE	4,PHE	4,PHE	4,PHE	4,PHE	4,PHE	4,PHE	4,PHE	4,PHE	4,PHE	4,PHE	4,PHE	4,PHE	4,PHE	4,PHE	4,PHE
6,VAL	5,VAL	6,VAL	5,VAL	5,VAL	5,VAL	5,VAL	5,VAL	5,VAL	6,VAL	5,VAL	5,VAL	6,VAL	5,VAL	6,VAL	5,VAL	5,VAL	5,VAL	5,VAL	5,VAL	5,VAL	5,VAL	5,VAL	5,VAL	5,VAL	5,VAL	5,VAL	5,VAL	5,VAL	5,VAL	5,VAL	5,VAL
7,GLY	6,GLY	7,GLY	6,GLY	6,GLY	6,GLY	6,GLY	6,GLY	6,GLY	7,GLY	6,GLY	6,GLY	7,GLY	6,GLY	7,GLY	6,GLY	6,GLY	6,GLY	6,GLY	6,GLY	6,GLY	6,GLY	6,GLY	6,GLY	6,GLY	6,GLY	6,GLY	6,GLY	6,GLY	6,GLY	6,GLY	6,GLY
8,THR	7,THR	8,THR	7,THR	7,THR	7,THR	7,THR	7,THR	7,THR	8,THR	7,THR	7,THR	8,THR	7,THR	8,THR	7,THR	7,THR	7,THR	7,THR	7,THR	7,THR	7,THR	7,THR	7,THR	7,THR	7,THR	7,THR	7,THR	7,THR	7,THR	7,THR	7,THR
9,TRP	8,TRP	9,TRP	8,TRP	8,TRP	8,TRP	8,TRP	8,TRP	8,TRP	9,TRP	8,TRP	8,TRP	9,TRP	8,TRP	9,TRP	8,TRP	8,TRP	8,TRP	8,TRP	8,TRP	8,TRP	8,TRP	8,TRP	8,TRP	8,TRP	8,TRP	8,TRP	8,TRP	8,TRP	8,TRP	8,TRP	8,TRP
10,LYS	9,LYS	10,LYS	9,LYS	9,LYS	9,LYS	9,LYS	9,LYS	9,LYS	10,LYS	9,LYS	9,LYS	10,LYS	9,LYS	10,LYS	9,LYS	9,LYS	9,LYS	9,LYS	9,LYS	9,LYS	9,LYS	9,LYS	9,LYS	9,LYS	9,LYS	9,LYS	9,LYS	9,LYS	9,LYS	9,LYS	9,LYS
11,LEU	10,LEU	11,LEU	10,LEU	13,SER	10,LEU	10,LEU	10,LEU	10,LEU	11,LEU	10,LEU	10,LEU	11,LEU	10,LEU	11,LEU	10,LEU	10,LEU	10,LEU	10,LEU	10,LEU	10,LEU	10,LEU	10,LEU	10,LEU	10,LEU	10,LEU	10,LEU	10,LEU	10,LEU	10,LEU	10,LEU	10,LEU
12,VAL	11,VAL	12,VAL	11,VAL	10,LEU	11,VAL	11,VAL	11,VAL	11,VAL	12,VAL	11,VAL	11,VAL	12,VAL	11,VAL	12,VAL	11,VAL	11,VAL	11,VAL	11,VAL	11,VAL	11,VAL	11,VAL	11,VAL	11,VAL	11,VAL	11,VAL	11,VAL	11,VAL	11,VAL	11,VAL	11,VAL	11,VAL
13,SER	12,SER	13,SER	12,SER	11,VAL	12,SER	12,SER	12,SER	12,SER	13,SER	12,SER	12,SER	13,SER	12,SER	13,SER	12,SER	12,SER	12,SER	12,SER	12,SER	12,SER	12,SER	12,SER	12,SER	12,SER	12,SER	12,SER	12,SER	12,SER	12,SER	12,SER	12,SER
14,SER	13,SER	14,SER	13,SER	12,SER	13,SER	13,SER	13,SER	13,SER	14,SER	13,SER	13,SER	14,SER	13,SER	14,SER	13,SER	13,SER	13,SER	13,SER	13,SER	13,SER	13,SER	13,SER	13,SER	13,SER	13,SER	13,SER	13,SER	13,SER	13,SER	13,SER	13,SER
15,GLU	14,GLU	15,GLU	14,GLU	14,GLU	14,GLU	14,GLU	14,GLU	14,GLU	15,GLU	14,GLU	14,GLU	15,GLU	14,GLU	15,GLU	14,GLU	14,GLU	14,GLU	14,GLU	14,GLU	14,GLU	14,GLU	14,GLU	14,GLU	14,GLU	14,GLU	14,GLU	14,GLU	14,GLU	14,GLU	14,GLU	14,GLU
16,ASN	15,ASN	16,ASN	15,ASN	15,ASN	15,ASN	15,ASN	15,ASN	15,ASN	16,ASN	15,ASN	15,ASN	16,ASN	15,ASN	16,ASN	15,ASN	15,ASN	15,ASN	15,ASN	15,ASN	15,ASN	15,ASN	15,ASN	15,ASN	15,ASN	15,ASN	15,ASN	15,ASN	15,ASN	15,ASN	15,ASN	15,ASN
17,PHE	16,PHE	17,PHE	16,PHE	16,PHE	16,PHE	16,PHE	16,PHE	16,PHE	17,PHE	16,PHE	16,PHE	17,PHE	16,PHE	17,PHE	16,PHE	16,PHE	16,PHE	16,PHE	16,PHE	16,PHE	16,PHE	16,PHE	16,PHE	16,PHE	16,PHE	16,PHE	16,PHE	16,PHE	16,PHE	16,PHE	16,PHE
18,ASP	17,ASP	18,ASP	17,ASP	17,ASP	17,ASP	17,ASP	17,ASP	17,ASP	18,ASP	17,ASP	17,ASP	18,ASP	17,ASP	18,ASP	17,ASP	17,ASP	17,ASP	17,ASP	17,ASP	17,ASP	17,ASP	17,ASP	17,ASP	17,ASP	17,ASP	17,ASP	17,ASP	17,ASP	17,ASP	17,ASP	17,ASP
19,ASP	18,ASP	19,ASP	18,ASP	18,ASP	18,ASP	18,ASP	18,ASP	18,ASP	19,ASP	18,ASP	18,ASP	19,ASP	18,ASP	19,ASP	18,ASP	18,ASP	18,ASP	18,ASP	18,ASP	18,ASP	18,ASP	18,ASP	18,ASP	18,ASP	18,ASP	18,ASP	18,ASP	21,LYS	18,ASP	18,ASP	18,ASP
20,TYR	19,TYR	20,TYR	19,TYR	19,TYR	19,TYR	19,TYR	19,TYR	19,TYR	20,TYR	19,TYR	19,TYR	20,TYR	19,TYR	20,TYR	19,TYR	19,TYR	19,TYR	19,TYR	19,TYR	19,TYR	19,TYR	19,TYR	19,TYR	19,TYR	19,TYR	19,TYR	19,TYR	18,ASP	19,TYR	19,TYR	19,TYR
21,MET	20,MET	21,MET	20,MET	20,MET	20,MET	20,MET	20,MET	20,MET	21,MET	20,MET	20,MET	21,MET	20,MET	21,MET	20,MET	20,MET	20,MET	20,MET	20,MET	20,MET	20,MET	20,MET	20,MET	20,MET	20,MET	20,MET	20,MET	19,TYR	20,MET	20,MET	20,MET
22,LYS	21,LYS	22,LYS	21,LYS	21,LYS	21,LYS	21,LYS	21,LYS	21,LYS	22,LYS	21,LYS	21,LYS	22,LYS	21,LYS	22,LYS	21,LYS	21,LYS	21,LYS	21,LYS	21,LYS	21,LYS	21,LYS	21,LYS	21,LYS	21,LYS	21,LYS	21,LYS	21,LYS	20,MET	21,LYS	21,LYS	21,LYS
23,GLU	22,GLU	23,GLU	22,GLU	22,GLU	22,GLU	22,GLU	22,GLU	22,GLU	23,GLU	22,GLU	22,GLU	23,GLU	22,GLU	23,GLU	22,GLU	22,GLU	22,GLU	22,GLU	22,GLU	22,GLU	22,GLU	22,GLU	22,GLU	22,GLU	22,GLU	22,GLU	22,GLU	22,GLU	22,GLU	22,GLU	22,GLU
24,VAL	23,VAL	24,VAL	23,VAL	23,VAL	23,VAL	23,VAL	23,VAL	23,VAL	24,LEU	23,VAL	23,VAL	24,VAL	23,VAL	24,VAL	23,VAL	23,VAL	23,VAL	23,VAL	23,VAL	23,VAL	23,VAL	23,VAL	23,VAL	23,VAL	23,VAL	23,VAL	23,VAL	23,VAL	23,VAL	23,VAL	23,VAL
25,GLY	24,GLY	25,GLY	24,GLY	24,GLY	24,GLY	24,GLY	24,GLY	24,GLY	25,GLY	24,GLY	24,GLY	25,GLY	24,GLY	25,GLY	24,GLY	24,GLY	24,GLY	24,GLY	24,GLY	24,GLY	24,GLY	24,GLY	24,GLY	24,GLY	24,GLY	24,GLY	24,GLY	24,GLY	24,GLY	24,GLY	24,GLY
26,VAL	25,VAL	26,VAL	25,VAL	25,VAL	25,VAL	25,VAL	25,VAL	25,VAL	26,VAL	25,VAL	25,VAL	26,VAL	25,VAL	26,VAL	25,VAL	25,VAL	25,VAL	25,VAL	25,VAL	25,VAL	25,VAL	25,VAL	25,VAL	25,VAL	25,VAL	25,VAL	25,VAL	25,VAL	25,VAL	25,VAL	25,VAL
27,GLY	26,GLY	27,GLY	26,GLY	26,GLY	26,GLY	26,GLY	26,GLY	26,GLY	27,GLY	26,GLY	26,GLY	27,GLY	26,GLY	27,GLY	26,GLY	26,GLY	26,GLY	26,GLY	26,GLY	26,GLY	26,GLY	26,GLY	26,GLY	26,GLY	26,GLY	26,GLY	26,GLY	26,GLY	26,GLY	26,GLY	26,GLY
28,PHE	27,PHE	28,PHE	27,PHE	27,PHE	27,PHE	27,PHE	27,PHE	27,PHE	28,PHE	27,PHE	27,PHE	28,PHE	27,PHE	28,PHE	27,PHE	27,PHE	27,PHE	27,PHE	27,PHE	27,PHE	27,PHE	27,PHE	27,PHE	27,PHE	27,PHE	27,PHE	27,PHE	27,PHE	27,PHE	27,PHE	27,PHE
29,ALA	28,ALA	29,ALA	28,ALA	28,ALA	28,ALA	28,ALA	28,ALA	28,ALA	29,ALA	28,ALA	28,ALA	29,ALA	28,ALA	29,ALA	28,ALA	28,ALA	28,ALA	28,ALA	28,ALA	28,ALA	28,ALA	28,ALA	28,ALA	28,ALA	28,ALA	28,ALA	28,ALA	28,ALA	28,ALA	28,ALA	28,ALA
30,THR	29,THR	30,THR	29,THR	29,THR	29,THR	29,THR	29,THR	29,THR	30,THR	29,THR	29,THR	30,THR	29,THR	30,THR	29,THR	29,THR	29,THR	29,THR	29,THR	29,THR	29,THR	29,THR	29,THR	29,THR	29,THR	29,THR	29,THR	29,THR	29,THR	29,THR	29,THR
31,ARG	30,ARG	31,ARG	30,ARG	30,ARG	30,ARG	30,ARG	30,ARG	30,ARG	31,ARG	30,ARG	30,ARG	31,ARG	30,ARG	31,ARG	30,ARG	30,ARG	30,ARG	30,ARG	30,ARG	30,ARG	30,ARG	30,ARG	30,ARG	30,ARG	30,ARG	30,ARG	30,ARG	30,ARG	30,ARG	30,ARG	30,ARG
32,LYS	31,LYS	32,LYS	31,LYS	31,LYS	31,LYS	31,LYS	31,LYS	31,LYS	32,LYS	31,LYS	31,LYS	32,LYS	31,LYS	32,LYS	31,LYS	31,LYS	31,LYS	31,LYS	31,LYS	31,LYS	31,LYS	31,LYS	31,LYS	31,LYS	31,LYS	31,LYS	31,LYS	31,LYS	31,LYS	31,LYS	31,LYS
33,VAL	32,VAL	33,VAL	32,VAL	32,VAL	32,VAL	32,VAL	32,VAL	32,VAL	33,VAL	32,VAL	32,VAL	33,VAL	32,VAL	33,VAL	32,VAL	32,VAL	32,VAL	32,VAL	32,VAL	32,VAL	32,VAL	32,VAL	32,VAL	32,VAL	32,VAL	32,VAL	32,VAL	32,VAL	32,VAL	32,VAL	32,VAL
34,ALA	33,ALA	34,ALA	33,ALA	33,ALA	33,ALA	33,ALA	33,ALA	33,ALA	34,ALA	33,ALA	33,ALA	34,ALA	33,ALA	34,ALA	33,ALA	33,ALA	33,ALA	33,ALA	33,ALA	33,ALA	33,ALA	33,ALA	33,ALA	33,ALA	33,ALA	33,ALA	33,ALA	33,ALA	33,ALA	33,ALA	33,ALA
35,GLY	34,GLY	35,GLY	34,GLY	37,LYS	34,GLY	34,GLY	34,GLY	34,GLY	35,GLY	34,GLY	34,GLY	35,GLY	34,GLY	35,GLY	34,GLY	34,GLY	34,GLY	34,GLY	34,GLY	34,GLY	34,GLY	34,GLY	34,GLY	34,GLY	34,GLY	34,GLY	34,GLY	34,GLY	34,GLY	34,GLY	34,GLY
36,MET	35,MET	36,MET	35,MET	34,GLY	35,MET	35,MET	35,MET	35,MET	36,MET	35,MET	35,MET	36,MET	35,MET	36,MET	35,MET	35,MET	35,MET	35,MET	35,MET	35,MET	35,MET	35,MET	35,MET	35,MET	35,MET	35,MET	35,MET	35,MET	35,MET	35,MET	35,MET
37,ALA	36,ALA	37,ALA	36,ALA	35,MET	36,ALA	36,ALA	36,ALA	36,ALA	37,ALA	36,ALA	36,ALA	37,ALA	36,ALA	37,ALA	36,ALA	36,ALA	36,ALA	36,ALA	36,ALA	36,ALA	36,ALA	36,ALA	36,ALA	36,ALA	36,ALA	36,ALA	36,ALA	36,ALA	36,ALA	36,ALA	36,ALA
38,LYS	37,LYS	38,LYS	37,LYS	36,ALA	37,LYS	37,LYS	37,LYS	37,LYS	38,LYS	37,LYS	37,LYS	38,LYS	37,LYS	38,LYS	37,LYS	37,LYS	37,LYS	37,LYS	37,LYS	37,LYS	37,LYS	37,LYS	37,LYS	37,LYS	37,LYS	37,LYS	37,LYS	37,LYS	37,LYS	37,LYS	37,LYS
39,PRO	38,PRO	39,PRO	38,PRO	38,PRO	38,PRO	38,PRO	38,PRO	38,PRO	39,PRO	38,PRO	38,PRO	39,PRO	38,PRO	39,PRO	38,PRO	38,PRO	38,PRO	38,PRO	38,PRO	38,PRO	38,PRO	38,PRO	38,PRO	38,PRO	38,PRO	38,PRO	38,PRO	38,PRO	38,PRO	38,PRO	38,PRO
40,ASN	39,ASN	40,ASN	39,ASN	39,ASN	39,ASN	39,ASN	39,ASN	39,ASN	40,ASN	39,ASN	39,ASN	40,ASN	39,ASN	40,ASN	39,ASN	39,ASN	39,ASN	39,ASN	39,ASN	39,ASN	39,ASN	39,ASN	39,ASN	39,ASN	39,ASN	39,ASN	39,ASN	39,ASN	39,ASN	39,ASN	39,ASN
41,MET	40,MET	41,MET	40,MET	40,MET	40,MET	40,MET	40,MET	40,MET	41,THR	40,MET	40,MET	41,MET	40,MET	41,MET	40,MET	40,MET	40,MET	40,MET	40,MET	40,MET	40,MET	40,MET	40,MET	40,MET	40,MET	40,MET	40,MET	40,MET	40,MET	40,MET	40,MET
42,ILE	41,ILE	42,ILE	41,ILE	41,ILE	41,ILE	41,ILE	41,ILE	41,ILE	42,ILE	41,ILE	41,ILE	42,ILE	41,ILE	42,ILE	41,ILE	41,ILE	41,ILE	41,ILE	41,ILE	41,ILE	41,ILE	41,ILE	41,ILE	41,ILE	41,ILE	41,ILE	41,ILE	41,ILE	41,ILE	41,ILE	41,ILE
43,ILE	42,ILE	43,ILE	42,ILE	42,ILE	42,ILE	42,ILE	42,ILE	42,ILE	43,ILE	42,ILE	42,ILE	43,ILE	42,ILE	43,ILE	42,ILE	42,ILE	42,ILE	42,ILE	42,ILE	42,ILE	42,ILE	42,ILE	42,ILE	42,ILE	42,ILE	42,ILE	42,ILE	42,ILE	42,ILE	42,ILE	42,ILE
44,SER	43,SER	44,SER	43,SER	43,SER	43,SER	43,SER	43,SER	43,SER	44,SER	43,SER	43,SER	44,SER	43,SER	44,SER	43,SER	43,SER	43,SER	43,SER	43,SER	43,SER	43,SER	43,SER	43,SER	43,SER	43,SER	43,SER	43,SER	43,SER	43,SER	43,SER	43,SER
45,VAL	44,VAL	45,VAL	44,VAL	44,VAL	44,VAL	44,VAL	44,VAL	44,VAL	45,VAL	44,VAL	44,VAL	45,VAL	44,VAL	45,VAL	44,VAL	44,VAL	44,VAL	44,VAL	44,VAL	44,VAL	44,VAL	44,VAL	44,VAL	44,VAL	44,VAL	44,VAL	44,VAL	44,VAL	44,VAL	44,VAL	44,VAL
46,ASN	45,ASN	46,ASN	45,ASN	45,ASN	45,ASN	45,ASN	45,ASN	45,ASN	46,ASN	45,ASN	45,ASN	46,ASN	45,ASN	46,ASN	45,ASN	45,ASN	45,ASN	45,ASN	45,ASN	45,ASN	45,ASN	45,ASN	45,ASN	45,ASN	45,ASN	45,ASN	45,ASN	45,ASN	45,ASN	45,ASN	45,ASN
47,GLY	46,GLY	47,GLY	46,GLY	46,GLY	46,GLY	46,GLY	46,GLY	46,GLY	47,GLY	46,GLY	46,GLY	47,GLY	46,GLY	47,GLY	46,GLY	46,GLY	46,GLY	46,GLY	46,GLY	46,GLY	46,GLY	46,GLY	46,GLY	46,GLY	46,GLY	46,GLY	46,GLY	46,GLY	46,GLY	46,GLY	46,GLY
48,ASP	47,ASP	51,THR	47,ASP	47,ASP	47,ASP	47,ASP	47,ASP	47,ASP	48,ASP	47,ASP	47,ASP	48,ASP	47,ASP	48,ASP	47,ASP	47,ASP	47,ASP	47,ASP	47,ASP	47,ASP	47,ASP	47,ASP	47,ASP	47,ASP	47,ASP	47,ASP	47,ASP	47,ASP	47,ASP	47,ASP	47,ASP
49,VAL	48,VAL	48,ASP	48,VAL	48,VAL	48,VAL	48,VAL	48,VAL	48,VAL	49,VAL	48,VAL	48,VAL	49,VAL	48,VAL	49,VAL	48,VAL	48,VAL	48,VAL	48,VAL	48,VAL	48,VAL	48,VAL	48,VAL	48,VAL	48,VAL	48,VAL	48,VAL	48,VAL	48,VAL	48,VAL	48,VAL	48,VAL
50,ILE	49,ILE	49,VAL	49,ILE	49,ILE	49,ILE	49,ILE	49,ILE	49,ILE	50,ILE	49,ILE	49,ILE	50,ILE	49,ILE	50,ILE	49,ILE	49,ILE	49,ILE	49,ILE	49,ILE	49,ILE	49,ILE	49,ILE	49,ILE	49,ILE	49,ILE	49,ILE	49,ILE	49,ILE	49,ILE	49,ILE	49,ILE
51,THR	50,THR	50,ILE	50,THR	50,THR	50,THR	50,THR	50,THR	50,THR	51,THR	50,THR	50,THR	51,THR	50,THR	51,THR	50,THR	50,THR	50,THR	50,THR	50,THR	50,THR	50,THR	50,THR	50,THR	50,THR	50,THR	50,THR	50,THR	50,THR	50,THR	50,THR	50,THR
52,ILE	51,ILE	52,ILE	51,ILE	51,ILE	51,ILE	51,ILE	51,ILE	51,ILE	52,LEU	51,ILE	51,ILE	52,ILE	51,ILE	52,ILE	51,ILE	51,ILE	51,ILE	51,ILE	51,ILE	51,ILE	51,ILE	51,ILE	51,ILE	51,ILE	51,ILE	51,ILE	51,ILE	51,ILE	51,ILE	51,ILE	51,ILE
53,LYS	52,LYS	53,LYS	52,LYS	52,LYS	52,LYS	52,LYS	52,LYS	52,LYS	53,LYS	52,LYS	52,LYS	53,LYS	52,LYS	53,LYS	52,LYS	52,LYS	52,LYS	52,LYS	52,LYS	52,LYS	52,LYS	52,LYS	52,LYS	52,LYS	52,LYS	52,LYS	52,LYS	52,LYS	52,LYS	52,LYS	52,LYS
54,SER	53,SER	54,SER	53,SER	53,SER	53,SER	53,SER	53,SER	53,SER	54,THR	53,SER	53,SER	54,SER	53,SER	54,SER	53,SER	53,SER	53,SER	53,SER	53,SER	53,SER	53,SER	53,SER	53,SER	53,SER	53,SER	53,SER	53,SER	53,SER	53,SER	53,SER	53,SER
55,GLU	54,GLU	55,GLU	54,GLU	54,GLU	54,GLU	54,GLU	54,GLU	54,GLU	55,GLU	54,GLU	54,GLU	55,GLU	54,GLU	55,GLU	54,GLU	54,GLU	54,GLU	54,GLU	54,GLU	54,GLU	54,GLU	54,GLU	54,GLU	54,GLU	54,GLU	54,GLU	54,GLU	54,GLU	54,GLU	54,GLU	54,GLU
56,SER	55,SER	56,SER	55,SER	55,SER	55,SER	55,SER	55,SER	55,SER	56,SER	55,SER	55,SER	56,SER	55,SER	56,SER	58,LYS	55,SER	55,SER	55,SER	55,SER	55,SER	55,SER	55,SER	55,SER	55,SER	55,SER	55,SER	55,SER	55,SER	55,SER	55,SER	55,SER
57,THR	56,THR	57,THR	56,THR	56,THR	56,THR	56,THR	56,THR	56,THR	57,THR	56,THR	56,THR	57,THR	56,THR	57,THR	55,SER	56,THR	56,THR	56,THR	56,THR	56,THR	56,THR	56,THR	56,THR	56,THR	56,THR	56,THR	56,THR	56,THR	56,THR	56,THR	56,THR
58,PHE	57,PHE	58,PHE	57,PHE	57,PHE	57,PHE	57,PHE	57,PHE	57,PHE	58,PHE	57,PHE	57,PHE	58,PHE	57,PHE	58,PHE	56,THR	57,PHE	57,PHE	57,PHE	57,PHE	57,PHE	57,PHE	57,PHE	57,PHE	57,PHE	57,PHE	57,PHE	57,PHE	57,PHE	57,PHE	57,PHE	57,PHE
59,LYS	58,LYS	59,LYS	58,LYS	58,LYS	58,LYS	58,LYS	58,LYS	58,LYS	59,LYS	58,LYS	58,LYS	59,LYS	58,LYS	59,LYS	57,PHE	58,LYS	58,LYS	58,LYS	58,LYS	58,LYS	58,LYS	58,LYS	58,LYS	58,LYS	58,LYS	58,LYS	58,LYS	58,LYS	58,LYS	58,LYS	58,LYS
60,ASN	59,ASN	60,ASN	59,ASN	59,ASN	59,ASN	59,ASN	59,ASN	59,ASN	60,ASN	59,ASN	59,ASN	60,ASN	59,ASN	60,ASN	59,ASN	59,ASN	59,ASN	59,ASN	59,ASN	59,ASN	59,ASN	59,ASN	59,ASN	59,ASN	59,ASN	59,ASN	59,ASN	59,ASN	59,ASN	59,ASN	59,ASN
61,THR	60,THR	61,THR	60,THR	60,THR	60,THR	60,THR	60,THR	60,THR	61,THR	60,THR	60,THR	61,THR	60,THR	61,THR	60,THR	60,THR	60,THR	60,THR	60,THR	60,THR	60,THR	60,THR	60,THR	60,THR	60,THR	60,THR	60,THR	60,THR	60,THR	60,THR	60,THR
62,GLU	61,GLU	62,GLU	61,GLU	61,GLU	61,GLU	61,GLU	61,GLU	61,GLU	62,GLU	61,GLU	61,GLU	62,GLU	61,GLU	62,GLU	61,GLU	61,GLU	61,GLU	61,GLU	61,GLU	61,GLU	61,GLU	61,GLU	61,GLU	61,GLU	61,GLU	61,GLU	61,GLU	61,GLU	61,GLU	61,GLU	61,GLU
63,ILE	62,ILE	63,ILE	62,ILE	62,ILE	62,ILE	62,ILE	62,ILE	62,ILE	63,ILE	62,ILE	62,ILE	63,ILE	62,ILE	63,ILE	62,ILE	62,ILE	62,ILE	62,ILE	62,ILE	62,ILE	62,ILE	62,ILE	62,ILE	62,ILE	62,ILE	62,ILE	62,ILE	62,ILE	62,ILE	62,ILE	62,ILE
64,SER	63,SER	64,SER	63,SER	63,SER	63,SER	63,SER	63,SER	63,SER	64,SER	63,SER	63,SER	64,SER	63,SER	64,SER	63,SER	63,SER	63,SER	63,SER	63,SER	63,SER	63,SER	63,SER	63,SER	63,SER	63,SER	63,SER	63,SER	63,SER	63,SER	63,SER	63,SER
65,PHE	64,PHE	65,PHE	64,PHE	64,PHE	64,PHE	64,PHE	64,PHE	64,PHE	65,PHE	64,PHE	64,PHE	65,PHE	64,PHE	65,PHE	64,PHE	64,PHE	64,PHE	64,PHE	64,PHE	64,PHE	64,PHE	64,PHE	64,PHE	64,PHE	64,PHE	64,PHE	64,PHE	64,PHE	64,PHE	64,PHE	64,PHE
66,ILE	65,ILE	66,ILE	65,ILE	65,ILE	65,ILE	65,ILE	65,ILE	65,ILE	66,ILE	65,ILE	65,ILE	66,ILE	65,ILE	66,ILE	65,ILE	65,ILE	65,ILE	65,ILE	65,ILE	65,ILE	65,ILE	65,ILE	65,ILE	65,ILE	65,ILE	65,ILE	65,ILE	65,ILE	65,ILE	65,ILE	65,ILE
67,LEU	66,LEU	67,LEU	66,LEU	66,LEU	66,LEU	66,LEU	66,LEU	66,LEU	67,LEU	66,LEU	66,LEU	67,LEU	66,LEU	67,LEU	66,LEU	66,LEU	66,LEU	66,LEU	66,LEU	66,LEU	66,LEU	66,LEU	66,LEU	66,LEU	66,LEU	66,LEU	66,LEU	66,LEU	66,LEU	66,LEU	66,LEU
68,GLY	67,GLY	68,GLY	67,GLY	67,GLY	67,GLY	67,GLY	67,GLY	67,GLY	68,GLY	67,GLY	67,GLY	68,GLY	67,GLY	68,GLY	67,GLY	67,GLY	67,GLY	67,GLY	67,GLY	67,GLY	67,GLY	67,GLY	67,GLY	67,GLY	67,GLY	67,GLY	67,GLY	67,GLY	67,GLY	67,GLY	67,GLY
69,GLN	68,GLN	69,GLN	68,GLN	68,GLN	68,GLN	68,GLN	68,GLN	68,GLN	69,GLN	68,GLN	68,GLN	69,GLN	68,GLN	69,GLN	68,GLN	68,GLN	68,GLN	68,GLN	68,GLN	68,GLN	68,GLN	68,GLN	68,GLN	68,GLN	68,GLN	68,GLN	68,GLN	68,GLN	68,GLN	68,GLN	68,GLN
70,GLU	69,GLU	70,GLU	69,GLU	69,GLU	69,GLU	69,GLU	69,GLU	69,GLU	70,GLU	69,GLU	69,GLU	70,GLU	69,GLU	70,GLU	69,GLU	69,GLU	69,GLU	69,GLU	69,GLU	69,GLU	69,GLU	69,GLU	69,GLU	69,GLU	69,GLU	69,GLU	69,GLU	69,GLU	69,GLU	69,GLU	69,GLU
71,PHE	70,PHE	71,PHE	70,PHE	70,PHE	70,PHE	70,PHE	70,PHE	70,PHE	71,PHE	70,PHE	70,PHE	71,PHE	70,PHE	71,PHE	70,PHE	70,PHE	70,PHE	70,PHE	70,PHE	70,PHE	70,PHE	70,PHE	70,PHE	70,PHE	70,PHE	70,PHE	70,PHE	70,PHE	70,PHE	70,PHE	70,PHE
72,ASP	71,ASP	72,ASP	71,ASP	71,ASP	71,ASP	71,ASP	71,ASP	71,ASP	72,ASP	71,ASP	71,ASP	72,ASP	71,ASP	72,ASP	71,ASP	71,ASP	71,ASP	71,ASP	71,ASP	71,ASP	71,ASP	71,ASP	71,ASP	71,ASP	71,ASP	71,ASP	71,ASP	71,ASP	71,ASP	71,ASP	71,ASP
73,GLU	72,GLU	73,GLU	72,GLU	72,GLU	72,GLU	72,GLU	72,GLU	72,GLU	73,GLU	72,GLU	72,GLU	73,GLU	72,GLU	73,GLU	72,GLU	72,GLU	72,GLU	72,GLU	72,GLU	72,GLU	72,GLU	72,GLU	72,GLU	72,GLU	72,GLU	72,GLU	72,GLU	72,GLU	72,GLU	72,GLU	72,GLU
74,VAL	73,VAL	74,VAL	73,VAL	73,VAL	73,VAL	73,VAL	73,VAL	73,VAL	74,VAL	73,VAL	73,VAL	74,VAL	73,VAL	74,VAL	73,VAL	73,VAL	73,VAL	73,VAL	73,VAL	73,VAL	73,VAL	73,VAL	73,VAL	73,VAL	73,VAL	73,VAL	73,VAL	73,VAL	73,VAL	73,VAL	73,VAL
75,THR	74,THR	75,THR	74,THR	74,THR	74,THR	74,THR	74,THR	74,THR	75,THR	74,THR	74,THR	75,THR	74,THR	75,THR	74,THR	74,THR	74,THR	74,THR	74,THR	74,THR	74,THR	74,THR	74,THR	74,THR	74,THR	74,THR	74,THR	77,ASP	74,THR	74,THR	74,THR
76,ALA	75,ALA	76,ALA	75,ALA	75,ALA	75,ALA	75,ALA	75,ALA	75,ALA	76,ALA	75,ALA	75,ALA	76,ALA	75,ALA	76,ALA	75,ALA	75,ALA	75,ALA	75,ALA	75,ALA	75,ALA	75,ALA	75,ALA	75,ALA	75,ALA	75,ALA	75,ALA	75,ALA	74,THR	75,ALA	75,ALA	75,ALA
77,ASP	76,ASP	77,ASP	76,ASP	76,ASP	76,ASP	76,ASP	76,ASP	76,ASP	77,ASP	76,ASP	76,ASP	77,ASP	76,ASP	77,ASP	76,ASP	76,ASP	76,ASP	76,ASP	76,ASP	76,ASP	76,ASP	76,ASP	76,ASP	76,ASP	76,ASP	76,ASP	76,ASP	75,ALA	76,ASP	76,ASP	76,ASP
78,ASP	77,ASP	78,ASP	77,ASP	77,ASP	77,ASP	77,ASP	77,ASP	77,ASP	78,ASP	77,ASP	77,ASP	78,ASP	77,ASP	78,ASP	77,ASP	77,ASP	77,ASP	77,ASP	77,ASP	77,ASP	77,ASP	77,ASP	77,ASP	77,ASP	77,ASP	77,ASP	77,ASP	76,ASP	77,ASP	77,ASP	77,ASP
79,ARG	78,ARG	79,ARG	78,ARG	78,ARG	78,ARG	78,ARG	78,ARG	78,ARG	79,ARG	78,ARG	78,ARG	79,ARG	78,ARG	79,ARG	78,ARG	78,ARG	78,ARG	78,ARG	78,ARG	78,ARG	78,ARG	78,ARG	78,ARG	78,ARG	78,ARG	78,ARG	78,ARG	78,ARG	78,ARG	78,ARG	78,ARG
80,LYS	79,LYS	80,LYS	79,LYS	79,LYS	79,LYS	79,LYS	79,LYS	79,LYS	80,LYS	79,LYS	79,LYS	80,LYS	79,LYS	80,LYS	79,LYS	79,LYS	79,LYS	79,LYS	79,LYS	79,LYS	79,LYS	79,LYS	79,LYS	79,LYS	79,LYS	79,LYS	79,LYS	79,LYS	79,LYS	79,LYS	79,LYS
81,VAL	80,VAL	81,VAL	80,VAL	80,VAL	80,VAL	80,VAL	80,VAL	80,VAL	81,VAL	80,VAL	80,VAL	81,VAL	80,VAL	81,VAL	80,VAL	80,VAL	80,VAL	80,VAL	80,VAL	80,VAL	80,VAL	80,VAL	80,VAL	80,VAL	80,VAL	80,VAL	80,VAL	80,VAL	80,VAL	80,VAL	80,VAL
82,LYS	81,LYS	82,LYS	81,LYS	81,LYS	81,LYS	81,LYS	81,LYS	81,LYS	82,LYS	81,LYS	81,LYS	82,LYS	81,LYS	82,LYS	81,LYS	81,LYS	81,LYS	81,LYS	81,LYS	81,LYS	81,LYS	81,LYS	81,LYS	81,LYS	81,LYS	81,LYS	81,LYS	81,LYS	81,LYS	81,LYS	81,LYS
83,SER	82,SER	83,SER	82,SER	82,SER	82,SER	82,SER	82,SER	82,SER	83,SER	82,SER	82,SER	83,SER	82,SER	83,SER	82,SER	82,SER	82,SER	82,SER	82,SER	82,SER	82,SER	82,SER	82,SER	82,SER	82,SER	82,SER	82,SER	82,SER	82,SER	82,SER	82,SER
84,THR	83,THR	84,THR	83,THR	83,THR	83,THR	83,THR	83,THR	83,THR	84,THR	83,THR	83,THR	84,THR	83,THR	84,THR	83,THR	83,THR	83,THR	83,THR	83,THR	83,THR	83,THR	83,THR	83,THR	83,THR	83,THR	83,THR	83,THR	83,THR	83,THR	83,THR	83,THR
85,ILE	84,ILE	85,ILE	84,ILE	84,ILE	84,ILE	84,ILE	84,ILE	84,ILE	85,ILE	84,ILE	84,ILE	85,ILE	84,ILE	85,ILE	84,ILE	84,ILE	84,ILE	84,ILE	84,ILE	84,ILE	84,ILE	84,ILE	84,ILE	84,ILE	84,ILE	84,ILE	84,ILE	84,ILE	84,ILE	84,ILE	84,ILE
86,THR	85,THR	86,THR	85,THR	85,THR	85,THR	85,THR	85,THR	85,THR	86,THR	85,THR	85,THR	86,THR	85,THR	86,THR	85,THR	85,THR	85,THR	85,THR	85,THR	85,THR	85,THR	85,THR	85,THR	85,THR	85,THR	85,THR	85,THR	85,THR	85,THR	85,THR	85,THR
87,LEU	86,LEU	87,LEU	86,LEU	86,LEU	86,LEU	86,LEU	86,LEU	86,LEU	87,LEU	86,LEU	86,LEU	87,LEU	86,LEU	87,LEU	86,LEU	86,LEU	86,LEU	86,LEU	86,LEU	86,LEU	86,LEU	86,LEU	86,LEU	86,LEU	86,LEU	86,LEU	86,LEU	86,LEU	86,LEU	86,LEU	86,LEU
88,ASP	87,ASP	88,ASP	87,ASP	87,ASP	87,ASP	87,ASP	87,ASP	87,ASP	88,ASP	87,ASP	87,ASP	88,ASP	87,ASP	88,ASP	87,ASP	87,ASP	87,ASP	87,ASP	87,ASP	87,ASP	87,ASP	87,ASP	87,ASP	87,ASP	87,ASP	87,ASP	87,ASP	87,ASP	87,ASP	87,ASP	87,ASP
89,GLY	88,GLY	89,GLY	88,GLY	88,GLY	88,GLY	88,GLY	88,GLY	88,GLY	89,GLY	88,GLY	88,GLY	89,GLY	88,GLY	89,GLY	88,GLY	88,GLY	88,GLY	88,GLY	88,GLY	88,GLY	88,GLY	88,GLY	88,GLY	88,GLY	88,GLY	88,GLY	88,GLY	88,GLY	88,GLY	88,GLY	88,GLY
90,GLY	89,GLY	90,GLY	89,GLY	89,GLY	89,GLY	89,GLY	89,GLY	89,GLY	90,GLY	89,GLY	89,GLY	90,GLY	89,GLY	90,GLY	89,GLY	89,GLY	89,GLY	89,GLY	89,GLY	89,GLY	89,GLY	89,GLY	89,GLY	89,GLY	89,GLY	89,GLY	89,GLY	89,GLY	89,GLY	89,GLY	89,GLY
91,VAL	90,VAL	91,VAL	90,VAL	90,VAL	90,VAL	90,VAL	90,VAL	90,VAL	91,VAL	90,VAL	90,VAL	91,VAL	90,VAL	91,VAL	90,VAL	90,VAL	90,VAL	90,VAL	90,VAL	90,VAL	90,VAL	90,VAL	90,VAL	90,VAL	90,VAL	90,VAL	90,VAL	90,VAL	90,VAL	90,VAL	90,VAL
92,LEU	91,LEU	92,LEU	91,LEU	91,LEU	91,LEU	91,LEU	91,LEU	91,LEU	92,LEU	91,LEU	91,LEU	92,LEU	91,LEU	92,LEU	91,LEU	91,LEU	91,LEU	91,LEU	91,LEU	91,LEU	91,LEU	91,LEU	91,LEU	91,LEU	91,LEU	91,LEU	91,LEU	91,LEU	91,LEU	91,LEU	91,LEU
93,VAL	92,VAL	93,VAL	92,VAL	92,VAL	92,VAL	92,VAL	92,VAL	92,VAL	93,VAL	92,VAL	92,VAL	93,VAL	92,VAL	93,VAL	92,VAL	92,VAL	92,VAL	92,VAL	92,VAL	92,VAL	92,VAL	92,VAL	92,VAL	92,VAL	92,VAL	92,VAL	92,VAL	92,VAL	92,VAL	92,VAL	92,VAL
94,HIS	93,HIS	94,HIS	93,HIS	93,HIS	93,HIS	93,HIS	93,HIS	93,HIS	94,HIS	93,HIS	93,HIS	94,HIS	93,HIS	94,HIS	93,HIS	93,HIS	93,HIS	93,HIS	93,HIS	93,HIS	93,HIS	93,HIS	93,HIS	93,HIS	93,HIS	93,HIS	93,HIS	93,HIS	93,HIS	93,HIS	93,HIS
95,VAL	94,VAL	95,VAL	94,VAL	94,VAL	94,VAL	94,VAL	94,VAL	94,VAL	95,VAL	94,VAL	94,VAL	95,VAL	94,VAL	95,VAL	94,VAL	94,VAL	94,VAL	94,VAL	94,VAL	94,VAL	94,VAL	94,VAL	94,VAL	94,VAL	94,VAL	94,VAL	94,VAL	94,VAL	94,VAL	94,VAL	94,VAL
96,GLN	95,GLN	96,GLN	95,GLN	95,GLN	95,GLN	95,GLN	95,GLN	95,GLN	96,GLN	95,GLN	95,GLN	96,GLN	95,GLN	96,GLN	95,GLN	95,GLN	95,GLN	95,GLN	95,GLN	95,GLN	95,GLN	95,GLN	95,GLN	95,GLN	95,GLN	95,GLN	95,GLN	95,GLN	95,GLN	95,GLN	95,GLN
97,LYS	96,LYS	97,LYS	96,LYS	96,LYS	96,LYS	96,LYS	96,LYS	96,LYS	97,LYS	96,LYS	96,LYS	97,LYS	96,LYS	97,LYS	96,LYS	96,LYS	96,LYS	96,LYS	96,LYS	96,LYS	96,LYS	96,LYS	96,LYS	96,LYS	96,LYS	96,LYS	96,LYS	96,LYS	96,LYS	96,LYS	96,LYS
98,TRP	97,TRP	98,TRP	97,TRP	97,TRP	97,TRP	97,TRP	97,TRP	97,TRP	98,TRP	97,TRP	97,TRP	98,TRP	97,TRP	98,TRP	97,TRP	97,TRP	97,TRP	97,TRP	97,TRP	97,TRP	97,TRP	97,TRP	97,TRP	97,TRP	97,TRP	97,TRP	97,TRP	97,TRP	97,TRP	97,TRP	97,TRP
99,ASP	98,ASP	99,ASP	98,ASP	98,ASP	98,ASP	98,ASP	98,ASP	98,ASP	99,ASP	98,ASP	98,ASP	99,ASP	98,ASP	99,ASP	98,ASP	98,ASP	98,ASP	98,ASP	98,ASP	98,ASP	98,ASP	98,ASP	98,ASP	98,ASP	98,ASP	98,ASP	98,ASP	98,ASP	98,ASP	98,ASP	98,ASP
100,GLY	99,GLY	100,GLY	99,GLY	99,GLY	99,GLY	99,GLY	99,GLY	99,GLY	100,GLY	99,GLY	99,GLY	100,GLY	99,GLY	100,GLY	99,GLY	99,GLY	99,GLY	99,GLY	99,GLY	99,GLY	99,GLY	99,GLY	99,GLY	99,GLY	99,GLY	99,GLY	99,GLY	99,GLY	99,GLY	99,GLY	99,GLY
101,LYS	100,LYS	101,LYS	100,LYS	100,LYS	100,LYS	100,LYS	100,LYS	100,LYS	101,LYS	100,LYS	100,LYS	101,LYS	100,LYS	101,LYS	100,LYS	100,LYS	100,LYS	100,LYS	100,LYS	100,LYS	100,LYS	100,LYS	100,LYS	100,LYS	100,LYS	100,LYS	100,LYS	100,LYS	100,LYS	100,LYS	100,LYS
102,SER	101,SER	102,SER	101,SER	101,SER	101,SER	101,SER	101,SER	101,SER	102,SER	101,SER	101,SER	102,SER	101,SER	102,SER	101,SER	101,SER	101,SER	101,SER	101,SER	101,SER	101,SER	101,SER	101,SER	101,SER	101,SER	101,SER	101,SER	101,SER	101,SER	101,SER	101,SER
103,THR	102,THR	103,THR	102,THR	102,THR	102,THR	102,THR	102,THR	102,THR	103,THR	102,THR	102,THR	103,THR	102,THR	103,THR	102,THR	102,THR	102,THR	102,THR	102,THR	102,THR	102,THR	102,THR	102,THR	102,THR	102,THR	102,THR	102,THR	102,THR	102,THR	102,THR	102,THR
104,THR	103,THR	104,THR	103,THR	103,THR	103,THR	103,THR	103,THR	103,THR	104,THR	103,THR	103,THR	104,THR	103,THR	104,THR	103,THR	103,THR	103,THR	103,THR	103,THR	103,THR	103,THR	103,THR	103,THR	103,THR	103,THR	103,THR	103,THR	103,THR	103,THR	103,THR	103,THR
105,ILE	104,ILE	105,ILE	104,ILE	104,ILE	107,LYS	104,ILE	104,ILE	104,ILE	105,LEU	104,ILE	104,ILE	105,ILE	104,ILE	105,ILE	104,ILE	104,ILE	104,ILE	104,ILE	104,ILE	104,ILE	104,ILE	104,ILE	104,ILE	104,ILE	104,ILE	104,ILE	104,ILE	104,ILE	104,ILE	104,ILE	104,ILE
106,LYS	105,LYS	106,LYS	105,LYS	105,LYS	104,ILE	105,LYS	105,LYS	105,LYS	106,LYS	105,LYS	105,LYS	106,LYS	105,LYS	106,LYS	105,LYS	105,LYS	105,LYS	105,LYS	105,LYS	105,LYS	105,LYS	105,LYS	105,LYS	105,LYS	105,LYS	105,LYS	105,LYS	105,LYS	105,LYS	105,LYS	105,LYS
107,ARG	106,ARG	107,ARG	106,ARG	106,ARG	105,LYS	106,ARG	106,ARG	106,ARG	107,ARG	106,ARG	106,ARG	107,ARG	106,ARG	107,ARG	106,ARG	106,ARG	106,ARG	106,ARG	106,ARG	106,ARG	106,ARG	106,ARG	106,ARG	106,ARG	106,ARG	106,ARG	106,ARG	106,ARG	106,ARG	106,ARG	106,ARG
108,LYS	107,LYS	108,LYS	107,LYS	107,LYS	106,ARG	107,LYS	107,LYS	107,LYS	108,LYS	107,LYS	107,LYS	108,LYS	107,LYS	108,LYS	107,LYS	107,LYS	107,LYS	107,LYS	107,LYS	107,LYS	107,LYS	107,LYS	107,LYS	107,LYS	107,LYS	107,LYS	107,LYS	107,LYS	107,LYS	107,LYS	107,LYS
109,ARG	108,ARG	109,ARG	108,ARG	108,ARG	108,ARG	108,ARG	108,ARG	108,ARG	109,ARG	108,ARG	108,ARG	109,ARG	108,ARG	109,ARG	108,ARG	108,ARG	108,ARG	108,ARG	108,ARG	108,ARG	108,ARG	108,ARG	111,ASP	108,ARG	108,ARG	108,ARG	108,ARG	108,ARG	108,ARG	108,ARG	108,ARG
110,GLU	109,GLU	110,GLU	109,GLU	109,GLU	109,GLU	109,GLU	109,GLU	109,GLU	110,GLU	109,GLU	109,GLU	110,GLU	109,GLU	110,GLU	109,GLU	109,GLU	109,GLU	109,GLU	109,GLU	109,GLU	109,GLU	109,GLU	108,ARG	109,GLU	109,GLU	109,GLU	109,GLU	109,GLU	109,GLU	109,GLU	109,GLU
111,ASP	110,ASP	111,ASP	110,ASP	110,ASP	110,ASP	110,ASP	110,ASP	110,ASP	111,ASP	110,ASP	110,ASP	111,ASP	110,ASP	111,ASP	110,ASP	110,ASP	110,ASP	110,ASP	110,ASP	110,ASP	110,ASP	110,ASP	109,GLU	110,ASP	110,ASP	110,ASP	110,ASP	110,ASP	110,ASP	110,ASP	110,ASP
112,ASP	111,ASP	112,ASP	111,ASP	111,ASP	111,ASP	111,ASP	111,ASP	111,ASP	112,ASP	111,ASP	111,ASP	112,ASP	111,ASP	112,ASP	111,ASP	111,ASP	111,ASP	111,ASP	111,ASP	111,ASP	111,ASP	111,ASP	110,ASP	111,ASP	111,ASP	111,ASP	111,ASP	111,ASP	111,ASP	111,ASP	111,ASP
113,LYS	112,LYS	113,LYS	112,LYS	112,LYS	112,LYS	112,LYS	112,LYS	112,LYS	113,LYS	112,LYS	112,LYS	113,LYS	112,LYS	113,LYS	112,LYS	112,LYS	112,LYS	112,LYS	112,LYS	112,LYS	112,LYS	112,LYS	112,LYS	112,LYS	112,LYS	112,LYS	112,LYS	112,LYS	112,LYS	112,LYS	112,LYS
114,LEU	113,LEU	114,LEU	113,LEU	113,LEU	113,LEU	113,LEU	113,LEU	113,LEU	114,LEU	113,LEU	113,LEU	114,LEU	113,LEU	114,LEU	113,LEU	113,LEU	113,LEU	113,LEU	113,LEU	113,LEU	113,LEU	113,LEU	113,LEU	113,LEU	113,LEU	113,LEU	113,LEU	113,LEU	113,LEU	113,LEU	113,LEU
115,VAL	114,VAL	115,VAL	114,VAL	114,VAL	114,VAL	114,VAL	114,VAL	114,VAL	115,VAL	114,VAL	114,VAL	115,VAL	114,VAL	115,VAL	114,VAL	114,VAL	114,VAL	114,VAL	114,VAL	114,VAL	114,VAL	114,VAL	114,VAL	114,VAL	114,VAL	114,VAL	114,VAL	114,VAL	114,VAL	114,VAL	114,VAL
116,VAL	115,VAL	116,VAL	115,VAL	115,VAL	118,VAL	115,VAL	115,VAL	115,VAL	116,LEU	115,VAL	115,VAL	116,VAL	115,VAL	116,VAL	115,VAL	115,VAL	115,VAL	115,VAL	115,VAL	115,VAL	115,VAL	115,VAL	115,VAL	115,VAL	115,VAL	115,VAL	115,VAL	115,VAL	115,VAL	115,VAL	115,VAL
117,GLU	116,GLU	117,GLU	116,GLU	116,GLU	115,VAL	116,GLU	116,GLU	116,GLU	117,GLU	116,GLU	116,GLU	117,GLU	116,GLU	117,GLU	116,GLU	116,GLU	116,GLU	116,GLU	116,GLU	116,GLU	116,GLU	116,GLU	116,GLU	116,GLU	116,GLU	116,GLU	116,GLU	116,GLU	116,GLU	116,GLU	116,GLU
118,CYS	117,CYS	118,CYS	117,CYS	117,CYS	116,GLU	117,CYS	117,CYS	117,CYS	118,LEU	117,CYS	117,CYS	118,CYS	117,CYS	118,CYS	117,CYS	117,CYS	117,CYS	117,CYS	117,CYS	117,CYS	117,CYS	117,CYS	117,CYS	117,CYS	117,CYS	117,CYS	117,CYS	117,CYS	117,CYS	117,CYS	117,CYS
119,VAL	118,VAL	119,VAL	118,VAL	118,VAL	117,CYS	121,GLY	118,VAL	118,VAL	119,VAL	118,VAL	118,VAL	119,VAL	118,VAL	119,VAL	118,VAL	118,VAL	118,VAL	118,VAL	118,VAL	118,VAL	118,VAL	118,VAL	118,VAL	118,VAL	118,VAL	118,VAL	118,VAL	118,VAL	118,VAL	118,VAL	118,VAL
120,MET	119,MET	120,MET	119,MET	119,MET	119,MET	118,VAL	119,MET	119,MET	120,MET	119,MET	119,MET	120,MET	119,MET	120,MET	119,MET	119,MET	119,MET	119,MET	119,MET	119,MET	119,MET	119,MET	119,MET	119,MET	119,MET	119,MET	119,MET	119,MET	119,MET	119,MET	119,MET
121,LYS	120,LYS	121,LYS	120,LYS	120,LYS	120,LYS	119,MET	120,LYS	120,LYS	121,LYS	120,LYS	120,LYS	121,LYS	120,LYS	121,LYS	120,LYS	120,LYS	120,LYS	120,LYS	120,LYS	120,LYS	120,LYS	120,LYS	120,LYS	120,LYS	120,LYS	120,LYS	120,LYS	120,LYS	120,LYS	120,LYS	120,LYS
122,GLY	121,GLY	122,GLY	121,GLY	121,GLY	121,GLY	120,LYS	121,GLY	121,GLY	122,GLY	121,GLY	121,GLY	122,GLY	121,GLY	122,GLY	121,GLY	121,GLY	121,GLY	121,GLY	121,GLY	121,GLY	121,GLY	121,GLY	121,GLY	121,GLY	121,GLY	121,GLY	121,GLY	121,GLY	121,GLY	121,GLY	121,GLY
123,VAL	122,VAL	123,VAL	122,VAL	122,VAL	122,VAL	122,VAL	122,VAL	122,VAL	123,VAL	122,VAL	122,VAL	123,VAL	122,VAL	123,VAL	122,VAL	122,VAL	122,VAL	122,VAL	122,VAL	122,VAL	122,VAL	122,VAL	122,VAL	122,VAL	122,VAL	122,VAL	122,VAL	122,VAL	122,VAL	122,VAL	122,VAL
124,THR	123,THR	124,THR	123,THR	123,THR	123,THR	123,THR	123,THR	123,THR	124,THR	123,THR	123,THR	124,THR	123,THR	124,THR	123,THR	123,THR	123,THR	123,THR	123,THR	123,THR	123,THR	123,THR	123,THR	123,THR	123,THR	123,THR	123,THR	123,THR	123,THR	123,THR	123,THR
125,SER	124,SER	125,SER	124,SER	124,SER	124,SER	124,SER	124,SER	124,SER	125,CYS	124,SER	124,SER	125,SER	124,SER	125,SER	124,SER	124,SER	124,SER	124,SER	124,SER	124,SER	124,SER	124,SER	124,SER	124,SER	124,SER	124,SER	124,SER	124,SER	124,SER	124,SER	124,SER
126,THR	125,THR	126,THR	125,THR	125,THR	125,THR	125,THR	125,THR	125,THR	126,THR	125,THR	125,THR	126,THR	125,THR	126,THR	125,THR	125,THR	125,THR	125,THR	125,THR	125,THR	125,THR	125,THR	125,THR	125,THR	125,THR	125,THR	125,THR	125,THR	125,THR	125,THR	125,THR
127,ARG	126,ARG	127,ARG	126,ARG	126,ARG	126,ARG	126,ARG	126,ARG	126,ARG	127,ARG	126,ARG	126,ARG	127,ARG	126,ARG	127,ARG	126,ARG	126,ARG	126,ARG	126,ARG	126,ARG	126,ARG	126,ARG	126,ARG	126,ARG	126,ARG	126,ARG	126,ARG	126,ARG	126,ARG	126,ARG	126,ARG	126,ARG
128,VAL	127,VAL	128,VAL	127,VAL	127,VAL	127,VAL	127,VAL	127,VAL	127,VAL	128,VAL	127,VAL	127,VAL	128,VAL	127,VAL	128,VAL	127,VAL	127,VAL	127,VAL	127,VAL	127,VAL	127,VAL	127,VAL	127,VAL	127,VAL	127,VAL	127,VAL	127,VAL	127,VAL	127,VAL	127,VAL	127,VAL	127,VAL
129,TYR	128,TYR	129,TYR	128,TYR	128,TYR	128,TYR	128,TYR	128,TYR	128,TYR	129,TYR	128,TYR	128,TYR	129,TYR	128,TYR	129,TYR	128,TYR	128,TYR	128,TYR	128,TYR	128,TYR	128,TYR	128,TYR	128,TYR	128,TYR	128,TYR	128,TYR	128,TYR	128,TYR	128,TYR	128,TYR	128,TYR	128,TYR
130,GLU	129,GLU	130,GLU	129,GLU	129,GLU	129,GLU	129,GLU	129,GLU	129,GLU	130,GLU	129,GLU	129,GLU	130,GLU	129,GLU	130,GLU	129,GLU	129,GLU	129,GLU	129,GLU	129,GLU	129,GLU	129,GLU	129,GLU	129,GLU	129,GLU	129,GLU	129,GLU	129,GLU	129,GLU	129,GLU	129,GLU	129,GLU
131,ARG	130,ARG	131,ARG	130,ARG	130,ARG	130,ARG	130,ARG	130,ARG	130,ARG	131,ARG	130,ARG	130,ARG	131,ARG	130,ARG	131,ARG	130,ARG	130,ARG	130,ARG	130,ARG	130,ARG	130,ARG	130,ARG	130,ARG	130,ARG	130,ARG	130,ARG	130,ARG	130,ARG	130,ARG	130,ARG	130,ARG	130,ARG
132,ALA	131,ALA	132,ALA	131,ALA	131,ALA	131,ALA	131,ALA	131,ALA	131,ALA	132,ALA	131,ALA	131,ALA	132,ALA	131,ALA	132,ALA	131,ALA	131,ALA	131,ALA	131,ALA	131,ALA	131,ALA	131,ALA	131,ALA	131,ALA	131,ALA	131,ALA	131,ALA	131,ALA	131,ALA	131,ALA	131,ALA	131,ALA
