uniprot_isoform	location_id	ENSEMBL ID	uniprot_start	uniprot_end	1hvgA_start	1hvgA_end	1anxA_start	1anxA_end	1anxC_start	1anxC_end	1anxB_start	1anxB_end	1avhA_start	1avhA_end	1avhB_start	1avhB_end	1savA_start	1savA_end	1hveA_start	1hveA_end	1hvdA_start	1hvdA_end	1avrA_start	1avrA_end	1hvfA_start	1hvfA_end	2xo3A_start	2xo3A_end	2xo2A_start	2xo2A_end	1anwA_start	1anwA_end	1anwB_start	1anwB_end	1hakB_start	1hakB_end	1hakA_start	1hakA_end
1	4_121696589_121668471_-1	ENSE00003611119	1	3	-	3	-	3	-	3	-	3	1	3	1	3	1	3	-	3	-	3	1	3	-	3	1	3	1	3	-	3	-	3	1	3	1	3
1	4_121696589_121668471_-1	ENSE00003492195	4	32	4	32	4	32	4	32	4	32	4	32	4	31	4	32	4	32	4	32	4	32	4	32	4	32	4	32	4	32	4	32	4	32	4	32
1	4_121696589_121668471_-1	ENSE00003466252	32	63	32	63	32	63	32	63	32	63	32	63	31	63	32	63	32	63	32	63	32	63	32	63	32	63	32	63	32	63	32	63	32	63	32	63
1	4_121696589_121668471_-1	ENSE00003624802	64	101	64	101	64	101	64	101	64	101	64	101	64	101	64	101	64	101	64	101	64	101	64	101	64	101	64	101	64	101	64	101	64	101	64	101
1	4_121696589_121668471_-1	ENSE00003563676	102	132	102	132	102	132	102	132	102	132	102	132	102	132	102	132	102	132	102	132	102	132	102	132	102	132	102	132	102	132	102	132	102	132	102	132
1	4_121696589_121668471_-1	ENSE00003607401	132	158	132	158	132	158	132	158	132	158	132	158	132	158	132	158	132	158	132	158	132	158	132	158	132	158	132	158	132	158	132	158	132	158	132	158
1	4_121696589_121668471_-1	ENSE00003528136	159	177	159	177	159	177	159	177	159	177	159	177	159	177	159	177	159	177	159	177	159	177	159	177	159	177	159	177	159	177	159	177	159	176	159	177
1	4_121696589_121668471_-1	ENSE00003659224	178	209	178	209	178	209	178	209	178	209	178	209	178	209	178	209	178	209	178	209	178	209	178	209	178	209	178	209	178	209	178	209	177	209	178	209
1	4_121696589_121668471_-1	ENSE00003523368	209	241	209	241	209	241	209	241	209	244	209	241	209	241	209	241	209	241	209	241	209	241	209	241	209	241	209	241	209	241	209	241	209	241	209	241
1	4_121696589_121668471_-1	ENSE00003487997	241	260	241	260	241	260	241	260	244	260	241	260	241	260	241	260	241	260	241	260	241	260	241	260	241	260	241	260	241	260	241	260	241	260	241	260
1	4_121696589_121668471_-1	ENSE00003691852	261	301	261	301	261	301	261	301	261	301	261	301	261	301	261	301	261	301	261	301	261	301	261	301	261	301	261	301	261	300	261	301	261	301	261	301
1	4_121696589_121668471_-1	ENSE00001866494	302	320	302	320	302	320	302	320	302	320	302	320	302	320	302	320	302	320	302	320	302	320	302	320	302	320	302	320	302	320	302	320	302	320	302	320
