P10810	1wwlA	1wwlB
1,MET	-	-
2,GLU	-	-
3,ARG	-	-
4,VAL	-	-
5,LEU	-	-
6,GLY	-	-
7,LEU	-	-
8,LEU	-	-
9,LEU	-	-
10,LEU	-	-
11,LEU	-	-
12,LEU	-	-
13,VAL	-	-
14,HIS	-	-
15,ALA	-	-
16,SER	-	-
17,PRO	-	-
18,ALA	-	-
19,PRO	-	-
20,PRO	5,PRO	5,PRO
21,GLU	6,GLU	6,GLU
22,PRO	7,PRO	7,PRO
23,CYS	8,CYS	8,CYS
24,GLU	9,GLU	9,GLU
25,LEU	10,LEU	10,LEU
26,ASP	11,ASP	11,ASP
27,GLU	12,GLU	12,GLU
28,GLU	13,GLU	13,GLU
29,SER	14,SER	14,SER
30,CYS	15,CYS	15,CYS
31,SER	16,SER	16,SER
32,CYS	17,CYS	17,CYS
33,ASN	18,ASN	18,ASN
34,PHE	19,PHE	19,PHE
35,SER	20,SER	20,SER
36,ASP	21,ASP	21,ASP
37,PRO	22,PRO	22,PRO
38,LYS	23,LYS	23,LYS
39,PRO	24,PRO	24,PRO
40,ASP	25,ASP	25,ASP
41,TRP	26,TRP	26,TRP
42,SER	27,SER	27,SER
43,SER	28,SER	28,SER
44,ALA	29,ALA	29,ALA
45,PHE	30,PHE	30,PHE
46,ASN	31,ASN	31,ASN
47,CYS	32,CYS	32,CYS
48,LEU	33,LEU	33,LEU
49,GLY	34,GLY	34,GLY
50,ALA	35,ALA	35,ALA
51,ALA	36,ALA	36,ALA
52,ASP	37,ASP	37,ASP
53,VAL	38,VAL	38,VAL
54,GLU	39,GLU	39,GLU
55,LEU	40,LEU	40,LEU
56,TYR	41,TYR	41,TYR
57,GLY	42,GLY	42,GLY
58,GLY	43,GLY	43,GLY
59,GLY	44,GLY	44,GLY
60,ARG	45,ARG	45,ARG
61,SER	46,SER	46,SER
62,LEU	47,LEU	47,LEU
63,GLU	48,GLU	48,GLU
64,TYR	49,TYR	49,TYR
65,LEU	50,LEU	50,LEU
66,LEU	51,LEU	51,LEU
67,LYS	52,LYS	52,LYS
68,ARG	53,ARG	53,ARG
69,VAL	54,VAL	54,VAL
70,ASP	55,ASP	55,ASP
71,THR	56,THR	56,THR
72,GLU	57,GLU	57,GLU
73,ALA	58,ALA	58,ALA
74,ASP	59,ASP	59,ASP
75,LEU	60,LEU	60,LEU
76,GLY	61,GLY	61,GLY
77,GLN	62,GLN	62,GLN
78,PHE	63,PHE	63,PHE
79,THR	64,THR	64,THR
80,ASP	65,ASP	65,ASP
81,ILE	66,ILE	66,ILE
82,ILE	67,ILE	67,ILE
83,LYS	68,LYS	68,LYS
84,SER	69,SER	69,SER
85,LEU	70,LEU	70,LEU
86,SER	71,SER	71,SER
87,LEU	72,LEU	72,LEU
88,LYS	73,LYS	73,LYS
89,ARG	74,ARG	74,ARG
90,LEU	75,LEU	75,LEU
91,THR	76,THR	76,THR
92,VAL	77,VAL	77,VAL
93,ARG	78,ARG	78,ARG
94,ALA	79,ALA	79,ALA
95,ALA	80,ALA	80,ALA
96,ARG	81,ARG	81,ARG
97,ILE	82,ILE	82,ILE
98,PRO	83,PRO	83,PRO
99,SER	84,SER	84,SER
100,ARG	85,ARG	85,ARG
101,ILE	86,ILE	86,ILE
102,LEU	87,LEU	87,LEU
103,PHE	88,PHE	88,PHE
104,GLY	89,GLY	89,GLY
105,ALA	90,ALA	90,ALA
106,LEU	91,LEU	91,LEU
107,ARG	92,ARG	92,ARG
108,VAL	93,VAL	93,VAL
109,LEU	94,LEU	94,LEU
110,GLY	95,GLY	95,GLY
111,ILE	96,ILE	96,ILE
112,SER	97,SER	97,SER
113,GLY	98,GLY	98,GLY
114,LEU	99,LEU	99,LEU
115,GLN	100,GLN	100,GLN
116,GLU	101,GLU	101,GLU
117,LEU	102,LEU	102,LEU
118,THR	103,THR	103,THR
119,LEU	104,LEU	104,LEU
120,GLU	105,GLU	105,GLU
121,ASN	106,ASN	106,ASN
122,LEU	107,LEU	107,LEU
123,GLU	108,GLU	108,GLU
124,VAL	109,VAL	109,VAL
125,THR	110,THR	110,THR
126,GLY	111,GLY	111,GLY
127,THR	112,THR	112,THR
128,ALA	113,ALA	113,ALA
129,PRO	114,PRO	114,PRO
130,PRO	115,PRO	115,PRO
131,PRO	116,PRO	116,PRO
132,LEU	117,LEU	117,LEU
133,LEU	118,LEU	118,LEU
134,GLU	119,GLU	119,GLU
135,ALA	120,ALA	120,ALA
136,THR	121,THR	121,THR
137,GLY	122,GLY	122,GLY
138,PRO	123,PRO	123,PRO
139,ASP	124,ASP	124,ASP
140,LEU	125,LEU	125,LEU
141,ASN	126,ASN	126,ASN
142,ILE	127,ILE	127,ILE
143,LEU	128,LEU	128,LEU
144,ASN	129,ASN	129,ASN
145,LEU	130,LEU	130,LEU
146,ARG	131,ARG	131,ARG
147,ASN	132,ASN	132,ASN
148,VAL	133,VAL	133,VAL
149,SER	134,SER	134,SER
150,TRP	135,TRP	135,TRP
151,ALA	136,ALA	136,ALA
152,THR	137,THR	137,THR
153,ARG	138,ARG	138,ARG
154,ASP	139,ASP	139,ASP
155,ALA	140,ALA	140,ALA
156,TRP	141,TRP	141,TRP
157,LEU	142,LEU	142,LEU
158,ALA	143,ALA	143,ALA
159,GLU	144,GLU	144,GLU
160,LEU	145,LEU	145,LEU
161,GLN	146,GLN	146,GLN
162,GLN	147,GLN	147,GLN
163,TRP	148,TRP	148,TRP
164,LEU	149,LEU	149,LEU
165,LYS	150,LYS	150,LYS
166,PRO	151,PRO	151,PRO
167,GLY	152,GLY	152,GLY
168,LEU	153,LEU	153,LEU
169,LYS	154,LYS	154,LYS
170,VAL	155,VAL	155,VAL
171,LEU	156,LEU	156,LEU
172,SER	157,SER	157,SER
173,ILE	158,ILE	158,ILE
174,ALA	159,ALA	159,ALA
175,GLN	160,GLN	160,GLN
176,ALA	161,ALA	161,ALA
177,HIS	162,HIS	162,HIS
178,SER	163,SER	163,SER
179,LEU	164,LEU	164,LEU
180,ASN	165,ASN	165,ASN
181,PHE	166,PHE	166,PHE
182,SER	167,SER	167,SER
183,CYS	168,CYS	168,CYS
184,GLU	169,GLU	169,GLU
185,GLN	170,GLN	170,GLN
186,VAL	171,VAL	171,VAL
187,ARG	172,ARG	172,ARG
188,VAL	173,VAL	173,VAL
189,PHE	174,PHE	174,PHE
190,PRO	175,PRO	175,PRO
191,ALA	176,ALA	176,ALA
192,LEU	177,LEU	177,LEU
193,SER	178,SER	178,SER
194,THR	179,THR	179,THR
195,LEU	180,LEU	180,LEU
196,ASP	181,ASP	181,ASP
197,LEU	182,LEU	182,LEU
198,SER	183,SER	183,SER
199,ASP	184,ASP	184,ASP
200,ASN	185,ASN	185,ASN
201,PRO	186,PRO	186,PRO
202,GLU	187,GLU	187,GLU
203,LEU	188,LEU	188,LEU
204,GLY	189,GLY	189,GLY
205,GLU	190,GLU	190,GLU
206,ARG	191,ARG	191,ARG
207,GLY	192,GLY	192,GLY
208,LEU	193,LEU	193,LEU
209,ILE	194,ILE	194,ILE
210,SER	195,SER	195,SER
211,ALA	196,ALA	196,ALA
212,LEU	197,LEU	197,LEU
213,CYS	198,CYS	198,CYS
214,PRO	199,PRO	199,PRO
215,LEU	200,LEU	200,LEU
216,LYS	201,LYS	201,LYS
217,PHE	202,PHE	202,PHE
218,PRO	203,PRO	203,PRO
219,THR	204,THR	204,THR
220,LEU	205,LEU	205,LEU
221,GLN	206,GLN	206,GLN
222,VAL	207,VAL	207,VAL
223,LEU	208,LEU	208,LEU
224,ALA	209,ALA	209,ALA
225,LEU	210,LEU	210,LEU
226,ARG	211,ARG	211,ARG
227,ASN	212,ASN	212,ASN
228,ALA	213,ALA	213,ALA
229,GLY	214,GLY	214,GLY
230,MET	215,MET	215,MET
231,GLU	216,GLU	216,GLU
232,THR	217,THR	217,THR
233,PRO	218,PRO	218,PRO
234,SER	219,SER	219,SER
235,GLY	220,GLY	220,GLY
236,VAL	221,VAL	221,VAL
237,CYS	222,CYS	222,CYS
238,SER	223,SER	223,SER
239,ALA	224,ALA	224,ALA
240,LEU	225,LEU	225,LEU
241,ALA	226,ALA	226,ALA
242,ALA	227,ALA	227,ALA
243,ALA	228,ALA	228,ALA
244,ARG	229,ARG	229,ARG
245,VAL	230,VAL	230,VAL
246,GLN	231,GLN	231,GLN
247,LEU	232,LEU	232,LEU
248,GLN	233,GLN	233,GLN
249,GLY	234,GLY	234,GLY
250,LEU	235,LEU	235,LEU
251,ASP	236,ASP	236,ASP
252,LEU	237,LEU	237,LEU
253,SER	238,SER	238,SER
254,HIS	239,HIS	239,HIS
255,ASN	240,ASN	240,ASN
256,SER	241,SER	241,SER
257,LEU	242,LEU	242,LEU
258,ARG	243,ARG	243,ARG
259,ASP	244,ASP	244,ASP
260,ALA	245,ALA	245,ALA
261,ALA	246,ALA	246,ALA
262,GLY	247,GLY	247,GLY
263,ALA	248,ALA	248,ALA
264,PRO	249,PRO	249,PRO
265,SER	250,SER	250,SER
266,CYS	251,CYS	251,CYS
267,ASP	252,ASP	252,ASP
268,TRP	253,TRP	253,TRP
269,PRO	254,PRO	254,PRO
270,SER	255,SER	255,SER
271,GLN	256,GLN	256,GLN
272,LEU	257,LEU	257,LEU
273,ASN	258,ASN	258,ASN
274,SER	259,SER	259,SER
275,LEU	260,LEU	260,LEU
276,ASN	261,ASN	261,ASN
277,LEU	262,LEU	262,LEU
278,SER	263,SER	263,SER
279,PHE	264,PHE	264,PHE
280,THR	265,THR	265,THR
281,GLY	266,GLY	266,GLY
282,LEU	267,LEU	267,LEU
283,LYS	268,LYS	268,LYS
284,GLN	269,GLN	269,GLN
285,VAL	270,VAL	270,VAL
286,PRO	271,PRO	271,PRO
287,LYS	272,LYS	272,LYS
288,GLY	273,GLY	273,GLY
289,LEU	274,LEU	274,LEU
290,PRO	275,PRO	275,PRO
291,ALA	276,ALA	276,ALA
292,LYS	277,LYS	277,LYS
293,LEU	278,LEU	278,LEU
294,SER	279,SER	279,SER
295,VAL	280,VAL	280,VAL
296,LEU	281,LEU	281,LEU
297,ASP	282,ASP	282,ASP
298,LEU	283,LEU	283,LEU
299,SER	284,SER	284,SER
300,TYR	285,TYR	285,TYR
301,ASN	286,ASN	286,ASN
302,ARG	287,ARG	287,ARG
303,LEU	288,LEU	288,LEU
304,ASP	289,ASP	289,ASP
305,ARG	290,ARG	290,ARG
306,ASN	291,ASN	291,ASN
307,PRO	292,PRO	292,PRO
308,SER	293,SER	293,SER
309,PRO	294,PRO	294,PRO
310,ASP	295,ASP	295,ASP
311,GLU	296,GLU	296,GLU
312,LEU	297,LEU	297,LEU
313,PRO	298,PRO	298,PRO
314,GLN	299,GLN	299,GLN
315,VAL	300,VAL	300,VAL
316,GLY	301,GLY	301,GLY
317,ASN	302,ASN	302,ASN
318,LEU	303,LEU	303,LEU
319,SER	304,SER	304,SER
320,LEU	305,LEU	305,LEU
321,LYS	306,LYS	306,LYS
322,GLY	307,GLY	307,GLY
323,ASN	308,ASN	308,ASN
324,PRO	309,PRO	309,PRO
325,PHE	310,PHE	310,PHE
326,LEU	311,LEU	311,LEU
327,ASP	312,ASP	312,ASP
328,SER	313,SER	313,SER
329,GLU	314,GLU	314,GLU
330,SER	-	-
331,HIS	-	-
332,SER	-	-
333,GLU	-	-
334,LYS	-	-
335,PHE	-	-
336,ASN	-	-
337,SER	-	-
338,GLY	-	-
339,VAL	-	-
340,VAL	-	-
341,THR	-	-
342,ALA	-	-
343,GLY	-	-
344,ALA	-	-
345,PRO	-	-
346,SER	-	-
347,SER	-	-
348,GLN	-	-
349,ALA	-	-
350,VAL	-	-
351,ALA	-	-
352,LEU	-	-
353,SER	-	-
354,GLY	-	-
355,THR	-	-
356,LEU	-	-
357,ALA	-	-
358,LEU	-	-
359,LEU	-	-
360,LEU	-	-
361,GLY	-	-
362,ASP	-	-
363,ARG	-	-
364,LEU	-	-
365,PHE	-	-
366,VAL	-	-
