uniprot_isoform	location_id	ENSEMBL ID	uniprot_start	uniprot_end	5n93A_start	5n93A_end	3dbqA_start	3dbqA_end	3h9fA_start	3h9fA_end	5o91A_start	5o91A_end	3w1fA_start	3w1fA_end	5ehyA_start	5ehyA_end	4c4fA_start	4c4fA_end	6b4wA_start	6b4wA_end	4cv9A_start	4cv9A_end	6n6oA_start	6n6oA_end	3vquA_start	3vquA_end	5na0A_start	5na0A_end	5ei2A_start	5ei2A_end	4o6lA_start	4o6lA_end	4o6lB_start	4o6lB_end	4zegA_start	4zegA_end	5ei6A_start	5ei6A_end	5ei8A_start	5ei8A_end	4cv8A_start	4cv8A_end	5n84A_start	5n84A_end	5n87A_start	5n87A_end	4c4jA_start	4c4jA_end	4c4iA_start	4c4iA_end	4c4hA_start	4c4hA_end	4c4gA_start	4c4gA_end	5ehoA_start	5ehoA_end	4c4eA_start	4c4eA_end	3wzjA_start	3wzjA_end	3wzkA_start	3wzkA_end	4cvaA_start	4cvaA_end	5nttA_start	5nttA_end	4bhzA_start	4bhzA_end	5n9sA_start	5n9sA_end	5mrbA_start	5mrbA_end	5ljjA_start	5ljjA_end	4bi1A_start	4bi1A_end	4bi0A_start	4bi0A_end	3hmpA_start	3hmpA_end	4bi2A_start	4bi2A_end	3hmnA_start	3hmnA_end	3hmoA_start	3hmoA_end	4js8A_start	4js8A_end	3cekA_start	3cekA_end	4b94A_start	4b94A_end	4b94C_start	4b94C_end	4b94B_start	4b94B_end	4b94D_start	4b94D_end	2zmdA_start	2zmdA_end	2zmcA_start	2zmcA_end	5ehlA_start	5ehlA_end	5n7vA_start	5n7vA_end	3wyyA_start	3wyyA_end	3wyxA_start	3wyxA_end	5eh0A_start	5eh0A_end	3gfwA_start	3gfwA_end	5ap2A_start	5ap2A_end	5ap3A_start	5ap3A_end	5ap0A_start	5ap0A_end	5ap1A_start	5ap1A_end	5ap6A_start	5ap6A_end	5ap7A_start	5ap7A_end	5ap4A_start	5ap4A_end	5ap5A_start	5ap5A_end	6h3kA_start	6h3kA_end	6gvjA_start	6gvjA_end	4jt3A_start	4jt3A_end	5nadA_start	5nadA_end	2x9eA_start	2x9eA_end	4d2sA_start	4d2sA_end	4h7yA_start	4h7yA_end	4h7yC_start	4h7yC_end	4h7yB_start	4h7yB_end	4h7yD_start	4h7yD_end	4h7xA_start	4h7xA_end	4h7xB_start	4h7xB_end
1	6_80005844_80042199_1	ENSE00000798027	1	47	-	-	-	-	-	-	-	-	-	-	-	-	-	-	-	-	-	-	-	-	-	-	-	-	-	-	-	-	-	-	-	-	-	-	-	-	-	-	-	-	-	-	-	-	-	-	-	-	-	-	-	-	-	-	-	-	-	-	-	-	-	-	-	-	-	-	-	-	-	-	-	-	-	-	-	-	-	-	-	-	-	-	-	-	-	-	-	-	-	-	-	-	-	-	-	-	-	-	-	-	-	-	-	-	-	-	-	-	-	-	-	-	-	-	-	-	-	-	-	-	-	-	-	-	-	-	-	-	-	-	-	-	-	-	-	-	-	-	-	-	-	-	-	-	-	-	-	-	-	-
1	6_80005844_80042199_1	ENSE00003688914	47	121	-	-	-	-	-	-	-	-	-	-	-	-	-	-	-	-	-	-	-	-	-	-	-	-	-	-	-	-	-	-	-	-	-	-	-	-	-	-	-	-	-	-	-	-	-	-	-	-	-	-	-	-	-	-	-	-	-	-	-	-	-	-	-	-	-	-	-	-	-	-	-	-	-	-	-	-	-	-	-	-	-	-	-	-	-	-	-	121	-	121	-	121	-	121	-	-	-	-	-	-	-	-	-	-	-	-	-	-	-	-	-	-	-	-	-	-	-	-	-	-	-	-	-	-	-	-	-	-	-	-	-	-	-	-	-	-	-	-	-	72	-	72	-	72	-	72	-	72	-	72
1	6_80005844_80042199_1	ENSE00003530004	121	157	-	-	-	-	-	-	-	-	-	-	-	-	-	-	-	-	-	-	-	-	-	-	-	-	-	-	-	-	-	-	-	-	-	-	-	-	-	-	-	-	-	-	-	-	-	-	-	-	-	-	-	-	-	-	-	-	-	-	-	-	-	-	-	-	-	-	-	-	-	-	-	-	-	-	-	-	-	-	-	-	-	-	-	-	-	-	121	157	121	157	121	157	121	157	-	-	-	-	-	-	-	-	-	-	-	-	-	-	-	-	-	-	-	-	-	-	-	-	-	-	-	-	-	-	-	-	-	-	-	-	-	-	-	-	-	-	-	-	72	108	72	108	72	108	72	108	72	108	72	108
1	6_80005844_80042199_1	ENSE00003604712	157	205	-	-	-	-	-	-	-	-	-	-	-	-	-	-	-	-	-	-	-	-	-	-	-	-	-	-	-	-	-	-	-	-	-	-	-	-	-	-	-	-	-	-	-	-	-	-	-	-	-	-	-	-	-	-	-	-	-	-	-	-	-	-	-	-	-	-	-	-	-	-	-	-	-	-	-	-	-	-	-	-	-	-	-	-	-	-	157	205	157	205	157	205	157	205	-	-	-	-	-	-	-	-	-	-	-	-	-	-	-	-	-	-	-	-	-	-	-	-	-	-	-	-	-	-	-	-	-	-	-	-	-	-	-	-	-	-	-	-	108	156	108	156	108	156	108	156	108	156	108	155
1	6_80005844_80042199_1	ENSE00002036427	205	243	-	-	-	-	-	-	-	-	-	-	-	-	-	-	-	-	-	-	-	-	-	-	-	-	-	-	-	-	-	-	-	-	-	-	-	-	-	-	-	-	-	-	-	-	-	-	-	-	-	-	-	-	-	-	-	-	-	-	-	-	-	-	-	-	-	-	-	-	-	-	-	-	-	-	-	-	-	-	-	-	-	-	-	-	-	-	205	-	205	-	205	-	205	-	-	-	-	-	-	-	-	-	-	-	-	-	-	-	-	-	-	-	-	-	-	-	-	-	-	-	-	-	-	-	-	-	-	-	-	-	-	-	-	-	-	-	-	-	156	-	156	-	156	-	156	-	156	-	155	-
1	6_80005844_80042199_1	ENSE00000759354	243	267	-	-	-	-	-	-	-	-	-	-	-	-	-	-	-	-	-	-	-	-	-	-	-	-	-	-	-	-	-	-	-	-	-	-	-	-	-	-	-	-	-	-	-	-	-	-	-	-	-	-	-	-	-	-	-	-	-	-	-	-	-	-	-	-	-	-	-	-	-	-	-	-	-	-	-	-	-	-	-	-	-	-	-	-	-	-	-	-	-	-	-	-	-	-	-	-	-	-	-	-	-	-	-	-	-	-	-	-	-	-	-	-	-	-	-	-	-	-	-	-	-	-	-	-	-	-	-	-	-	-	-	-	-	-	-	-	-	-	-	-	-	-	-	-	-	-	-	-	-	-
1	6_80005844_80042199_1	ENSE00000759356	268	299	-	-	-	-	-	-	-	-	-	-	-	-	-	-	-	-	-	-	-	-	-	-	-	-	-	-	-	-	-	-	-	-	-	-	-	-	-	-	-	-	-	-	-	-	-	-	-	-	-	-	-	-	-	-	-	-	-	-	-	-	-	-	-	-	-	-	-	-	-	-	-	-	-	-	-	-	-	-	-	-	-	-	-	-	-	-	-	-	-	-	-	-	-	-	-	-	-	-	-	-	-	-	-	-	-	-	-	-	-	-	-	-	-	-	-	-	-	-	-	-	-	-	-	-	-	-	-	-	-	-	-	-	-	-	-	-	-	-	-	-	-	-	-	-	-	-	-	-	-	-
1	6_80005844_80042199_1	ENSE00000759358	299	328	-	-	-	-	-	-	-	-	-	-	-	-	-	-	-	-	-	-	-	-	-	-	-	-	-	-	-	-	-	-	-	-	-	-	-	-	-	-	-	-	-	-	-	-	-	-	-	-	-	-	-	-	-	-	-	-	-	-	-	-	-	-	-	-	-	-	-	-	-	-	-	-	-	-	-	-	-	-	-	-	-	-	-	-	-	-	-	-	-	-	-	-	-	-	-	-	-	-	-	-	-	-	-	-	-	-	-	-	-	-	-	-	-	-	-	-	-	-	-	-	-	-	-	-	-	-	-	-	-	-	-	-	-	-	-	-	-	-	-	-	-	-	-	-	-	-	-	-	-	-
1	6_80005844_80042199_1	ENSE00003579671	329	370	-	-	-	-	-	-	-	-	-	-	-	-	-	-	-	-	-	-	-	-	-	-	-	-	-	-	-	-	-	-	-	-	-	-	-	-	-	-	-	-	-	-	-	-	-	-	-	-	-	-	-	-	-	-	-	-	-	-	-	-	-	-	-	-	-	-	-	-	-	-	-	-	-	-	-	-	-	-	-	-	-	-	-	-	-	-	-	-	-	-	-	-	-	-	-	-	-	-	-	-	-	-	-	-	-	-	-	-	-	-	-	-	-	-	-	-	-	-	-	-	-	-	-	-	-	-	-	-	-	-	-	-	-	-	-	-	-	-	-	-	-	-	-	-	-	-	-	-	-	-
1	6_80005844_80042199_1	ENSE00003498599	370	419	-	-	-	-	-	-	-	-	-	-	-	-	-	-	-	-	-	-	-	-	-	-	-	-	-	-	-	-	-	-	-	-	-	-	-	-	-	-	-	-	-	-	-	-	-	-	-	-	-	-	-	-	-	-	-	-	-	-	-	-	-	-	-	-	-	-	-	-	-	-	-	-	-	-	-	-	-	-	-	-	-	-	-	-	-	-	-	-	-	-	-	-	-	-	-	-	-	-	-	-	-	-	-	-	-	-	-	-	-	-	-	-	-	-	-	-	-	-	-	-	-	-	-	-	-	-	-	-	-	419	-	-	-	-	-	-	-	-	-	-	-	-	-	-	-	-	-	-	-	-
1	6_80005844_80042199_1	ENSE00003579064	420	465	-	-	-	-	-	-	-	-	-	-	-	-	-	-	-	-	-	-	-	-	-	-	-	-	-	-	-	-	-	-	-	-	-	-	-	-	-	-	-	-	-	-	-	-	-	-	-	-	-	-	-	-	-	-	-	-	-	-	-	-	-	-	-	-	-	-	-	-	-	-	-	-	-	-	-	-	-	-	-	-	-	-	-	-	-	-	-	-	-	-	-	-	-	-	-	-	-	-	-	-	-	-	-	-	-	-	-	-	-	-	-	-	-	-	-	-	-	-	-	-	-	-	-	-	-	-	-	-	420	465	-	-	-	-	-	-	-	-	-	-	-	-	-	-	-	-	-	-	-	-
1	6_80005844_80042199_1	ENSE00000759363	465	507	-	-	-	-	-	-	-	-	-	-	-	-	-	-	-	-	-	-	-	-	-	-	-	-	-	-	-	-	-	-	-	-	-	-	-	-	-	-	-	-	-	-	-	-	-	-	-	-	-	-	-	-	-	-	-	-	-	-	-	-	-	-	-	-	-	-	-	-	-	-	-	-	-	-	-	-	-	-	-	-	-	-	-	-	-	-	-	-	-	-	-	-	-	-	-	-	-	-	-	-	-	-	-	-	-	-	-	-	-	-	-	-	-	-	-	-	-	-	-	-	-	-	-	-	-	-	-	-	465	507	-	-	-	-	-	-	-	-	-	-	-	-	-	-	-	-	-	-	-	-
1	6_80005844_80042199_1	ENSE00000759364	508	538	-	538	-	538	-	538	-	538	-	538	-	538	-	538	-	538	-	538	-	538	-	538	-	538	-	538	-	538	-	538	-	538	-	538	-	538	-	538	-	538	-	538	-	538	-	541	-	538	-	538	-	538	-	538	-	538	-	538	-	538	-	538	-	538	-	538	-	538	-	538	-	538	-	538	-	538	-	538	-	538	-	538	-	538	-	538	-	-	-	-	-	-	-	-	-	538	-	538	-	538	-	538	-	538	-	538	-	538	-	538	-	538	-	538	-	538	-	538	-	538	-	538	-	538	-	538	-	538	508	538	-	538	-	538	-	538	-	538	-	-	-	-	-	-	-	-	-	-	-	-
1	6_80005844_80042199_1	ENSE00000759365	539	591	539	591	539	591	539	591	539	591	539	591	539	591	539	591	539	591	539	591	539	591	539	591	539	591	539	591	539	591	539	591	539	591	539	591	539	591	539	591	539	591	539	591	539	591	538	591	539	591	539	591	539	591	539	591	539	591	539	591	539	591	539	591	539	591	539	591	539	591	539	591	539	591	539	591	539	591	539	591	539	591	539	591	539	591	539	591	-	-	-	-	-	-	-	-	539	591	539	591	539	591	539	591	539	591	539	591	539	591	539	591	539	591	539	591	539	591	539	591	539	591	539	591	539	591	539	591	539	591	539	591	539	591	539	591	539	591	539	591	-	-	-	-	-	-	-	-	-	-	-	-
1	6_80005844_80042199_1	ENSE00000759366	591	642	591	642	591	642	591	642	591	642	591	642	591	642	591	642	591	642	591	642	591	642	591	642	591	642	591	642	591	642	591	642	591	642	591	642	591	642	591	642	591	642	591	642	591	642	591	642	591	642	591	642	591	642	591	642	591	642	591	642	591	642	591	642	591	642	591	642	591	642	591	642	591	642	591	642	591	642	591	642	591	642	591	642	591	642	591	642	-	-	-	-	-	-	-	-	591	642	591	642	591	642	591	642	591	642	591	642	591	642	591	642	591	642	591	642	591	642	591	642	591	642	591	642	591	642	591	642	591	642	591	642	591	642	591	642	591	642	591	642	-	-	-	-	-	-	-	-	-	-	-	-
1	6_80005844_80042199_1	ENSE00000798028	642	683	642	683	642	683	642	683	642	683	642	683	642	683	642	683	642	683	642	683	642	683	642	683	642	683	642	683	642	683	642	683	642	683	642	683	642	683	642	683	642	683	642	683	642	683	642	683	642	683	642	683	642	683	642	683	642	683	642	683	642	683	642	683	642	683	642	683	642	683	642	683	642	683	642	683	642	683	642	683	642	683	642	683	642	683	642	683	-	-	-	-	-	-	-	-	642	683	642	683	642	683	642	683	642	683	642	683	642	683	642	683	642	683	642	683	642	683	642	683	642	683	642	683	642	683	642	683	642	683	642	683	642	683	642	683	642	683	642	683	-	-	-	-	-	-	-	-	-	-	-	-
1	6_80005844_80042199_1	ENSE00000759368	684	710	684	710	684	710	684	710	684	710	684	710	684	710	684	710	684	710	684	710	684	710	684	710	684	710	684	710	684	710	684	710	684	710	684	710	684	710	684	710	684	710	684	710	684	710	684	710	684	710	684	710	684	710	684	710	684	710	684	710	684	710	684	710	684	713	684	710	684	710	684	710	684	710	684	710	684	710	684	710	684	710	684	710	684	710	684	710	-	-	-	-	-	-	-	-	684	710	684	710	684	710	684	710	684	710	684	710	684	710	684	710	684	710	684	710	684	710	684	710	684	710	684	710	684	710	684	710	684	710	684	710	684	710	684	710	684	710	684	710	-	-	-	-	-	-	-	-	-	-	-	-
1	6_80005844_80042199_1	ENSE00003601890	711	769	711	769	711	769	711	769	711	769	711	769	711	769	711	769	711	769	711	769	711	769	711	769	711	769	711	769	711	769	711	769	711	769	711	769	711	-	711	769	711	769	711	769	711	769	711	769	711	769	711	769	711	769	711	769	711	769	711	769	711	769	711	769	710	769	711	769	711	769	711	769	711	769	711	769	711	769	711	769	711	769	711	769	711	769	711	769	-	-	-	-	-	-	-	-	711	769	711	769	711	769	711	769	711	769	711	769	711	769	711	769	711	769	711	769	711	769	711	769	711	769	711	769	711	769	711	769	711	769	711	769	711	769	711	769	711	769	711	769	-	-	-	-	-	-	-	-	-	-	-	-
1	6_80005844_80042199_1	ENSE00000759370	770	798	770	798	770	798	770	798	770	798	770	798	770	798	770	798	770	-	770	798	770	-	770	798	770	798	770	798	770	-	770	-	770	-	770	798	-	-	770	798	770	798	770	798	770	798	770	798	770	798	770	798	770	798	770	798	770	798	770	798	770	798	770	-	770	798	770	798	770	798	770	798	770	798	770	798	770	798	770	797	770	798	770	798	770	-	770	798	-	-	-	-	-	-	-	-	770	798	770	798	770	798	770	798	770	798	770	798	770	-	770	798	770	798	770	798	770	798	770	798	770	798	770	798	770	798	770	798	770	-	770	798	770	-	770	798	770	798	770	-	-	-	-	-	-	-	-	-	-	-	-	-
1	6_80005844_80042199_1	ENSE00000759371	798	830	798	-	798	830	798	-	798	-	798	-	798	-	798	-	-	-	798	-	-	-	798	-	798	-	798	-	-	-	-	-	-	-	798	-	-	-	798	-	798	-	798	-	798	-	798	-	798	-	798	-	798	-	798	-	798	-	798	-	798	-	-	-	798	-	798	-	798	-	798	-	798	-	798	-	798	-	797	-	798	-	798	-	-	-	798	-	-	-	-	-	-	-	-	-	798	830	798	830	798	-	798	-	798	-	798	-	-	-	798	-	798	-	798	-	798	-	798	-	798	-	798	-	798	-	798	-	-	-	798	-	-	-	798	-	798	-	-	-	-	-	-	-	-	-	-	-	-	-	-	-
1	6_80005844_80042199_1	ENSE00002035648	831	857	-	-	831	857	-	-	-	-	-	-	-	-	-	-	-	-	-	-	-	-	-	-	-	-	-	-	-	-	-	-	-	-	-	-	-	-	-	-	-	-	-	-	-	-	-	-	-	-	-	-	-	-	-	-	-	-	-	-	-	-	-	-	-	-	-	-	-	-	-	-	-	-	-	-	-	-	-	-	-	-	-	-	-	-	-	-	-	-	-	-	-	-	-	-	831	857	831	857	-	-	-	-	-	-	-	-	-	-	-	-	-	-	-	-	-	-	-	-	-	-	-	-	-	-	-	-	-	-	-	-	-	-	-	-	-	-	-	-	-	-	-	-	-	-	-	-	-	-	-	-
